<svg xmlns="http://www.w3.org/2000/svg" width="22" height="22" version="1.1">
 <defs>
  <style id="current-color-scheme" type="text/css">
   .ColorScheme-Text { color: #2b68d1; } .ColorScheme-Highlight { color: #1AD6AB; }
  </style>
  <linearGradient id="arrongin" x1="0%" x2="0%" y1="0%" y2="100%">
   <stop offset="0%" style="stop-color:#dd9b44"/>
   <stop offset="100%" style="stop-color:#ad6c16"/>
  </linearGradient>
  <linearGradient id="aurora" x1="0%" x2="0%" y1="0%" y2="100%">
   <stop offset="0%" style="stop-color:#09D4DF"/>
   <stop offset="100%" style="stop-color:#9269F4"/>
  </linearGradient>
  <linearGradient id="cyberneon" x1="0%" x2="0%" y1="0%" y2="100%">
   <stop offset="0" style="stop-color:#0abdc6"/>
   <stop offset="1" style="stop-color:#ea00d9"/>
  </linearGradient>
  <linearGradient id="fitdance" x1="0%" x2="0%" y1="0%" y2="100%">
   <stop offset="0%" style="stop-color:#1AD6AB"/>
   <stop offset="100%" style="stop-color:#329DB6"/>
  </linearGradient>
  <linearGradient id="oomox" x1="0%" x2="0%" y1="0%" y2="100%">
   <stop offset="0%" style="stop-color:#efefe7"/>
   <stop offset="100%" style="stop-color:#8f8f8b"/>
  </linearGradient>
  <linearGradient id="rainblue" x1="0%" x2="0%" y1="0%" y2="100%">
   <stop offset="0%" style="stop-color:#00F260"/>
   <stop offset="100%" style="stop-color:#0575E6"/>
  </linearGradient>
  <linearGradient id="sunrise" x1="0%" x2="0%" y1="0%" y2="100%">
   <stop offset="0%" style="stop-color:#FF8501"/>
   <stop offset="100%" style="stop-color:#FFCB01"/>
  </linearGradient>
  <linearGradient id="telinkrin" x1="0%" x2="0%" y1="0%" y2="100%">
   <stop offset="0%" style="stop-color:#b2ced6"/>
   <stop offset="100%" style="stop-color:#6da5b7"/>
  </linearGradient>
  <linearGradient id="60spsycho" x1="0%" x2="0%" y1="0%" y2="100%">
   <stop offset="0%" style="stop-color:#df5940"/>
   <stop offset="25%" style="stop-color:#d8d15f"/>
   <stop offset="50%" style="stop-color:#e9882a"/>
   <stop offset="100%" style="stop-color:#279362"/>
  </linearGradient>
  <linearGradient id="90ssummer" x1="0%" x2="0%" y1="0%" y2="100%">
   <stop offset="0%" style="stop-color:#f618c7"/>
   <stop offset="20%" style="stop-color:#94ffab"/>
   <stop offset="50%" style="stop-color:#fbfd54"/>
   <stop offset="100%" style="stop-color:#0f83ae"/>
  </linearGradient>
 </defs>
 <g transform="translate(3,-1030.4)">
  <path fill="currentColor" class="ColorScheme-Text" d="m1 3c-0.554 0-1 0.446-1 1v14c0 0.554 0.446 1 1 1h14c0.554 0 1-0.446 1-1v-14c0-0.554-0.446-1-1-1h-14zm0.5 1a0.5 0.5 0 0 1 0.5 0.5 0.5 0.5 0 0 1 -0.5 0.5 0.5 0.5 0 0 1 -0.5 -0.5 0.5 0.5 0 0 1 0.5 -0.5zm6.5 0a7 7 0 0 1 7 7 7 7 0 0 1 -7 7 7 7 0 0 1 -7 -7 7 7 0 0 1 7 -7zm6.5 0a0.5 0.5 0 0 1 0.5 0.5 0.5 0.5 0 0 1 -0.5 0.5 0.5 0.5 0 0 1 -0.5 -0.5 0.5 0.5 0 0 1 0.5 -0.5zm-13 13a0.5 0.5 0 0 1 0.5 0.5 0.5 0.5 0 0 1 -0.5 0.5 0.5 0.5 0 0 1 -0.5 -0.5 0.5 0.5 0 0 1 0.5 -0.5zm13 0a0.5 0.5 0 0 1 0.5 0.5 0.5 0.5 0 0 1 -0.5 0.5 0.5 0.5 0 0 1 -0.5 -0.5 0.5 0.5 0 0 1 0.5 -0.5z" transform="translate(0,1030.4)"/>
  <circle fill="currentColor" class="ColorScheme-Text" cx="8" cy="1041.4" r="2"/>
  <path fill="currentColor" class="ColorScheme-Text" d="m9.002 5.1016c-0.5531-0.0011-1.0019 0.4469-1.002 1v1.8984a3 3 0 0 1 2.3438 1.1289c0.789-0.1705 1.455-0.3276 2.129-0.4863 0.894-0.2108 0.533-0.9895 0.175-1.4297-0.873-1.0736-2.091-1.8135-3.4468-2.0918-0.0656-0.0132-0.1324-0.0197-0.1992-0.0196z" transform="translate(0,1030.4)"/>
  <path fill="currentColor" class="ColorScheme-Text" d="m13.897 1042.4c0.001-0.5531-0.44698-1.0019-1-1.002h-1.8984a3 3 0 0 1 -1.1289 2.3438c0.17048 0.7895 0.32757 1.4554 0.48633 2.1289 0.21082 0.8942 0.98945 0.533 1.4297 0.1758 1.0736-0.8736 1.8135-2.0915 2.0918-3.4473 0.01316-0.066 0.0197-0.1323 0.01953-0.1992z"/>
  <path fill="currentColor" class="ColorScheme-Text" d="m6.9969 1047.3c0.5531 0.001 1.0019-0.447 1.002-1v-1.8985a3 3 0 0 1 -2.3438 -1.1289c-0.7895 0.1705-1.4554 0.3276-2.1289 0.4863-0.8942 0.2109-0.533 0.9895-0.1758 1.4297 0.8736 1.0736 2.0915 1.8135 3.4473 2.0918 0.066 0.013 0.1323 0.02 0.1992 0.02z"/>
  <path fill="currentColor" class="ColorScheme-Text" d="m2.1018 1040.4c-0.001 0.5531 0.447 1.0019 1 1.002h1.8985a3 3 0 0 1 1.1289 -2.3438c-0.1705-0.7895-0.3276-1.4554-0.4863-2.1289-0.2109-0.8942-0.9895-0.533-1.4297-0.1758-1.0736 0.8736-1.8135 2.0915-2.0918 3.4473-0.013 0.066-0.02 0.1323-0.02 0.1992z"/>
 </g>
</svg>
