<svg xmlns="http://www.w3.org/2000/svg" width="16" height="16" version="1.1">
 <defs>
   <style id="current-color-scheme" type="text/css">
   .ColorScheme-Text { color: #2b68d1; } .ColorScheme-Highlight { color: #1AD6AB; }
  </style>
  <linearGradient id="arrongin" x1="0%" x2="0%" y1="0%" y2="100%">
   <stop offset="0%"    stop-color= "#dd9b44" stop-opacity="1"/>
   <stop offset="100%"  stop-color= "#ad6c16" stop-opacity="1"/>
  </linearGradient>
  <linearGradient id="aurora" x1="0%" x2="0%" y1="0%" y2="100%">
   <stop offset="0%"    stop-color= "#09D4DF" stop-opacity="1"/>
   <stop offset="100%"  stop-color= "#9269F4" stop-opacity="1"/>
  </linearGradient> 
  <linearGradient id="cyberblue" x1="0%" x2="0%" y1="0%" y2="100%">
   <stop offset="0%"    stop-color= "#07B3FF" stop-opacity="1"/>
   <stop offset="100%"  stop-color= "#007DE8" stop-opacity="1"/>
  </linearGradient>
  <linearGradient id="cyberneon" x1="0%" x2="0%" y1="0%" y2="100%">
    <stop offset="0%"   stop-color= "#0abdc6" stop-opacity="1"/>
    <stop offset="100%" stop-color= "#ea00d9" stop-opacity="1"/>
  </linearGradient>
  <linearGradient id="fitdance" x1="0%" x2="0%" y1="0%" y2="100%">
   <stop offset="0%"    stop-color= "#1AD6AB" stop-opacity="1"/>
   <stop offset="100%"  stop-color= "#329DB6" stop-opacity="1"/>
  </linearGradient>
  <linearGradient id="oomox" x1="0%" x2="0%" y1="0%" y2="100%">
   <stop offset="0%"    stop-color= "#efefe7" stop-opacity="1"/>
   <stop offset="100%"  stop-color= "#8f8f8b" stop-opacity="1"/>
  </linearGradient>
  <linearGradient id="rainblue" x1="0%" x2="0%" y1="0%" y2="100%">
   <stop offset="0%"    stop-color= "#00F260" stop-opacity="1"/>
   <stop offset="100%"  stop-color= "#0575E6" stop-opacity="1"/>
  </linearGradient>
  <linearGradient id="redcarbon" x1="0%" x2="0%" y1="0%" y2="100%">
   <stop offset="0%"    stop-color= "#FF6D57" stop-opacity="1"/>
   <stop offset="50%"   stop-color= "#FF5160" stop-opacity="1"/>
   <stop offset="100%"  stop-color= "#F50F22" stop-opacity="1"/>
  </linearGradient>
  <linearGradient id="sunrise" x1="0%" x2="0%" y1="0%" y2="100%">
   <stop offset="0%"    stop-color= "#FF8501" stop-opacity="1"/>
   <stop offset="100%"  stop-color= "#FFCB01" stop-opacity="1"/>
  </linearGradient>
  <linearGradient id="telinkrin" x1="0%" x2="0%" y1="0%" y2="100%">
   <stop offset="0%"    stop-color= "#b2ced6" stop-opacity="1"/>
   <stop offset="100%"  stop-color= "#6da5b7" stop-opacity="1"/>
  </linearGradient>
  <linearGradient id="60spsycho" x1="0%" x2="0%" y1="0%" y2="100%">
   <stop offset="0%"    stop-color= "#df5940" stop-opacity="1"/>
   <stop offset="25%"   stop-color= "#d8d15f" stop-opacity="1"/>
   <stop offset="50%"   stop-color= "#e9882a" stop-opacity="1"/>
   <stop offset="100%"  stop-color= "#279362" stop-opacity="1"/>
  </linearGradient>
  <linearGradient id="90ssummer" x1="0%" x2="0%" y1="0%" y2="100%">
   <stop offset="0%"    stop-color= "#f618c7" stop-opacity="1"/>
   <stop offset="20%"   stop-color= "#94ffab" stop-opacity="1"/>
   <stop offset="50%"   stop-color= "#fbfd54" stop-opacity="1"/>
   <stop offset="100%"  stop-color= "#0f83ae" stop-opacity="1"/>
  </linearGradient>
 </defs>
 <path fill="currentColor" class="ColorScheme-Text" d="M 8 1.0039062 A 6.999825 6.999825 0 0 0 1 8.0039062 A 6.999825 6.999825 0 0 0 8 15.003906 A 6.999825 6.999825 0 0 0 15 8.0039062 A 6.999825 6.999825 0 0 0 8 1.0039062 z M 8 3.0039062 C 8.1725957 3.0039062 8.3319042 3.0179567 8.5 3.0351562 C 8.5125997 3.0375562 8.5258628 3.0358562 8.5390625 3.0351562 A 4.999875 4.999875 0 0 1 8.8457031 3.0820312 C 8.9618002 3.1044307 9.0704029 3.131157 9.1875 3.1601562 C 9.4440936 3.2231547 9.698206 3.3089588 9.9375 3.4101562 C 10.068997 3.4656549 10.187503 3.5310579 10.3125 3.5976562 C 10.3125 3.606656 10.3135 3.6177065 10.3125 3.6289062 C 10.341499 3.6417059 10.357251 3.6956569 10.40625 3.7226562 C 10.42425 3.732356 10.4205 3.7468596 10.4375 3.7558594 C 10.465499 3.771559 10.506 3.787907 10.5 3.8164062 C 10.492 3.8561053 10.434249 3.848207 10.40625 3.8789062 C 10.41025 3.9366048 10.35875 3.9336572 10.34375 3.9726562 C 10.35275 3.9973556 10.40225 4.005257 10.40625 4.0351562 C 10.40125 4.0674554 10.33175 4.0646571 10.34375 4.0976562 C 10.397749 4.1395552 10.449001 4.107356 10.5 4.0976562 C 10.611997 4.0833566 10.712252 4.0899549 10.78125 4.0351562 C 10.77225 3.9819576 10.881 3.989405 10.875 3.9414062 C 10.903999 3.9624057 10.939751 3.9829068 10.96875 4.0039062 C 10.95775 4.014406 10.9495 4.0291564 10.9375 4.0351562 C 10.915501 4.044956 10.894 4.0544065 10.875 4.0664062 C 10.847001 4.0844058 10.813249 4.1079068 10.78125 4.1289062 C 10.758251 4.1447059 10.711499 4.2226562 10.6875 4.2226562 C 10.658501 4.2226562 10.614749 4.1854064 10.59375 4.1914062 C 10.563751 4.201106 10.565249 4.2419066 10.53125 4.2539062 C 10.465252 4.2779057 10.335499 4.2174087 10.3125 4.3164062 C 10.340499 4.3734048 10.450001 4.347407 10.5 4.3789062 C 10.530999 4.3991057 10.58575 4.4699071 10.59375 4.5039062 C 10.60175 4.5316056 10.60575 4.661407 10.59375 4.6914062 C 10.562751 4.7714042 10.466998 4.7554062 10.375 4.7539062 L 10.3125 4.7539062 C 10.158504 4.7441065 10.006998 4.673959 9.9375 4.7851562 C 9.9423999 4.8701541 9.9564995 4.9299081 9.9375 5.0039062 C 9.9235003 5.0579049 9.8407501 5.1136574 9.84375 5.1601562 C 9.84485 5.1841557 9.9003501 5.2202071 9.90625 5.2539062 C 9.9101499 5.2719058 9.8982502 5.2999067 9.90625 5.3164062 C 9.9323493 5.365105 9.9855511 5.3067065 10.03125 5.3164062 C 10.075249 5.326106 10.125 5.3902544 10.125 5.4394531 C 10.125 5.4747522 10.115749 5.530554 10.09375 5.5644531 C 10.049751 5.6304515 9.9692484 5.622204 9.90625 5.6582031 C 9.8543513 5.6882024 9.8434992 5.7628544 9.8125 5.8144531 C 9.7795008 5.8707517 9.7370003 5.8925583 9.75 5.9726562 C 9.7050011 6.061554 9.6554977 6.1171573 9.5625 6.1601562 C 9.5355007 6.1721559 9.4936494 6.1734067 9.46875 6.1914062 C 9.4486505 6.2057059 9.4343493 6.2529571 9.40625 6.2851562 C 9.3713509 6.3241553 9.3314995 6.348907 9.3125 6.3789062 C 9.2985004 6.4021057 9.2962496 6.4403571 9.28125 6.4726562 C 9.2593505 6.5145552 9.2154993 6.5244073 9.1875 6.5664062 C 9.1745003 6.5866057 9.1702496 6.6339569 9.15625 6.6601562 C 9.1242508 6.7179548 9.0877501 6.7654075 9.09375 6.8164062 C 9.0986499 6.8644051 9.1533501 6.8659574 9.15625 6.9101562 C 9.1590499 6.9341557 9.124 6.9456569 9.125 6.9726562 C 9.1261 7.0108553 9.1533501 7.036407 9.15625 7.0664062 C 9.1632498 7.1406044 9.1076497 7.1720575 9.09375 7.2226562 C 9.0867502 7.2465557 9.0997499 7.2637036 9.09375 7.2832031 C 9.0817503 7.3199022 9.03225 7.3640042 9.03125 7.4082031 C 9.03015 7.4389024 9.0907501 7.4577542 9.09375 7.5019531 C 9.0958499 7.5312524 9.0565001 7.5679038 9.0625 7.5957031 C 9.0734997 7.6497018 9.1767511 7.7099542 9.21875 7.7519531 C 9.2757486 7.8089517 9.3500006 7.8482046 9.375 7.9082031 C 9.3959995 7.9592019 9.398501 8.0576041 9.4375 8.0957031 C 9.4664993 8.1234024 9.5255009 8.1282039 9.5625 8.1582031 C 9.5974991 8.1852025 9.6193509 8.1907039 9.65625 8.2207031 C 9.7172485 8.2687019 9.8093524 8.383953 9.90625 8.3769531 C 9.9572487 8.3672534 10.006501 8.3242529 10.0625 8.3144531 C 10.122498 8.3047534 10.190002 8.2787032 10.25 8.2832031 C 10.295999 8.2929029 10.358251 8.3174531 10.40625 8.3144531 C 10.456249 8.3047534 10.506501 8.3072025 10.5625 8.2832031 C 10.662497 8.2404042 10.824754 8.1687536 10.96875 8.1894531 C 11.078747 8.2052527 11.079252 8.3280543 11.15625 8.3769531 C 11.244248 8.3867529 11.305002 8.3597536 11.375 8.3769531 C 11.427999 8.3897528 11.495 8.4603542 11.5 8.5019531 C 11.505 8.5447521 11.4425 8.5998538 11.4375 8.6269531 C 11.4235 8.6847517 11.4465 8.7461041 11.4375 8.7832031 C 11.4285 8.8124024 11.40525 8.8477539 11.40625 8.8769531 C 11.40625 8.9032525 11.441751 8.967754 11.46875 9.0019531 C 11.501749 9.0439521 11.553751 9.0817543 11.59375 9.1269531 C 11.666748 9.210951 11.699001 9.2972059 11.75 9.4082031 C 11.763 9.4359024 11.738 9.465954 11.75 9.5019531 C 11.728001 9.6699489 11.672497 9.7848078 11.5625 9.9707031 C 11.511501 10.030902 11.4355 10.083205 11.4375 10.158203 C 11.4335 10.338199 11.53925 10.452957 11.53125 10.626953 C 11.51325 10.860947 11.54925 10.876956 11.53125 11.001953 C 11.610248 11.041952 11.554249 11.168955 11.53125 11.251953 C 11.497251 11.350951 11.4555 11.375408 11.4375 11.441406 C 11.490499 11.464406 11.566001 11.454406 11.625 11.441406 A 4.999875 4.999875 0 0 1 11.615234 11.449219 C 11.588235 11.478218 11.559249 11.506204 11.53125 11.533203 C 11.317255 11.748198 11.071306 11.951004 10.820312 12.125 A 4.999875 4.999875 0 0 1 10.751953 12.173828 C 10.554958 12.304825 10.345807 12.416487 10.132812 12.521484 A 4.999875 4.999875 0 0 1 9.8203125 12.660156 A 4.999875 4.999875 0 0 1 9.8125 12.664062 C 9.6466041 12.731061 9.4737238 12.784032 9.2988281 12.832031 A 4.999875 4.999875 0 0 1 8.3730469 12.990234 C 8.24945 12.996234 8.1265968 13.001953 8 13.001953 C 7.8156046 13.001953 7.6338737 12.990703 7.4550781 12.970703 A 4.999875 4.999875 0 0 1 6.875 12.871094 C 6.6387059 12.808095 6.4112944 12.714951 6.1875 12.626953 C 6.1781002 12.609954 6.1541501 12.586406 6.15625 12.566406 C 6.2082487 12.544407 6.305751 12.640404 6.34375 12.566406 C 6.3627495 12.530407 6.3186506 12.443202 6.34375 12.408203 C 6.3616496 12.384204 6.4630009 12.384953 6.5 12.376953 C 6.5529987 12.366953 6.6263507 12.359703 6.65625 12.345703 C 6.6892492 12.324704 6.7247499 12.252405 6.71875 12.191406 C 6.7159501 12.161407 6.6792494 12.152952 6.65625 12.126953 C 6.6373505 12.104954 6.6692497 12.087406 6.65625 12.066406 C 6.6323506 12.030407 6.5724998 12.021702 6.5625 11.970703 C 6.6344982 11.956703 6.7397526 12.030952 6.84375 12.001953 C 6.8927488 11.987953 6.9770006 11.891702 7 11.845703 C 7.0069998 11.831703 6.9920002 11.803156 7 11.785156 C 7.0089998 11.767157 7.0282501 11.731656 7.03125 11.722656 C 7.0382498 11.695657 7.0252501 11.711359 7.03125 11.693359 C 7.0492495 11.641361 7.0950007 11.602405 7.125 11.566406 C 7.1479994 11.538407 7.1976505 11.499702 7.21875 11.470703 C 7.2426494 11.439704 7.2340004 11.438156 7.25 11.410156 C 7.2649996 11.319159 7.1967505 11.240154 7.21875 11.160156 C 7.2426494 11.070159 7.3817522 11.013655 7.46875 10.972656 C 7.4986493 10.957657 7.5375006 10.950406 7.5625 10.941406 C 7.6224985 10.920407 7.6940014 10.897906 7.75 10.878906 C 7.8439977 10.844907 7.8602511 10.778357 7.90625 10.693359 C 7.9282495 10.65336 7.9646501 10.596405 7.96875 10.566406 C 7.9725499 10.540407 7.9637501 10.534905 7.96875 10.503906 C 7.9736499 10.474907 7.9607502 10.444155 7.96875 10.410156 C 7.9797497 10.368157 8 10.270655 8 10.222656 C 8 10.182657 7.96965 10.164905 7.96875 10.128906 C 7.9617502 9.9989095 8.0145012 10.012904 8.0625 9.9414062 C 8.0864994 9.9062071 8.1081004 9.8414056 8.125 9.8164062 C 8.205998 9.6964093 8.3536498 9.6546517 8.34375 9.4726562 C 8.3398501 9.4126577 8.2939989 9.2729058 8.25 9.2539062 C 8.2250006 9.2427065 8.1932491 9.2360559 8.15625 9.2226562 C 8.0383529 9.1783574 7.9354969 9.045156 7.8125 9.0351562 L 7.75 9.0351562 C 7.7020012 9.0351562 7.6476487 9.0114061 7.59375 9.0039062 C 7.5597509 8.9941065 7.4886495 9.013706 7.46875 9.0039062 C 7.4376508 8.9889066 7.4312494 8.9272558 7.40625 8.9101562 C 7.3862505 8.8959566 7.3434992 8.8882528 7.3125 8.8769531 C 7.2635012 8.8589536 7.2444986 8.8201062 7.1875 8.8164062 C 7.1695005 8.8164062 7.1449995 8.826106 7.125 8.8164062 C 7.0940008 8.8067065 7.0602493 8.8012027 7.03125 8.7832031 C 6.9953509 8.7614037 6.9524996 8.7533555 6.9375 8.7226562 C 6.9704992 8.6147589 6.8656495 8.5981547 6.84375 8.5351562 C 6.8336503 8.505957 6.8537497 8.4361556 6.84375 8.4101562 C 6.8307503 8.3734572 6.790999 8.3471055 6.75 8.3164062 C 6.6780018 8.2602077 6.6342474 8.2354559 6.53125 8.2226562 C 6.4853511 8.2128565 6.4299986 8.232356 6.375 8.2226562 C 6.3170015 8.2128565 6.2314989 8.179105 6.1875 8.1289062 C 6.1455011 8.0802075 6.1306491 8.0270057 6.09375 8.0039062 C 6.0587509 7.9822068 6.0239994 7.9639057 6 7.9414062 C 5.9890003 7.9317065 5.9787497 7.9334557 5.96875 7.9101562 C 5.9507505 7.8734572 5.9155005 7.8614051 5.9375 7.8164062 C 5.897501 7.7962068 5.9179989 7.8543561 5.875 7.8476562 C 5.836001 7.7928576 5.8066478 7.7379066 5.71875 7.7539062 C 5.678751 7.763706 5.6406488 7.8465563 5.59375 7.8476562 C 5.554751 7.8476562 5.5196487 7.7619061 5.46875 7.7539062 C 5.429751 7.7441065 5.3706493 7.7897561 5.34375 7.7851562 C 5.3006511 7.7754565 5.288999 7.7480556 5.25 7.7226562 C 5.2210007 7.7038567 5.1722496 7.6587563 5.15625 7.6601562 C 5.1063512 7.6601562 5.0689983 7.7591553 5 7.7226562 C 4.9660009 7.6798573 5.071349 7.6686053 5.03125 7.6289062 C 5.0013507 7.599707 4.9927494 7.6459566 4.96875 7.6601562 C 4.9407507 7.6781558 4.9059992 7.6801065 4.875 7.6914062 C 4.8060017 7.7176056 4.7414986 7.725407 4.6875 7.7539062 C 4.6375012 7.7801056 4.6226493 7.7966575 4.59375 7.8476562 C 4.5707506 7.8895552 4.5349991 7.9706563 4.5 7.9726562 C 4.4580011 7.9726562 4.444249 7.9267558 4.40625 7.9101562 C 4.2913529 7.8599575 4.2199976 7.9391063 4.125 7.9414062 C 4.0370022 7.9414062 3.9023501 7.8056542 3.90625 7.7226562 C 3.9090499 7.6716575 3.9315002 7.5981547 3.9375 7.5351562 C 3.9423999 7.4849575 3.9991 7.4245051 4 7.3789062 C 4.0011 7.3167078 3.883649 7.2922561 3.84375 7.2851562 C 3.7497524 7.2679567 3.6382473 7.3271552 3.53125 7.2851562 C 3.5112505 7.2514571 3.5505003 7.2251054 3.5625 7.1914062 C 3.5694998 7.1734067 3.5555002 7.1499057 3.5625 7.1289062 C 3.5744997 7.0967071 3.6413504 7.0689554 3.65625 7.0351562 C 3.6673497 7.0089569 3.6452503 6.9744054 3.65625 6.9414062 C 3.6692497 6.9054072 3.7156501 6.8738556 3.71875 6.8476562 C 3.7225499 6.8138571 3.6832493 6.7756057 3.65625 6.7539062 C 3.5733521 6.763706 3.5166488 6.76311 3.46875 6.7871094 C 3.3607527 6.8359082 3.3902473 6.9717602 3.28125 7.0058594 C 3.2442509 7.0178591 3.1982489 7.0296096 3.15625 7.0371094 C 3.1385504 7.0465091 3.1158026 7.0377094 3.0957031 7.0371094 A 4.999875 4.999875 0 0 1 3.1074219 6.9785156 C 3.1148217 6.9673159 3.1222001 6.9559591 3.125 6.9433594 C 3.1962982 6.6183675 3.3064033 6.3037519 3.4375 6.0058594 L 3.46875 6.0058594 C 3.506749 6.0155591 3.5295008 6.0653595 3.5625 6.0683594 C 3.6544977 6.0780591 3.6740019 5.9835584 3.75 5.9433594 C 3.827998 5.9545591 3.8665018 5.9335596 3.9375 5.9433594 C 3.9854988 5.9530591 4.0557509 6.0001063 4.09375 6.0039062 C 4.1257492 6.0039062 4.1262508 5.9688563 4.15625 5.9726562 C 4.1862493 5.982356 4.2450001 6.0304071 4.25 6.0664062 C 4.2549999 6.1114051 4.2056503 6.1730575 4.21875 6.2226562 C 4.2657488 6.2705551 4.3705017 6.2887069 4.4375 6.3164062 C 4.4814989 6.2797072 4.4444998 6.2121549 4.4375 6.1601562 C 4.4364 6.1369568 4.4402999 6.0874057 4.4375 6.0664062 C 4.4326001 6.0304072 4.40625 6.0033555 4.40625 5.9726562 C 4.40625 5.8295598 4.5290024 5.7785549 4.625 5.7226562 C 4.665999 5.6986568 4.7140009 5.6469058 4.75 5.6289062 C 4.8009987 5.6042069 4.8330011 5.6215557 4.875 5.5976562 C 4.9509981 5.5548573 5.0035015 5.490105 5.0625 5.4414062 C 5.0894993 5.3762079 5.0597001 5.2865547 5.0625 5.2226562 C 5.0894993 5.2053567 5.1273507 5.2226562 5.15625 5.2226562 C 5.2022489 5.2128565 5.2240007 5.1551056 5.25 5.1289062 C 5.2649996 5.1139066 5.2945005 5.1126559 5.3125 5.0976562 C 5.3584989 5.0616572 5.366251 5.0199059 5.40625 5.0039062 C 5.4203496 4.9941065 5.4466506 4.9800561 5.46875 4.9726562 C 5.4987493 4.9628565 5.5457512 4.9594058 5.59375 4.9414062 C 5.6247492 4.9301065 5.7066503 4.9237559 5.71875 4.9101562 C 5.7337496 4.8951566 5.7148501 4.8396057 5.71875 4.8164062 C 5.7426494 4.7035091 5.8990025 4.6982553 6 4.6601562 C 6.0699983 4.6339569 6.1407519 4.5525066 6.21875 4.5664062 C 6.2036504 4.6204049 6.1432503 4.6264079 6.15625 4.6914062 C 6.1732496 4.782404 6.2805008 4.6717028 6.3125 4.6582031 C 6.3734985 4.6319038 6.482502 4.5944524 6.5625 4.5644531 C 6.6324983 4.5397537 6.7534983 4.5221042 6.6875 4.4414062 C 6.6325014 4.4317065 6.6104988 4.4824536 6.5625 4.5019531 C 6.5295008 4.5117529 6.5279993 4.4737031 6.5 4.4707031 C 6.4730007 4.4707031 6.4644993 4.506453 6.4375 4.5019531 C 6.4105007 4.4922534 6.3789999 4.4412023 6.375 4.4082031 C 6.3640003 4.3242052 6.4347509 4.3138516 6.46875 4.2519531 C 6.4457506 4.175955 6.3452484 4.2214055 6.28125 4.1914062 C 6.2882498 4.1464074 6.3220013 4.107656 6.375 4.0976562 C 6.4179989 4.0878565 6.5365007 4.1057068 6.5625 4.1289062 C 6.5774996 4.1417059 6.5396006 4.1704068 6.5625 4.1914062 C 6.5884994 4.2146057 6.6223508 4.201106 6.65625 4.1914062 C 6.6682497 4.1344077 6.5837502 4.1656053 6.59375 4.1289062 C 6.6616483 4.0847074 6.7920021 4.108856 6.875 4.0976562 C 6.9229988 4.0878565 6.9883511 4.0576557 7.03125 4.0351562 C 7.071249 4.0119568 7.0830011 3.9664072 7.125 4.0039062 C 7.1369997 4.0451052 7.1166494 4.0758568 7.09375 4.0976562 C 7.0167519 4.1658545 6.9349985 4.2375082 6.875 4.3164062 C 6.9119991 4.3524053 6.9693515 4.3400564 7.03125 4.3476562 C 7.0552494 4.357356 7.1000006 4.3400564 7.125 4.3476562 C 7.1549993 4.357356 7.1946506 4.3378565 7.21875 4.3476562 C 7.2607489 4.357356 7.2705011 4.4414062 7.3125 4.4414062 C 7.3804983 4.4414062 7.351499 4.3616051 7.3125 4.3164062 C 7.3244997 4.2692074 7.3607496 4.2246054 7.34375 4.1914062 C 7.3126508 4.1292078 7.1934998 4.2099042 7.1875 4.1289062 C 7.1837001 4.0787075 7.2320004 4.0734553 7.25 4.0351562 C 7.2420002 3.9392586 7.3224998 3.9345541 7.3125 3.8476562 C 7.3076001 3.8116572 7.2749994 3.8189554 7.25 3.7851562 C 7.2370003 3.7671567 7.2336496 3.7053059 7.21875 3.6914062 C 7.1667513 3.6472074 7.0684999 3.6815542 7.0625 3.5976562 C 7.0597001 3.5473575 7.0694998 3.4950049 7.0625 3.4414062 C 7.0555002 3.3904075 7.0126489 3.232556 6.96875 3.2226562 C 6.9127514 3.2106565 6.8794983 3.316357 6.8125 3.3476562 C 6.7765009 3.3648558 6.6932491 3.3849061 6.65625 3.3789062 C 6.6323506 3.3691065 6.5967499 3.3629051 6.59375 3.3164062 C 6.5897501 3.2737073 6.6406504 3.2548554 6.65625 3.2226562 C 6.6602499 3.2143565 6.65435 3.202706 6.65625 3.1914062 C 6.6809494 3.1845064 6.7057694 3.1774217 6.7304688 3.1699219 A 4.999875 4.999875 0 0 1 7.0546875 3.0976562 C 7.0679872 3.0990562 7.0811503 3.1007562 7.09375 3.0976562 C 7.2272467 3.0728569 7.3629034 3.0487559 7.5 3.0351562 C 7.6661958 3.0179567 7.8289043 3.0039063 8 3.0039062 z M 5.96875 3.4726562 C 5.9368508 3.6551517 5.7659949 3.7279561 5.5625 3.7226562 C 5.5165011 3.7668551 5.5562494 3.8492578 5.53125 3.9101562 C 5.5102505 3.961155 5.4259987 4.0079061 5.375 4.0039062 C 5.3380009 4.0039062 5.28125 3.9454554 5.28125 3.9101562 C 5.28125 3.8674573 5.3494991 3.865905 5.3125 3.8164062 C 5.3142 3.8067065 5.3333503 3.795756 5.34375 3.7851562 C 5.3639495 3.7724566 5.3859505 3.7667059 5.40625 3.7539062 C 5.5875455 3.642409 5.7731549 3.5606541 5.96875 3.4726562 z M 10.15625 3.6601562 C 10.13825 3.669956 10.141 3.6809065 10.125 3.6914062 C 10.087001 3.7146057 10.060249 3.7434065 10.03125 3.7539062 C 9.990551 3.7689059 9.9434998 3.7797072 9.9375 3.8164062 C 9.9326001 3.8471055 9.96975 3.850407 9.96875 3.8789062 C 9.9536504 3.9156053 9.9454998 3.9276574 9.9375 3.9726562 C 9.9884987 4.0555542 10.093252 3.9549059 10.15625 3.9414062 C 10.184249 3.9317065 10.20375 3.9322025 10.21875 3.9082031 C 10.23575 3.8812038 10.237 3.8527522 10.25 3.8144531 C 10.264 3.7724542 10.3185 3.7574022 10.3125 3.7207031 C 10.3095 3.683904 10.218248 3.6549564 10.15625 3.6601562 z M 4.6875 4.2851562 C 4.7348988 4.3234553 4.8015479 4.4057071 4.71875 4.4414062 C 4.7086503 4.451106 4.5864994 4.4763562 4.5625 4.4726562 C 4.5528002 4.4726562 4.5397498 4.4489061 4.53125 4.4414062 C 4.5829487 4.3912075 4.6337013 4.333255 4.6875 4.2851562 z M 4.875 4.4726562 C 4.8989994 4.4726562 4.9095007 4.5337563 4.9375 4.5351562 C 4.9644993 4.5351562 4.9840004 4.5001063 5 4.5039062 C 5.0419989 4.515106 5.071349 4.597707 5.03125 4.6289062 C 4.9982508 4.638706 4.9926494 4.5938563 4.96875 4.5976562 C 4.9007517 4.6096559 4.8634987 4.7579061 4.8125 4.7539062 C 4.7645012 4.7441065 4.7322512 4.6326554 4.78125 4.5976562 C 4.78245 4.567657 4.77925 4.5659555 4.78125 4.5351562 C 4.7963496 4.5171567 4.835001 4.4696563 4.875 4.4726562 z M 4.625 4.5039062 C 4.6389997 4.5039062 4.6512501 4.4941065 4.65625 4.5039062 C 4.6493502 4.5571049 4.634649 4.5728569 4.59375 4.5976562 C 4.5227518 4.6403552 4.4604994 4.6937585 4.4375 4.7851562 C 4.4305002 4.8121556 4.3464991 4.8856061 4.3125 4.8789062 C 4.233502 4.8617067 4.3570005 4.7143057 4.375 4.6914062 C 4.3949995 4.6667069 4.4145006 4.6574055 4.4375 4.6289062 C 4.4604994 4.6012069 4.4781005 4.5511559 4.5 4.5351562 C 4.5239994 4.5179567 4.583001 4.5024063 4.625 4.5039062 z M 11.40625 4.6601562 C 11.485248 4.6504565 11.527501 4.7375574 11.5625 4.7851562 C 11.592499 4.8241553 11.669751 4.8829569 11.71875 4.9101562 C 11.746749 4.9251559 11.782501 4.9590566 11.8125 4.9726562 C 11.877498 5.0018555 11.997 5.0962578 12 5.1601562 C 12.001 5.1924554 11.96375 5.223907 11.96875 5.2539062 C 12.017749 5.263706 12.0625 5.178105 12.0625 5.1289062 C 12.154498 5.258903 12.233502 5.3966597 12.3125 5.5351562 C 12.350499 5.6004546 12.402501 5.6551579 12.4375 5.7226562 C 12.392501 5.7353559 12.382 5.7424573 12.375 5.7851562 C 12.365 5.8414548 12.396498 5.9315065 12.3125 5.9414062 C 12.260501 5.951106 12.197998 5.8954058 12.125 5.8789062 C 12.095001 5.8691065 12.055249 5.888706 12.03125 5.8789062 C 11.976251 5.8609067 11.984499 5.7872054 11.9375 5.7539062 C 11.909501 5.7351067 11.824249 5.6959061 11.78125 5.6914062 C 11.754251 5.6914062 11.746749 5.701106 11.71875 5.6914062 C 11.684751 5.6817065 11.621749 5.7057059 11.59375 5.6914062 C 11.566751 5.6741067 11.507 5.6208557 11.5 5.5976562 C 11.489 5.5608572 11.59175 5.5354055 11.59375 5.5039062 C 11.59575 5.4799068 11.5685 5.4469553 11.5625 5.4101562 C 11.5595 5.3884568 11.5675 5.3626559 11.5625 5.3476562 C 11.5565 5.3213569 11.509749 5.3179062 11.46875 5.3164062 L 11.375 5.3164062 C 11.331001 5.3164062 11.241499 5.3089064 11.1875 5.3164062 L 11.09375 5.3164062 C 11.006752 5.326106 10.942998 5.3067065 10.875 5.3164062 C 10.826001 5.3164062 10.732499 5.3579068 10.6875 5.3789062 C 10.664501 5.390106 10.654999 5.3951566 10.625 5.4101562 C 10.611 5.419956 10.5815 5.4331065 10.5625 5.4414062 C 10.535501 5.4541059 10.495749 5.4964064 10.46875 5.5039062 C 10.429751 5.513706 10.383498 5.4941065 10.3125 5.5039062 C 10.262501 5.5039062 10.1885 5.4709547 10.1875 5.4101562 C 10.1855 5.3172586 10.349502 5.3640558 10.4375 5.3476562 C 10.469499 5.3378565 10.491251 5.3091557 10.53125 5.2851562 C 10.55025 5.2739565 10.5455 5.265906 10.5625 5.2539062 C 10.592499 5.2329068 10.65125 5.1841556 10.65625 5.1601562 C 10.66025 5.1384568 10.65325 5.1140558 10.65625 5.0976562 C 10.66025 5.0766568 10.691751 5.0629556 10.71875 5.0351562 C 10.760749 4.9932573 10.791751 4.9373556 10.84375 4.9101562 C 10.878749 4.8921567 10.9215 4.8781087 10.9375 4.8496094 C 10.9405 4.8174102 10.9355 4.8171086 10.9375 4.7871094 C 10.958499 4.7669099 10.982 4.7603593 11 4.7558594 C 11.053999 4.7438597 11.093252 4.7558594 11.15625 4.7558594 C 11.183249 4.7558594 11.221001 4.7685591 11.25 4.7558594 C 11.273999 4.7400598 11.288501 4.7053591 11.3125 4.6933594 C 11.339499 4.6790597 11.374251 4.6644093 11.40625 4.6621094 L 11.40625 4.6601562 z M 11.96875 5.2539062 L 11.84375 5.2539062 C 11.799751 5.2539062 11.744749 5.2307068 11.71875 5.2539062 C 11.755749 5.3139047 11.823252 5.3326566 11.90625 5.3476562 C 11.936249 5.3258568 11.95475 5.2921053 11.96875 5.2539062 z M 5.125 4.6914062 L 5.21875 4.6914062 C 5.2437494 4.6914062 5.2713502 4.6817065 5.28125 4.6914062 C 5.2652504 4.7574046 5.1144987 4.7465557 5.0625 4.7226562 C 5.0652999 4.6978569 5.0930008 4.6959061 5.125 4.6914062 z M 4.90625 4.8164062 C 4.8626511 4.8479055 4.8192983 4.8884568 4.75 4.9101562 C 4.712001 4.9221559 4.6633498 4.9209052 4.65625 4.8789062 C 4.6482502 4.8272075 4.7160009 4.8528561 4.75 4.8476562 C 4.7939989 4.8378565 4.8553513 4.8187062 4.90625 4.8164062 z M 11.40625 4.8164062 C 11.373251 4.827706 11.357251 4.9001565 11.40625 4.9101562 C 11.429249 4.8959566 11.4435 4.8591052 11.4375 4.8164062 C 11.4245 4.8021066 11.41625 4.8067065 11.40625 4.8164062 z M 11.34375 4.9726562 C 11.34475 5.0288548 11.35475 5.0803075 11.34375 5.1289062 C 11.375749 5.1911047 11.45275 5.1395552 11.46875 5.0976562 C 11.48775 4.9935589 11.454249 4.9596566 11.40625 4.9726562 C 11.39025 4.982356 11.36075 4.9598566 11.34375 4.9726562 z M 3.0625 7.3164062 C 3.1188986 7.367405 3.1512517 7.4391571 3.21875 7.4726562 C 3.2437494 7.4853559 3.2805008 7.4957065 3.3125 7.5039062 C 3.3384993 7.513706 3.3500006 7.4957065 3.375 7.5039062 C 3.4279987 7.5219058 3.489351 7.5477067 3.53125 7.5664062 C 3.5952484 7.5941056 3.6636514 7.6905571 3.71875 7.7226562 C 3.7214499 7.7548554 3.7086503 7.7924068 3.71875 7.8164062 C 3.7447493 7.8516054 3.770501 7.8862568 3.8125 7.9101562 C 3.8634987 7.9379556 3.8895012 7.9814068 3.9375 8.0039062 C 3.9544996 8.013706 3.9740007 7.9941065 4 8.0039062 C 4.0659983 8.0241057 4.0993514 8.1144558 4.15625 8.0976562 C 4.1933491 8.0863565 4.1815002 8.0399053 4.1875 8.0039062 C 4.2124994 7.9769069 4.242251 7.9414063 4.28125 7.9414062 C 4.3432485 7.9414062 4.3520006 8.0370578 4.375 8.0976562 C 4.3879997 8.1313554 4.4285002 8.1554072 4.4375 8.1914062 C 4.4524996 8.2536047 4.4504997 8.4356572 4.4375 8.4726562 C 4.4215004 8.5183551 4.350499 8.5162075 4.3125 8.5664062 C 4.2945005 8.5904056 4.2952497 8.6431567 4.28125 8.6601562 C 4.2573506 8.6894555 4.2367495 8.6948569 4.21875 8.7226562 C 4.2086503 8.7376559 4.1964998 8.7642568 4.1875 8.7851562 C 4.1575007 8.8489547 4.1000006 8.8955582 4.125 8.9726562 C 4.1349997 9.0033555 4.1875 9.0297072 4.1875 9.0664062 C 4.1875 9.1106051 4.1007498 9.1433075 4.09375 9.1914062 C 4.0887501 9.2266054 4.1141003 9.2697074 4.125 9.3164062 C 4.1329998 9.3516054 4.1977505 9.3869568 4.21875 9.4101562 C 4.2536491 9.4491553 4.2805008 9.5169075 4.3125 9.5664062 C 4.3754984 9.6634038 4.4067515 9.7839086 4.46875 9.8789062 C 4.5017492 9.927605 4.5717505 9.9524075 4.59375 10.003906 C 4.6047497 10.029906 4.5836503 10.073657 4.59375 10.097656 C 4.6296491 10.178654 4.794002 10.277407 4.875 10.316406 C 4.9129991 10.335406 4.9650009 10.327657 5 10.347656 C 5.0529987 10.377655 5.1605007 10.456907 5.1875 10.503906 C 5.2114994 10.545905 5.2067503 10.655658 5.21875 10.722656 C 5.2337496 10.810654 5.2148501 10.877659 5.21875 10.972656 C 5.2214499 11.023655 5.25 11.045658 5.25 11.097656 C 5.25 11.115656 5.2511 11.17436 5.25 11.193359 C 5.2489 11.255358 5.2549999 11.315908 5.25 11.378906 C 5.2472001 11.412905 5.2478001 11.443657 5.25 11.472656 C 5.2527999 11.503655 5.27935 11.508157 5.28125 11.535156 C 5.2834499 11.564156 5.2470001 11.605907 5.25 11.628906 C 5.2569998 11.691905 5.3005003 11.727158 5.3125 11.785156 C 5.3224997 11.831155 5.3496499 11.948908 5.34375 12.003906 C 5.3398501 12.032906 5.3164999 12.064657 5.3125 12.097656 C 5.3097001 12.123656 5.3162999 12.136157 5.3125 12.160156 C 5.3102001 12.180156 5.3142 12.196891 5.3125 12.212891 A 4.999875 4.999875 0 0 1 5.1992188 12.146484 C 4.9405252 11.969489 4.6891445 11.756151 4.46875 11.535156 C 4.4381508 11.504157 4.4047993 11.474359 4.375 11.443359 C 4.1944045 11.252364 4.0240963 11.033401 3.875 10.816406 C 3.8615003 10.797407 3.8569497 10.773906 3.84375 10.753906 C 3.6706543 10.494913 3.5291469 10.231899 3.40625 9.9414062 C 3.3974502 9.9204068 3.3835998 9.8999057 3.375 9.8789062 C 3.2696026 9.6199127 3.1860985 9.3448993 3.125 9.0664062 C 3.1135003 9.0139076 3.1035498 8.9633549 3.09375 8.9101562 C 3.0689506 8.7767596 3.0452496 8.6409028 3.03125 8.5039062 C 3.0142504 8.3358105 3 8.1765019 3 8.0039062 C 3 7.7662122 3.0304008 7.5452005 3.0625 7.3164062 z M 5 7.8476562 C 5.0479988 7.8258568 5.038999 7.9034564 5 7.9101562 C 4.9630009 7.919956 4.9640009 7.8656558 5 7.8476562 z"/>
</svg>
