<svg xmlns="http://www.w3.org/2000/svg" width="22" height="22" version="1.1">
 <defs>
  <style id="current-color-scheme" type="text/css">
   .ColorScheme-Text { color: #1d4195; } .ColorScheme-Highlight { color: #1AD6AB; }
  </style>
  <linearGradient id="arrongin" x1="0%" x2="0%" y1="0%" y2="100%">
   <stop offset="0%" style="stop-color:#dd9b44"/>
   <stop offset="100%" style="stop-color:#ad6c16"/>
  </linearGradient>
  <linearGradient id="aurora" x1="0%" x2="0%" y1="0%" y2="100%">
   <stop offset="0%" style="stop-color:#09D4DF"/>
   <stop offset="100%" style="stop-color:#9269F4"/>
  </linearGradient>
  <linearGradient id="cyberneon" x1="0%" x2="0%" y1="0%" y2="100%">
   <stop offset="0" style="stop-color:#0abdc6"/>
   <stop offset="1" style="stop-color:#ea00d9"/>
  </linearGradient>
  <linearGradient id="fitdance" x1="0%" x2="0%" y1="0%" y2="100%">
   <stop offset="0%" style="stop-color:#1AD6AB"/>
   <stop offset="100%" style="stop-color:#329DB6"/>
  </linearGradient>
  <linearGradient id="oomox" x1="0%" x2="0%" y1="0%" y2="100%">
   <stop offset="0%" style="stop-color:#efefe7"/>
   <stop offset="100%" style="stop-color:#8f8f8b"/>
  </linearGradient>
  <linearGradient id="rainblue" x1="0%" x2="0%" y1="0%" y2="100%">
   <stop offset="0%" style="stop-color:#00F260"/>
   <stop offset="100%" style="stop-color:#0575E6"/>
  </linearGradient>
  <linearGradient id="sunrise" x1="0%" x2="0%" y1="0%" y2="100%">
   <stop offset="0%" style="stop-color:#FF8501"/>
   <stop offset="100%" style="stop-color:#FFCB01"/>
  </linearGradient>
  <linearGradient id="telinkrin" x1="0%" x2="0%" y1="0%" y2="100%">
   <stop offset="0%" style="stop-color:#b2ced6"/>
   <stop offset="100%" style="stop-color:#6da5b7"/>
  </linearGradient>
  <linearGradient id="60spsycho" x1="0%" x2="0%" y1="0%" y2="100%">
   <stop offset="0%" style="stop-color:#df5940"/>
   <stop offset="25%" style="stop-color:#d8d15f"/>
   <stop offset="50%" style="stop-color:#e9882a"/>
   <stop offset="100%" style="stop-color:#279362"/>
  </linearGradient>
  <linearGradient id="90ssummer" x1="0%" x2="0%" y1="0%" y2="100%">
   <stop offset="0%" style="stop-color:#f618c7"/>
   <stop offset="20%" style="stop-color:#94ffab"/>
   <stop offset="50%" style="stop-color:#fbfd54"/>
   <stop offset="100%" style="stop-color:#0f83ae"/>
  </linearGradient>
 </defs>
 <path fill="currentColor" class="ColorScheme-Text" d="M 9.3378906,3 C 9.2917506,3 8.9898905,3.5097587 8.703125,4.0722656 8.2833253,4.8957293 8.0823547,5.5282129 8.0136719,6.2597656 7.9967029,6.44054 8.0003426,6.6184414 8.0117188,6.7929688 8.0046384,6.8715927 8.00072,6.9503658 8,7.0292969 8,7.350909 8.06468,7.6552539 8.1601562,7.9453125 6.8950989,8.5095454 5.823752,9.4303818 5.0878906,10.589844 4.9068303,10.826602 4.7468155,11.073389 4.6308594,11.337891 4.4486475,11.753525 4.313504,12.183712 4.2109375,12.648438 c -0.068248,0.275755 -0.1256893,0.554232 -0.1601563,0.841796 -0.00307,0.0256 0.00501,0.03097 0.017578,0.02734 -0.013155,0.110763 -0.030783,0.216029 -0.041016,0.332031 C 3.9945387,14.221494 3.990599,14.374998 4.015625,14.375 L 8,10 6.96875,13.455078 c 0.00607,0.0061 0.1375376,-0.04757 0.2929688,-0.11914 0.9549601,-0.439703 2.1451299,-1.206465 3.1972652,-1.332032 0.36284,-0.0433 1.621735,-0.04747 2,-0.0078 0.37305,0.03909 0.729972,0.199432 1.097657,0.380859 C 14.485487,11.493536 15.718143,11.000626 17,11 c 0.04691,0.0019 0.09379,0.0045 0.140625,0.0078 -0.01597,-0.05208 -0.04136,-0.111494 -0.08594,-0.189453 -0.09589,-0.254803 -0.237999,-0.510365 -0.451172,-0.798828 C 15.812928,9.1507743 14.885394,8.4287802 13.837891,7.9492188 13.934232,7.6579794 14,7.3524242 14,7.0292969 13.999974,6.9537899 13.9979,6.8780222 13.9922,6.8027344 13.9948,6.7274754 14.002,6.6521806 13.9981,6.578125 13.944873,5.5609826 13.350328,4.8631388 12.453125,4.4042969 11.978118,4.1613714 11.251468,4.0478117 10.777344,4.046875 10.185851,4.045709 9.7363509,3.537145 9.4472656,3.1210938 9.4009907,3.0544931 9.3516794,2.9999994 9.3378906,3 Z M 17,12 c -2.2091,0 -4,1.7909 -4,4 0,2.2091 1.7909,4 4,4 2.2091,0 4,-1.7909 4,-4 0,-2.2091 -1.7909,-4 -4,-4 z m -4.644531,0.990234 c -0.142321,-0.01491 -1.677283,-0.0061 -1.777344,0.0059 -0.6646016,0.07932 -1.8290213,0.755645 -2.8984375,1.248047 -0.088747,0.04086 -0.1700516,0.07725 -0.2441406,0.107421 -0.037045,0.01508 -0.068655,0.0278 -0.1191407,0.04492 -0.025243,0.0086 -0.0507,0.01801 -0.1171874,0.0332 -0.033244,0.0076 -0.072608,0.01784 -0.171875,0.02344 -0.049633,0.0028 -0.2280842,-0.01164 -0.2285157,-0.01172 C 6.7986124,14.44133 6.5782807,14.37507 6.578125,14.375 6.5779693,14.374934 6.2598605,14.160252 6.2597656,14.160156 6.1301038,14.029833 6.0388721,13.866291 5.9960938,13.6875 L 4.7558594,15.048828 C 4.5835357,15.238164 4.3451639,15.354204 4.0898438,15.373047 4.2920062,16.722159 4.8839712,17.9828 5.7929688,19 l 7.2148432,0 C 12.355913,18.135498 12.002253,17.082743 12,16 c 3.68e-4,-1.000863 0.3011,-1.978583 0.863281,-2.806641 -0.212687,-0.105355 -0.393279,-0.191123 -0.507812,-0.203125 z M 17,13 l 2.5,3 -1.5,0 0,2 -2,0 0,-2 -1.5,0 z m -9,2 c 0.5522847,0 1,0.447715 1,1 0,0.552285 -0.4477153,1 -1,1 -0.5522847,0 -1,-0.447715 -1,-1 0,-0.552285 0.4477153,-1 1,-1 z"/>
</svg>
