<svg xmlns="http://www.w3.org/2000/svg" width="22" height="22" version="1.1">
 <defs>
  <style id="current-color-scheme" type="text/css">
   .ColorScheme-Text { color: #1d4195; } .ColorScheme-Highlight { color: #1AD6AB; }
  </style>
  <linearGradient id="arrongin" x1="0%" x2="0%" y1="0%" y2="100%">
   <stop offset="0%" style="stop-color:#dd9b44"/>
   <stop offset="100%" style="stop-color:#ad6c16"/>
  </linearGradient>
  <linearGradient id="aurora" x1="0%" x2="0%" y1="0%" y2="100%">
   <stop offset="0%" style="stop-color:#09D4DF"/>
   <stop offset="100%" style="stop-color:#9269F4"/>
  </linearGradient>
  <linearGradient id="cyberneon" x1="0%" x2="0%" y1="0%" y2="100%">
   <stop offset="0" style="stop-color:#0abdc6"/>
   <stop offset="1" style="stop-color:#ea00d9"/>
  </linearGradient>
  <linearGradient id="fitdance" x1="0%" x2="0%" y1="0%" y2="100%">
   <stop offset="0%" style="stop-color:#1AD6AB"/>
   <stop offset="100%" style="stop-color:#329DB6"/>
  </linearGradient>
  <linearGradient id="oomox" x1="0%" x2="0%" y1="0%" y2="100%">
   <stop offset="0%" style="stop-color:#efefe7"/>
   <stop offset="100%" style="stop-color:#8f8f8b"/>
  </linearGradient>
  <linearGradient id="rainblue" x1="0%" x2="0%" y1="0%" y2="100%">
   <stop offset="0%" style="stop-color:#00F260"/>
   <stop offset="100%" style="stop-color:#0575E6"/>
  </linearGradient>
  <linearGradient id="sunrise" x1="0%" x2="0%" y1="0%" y2="100%">
   <stop offset="0%" style="stop-color:#FF8501"/>
   <stop offset="100%" style="stop-color:#FFCB01"/>
  </linearGradient>
  <linearGradient id="telinkrin" x1="0%" x2="0%" y1="0%" y2="100%">
   <stop offset="0%" style="stop-color:#b2ced6"/>
   <stop offset="100%" style="stop-color:#6da5b7"/>
  </linearGradient>
  <linearGradient id="60spsycho" x1="0%" x2="0%" y1="0%" y2="100%">
   <stop offset="0%" style="stop-color:#df5940"/>
   <stop offset="25%" style="stop-color:#d8d15f"/>
   <stop offset="50%" style="stop-color:#e9882a"/>
   <stop offset="100%" style="stop-color:#279362"/>
  </linearGradient>
  <linearGradient id="90ssummer" x1="0%" x2="0%" y1="0%" y2="100%">
   <stop offset="0%" style="stop-color:#f618c7"/>
   <stop offset="20%" style="stop-color:#94ffab"/>
   <stop offset="50%" style="stop-color:#fbfd54"/>
   <stop offset="100%" style="stop-color:#0f83ae"/>
  </linearGradient>
 </defs>
 <path fill="currentColor" class="ColorScheme-Text" d="m 11,3 c 4.418278,0 8,3.581722 8,8 0,4.418278 -3.581722,8 -8,8 -0.338712,0 -0.670405,-0.0275 -0.998047,-0.06836 -0.051727,-0.0066 -0.102741,-0.01582 -0.154297,-0.02344 C 9.547965,18.864843 9.25477,18.804138 8.966797,18.728516 8.938168,18.720926 8.909402,18.714939 8.880859,18.707031 8.204831,18.521437 7.566431,18.250202 6.974609,17.904297 5.199151,16.866585 3.861546,15.16819 3.298828,13.142578 3.29301,13.121853 3.288854,13.100849 3.283203,13.080078 3.203747,12.784815 3.141162,12.483505 3.095703,12.175781 3.087116,12.119027 3.077681,12.062825 3.070312,12.005859 3.028791,11.675649 3,11.341472 3,11 3,6.581722 6.581722,3 11,3 Z m 2,3 C 12.3974,6 11.737475,6.065 11.171875,6.25 10.889075,6.3425 10.625444,6.4630031 10.402344,6.6582031 10.311744,6.7375031 10.305481,6.889 10.238281,7 H 9.5 C 9.223869,7.0000276 9.000028,7.2238691 9,7.5 V 8 C 8.798,8.0034 8.682828,8.0103 7.798828,8 7.422828,7.9956 7.193109,7.9985 6.912109,8 6.700489,7.4014455 6.134862,7.0009371 5.5,7 4.671573,7 4,7.6715729 4,8.5 4,9.3284271 4.671573,10 5.5,10 c 0.05347,-4.125e-4 0.107035,-0.00365 0.160156,-0.00977 0.695,0.8637996 1.640703,1.5575156 2.345703,2.2285156 L 8,12.488281 C 7.9932,12.771458 8.222622,13.003452 8.505859,13 c 0.447,-0.005 0.501375,0.09245 0.484375,0.06445 -0.016,-0.027 0.016875,0.0878 -0.078125,0.341797 -0.095,0.255 -0.275125,0.587734 -0.453125,0.927734 -0.178,0.34 -0.359312,0.680735 -0.445312,1.052735 C 7.941092,15.699741 8.178674,15.999276 8.5,16 h 3 c 0.0013,5e-6 0.0026,5e-6 0.0039,0 1.3257,-0.008 3.994141,0 3.994141,0 0.415933,0.0018 0.652096,-0.47505 0.398437,-0.804688 -0.2764,-0.359999 -0.535097,-1.041906 -0.716796,-1.753906 -0.130601,-0.511 -0.222129,-1.008937 -0.298829,-1.460937 0.0699,-0.013 0.14105,-0.03322 0.21875,-0.07422 0.1626,-0.085 0.339225,-0.3415 0.328125,-0.5625 -0.0073,-0.148 -0.024,-0.141156 -0.0293,-0.160156 -0.0052,-0.02 -0.0066,-0.02911 -0.0078,-0.03711 v -0.002 C 15.809625,10.558531 16,9.78265 16,9.09375 16,8.21625 15.584431,7.4454375 15.019531,6.8984375 14.454731,6.3515375 13.7344,6 13,6 Z m 0,1 c 0.3918,0 0.920619,0.2263875 1.324219,0.6171875 C 14.727819,8.0079875 15,8.53515 15,9.09375 c 0,0.5009 -0.225744,1.247922 -0.464844,1.544922 -0.0327,0.03972 -0.059,0.08505 -0.07813,0.132812 -0.0267,0.069 -0.009,0.115688 -0.01953,0.179688 -0.1366,-0.019 -0.268541,-0.03105 -0.556641,-0.123047 -0.3417,-0.135 -0.643181,-0.285406 -0.925781,-0.441406 -0.0962,-0.054 -0.189356,-0.116782 -0.285156,-0.175781 -0.2095,-0.132 -0.411238,-0.267063 -0.585938,-0.414063 -0.321,-0.2901 -0.584881,-0.6474938 -0.863281,-0.9960938 -0.0964,-0.1595 -0.186165,-0.3224937 -0.259765,-0.4960937 C 10.882457,8.1197601 10.700891,7.9997644 10.5,8 10.776131,7.9999724 10.999972,7.7761309 11,7.5 11,7.4728 10.9928,7.4711562 11.0625,7.4101562 11.1322,7.3490563 11.281022,7.2669719 11.482422,7.2011719 11.885322,7.0693719 12.4764,7 13,7 Z M 9.416016,9 c 0.02905,0.00519 0.05838,0.00781 0.08789,0.00781 l 0.511719,-0.00391 c 0.0864,0.0518 0.194784,0.1407938 0.333984,0.3085938 0.3124,0.3764 0.6995,1.007281 1.375,1.488281 0.631,0.449 1.156413,0.688516 1.570313,0.853516 0.08,0.035 0.145815,0.07833 0.228516,0.111328 0.0097,0.0033 0.01944,0.0071 0.0293,0.0098 0.0665,0.022 0.112529,0.02887 0.173829,0.04687 0.0289,0.01 0.108106,0.04378 0.128906,0.05078 0.0829,0.511 0.182569,1.139406 0.355469,1.816406 0.1219,0.478 0.355634,0.879547 0.552734,1.310547 -0.691,-0.002 -2.175878,-0.007 -3.267578,0 H 9.255859 c 0.038,-0.077 0.044891,-0.120172 0.087891,-0.201172 0.172,-0.329 0.368906,-0.680969 0.503906,-1.042969 0.135,-0.362 0.250047,-0.791984 -0.00195,-1.208984 -0.157,-0.259 -0.525891,-0.263844 -0.837891,-0.339844 l 0.00391,-0.195312 C 9.014919,11.874731 8.962314,11.74319 8.865234,11.646484 8.103234,10.882484 7.248578,10.16895 6.642578,9.46875 6.759891,9.3300605 6.851568,9.1712656 6.912109,9 c 0.28,-0.0015 0.52,-0.0041 0.875,0 1.179,0.0138 1.577907,0.0014 1.628907,0 z"/>
</svg>
