<svg xmlns="http://www.w3.org/2000/svg" width="22" height="22" version="1.1">
 <defs>
   <style id="current-color-scheme" type="text/css">
   .ColorScheme-Text { color: #1d4195; } .ColorScheme-Highlight { color: #1AD6AB; }
  </style>
  <linearGradient id="arrongin" x1="0%" x2="0%" y1="0%" y2="100%">
   <stop offset="0%"    stop-color= "#dd9b44" stop-opacity="1"/>
   <stop offset="100%"  stop-color= "#ad6c16" stop-opacity="1"/>
  </linearGradient>
  <linearGradient id="aurora" x1="0%" x2="0%" y1="0%" y2="100%">
   <stop offset="0%"    stop-color= "#09D4DF" stop-opacity="1"/>
   <stop offset="100%"  stop-color= "#9269F4" stop-opacity="1"/>
  </linearGradient> 
  <linearGradient id="cyberblue" x1="0%" x2="0%" y1="0%" y2="100%">
   <stop offset="0%"    stop-color= "#07B3FF" stop-opacity="1"/>
   <stop offset="100%"  stop-color= "#007DE8" stop-opacity="1"/>
  </linearGradient>
  <linearGradient id="cyberneon" x1="0%" x2="0%" y1="0%" y2="100%">
    <stop offset="0%"   stop-color= "#0abdc6" stop-opacity="1"/>
    <stop offset="100%" stop-color= "#ea00d9" stop-opacity="1"/>
  </linearGradient>
  <linearGradient id="fitdance" x1="0%" x2="0%" y1="0%" y2="100%">
   <stop offset="0%"    stop-color= "#1AD6AB" stop-opacity="1"/>
   <stop offset="100%"  stop-color= "#329DB6" stop-opacity="1"/>
  </linearGradient>
  <linearGradient id="oomox" x1="0%" x2="0%" y1="0%" y2="100%">
   <stop offset="0%"    stop-color= "#efefe7" stop-opacity="1"/>
   <stop offset="100%"  stop-color= "#8f8f8b" stop-opacity="1"/>
  </linearGradient>
  <linearGradient id="rainblue" x1="0%" x2="0%" y1="0%" y2="100%">
   <stop offset="0%"    stop-color= "#00F260" stop-opacity="1"/>
   <stop offset="100%"  stop-color= "#0575E6" stop-opacity="1"/>
  </linearGradient>
  <linearGradient id="redcarbon" x1="0%" x2="0%" y1="0%" y2="100%">
   <stop offset="0%"    stop-color= "#FF6D57" stop-opacity="1"/>
   <stop offset="50%"   stop-color= "#FF5160" stop-opacity="1"/>
   <stop offset="100%"  stop-color= "#F50F22" stop-opacity="1"/>
  </linearGradient>
  <linearGradient id="sunrise" x1="0%" x2="0%" y1="0%" y2="100%">
   <stop offset="0%"    stop-color= "#FF8501" stop-opacity="1"/>
   <stop offset="100%"  stop-color= "#FFCB01" stop-opacity="1"/>
  </linearGradient>
  <linearGradient id="telinkrin" x1="0%" x2="0%" y1="0%" y2="100%">
   <stop offset="0%"    stop-color= "#b2ced6" stop-opacity="1"/>
   <stop offset="100%"  stop-color= "#6da5b7" stop-opacity="1"/>
  </linearGradient>
  <linearGradient id="60spsycho" x1="0%" x2="0%" y1="0%" y2="100%">
   <stop offset="0%"    stop-color= "#df5940" stop-opacity="1"/>
   <stop offset="25%"   stop-color= "#d8d15f" stop-opacity="1"/>
   <stop offset="50%"   stop-color= "#e9882a" stop-opacity="1"/>
   <stop offset="100%"  stop-color= "#279362" stop-opacity="1"/>
  </linearGradient>
  <linearGradient id="90ssummer" x1="0%" x2="0%" y1="0%" y2="100%">
   <stop offset="0%"    stop-color= "#f618c7" stop-opacity="1"/>
   <stop offset="20%"   stop-color= "#94ffab" stop-opacity="1"/>
   <stop offset="50%"   stop-color= "#fbfd54" stop-opacity="1"/>
   <stop offset="100%"  stop-color= "#0f83ae" stop-opacity="1"/>
  </linearGradient>
 </defs>
 <path fill="currentColor" class="ColorScheme-Text" d="M 11 3 C 6.5817143 3 3 6.581714 3 11 C 3 15.418286 6.5817143 19 11 19 C 12.15464 19 13.248855 18.750776 14.240234 18.310547 C 14.094791 17.89761 14 17.46058 14 17 C 14 15.156439 15.293651 13.659487 17 13.203125 L 17 13 A 1.0001 1.0001 0 0 1 17.943359 12.001953 A 1.0001 1.0001 0 0 1 18.599609 12.199219 L 18.869141 12.402344 C 18.950017 11.94602 19 11.479544 19 11 C 19 6.581714 15.418286 3 11 3 z M 10.427734 5.2148438 C 10.504194 5.2068437 10.600592 5.2194138 10.677734 5.2148438 C 10.686834 5.2514148 10.622353 5.3818314 10.535156 5.5722656 C 9.9798883 6.7852941 9.9495088 8.2055293 10.464844 8.9648438 C 10.558104 9.1025123 10.642578 9.2329713 10.642578 9.25 C 10.642578 9.267028 10.541449 9.2851563 10.427734 9.2851562 C 10.160786 9.2851562 9.9087271 9.1235638 9.3925781 8.7148438 C 9.1632891 8.5332783 8.8654857 8.3805076 8.75 8.3574219 C 8.5686514 8.3211932 8.519762 8.3376371 8.2851562 8.5722656 C 8.0668819 8.7905056 8 8.9076276 8 9.1074219 C 8 9.8650675 8.9003566 10.467866 10.572266 10.822266 C 12.84278 11.303489 13.402215 11.733814 13.464844 12.927734 C 13.543474 14.424877 12.745829 15.553792 11 16.427734 C 10.791623 16.532077 10.659694 16.573708 10.572266 16.607422 C 10.533526 16.604022 10.503477 16.610822 10.464844 16.607422 C 10.449984 16.561132 10.427734 16.453474 10.427734 16.25 C 10.427734 15.454823 10.114864 14.635449 9.6425781 14.177734 C 9.5158011 14.054854 9.161399 13.795593 8.8574219 13.607422 C 8.5534561 13.419262 8.2460773 13.200679 8.1777344 13.107422 C 8.0644723 12.952667 8.055561 12.858152 8.1425781 12.572266 C 8.301161 12.050129 8.4904733 11.757643 8.8574219 11.427734 C 9.049799 11.254774 9.2425392 11.11085 9.2851562 11.107422 C 9.3277862 11.104022 9.040108 11.016246 8.6074219 10.927734 C 8.174759 10.839049 7.542078 10.65359 7.2148438 10.535156 C 6.6164667 10.318642 5.808 9.8641161 5.5 9.5351562 C 5.4869714 9.5212133 5.4761581 9.5123428 5.4648438 9.5 C 5.9061352 7.7421714 7.143442 6.3017076 8.7851562 5.6074219 C 9.1286649 5.4621305 9.4836159 5.3616133 9.8574219 5.2851562 C 10.043616 5.2470992 10.235483 5.2343863 10.427734 5.2148438 z M 15.785156 7.8925781 C 15.919385 7.9755491 16.427591 9.0725648 16.572266 9.6074219 C 16.759054 10.297925 16.745534 11.491791 16.572266 12.177734 C 16.506326 12.438808 16.420692 12.684444 16.392578 12.714844 C 16.364468 12.745244 16.26251 12.569959 16.142578 12.357422 C 16.022635 12.144919 15.640654 11.693364 15.322266 11.357422 C 14.403248 10.387673 14.257618 9.8813646 14.642578 9.1074219 C 14.836715 8.7171476 15.681271 7.8284638 15.785156 7.8925781 z"/>
 <path fill="currentColor" class="ColorScheme-Text" d="M 18 13 L 18 14 A 3 3 0 0 0 15 17 A 3 3 0 0 0 18 20 A 3 3 0 0 0 21 17 L 20 17 A 2 2 0 0 1 18 19 A 2 2 0 0 1 16 17 A 2 2 0 0 1 18 15 L 18 16 L 18.984375 15.261719 A 2 2 0 0 1 19 15.269531 L 19 15.25 L 20 14.5 L 19 13.75 L 18 13 z"/>
</svg>
