<svg xmlns="http://www.w3.org/2000/svg" width="22" height="22" version="1.1">
 <defs>
   <style id="current-color-scheme" type="text/css">
   .ColorScheme-Text { color: #1d4195; } .ColorScheme-Highlight { color: #1AD6AB; }
  </style>
  <linearGradient id="arrongin" x1="0%" x2="0%" y1="0%" y2="100%">
   <stop offset="0%"    stop-color= "#dd9b44" stop-opacity="1"/>
   <stop offset="100%"  stop-color= "#ad6c16" stop-opacity="1"/>
  </linearGradient>
  <linearGradient id="aurora" x1="0%" x2="0%" y1="0%" y2="100%">
   <stop offset="0%"    stop-color= "#09D4DF" stop-opacity="1"/>
   <stop offset="100%"  stop-color= "#9269F4" stop-opacity="1"/>
  </linearGradient> 
  <linearGradient id="cyberblue" x1="0%" x2="0%" y1="0%" y2="100%">
   <stop offset="0%"    stop-color= "#07B3FF" stop-opacity="1"/>
   <stop offset="100%"  stop-color= "#007DE8" stop-opacity="1"/>
  </linearGradient>
  <linearGradient id="cyberneon" x1="0%" x2="0%" y1="0%" y2="100%">
    <stop offset="0%"   stop-color= "#0abdc6" stop-opacity="1"/>
    <stop offset="100%" stop-color= "#ea00d9" stop-opacity="1"/>
  </linearGradient>
  <linearGradient id="fitdance" x1="0%" x2="0%" y1="0%" y2="100%">
   <stop offset="0%"    stop-color= "#1AD6AB" stop-opacity="1"/>
   <stop offset="100%"  stop-color= "#329DB6" stop-opacity="1"/>
  </linearGradient>
  <linearGradient id="oomox" x1="0%" x2="0%" y1="0%" y2="100%">
   <stop offset="0%"    stop-color= "#efefe7" stop-opacity="1"/>
   <stop offset="100%"  stop-color= "#8f8f8b" stop-opacity="1"/>
  </linearGradient>
  <linearGradient id="rainblue" x1="0%" x2="0%" y1="0%" y2="100%">
   <stop offset="0%"    stop-color= "#00F260" stop-opacity="1"/>
   <stop offset="100%"  stop-color= "#0575E6" stop-opacity="1"/>
  </linearGradient>
  <linearGradient id="redcarbon" x1="0%" x2="0%" y1="0%" y2="100%">
   <stop offset="0%"    stop-color= "#FF6D57" stop-opacity="1"/>
   <stop offset="50%"   stop-color= "#FF5160" stop-opacity="1"/>
   <stop offset="100%"  stop-color= "#F50F22" stop-opacity="1"/>
  </linearGradient>
  <linearGradient id="sunrise" x1="0%" x2="0%" y1="0%" y2="100%">
   <stop offset="0%"    stop-color= "#FF8501" stop-opacity="1"/>
   <stop offset="100%"  stop-color= "#FFCB01" stop-opacity="1"/>
  </linearGradient>
  <linearGradient id="telinkrin" x1="0%" x2="0%" y1="0%" y2="100%">
   <stop offset="0%"    stop-color= "#b2ced6" stop-opacity="1"/>
   <stop offset="100%"  stop-color= "#6da5b7" stop-opacity="1"/>
  </linearGradient>
  <linearGradient id="60spsycho" x1="0%" x2="0%" y1="0%" y2="100%">
   <stop offset="0%"    stop-color= "#df5940" stop-opacity="1"/>
   <stop offset="25%"   stop-color= "#d8d15f" stop-opacity="1"/>
   <stop offset="50%"   stop-color= "#e9882a" stop-opacity="1"/>
   <stop offset="100%"  stop-color= "#279362" stop-opacity="1"/>
  </linearGradient>
  <linearGradient id="90ssummer" x1="0%" x2="0%" y1="0%" y2="100%">
   <stop offset="0%"    stop-color= "#f618c7" stop-opacity="1"/>
   <stop offset="20%"   stop-color= "#94ffab" stop-opacity="1"/>
   <stop offset="50%"   stop-color= "#fbfd54" stop-opacity="1"/>
   <stop offset="100%"  stop-color= "#0f83ae" stop-opacity="1"/>
  </linearGradient>
 </defs>
 <path fill="currentColor" class="ColorScheme-Text" d="M 1.84375 1.0097656 C 1.56245 1.0565656 1 1.2597656 1 2.0097656 L 1 13.009766 C 1 13.009766 1 14.009766 2 14.009766 L 14 14.009766 C 14 14.009766 15 14.009766 15 13.009766 L 15 4.0097656 C 15 3.0097656 14 3.0097656 14 3.0097656 L 9 3.0097656 L 7 1.0097656 L 2 1.0097656 C 2 1.0097656 1.93745 0.99413563 1.84375 1.0097656 z M 8.3085938 4 C 8.8449938 4 9.3375625 4.0836 9.7890625 4.25 C 10.240963 4.4131 10.629078 4.6490844 10.955078 4.9589844 C 11.284078 5.2655844 11.540609 5.6396781 11.724609 6.0800781 C 11.907609 6.5203781 12 7.0151063 12 7.5664062 C 12 7.8763062 11.960812 8.1830281 11.882812 8.4863281 C 11.807813 8.7897281 11.693109 9.0632875 11.537109 9.3046875 C 11.381109 9.5427875 11.183313 9.7367187 10.945312 9.8867188 C 10.711313 10.034019 10.434234 10.105469 10.115234 10.105469 C 9.9864344 10.105469 9.8654 10.0925 9.75 10.0625 C 9.638 10.0305 9.5344531 9.9850875 9.4394531 9.9296875 C 9.3443531 9.8709875 9.2606531 9.8054687 9.1894531 9.7304688 C 9.1214531 9.6521687 9.06865 9.5659094 9.03125 9.4746094 L 8.9550781 9.4746094 C 8.8905781 9.5562094 8.8152688 9.6366437 8.7304688 9.7148438 C 8.6455688 9.7899438 8.5506125 9.8573156 8.4453125 9.9160156 C 8.3401125 9.9747156 8.22265 10.020641 8.09375 10.056641 C 7.96805 10.088641 7.8310406 10.105469 7.6816406 10.105469 C 7.3999406 10.105469 7.1484344 10.05995 6.9277344 9.96875 C 6.7105344 9.87415 6.5283062 9.7418656 6.3789062 9.5722656 C 6.2295063 9.3993656 6.1152094 9.1952313 6.0371094 8.9570312 C 5.9590094 8.7156312 5.9199219 8.4485031 5.9199219 8.1582031 C 5.9199219 7.8222031 5.972925 7.514875 6.078125 7.234375 C 6.183425 6.953775 6.33445 6.7119656 6.53125 6.5097656 C 6.72815 6.3042656 6.9663469 6.1460562 7.2480469 6.0351562 C 7.5298469 5.9209562 7.8457125 5.8632812 8.1953125 5.8632812 C 8.3481125 5.8632812 8.5070219 5.8723719 8.6699219 5.8886719 C 8.8329219 5.9049719 8.9892719 5.927025 9.1386719 5.953125 C 9.2913719 5.979225 9.4340062 6.0084156 9.5664062 6.0410156 C 9.6988063 6.0736156 9.81125 6.1060719 9.90625 6.1386719 L 9.8007812 8.1875 C 9.7937813 8.2593 9.7890625 8.3299375 9.7890625 8.3984375 L 9.7890625 8.53125 C 9.7890625 8.66835 9.7999125 8.7811406 9.8203125 8.8691406 C 9.8441125 8.9572406 9.87235 9.025925 9.90625 9.078125 C 9.94365 9.127125 9.9854969 9.1621406 10.029297 9.1816406 C 10.077297 9.2012406 10.126734 9.2109375 10.177734 9.2109375 C 10.296734 9.2109375 10.400281 9.166225 10.488281 9.078125 C 10.577281 8.990125 10.649031 8.8726563 10.707031 8.7226562 C 10.765031 8.5725562 10.806891 8.3961656 10.837891 8.1972656 C 10.867891 7.9949656 10.884766 7.7817406 10.884766 7.5566406 C 10.884766 7.1391406 10.820406 6.7676062 10.691406 6.4414062 C 10.562406 6.1152062 10.381391 5.8403344 10.150391 5.6152344 C 9.9232906 5.3902344 9.6517375 5.2189625 9.3359375 5.1015625 C 9.0202375 4.9840625 8.6785938 4.9238281 8.3085938 4.9238281 C 7.7891937 4.9238281 7.3307937 5.0075281 6.9335938 5.1738281 C 6.5397938 5.3402281 6.2075531 5.5729469 5.9394531 5.8730469 C 5.6746531 6.1699469 5.4731844 6.5239406 5.3339844 6.9316406 C 5.1981844 7.3394406 5.1308594 7.7853844 5.1308594 8.2714844 C 5.1308594 8.7215844 5.1897938 9.1217031 5.3085938 9.4707031 C 5.4273938 9.8165031 5.6036906 10.107703 5.8378906 10.345703 C 6.0720906 10.580703 6.360325 10.760766 6.703125 10.884766 C 7.046025 11.004766 7.442525 11.066406 7.890625 11.066406 C 8.080725 11.066406 8.2762625 11.05425 8.4765625 11.03125 C 8.6767625 11.00825 8.8753656 10.9765 9.0722656 10.9375 C 9.2725656 10.8975 9.4681031 10.851875 9.6582031 10.796875 C 9.8517031 10.740875 10.034031 10.680234 10.207031 10.615234 L 10.207031 11.554688 C 9.8879312 11.691688 9.5329781 11.798953 9.1425781 11.876953 C 8.7555781 11.958953 8.3416906 12 7.9003906 12 C 7.2858906 12 6.7354 11.916094 6.25 11.746094 C 5.7679 11.580094 5.3619969 11.338484 5.0292969 11.021484 C 4.6965969 10.705484 4.442225 10.318028 4.265625 9.8613281 C 4.089125 9.4014281 4 8.8813812 4 8.3007812 C 4 7.8962813 4.0451188 7.509225 4.1367188 7.140625 C 4.2284188 6.768825 4.3619563 6.425775 4.5351562 6.109375 C 4.7082562 5.789675 4.9182156 5.4998875 5.1660156 5.2421875 C 5.4172156 4.9811875 5.7023844 4.760825 6.0214844 4.578125 C 6.3405844 4.392225 6.6925719 4.2502438 7.0761719 4.1523438 C 7.4597719 4.0512438 7.8706938 4 8.3085938 4 z M 8.1953125 6.7539062 C 7.9950125 6.7539062 7.8267 6.7953531 7.6875 6.8769531 C 7.5483 6.9584531 7.4340031 7.0655188 7.3457031 7.1992188 C 7.2608031 7.3330187 7.1989031 7.4872562 7.1582031 7.6601562 C 7.1209031 7.8297562 7.1015625 8.0016344 7.1015625 8.1777344 C 7.1015625 8.5431344 7.1659219 8.8076031 7.2949219 8.9707031 C 7.4239219 9.1305031 7.5946938 9.2109375 7.8085938 9.2109375 C 7.9511937 9.2109375 8.0738813 9.1791875 8.1757812 9.1171875 C 8.2809812 9.0518875 8.3651875 8.9638094 8.4296875 8.8496094 C 8.4975875 8.7322094 8.5500844 8.5933938 8.5839844 8.4335938 C 8.6212844 8.2704937 8.6440969 8.089625 8.6542969 7.890625 L 8.7148438 6.8085938 C 8.6469438 6.7922937 8.5681625 6.7793312 8.4765625 6.7695312 C 8.3848625 6.7597312 8.2904125 6.7539063 8.1953125 6.7539062 z" transform="translate(3 3)"/>
</svg>
