<svg xmlns="http://www.w3.org/2000/svg" width="16" height="16" version="1.1">
 <defs>
   <style id="current-color-scheme" type="text/css">
   .ColorScheme-Text { color: #498db8; } .ColorScheme-Highlight { color: #1AD6AB; }
  </style>
  <linearGradient id="arrongin" x1="0%" x2="0%" y1="0%" y2="100%">
   <stop offset="0%" style="stop-color: #dd9b44; stop-opacity: 1"/>
   <stop offset="100%" style="stop-color: #ad6c16; stop-opacity: 1"/>
  </linearGradient>
  <linearGradient id="aurora" x1="0%" x2="0%" y1="0%" y2="100%">
   <stop offset="0%" style="stop-color: #09D4DF; stop-opacity: 1"/>
   <stop offset="100%" style="stop-color: #9269F4; stop-opacity: 1"/>
  </linearGradient>
  <linearGradient id="cyberneon" x1="0%" x2="0%" y1="0%" y2="100%">
    <stop offset="0" style="stop-color: #0abdc6; stop-opacity: 1"/>
    <stop offset="1" style="stop-color: #ea00d9; stop-opacity: 1"/>
  </linearGradient>
  <linearGradient id="fitdance" x1="0%" x2="0%" y1="0%" y2="100%">
   <stop offset="0%" style="stop-color: #1AD6AB; stop-opacity: 1"/>
   <stop offset="100%" style="stop-color: #329DB6; stop-opacity: 1"/>
  </linearGradient>
  <linearGradient id="oomox" x1="0%" x2="0%" y1="0%" y2="100%">
   <stop offset="0%" style="stop-color: #efefe7; stop-opacity: 1"/>
   <stop offset="100%" style="stop-color: #8f8f8b; stop-opacity: 1"/>
  </linearGradient>
  <linearGradient id="rainblue" x1="0%" x2="0%" y1="0%" y2="100%">
   <stop offset="0%" style="stop-color: #00F260; stop-opacity: 1"/>
   <stop offset="100%" style="stop-color: #0575E6; stop-opacity: 1"/>
  </linearGradient>
  <linearGradient id="sunrise" x1="0%" x2="0%" y1="0%" y2="100%">
   <stop offset="0%" style="stop-color: #FF8501; stop-opacity: 1"/>
   <stop offset="100%" style="stop-color: #FFCB01; stop-opacity: 1"/>
  </linearGradient>
  <linearGradient id="telinkrin" x1="0%" x2="0%" y1="0%" y2="100%">
   <stop offset="0%" style="stop-color: #b2ced6; stop-opacity: 1"/>
   <stop offset="100%" style="stop-color: #6da5b7; stop-opacity: 1"/>
  </linearGradient>
  <linearGradient id="60spsycho" x1="0%" x2="0%" y1="0%" y2="100%">
   <stop offset="0%" style="stop-color: #df5940; stop-opacity: 1"/>
   <stop offset="25%" style="stop-color: #d8d15f; stop-opacity: 1"/>
   <stop offset="50%" style="stop-color: #e9882a; stop-opacity: 1"/>
   <stop offset="100%" style="stop-color: #279362; stop-opacity: 1"/>
  </linearGradient>
  <linearGradient id="90ssummer" x1="0%" x2="0%" y1="0%" y2="100%">
   <stop offset="0%" style="stop-color: #f618c7; stop-opacity: 1"/>
   <stop offset="20%" style="stop-color: #94ffab; stop-opacity: 1"/>
   <stop offset="50%" style="stop-color: #fbfd54; stop-opacity: 1"/>
   <stop offset="100%" style="stop-color: #0f83ae; stop-opacity: 1"/>
  </linearGradient>
 </defs>
 <path fill="currentColor" class="ColorScheme-Text" d="M 14.062178,4.5 A 7,7 0 0 0 4.5000001,1.9378222 7,7 0 0 0 1.9378222,11.5 7,7 0 0 0 11.5,14.062178 7,7 0 0 0 14.062178,4.5 Z m -1.732051,1 A 5,5 0 0 1 11.271075,11.778949 1.5,1.5 0 0 1 10.566987,13.446152 1.5,1.5 0 0 1 8.5603951,12.962819 5,5 0 0 1 5.0298918,12.019683 1.5,1.5 0 0 1 3.0538479,11.433012 1.5,1.5 0 0 1 3.2793834,9.6361514 5,5 0 0 1 5.5000001,3.669873 5,5 0 0 1 5.5754007,3.6285957 1.5,1.5 0 0 1 6.2990382,2.0538476 1.5,1.5 0 0 1 8.3480763,2.6028857 1.5,1.5 0 0 1 8.5130315,3.0331277 5,5 0 0 1 12.330127,5.5 Z M 11.464102,6 A 4,4 0 0 0 8.3905005,4.0240229 1.5,1.5 0 0 1 7.7990382,4.6519238 1.5,1.5 0 0 1 7.74465,4.6788143 L 8.1093875,7.2129021 A 1.5,1.5 0 0 1 9.1160255,7.9330127 1.5,1.5 0 0 1 8.9560548,9.6559353 L 9.5439455,10.674192 A 1.5,1.5 0 0 1 10.703608,10.940599 4,4 0 0 0 11.464102,6 Z M 6.7556616,4.8213049 A 1.5,1.5 0 0 1 6.0797602,4.4943594 4,4 0 0 0 6.0000001,4.5358984 4,4 0 0 0 4.185639,9.1941145 1.5,1.5 0 0 1 5.325808,9.5439455 L 6.3440648,8.9560547 A 1.5,1.5 0 0 1 7.0669874,7.3839746 1.5,1.5 0 0 1 7.1213756,7.357084 L 6.7556616,4.8213049 Z M 8.0900293,10.155935 A 1.5,1.5 0 0 1 6.8440649,9.8220798 L 5.825808,10.409971 a 1.5,1.5 0 0 1 -0.1024619,0.87331 4,4 0 0 0 2.6039856,0.697736 1.5,1.5 0 0 1 0.3505918,-0.806823 L 8.0900293,10.155935 Z"/>
</svg>
