<svg xmlns="http://www.w3.org/2000/svg" width="16" height="16" version="1.1">
 <defs>
   <style id="current-color-scheme" type="text/css">
   .ColorScheme-Text { color: #498db8; } .ColorScheme-Highlight { color: #1AD6AB; }
  </style>
  <linearGradient id="arrongin" x1="0%" x2="0%" y1="0%" y2="100%">
   <stop offset="0%"    stop-color= "#dd9b44" stop-opacity="1"/>
   <stop offset="100%"  stop-color= "#ad6c16" stop-opacity="1"/>
  </linearGradient>
  <linearGradient id="aurora" x1="0%" x2="0%" y1="0%" y2="100%">
   <stop offset="0%"    stop-color= "#09D4DF" stop-opacity="1"/>
   <stop offset="100%"  stop-color= "#9269F4" stop-opacity="1"/>
  </linearGradient> 
  <linearGradient id="cyberblue" x1="0%" x2="0%" y1="0%" y2="100%">
   <stop offset="0%"    stop-color= "#07B3FF" stop-opacity="1"/>
   <stop offset="100%"  stop-color= "#007DE8" stop-opacity="1"/>
  </linearGradient>
  <linearGradient id="cyberneon" x1="0%" x2="0%" y1="0%" y2="100%">
    <stop offset="0%"   stop-color= "#0abdc6" stop-opacity="1"/>
    <stop offset="100%" stop-color= "#ea00d9" stop-opacity="1"/>
  </linearGradient>
  <linearGradient id="fitdance" x1="0%" x2="0%" y1="0%" y2="100%">
   <stop offset="0%"    stop-color= "#1AD6AB" stop-opacity="1"/>
   <stop offset="100%"  stop-color= "#329DB6" stop-opacity="1"/>
  </linearGradient>
  <linearGradient id="oomox" x1="0%" x2="0%" y1="0%" y2="100%">
   <stop offset="0%"    stop-color= "#efefe7" stop-opacity="1"/>
   <stop offset="100%"  stop-color= "#8f8f8b" stop-opacity="1"/>
  </linearGradient>
  <linearGradient id="rainblue" x1="0%" x2="0%" y1="0%" y2="100%">
   <stop offset="0%"    stop-color= "#00F260" stop-opacity="1"/>
   <stop offset="100%"  stop-color= "#0575E6" stop-opacity="1"/>
  </linearGradient>
  <linearGradient id="redcarbon" x1="0%" x2="0%" y1="0%" y2="100%">
   <stop offset="0%"    stop-color= "#FF6D57" stop-opacity="1"/>
   <stop offset="50%"   stop-color= "#FF5160" stop-opacity="1"/>
   <stop offset="100%"  stop-color= "#F50F22" stop-opacity="1"/>
  </linearGradient>
  <linearGradient id="sunrise" x1="0%" x2="0%" y1="0%" y2="100%">
   <stop offset="0%"    stop-color= "#FF8501" stop-opacity="1"/>
   <stop offset="100%"  stop-color= "#FFCB01" stop-opacity="1"/>
  </linearGradient>
  <linearGradient id="telinkrin" x1="0%" x2="0%" y1="0%" y2="100%">
   <stop offset="0%"    stop-color= "#b2ced6" stop-opacity="1"/>
   <stop offset="100%"  stop-color= "#6da5b7" stop-opacity="1"/>
  </linearGradient>
  <linearGradient id="60spsycho" x1="0%" x2="0%" y1="0%" y2="100%">
   <stop offset="0%"    stop-color= "#df5940" stop-opacity="1"/>
   <stop offset="25%"   stop-color= "#d8d15f" stop-opacity="1"/>
   <stop offset="50%"   stop-color= "#e9882a" stop-opacity="1"/>
   <stop offset="100%"  stop-color= "#279362" stop-opacity="1"/>
  </linearGradient>
  <linearGradient id="90ssummer" x1="0%" x2="0%" y1="0%" y2="100%">
   <stop offset="0%"    stop-color= "#f618c7" stop-opacity="1"/>
   <stop offset="20%"   stop-color= "#94ffab" stop-opacity="1"/>
   <stop offset="50%"   stop-color= "#fbfd54" stop-opacity="1"/>
   <stop offset="100%"  stop-color= "#0f83ae" stop-opacity="1"/>
  </linearGradient>
 </defs>
 <path fill="currentColor" class="ColorScheme-Text" d="M 10.789062 1 C 9.8469587 1 8.9676229 1.4336431 8.3769531 2.1894531 L 2.6933594 9.4628906 C 2.1726869 10.129112 1.9346936 10.965838 2.0214844 11.818359 C 2.1082752 12.670806 2.5108577 13.437228 3.1542969 13.976562 L 3.5234375 14.287109 C 4.0721596 14.747088 4.7624798 15 5.46875 15 C 5.5777995 15 5.6883684 14.994342 5.796875 14.982422 C 6.6149816 14.893095 7.3517979 14.479906 7.8691406 13.824219 C 7.8708779 13.82212 7.8715892 13.821419 11.703125 8.9179688 C 12.385508 8.0444558 12.25537 6.7595515 11.412109 6.0527344 L 11.21875 5.890625 C 10.870284 5.5985419 10.430926 5.4375 9.9824219 5.4375 C 9.3842602 5.4375 8.8261314 5.7115233 8.4511719 6.1914062 L 4.6230469 11.089844 C 4.3729894 11.409966 4.4213805 11.881566 4.7304688 12.140625 C 4.8583748 12.247795 5.0192775 12.306641 5.1835938 12.306641 C 5.402489 12.306641 5.6064986 12.205401 5.7441406 12.029297 L 9.5722656 7.1308594 C 9.6723755 7.0027731 9.8206405 6.9296875 9.9804688 6.9296875 C 10.101932 6.9296875 10.216228 6.9717254 10.310547 7.0507812 L 10.503906 7.2128906 C 10.612775 7.3041291 10.680582 7.4353111 10.695312 7.5800781 C 10.710007 7.7248452 10.670161 7.8658357 10.582031 7.9785156 L 6.7597656 12.871094 C 6.4441265 13.274807 5.9743287 13.505822 5.4707031 13.505859 C 5.0931377 13.505859 4.7229956 13.370902 4.4296875 13.125 L 4.0605469 12.816406 C 3.7165686 12.527772 3.5014414 12.117927 3.4550781 11.662109 C 3.4086787 11.206404 3.5360928 10.758526 3.8144531 10.402344 L 9.4980469 3.1289062 C 9.813686 2.7249679 10.283267 2.4921875 10.787109 2.4921875 C 11.164711 2.4921875 11.534889 2.6272202 11.828125 2.8730469 L 12.197266 3.1835938 C 12.907336 3.7787431 13.017923 4.8603224 12.443359 5.5957031 C 12.322185 5.7508161 12.266914 5.9461231 12.287109 6.1445312 C 12.307341 6.3429019 12.401123 6.5210596 12.550781 6.6464844 C 12.678724 6.7536915 12.83959 6.8125 13.003906 6.8125 C 13.222802 6.8125 13.426847 6.7131764 13.564453 6.5371094 C 14.084366 5.8717506 14.323264 5.0350616 14.236328 4.1816406 C 14.149465 3.3281821 13.747895 2.5617971 13.105469 2.0234375 L 12.736328 1.7128906 C 12.18728 1.2529122 11.495188 1 10.789062 1 z"/>
</svg>
