<svg xmlns="http://www.w3.org/2000/svg" width="16" height="16" version="1.1">
 <defs>
   <style id="current-color-scheme" type="text/css">
   .ColorScheme-Text { color: #2b68d1; } .ColorScheme-Highlight { color:#5294e2; }
  </style>
  <linearGradient id="arrongin" x1="0%" x2="0%" y1="0%" y2="100%">
   <stop offset="0%" style="stop-color:#dd9b44; stop-opacity:1"/>
   <stop offset="100%" style="stop-color:#ad6c16; stop-opacity:1"/>
  </linearGradient>
  <linearGradient id="aurora" x1="0%" x2="0%" y1="0%" y2="100%">
   <stop offset="0%" style="stop-color:#09D4DF; stop-opacity:1"/>
   <stop offset="100%" style="stop-color:#9269F4; stop-opacity:1"/>
  </linearGradient>
  <linearGradient id="cyberneon" x1="0%" x2="0%" y1="0%" y2="100%">
    <stop offset="0" style="stop-color:#0abdc6; stop-opacity:1"/>
    <stop offset="1" style="stop-color:#ea00d9; stop-opacity:1"/>
  </linearGradient>
  <linearGradient id="fitdance" x1="0%" x2="0%" y1="0%" y2="100%">
   <stop offset="0%" style="stop-color:#1AD6AB; stop-opacity:1"/>
   <stop offset="100%" style="stop-color:#329DB6; stop-opacity:1"/>
  </linearGradient>
  <linearGradient id="oomox" x1="0%" x2="0%" y1="0%" y2="100%">
   <stop offset="0%" style="stop-color:#efefe7; stop-opacity:1"/>
   <stop offset="100%" style="stop-color:#8f8f8b; stop-opacity:1"/>
  </linearGradient>
  <linearGradient id="rainblue" x1="0%" x2="0%" y1="0%" y2="100%">
   <stop offset="0%" style="stop-color:#00F260; stop-opacity:1"/>
   <stop offset="100%" style="stop-color:#0575E6; stop-opacity:1"/>
  </linearGradient>
  <linearGradient id="sunrise" x1="0%" x2="0%" y1="0%" y2="100%">
   <stop offset="0%" style="stop-color: #FF8501; stop-opacity:1"/>
   <stop offset="100%" style="stop-color: #FFCB01; stop-opacity:1"/>
  </linearGradient>
  <linearGradient id="telinkrin" x1="0%" x2="0%" y1="0%" y2="100%">
   <stop offset="0%" style="stop-color: #b2ced6; stop-opacity:1"/>
   <stop offset="100%" style="stop-color: #6da5b7; stop-opacity:1"/>
  </linearGradient>
  <linearGradient id="60spsycho" x1="0%" x2="0%" y1="0%" y2="100%">
   <stop offset="0%" style="stop-color: #df5940; stop-opacity:1"/>
   <stop offset="25%" style="stop-color: #d8d15f; stop-opacity:1"/>
   <stop offset="50%" style="stop-color: #e9882a; stop-opacity:1"/>
   <stop offset="100%" style="stop-color: #279362; stop-opacity:1"/>
  </linearGradient>
  <linearGradient id="90ssummer" x1="0%" x2="0%" y1="0%" y2="100%">
   <stop offset="0%" style="stop-color: #f618c7; stop-opacity:1"/>
   <stop offset="20%" style="stop-color: #94ffab; stop-opacity:1"/>
   <stop offset="50%" style="stop-color: #fbfd54; stop-opacity:1"/>
   <stop offset="100%" style="stop-color: #0f83ae; stop-opacity:1"/>
  </linearGradient>
 </defs>
 <path fill="currentColor" class="ColorScheme-Text" d="M 0 0 L 0 1.333 L 1.333 1.333 L 1.333 0 L 0 0 Z M 2.667 0 L 2.667 1.333 L 4 1.333 L 4 0 L 2.667 0 Z M 5.333 0 L 5.333 1.333 L 6.667 1.333 L 6.667 0 L 5.333 0 Z M 8 0 L 8 1.333 L 9.333 1.333 L 9.333 0 L 8 0 Z M 10.667 0 L 10.667 1.333 L 12 1.333 L 12 0 L 10.667 0 Z M 13.333 0 L 13.333 1.333 L 14.667 1.333 L 14.667 0 L 13.333 0 Z M 0 2.667 L 0 4 L 1.333 4 L 1.333 2.667 L 0 2.667 Z M 13.333 2.667 L 13.333 4 L 14.667 4 L 14.667 2.667 L 13.333 2.667 Z M 0 5.333 L 0 6.667 L 1.333 6.667 L 1.333 5.333 L 0 5.333 Z M 13.333 5.333 L 13.333 6.667 L 14.667 6.667 L 14.667 5.333 L 13.333 5.333 Z M 7 6 L 6.791 6.271 L 6 7.333 L 2.667 7.333 L 2.667 16 L 16 16 L 16 7.333 L 12.667 7.333 L 11.875 6.271 L 11.667 6 L 7 6 Z M 7.667 7.333 L 11 7.333 L 11.792 8.396 L 12 8.667 L 14.667 8.667 L 14.667 14.667 L 4 14.667 L 4 8.667 L 6.667 8.667 L 6.875 8.396 L 7.667 7.333 Z M 0 8 L 0 9.333 L 1.333 9.333 L 1.333 8 L 0 8 Z M 9.333 8.667 C 7.867 8.667 6.667 9.867 6.667 11.333 C 6.667 12.8 7.867 14 9.333 14 C 10.8 14 12 12.8 12 11.333 C 12 9.867 10.8 8.667 9.333 8.667 Z M 9.333 10 C 10.078 10 10.667 10.589 10.667 11.333 C 10.667 12.078 10.078 12.667 9.333 12.667 C 8.589 12.667 8 12.078 8 11.333 C 8 10.589 8.589 10 9.333 10 Z M 0 10.667 L 0 12 L 1.333 12 L 1.333 10.667 L 0 10.667 Z"/>
</svg>
