<svg xmlns="http://www.w3.org/2000/svg" width="32" height="32" viewBox="0 0 32 32">
  <rect width="32" height="32" fill="#09161c"/>
  <rect width="32" height="1" fill="#0391e8" fill-opacity="0.1"/>
  <g fill="#0391e8" opacity="0.7">
    <circle cx="16" cy="16" r="12" opacity="0"/>
    <path d="m10 18 1.41 1.41 4.59-4.59 4.59 4.59 1.41-1.41-6-6z"/>
  </g>
</svg>
