<svg xmlns="http://www.w3.org/2000/svg" width="22" height="22" version="1.1">
 <defs>
  <style id="current-color-scheme" type="text/css">
   .ColorScheme-Text { color: #0391e8; } .ColorScheme-Highlight { color: #1AD6AB; }
  </style>
  <linearGradient id="arrongin" x1="0%" x2="0%" y1="0%" y2="100%">
   <stop offset="0%" style="stop-color:#dd9b44"/>
   <stop offset="100%" style="stop-color:#ad6c16"/>
  </linearGradient>
  <linearGradient id="aurora" x1="0%" x2="0%" y1="0%" y2="100%">
   <stop offset="0%" style="stop-color:#09D4DF"/>
   <stop offset="100%" style="stop-color:#9269F4"/>
  </linearGradient>
  <linearGradient id="cyberneon" x1="0%" x2="0%" y1="0%" y2="100%">
   <stop offset="0" style="stop-color:#0abdc6"/>
   <stop offset="1" style="stop-color:#ea00d9"/>
  </linearGradient>
  <linearGradient id="fitdance" x1="0%" x2="0%" y1="0%" y2="100%">
   <stop offset="0%" style="stop-color:#1AD6AB"/>
   <stop offset="100%" style="stop-color:#329DB6"/>
  </linearGradient>
  <linearGradient id="oomox" x1="0%" x2="0%" y1="0%" y2="100%">
   <stop offset="0%" style="stop-color:#efefe7"/>
   <stop offset="100%" style="stop-color:#8f8f8b"/>
  </linearGradient>
  <linearGradient id="rainblue" x1="0%" x2="0%" y1="0%" y2="100%">
   <stop offset="0%" style="stop-color:#00F260"/>
   <stop offset="100%" style="stop-color:#0575E6"/>
  </linearGradient>
  <linearGradient id="sunrise" x1="0%" x2="0%" y1="0%" y2="100%">
   <stop offset="0%" style="stop-color:#FF8501"/>
   <stop offset="100%" style="stop-color:#FFCB01"/>
  </linearGradient>
  <linearGradient id="telinkrin" x1="0%" x2="0%" y1="0%" y2="100%">
   <stop offset="0%" style="stop-color:#b2ced6"/>
   <stop offset="100%" style="stop-color:#6da5b7"/>
  </linearGradient>
  <linearGradient id="60spsycho" x1="0%" x2="0%" y1="0%" y2="100%">
   <stop offset="0%" style="stop-color:#df5940"/>
   <stop offset="25%" style="stop-color:#d8d15f"/>
   <stop offset="50%" style="stop-color:#e9882a"/>
   <stop offset="100%" style="stop-color:#279362"/>
  </linearGradient>
  <linearGradient id="90ssummer" x1="0%" x2="0%" y1="0%" y2="100%">
   <stop offset="0%" style="stop-color:#f618c7"/>
   <stop offset="20%" style="stop-color:#94ffab"/>
   <stop offset="50%" style="stop-color:#fbfd54"/>
   <stop offset="100%" style="stop-color:#0f83ae"/>
  </linearGradient>
 </defs>
 <path fill="currentColor" class="ColorScheme-Text" d="M 11 3 C 4.6597698 3.0002075 4.4972205 3.0034194 4.3320312 3.0996094 C 3.9813623 3.3038871 4 3.0517391 4 7.8144531 C 4 12.647547 3.9943346 12.551002 4.3769531 13.488281 C 4.8171534 14.566471 5.5255238 15.476556 6.6894531 16.466797 C 7.6660619 17.297672 8.8237495 18.05076 10.115234 18.689453 C 10.552159 18.905531 10.778121 19.003571 11 19 C 11.221879 19.0035 11.447839 18.905535 11.884766 18.689453 C 13.17625 18.05076 14.333937 17.297672 15.310547 16.466797 C 16.474476 15.476556 17.182847 14.566471 17.623047 13.488281 C 18.005727 12.551001 18 12.647547 18 7.8144531 C 18 3.0517354 18.018633 3.3038871 17.667969 3.0996094 C 17.50278 3.0034034 17.340231 3.000207 11 3 z M 11 5 C 13.808426 5.0000917 15.08168 5.0030098 15.978516 5.0117188 C 15.989059 5.626764 16 6.1125284 16 7.8144531 C 16 10.231926 15.995104 11.435738 15.958984 11.980469 C 15.922904 12.5252 15.970444 12.245121 15.771484 12.732422 C 15.46611 13.480382 15.023376 14.085991 14.015625 14.943359 C 13.181146 15.653316 12.157854 16.321681 11 16.894531 L 11 5 z"/>
</svg>
