<svg xmlns="http://www.w3.org/2000/svg" width="22" height="22" version="1.1">
 <defs>
  <style id="current-color-scheme" type="text/css">
   .ColorScheme-Text { color: #0391e8; } .ColorScheme-Highlight { color: #1AD6AB; }
  </style>
  <linearGradient id="arrongin" x1="0%" x2="0%" y1="0%" y2="100%">
   <stop offset="0%" style="stop-color:#dd9b44"/>
   <stop offset="100%" style="stop-color:#ad6c16"/>
  </linearGradient>
  <linearGradient id="aurora" x1="0%" x2="0%" y1="0%" y2="100%">
   <stop offset="0%" style="stop-color:#09D4DF"/>
   <stop offset="100%" style="stop-color:#9269F4"/>
  </linearGradient>
  <linearGradient id="cyberneon" x1="0%" x2="0%" y1="0%" y2="100%">
   <stop offset="0" style="stop-color:#0abdc6"/>
   <stop offset="1" style="stop-color:#ea00d9"/>
  </linearGradient>
  <linearGradient id="fitdance" x1="0%" x2="0%" y1="0%" y2="100%">
   <stop offset="0%" style="stop-color:#1AD6AB"/>
   <stop offset="100%" style="stop-color:#329DB6"/>
  </linearGradient>
  <linearGradient id="oomox" x1="0%" x2="0%" y1="0%" y2="100%">
   <stop offset="0%" style="stop-color:#efefe7"/>
   <stop offset="100%" style="stop-color:#8f8f8b"/>
  </linearGradient>
  <linearGradient id="rainblue" x1="0%" x2="0%" y1="0%" y2="100%">
   <stop offset="0%" style="stop-color:#00F260"/>
   <stop offset="100%" style="stop-color:#0575E6"/>
  </linearGradient>
  <linearGradient id="sunrise" x1="0%" x2="0%" y1="0%" y2="100%">
   <stop offset="0%" style="stop-color:#FF8501"/>
   <stop offset="100%" style="stop-color:#FFCB01"/>
  </linearGradient>
  <linearGradient id="telinkrin" x1="0%" x2="0%" y1="0%" y2="100%">
   <stop offset="0%" style="stop-color:#b2ced6"/>
   <stop offset="100%" style="stop-color:#6da5b7"/>
  </linearGradient>
  <linearGradient id="60spsycho" x1="0%" x2="0%" y1="0%" y2="100%">
   <stop offset="0%" style="stop-color:#df5940"/>
   <stop offset="25%" style="stop-color:#d8d15f"/>
   <stop offset="50%" style="stop-color:#e9882a"/>
   <stop offset="100%" style="stop-color:#279362"/>
  </linearGradient>
  <linearGradient id="90ssummer" x1="0%" x2="0%" y1="0%" y2="100%">
   <stop offset="0%" style="stop-color:#f618c7"/>
   <stop offset="20%" style="stop-color:#94ffab"/>
   <stop offset="50%" style="stop-color:#fbfd54"/>
   <stop offset="100%" style="stop-color:#0f83ae"/>
  </linearGradient>
 </defs>
 <g transform="matrix(.046206 0 0 .045375 2.8524 2.9989)">
  <path fill="currentColor" class="ColorScheme-Highlight" d="m10.924 3.0117l-6.7697 1.9863c-0.0924 0.032-0.1543 0.4742-0.1543 0.5704 0 2.3721 0.6393 5.1166 1.7539 7.5256 0.9041 1.954 2.53 4.56 5.1411 5.881 0.033 0.016 0.069 0.025 0.105 0.025s0.072-0.009 0.105-0.025c2.611-1.321 4.237-3.927 5.141-5.881 1.115-2.409 1.754-5.1539 1.754-7.5256 0-0.0962-0.062-0.5384-0.154-0.5704l-6.77-1.9863c-0.05-0.0172-0.102-0.0172-0.152 0zm0.031 2.9961c0.028-0.0097 0.06-0.0097 0.088 0l3.869 1.3184c0.053 0.018 0.088 0.065 0.088 0.1191 0 1.3341-0.365 2.8777-1.002 4.2327-0.517 1.099-1.446 2.565-2.937 3.308-0.019 0.01-0.04 0.014-0.061 0.014s-0.042-0.004-0.061-0.014c-1.4913-0.742-2.4204-2.209-2.937-3.308-0.637-1.355-1.002-2.8984-1.002-4.2327 0-0.0541 0.0351-0.1011 0.0879-0.1191l3.8671-1.3184zm-0.955 0.9922v4h2v-4h-2zm0 5v2h2v-2h-2z" transform="matrix(21.642 0 0 22.039 -61.732 -66.091)"/>
 </g>
</svg>
