<svg xmlns="http://www.w3.org/2000/svg" width="16" height="16" version="1.1">
 <defs>
   <style id="current-color-scheme" type="text/css">
   .ColorScheme-Text { color: #2b68d1; } .ColorScheme-Highlight { color:#5294e2; }
  </style>
  <linearGradient id="arrongin" x1="0%" x2="0%" y1="0%" y2="100%">
   <stop offset="0%" style="stop-color:#dd9b44; stop-opacity:1"/>
   <stop offset="100%" style="stop-color:#ad6c16; stop-opacity:1"/>
  </linearGradient>
  <linearGradient id="aurora" x1="0%" x2="0%" y1="0%" y2="100%">
   <stop offset="0%" style="stop-color:#09D4DF; stop-opacity:1"/>
   <stop offset="100%" style="stop-color:#9269F4; stop-opacity:1"/>
  </linearGradient>
  <linearGradient id="cyberneon" x1="0%" x2="0%" y1="0%" y2="100%">
    <stop offset="0" style="stop-color:#0abdc6; stop-opacity:1"/>
    <stop offset="1" style="stop-color:#ea00d9; stop-opacity:1"/>
  </linearGradient>
  <linearGradient id="fitdance" x1="0%" x2="0%" y1="0%" y2="100%">
   <stop offset="0%" style="stop-color:#1AD6AB; stop-opacity:1"/>
   <stop offset="100%" style="stop-color:#329DB6; stop-opacity:1"/>
  </linearGradient>
  <linearGradient id="oomox" x1="0%" x2="0%" y1="0%" y2="100%">
   <stop offset="0%" style="stop-color:#efefe7; stop-opacity:1"/>
   <stop offset="100%" style="stop-color:#8f8f8b; stop-opacity:1"/>
  </linearGradient>
  <linearGradient id="rainblue" x1="0%" x2="0%" y1="0%" y2="100%">
   <stop offset="0%" style="stop-color:#00F260; stop-opacity:1"/>
   <stop offset="100%" style="stop-color:#0575E6; stop-opacity:1"/>
  </linearGradient>
  <linearGradient id="sunrise" x1="0%" x2="0%" y1="0%" y2="100%">
   <stop offset="0%" style="stop-color: #FF8501; stop-opacity:1"/>
   <stop offset="100%" style="stop-color: #FFCB01; stop-opacity:1"/>
  </linearGradient>
  <linearGradient id="telinkrin" x1="0%" x2="0%" y1="0%" y2="100%">
   <stop offset="0%" style="stop-color: #b2ced6; stop-opacity:1"/>
   <stop offset="100%" style="stop-color: #6da5b7; stop-opacity:1"/>
  </linearGradient>
  <linearGradient id="60spsycho" x1="0%" x2="0%" y1="0%" y2="100%">
   <stop offset="0%" style="stop-color: #df5940; stop-opacity:1"/>
   <stop offset="25%" style="stop-color: #d8d15f; stop-opacity:1"/>
   <stop offset="50%" style="stop-color: #e9882a; stop-opacity:1"/>
   <stop offset="100%" style="stop-color: #279362; stop-opacity:1"/>
  </linearGradient>
  <linearGradient id="90ssummer" x1="0%" x2="0%" y1="0%" y2="100%">
   <stop offset="0%" style="stop-color: #f618c7; stop-opacity:1"/>
   <stop offset="20%" style="stop-color: #94ffab; stop-opacity:1"/>
   <stop offset="50%" style="stop-color: #fbfd54; stop-opacity:1"/>
   <stop offset="100%" style="stop-color: #0f83ae; stop-opacity:1"/>
  </linearGradient>
 </defs>
 <path fill="currentColor" class="ColorScheme-Text" d="M 12.526 0.696 C 12.374 0.694 12.238 0.792 12.19 0.936 L 10.461 6.261 L 5.54 6.261 L 3.81 0.936 C 3.764 0.796 3.634 0.7 3.486 0.696 C 3.339 0.693 3.205 0.783 3.153 0.921 L 1.068 6.484 C 1.067 6.484 1.067 6.485 1.065 6.486 L 0.022 9.269 C -0.033 9.416 0.017 9.581 0.144 9.672 L 7.793 15.235 L 7.795 15.238 C 7.796 15.238 7.796 15.238 7.796 15.239 L 7.81 15.247 C 7.815 15.25 7.819 15.254 7.825 15.256 C 7.826 15.256 7.826 15.258 7.828 15.258 C 7.828 15.258 7.829 15.259 7.83 15.259 C 7.832 15.261 7.833 15.262 7.836 15.262 L 7.841 15.266 C 7.848 15.269 7.856 15.273 7.864 15.276 L 7.864 15.277 L 7.887 15.285 C 7.889 15.285 7.889 15.285 7.89 15.286 C 7.896 15.288 7.902 15.29 7.908 15.292 C 7.91 15.292 7.913 15.293 7.917 15.293 C 7.917 15.295 7.917 15.295 7.917 15.293 C 7.924 15.296 7.931 15.297 7.937 15.299 L 7.965 15.303 C 7.979 15.303 7.993 15.304 8.007 15.304 C 8.021 15.303 8.033 15.303 8.045 15.3 C 8.051 15.3 8.054 15.3 8.06 15.299 L 8.063 15.299 C 8.065 15.297 8.067 15.297 8.07 15.297 C 8.071 15.297 8.072 15.296 8.075 15.296 C 8.078 15.295 8.082 15.295 8.084 15.293 C 8.089 15.292 8.094 15.291 8.098 15.289 C 8.101 15.289 8.102 15.289 8.103 15.288 L 8.108 15.288 C 8.12 15.284 8.132 15.279 8.143 15.273 C 8.144 15.273 8.144 15.273 8.145 15.271 C 8.147 15.271 8.148 15.271 8.15 15.27 L 8.158 15.266 C 8.165 15.262 8.172 15.258 8.18 15.254 C 8.182 15.253 8.183 15.251 8.185 15.25 C 8.186 15.25 8.188 15.248 8.189 15.248 C 8.195 15.244 8.2 15.242 8.205 15.238 L 8.208 15.234 L 15.857 9.673 C 15.983 9.58 16.033 9.416 15.978 9.269 L 14.937 6.496 C 14.936 6.493 14.935 6.49 14.934 6.486 L 12.848 0.921 C 12.797 0.787 12.67 0.698 12.526 0.696 L 12.526 0.696 Z M 2.11 6.957 L 5.034 6.957 L 7.071 13.223 L 2.11 6.957 Z M 10.966 6.957 L 13.89 6.957 L 8.929 13.223 L 10.966 6.957 Z M 1.5 7.307 L 6.152 13.183 L 0.767 9.266 L 1.5 7.307 Z M 14.5 7.307 L 15.234 9.266 L 9.848 13.183 L 14.5 7.307 Z"/>
</svg>
