<svg xmlns="http://www.w3.org/2000/svg" width="16" height="16" version="1.1">
 <defs>
   <style id="current-color-scheme" type="text/css">
   .ColorScheme-Text { color: #2b68d1; } .ColorScheme-Highlight { color:#5294e2; }
  </style>
  <linearGradient id="arrongin" x1="0%" x2="0%" y1="0%" y2="100%">
   <stop offset="0%" style="stop-color:#dd9b44; stop-opacity:1"/>
   <stop offset="100%" style="stop-color:#ad6c16; stop-opacity:1"/>
  </linearGradient>
  <linearGradient id="aurora" x1="0%" x2="0%" y1="0%" y2="100%">
   <stop offset="0%" style="stop-color:#09D4DF; stop-opacity:1"/>
   <stop offset="100%" style="stop-color:#9269F4; stop-opacity:1"/>
  </linearGradient>
  <linearGradient id="cyberneon" x1="0%" x2="0%" y1="0%" y2="100%">
    <stop offset="0" style="stop-color:#0abdc6; stop-opacity:1"/>
    <stop offset="1" style="stop-color:#ea00d9; stop-opacity:1"/>
  </linearGradient>
  <linearGradient id="fitdance" x1="0%" x2="0%" y1="0%" y2="100%">
   <stop offset="0%" style="stop-color:#1AD6AB; stop-opacity:1"/>
   <stop offset="100%" style="stop-color:#329DB6; stop-opacity:1"/>
  </linearGradient>
  <linearGradient id="oomox" x1="0%" x2="0%" y1="0%" y2="100%">
   <stop offset="0%" style="stop-color:#efefe7; stop-opacity:1"/>
   <stop offset="100%" style="stop-color:#8f8f8b; stop-opacity:1"/>
  </linearGradient>
  <linearGradient id="rainblue" x1="0%" x2="0%" y1="0%" y2="100%">
   <stop offset="0%" style="stop-color:#00F260; stop-opacity:1"/>
   <stop offset="100%" style="stop-color:#0575E6; stop-opacity:1"/>
  </linearGradient>
  <linearGradient id="sunrise" x1="0%" x2="0%" y1="0%" y2="100%">
   <stop offset="0%" style="stop-color: #FF8501; stop-opacity:1"/>
   <stop offset="100%" style="stop-color: #FFCB01; stop-opacity:1"/>
  </linearGradient>
  <linearGradient id="telinkrin" x1="0%" x2="0%" y1="0%" y2="100%">
   <stop offset="0%" style="stop-color: #b2ced6; stop-opacity:1"/>
   <stop offset="100%" style="stop-color: #6da5b7; stop-opacity:1"/>
  </linearGradient>
  <linearGradient id="60spsycho" x1="0%" x2="0%" y1="0%" y2="100%">
   <stop offset="0%" style="stop-color: #df5940; stop-opacity:1"/>
   <stop offset="25%" style="stop-color: #d8d15f; stop-opacity:1"/>
   <stop offset="50%" style="stop-color: #e9882a; stop-opacity:1"/>
   <stop offset="100%" style="stop-color: #279362; stop-opacity:1"/>
  </linearGradient>
  <linearGradient id="90ssummer" x1="0%" x2="0%" y1="0%" y2="100%">
   <stop offset="0%" style="stop-color: #f618c7; stop-opacity:1"/>
   <stop offset="20%" style="stop-color: #94ffab; stop-opacity:1"/>
   <stop offset="50%" style="stop-color: #fbfd54; stop-opacity:1"/>
   <stop offset="100%" style="stop-color: #0f83ae; stop-opacity:1"/>
  </linearGradient>
 </defs>
 <rect fill="currentColor" class="ColorScheme-Text" width="4.625" height="3.594" x="17.09" y="-.09" transform="matrix(1,0,0,1,0,0)"/>
 <path fill="currentColor" class="ColorScheme-Text" d="M 6.923 14.82 C 6.754 14.727 5.854 14.162 4.929 13.569 C 2.729 12.163 2.067 11.755 1.602 11.53 C 0.973 11.224 1.032 11.58 1.011 7.981 C 0.993 4.62 0.95 4.034 1.28 4.121 C 1.021 3.887 2.238 3.52 4.142 2.708 C 6.002 1.913 8.057 1.113 8.511 1.004 C 8.631 0.976 8.925 1.092 10.026 1.619 C 12.451 2.773 14.449 3.834 14.705 4.103 C 14.764 4.164 14.844 4.215 14.885 4.215 C 15.001 4.215 15.033 4.436 14.967 4.841 C 14.938 5.047 14.71 6.379 14.464 7.804 C 14.218 9.227 13.999 10.538 13.979 10.716 C 13.906 11.347 13.926 11.324 12.921 11.915 C 12.422 12.211 11.15 12.922 10.1 13.494 C 9.049 14.065 8.003 14.64 7.775 14.772 C 7.547 14.9 7.333 15.002 7.297 15 C 7.263 14.998 7.094 14.918 6.926 14.822 M 7.169 13.425 C 7.187 12.944 7.224 11.565 7.247 10.364 C 7.304 7.696 7.317 7.778 6.727 7.4 C 6.003 6.935 5.221 6.5 3.888 5.83 C 3.161 5.465 2.366 5.051 2.117 4.907 C 1.812 4.729 1.65 4.668 1.612 4.704 C 1.539 4.772 1.534 7.564 1.602 9.517 L 1.65 10.907 L 2.051 11.13 C 2.396 11.324 4.408 12.621 6.358 13.908 C 6.689 14.125 6.992 14.3 7.042 14.303 C 7.127 14.305 7.138 14.193 7.168 13.428 M 3.718 11.035 L 3.804 8.341 L 2.735 7.801 L 2.874 6.689 L 6.256 8.232 L 6.192 9.276 L 4.964 8.788 C 4.805 9.39 4.78 10.6 4.688 11.523 L 3.718 11.035 M 10.1 12.924 C 12.554 11.575 13.384 11.081 13.414 10.94 C 13.43 10.876 13.48 10.555 13.532 10.229 C 13.582 9.9 13.799 8.615 14.013 7.371 C 14.368 5.284 14.443 4.753 14.375 4.753 C 14.302 4.753 12.987 5.321 11.31 6.075 C 10.273 6.542 9.123 7.057 8.753 7.221 C 8.382 7.385 8.049 7.552 8.008 7.581 C 7.894 7.682 7.63 13.862 7.732 14.11 C 7.764 14.192 7.805 14.183 8.09 14.025 C 8.27 13.929 9.172 13.432 10.097 12.924 M 8.869 11.997 C 8.851 10.568 8.737 9.155 9.07 7.658 L 9.765 7.646 L 9.826 9.699 L 12.25 6.863 L 13.395 6.578 L 11.262 9.383 L 13.238 10.29 L 12.424 10.794 L 10.409 9.935 L 9.678 10.281 L 9.653 11.662 M 8.114 6.942 C 8.278 6.874 9.473 6.329 10.774 5.739 C 12.073 5.144 13.299 4.59 13.5 4.509 C 14.033 4.287 14.055 4.258 13.798 4.094 C 13.406 3.848 11.408 2.827 10.006 2.159 L 8.616 1.496 L 8.149 1.647 C 7.493 1.861 5.619 2.61 4.015 3.306 C 2.326 4.033 2.101 4.142 2.101 4.229 C 2.101 4.267 2.473 4.495 2.931 4.739 C 4.394 5.516 7.577 7.073 7.705 7.073 C 7.773 7.073 7.962 7.015 8.127 6.945 M 7.236 6.079 C 6.422 5.888 5.497 5.434 5.255 5.115 C 5.066 4.86 4.904 4.45 4.904 4.222 C 4.904 3.946 5.084 3.557 5.319 3.322 C 5.618 3.026 6.032 2.9 7.11 2.78 C 8.181 2.659 9.104 2.695 9.655 2.88 C 10.177 3.053 10.387 3.16 10.494 3.31 C 10.774 3.695 10.972 4.019 10.972 4.085 C 10.972 4.183 10.713 4.279 10.528 4.247 C 10.448 4.231 10.291 4.206 10.175 4.187 C 10.004 4.162 9.944 4.114 9.84 3.939 C 9.694 3.695 9.318 3.442 8.953 3.348 C 8.393 3.205 6.852 3.326 6.381 3.547 C 6.114 3.672 5.971 3.948 5.931 4.406 C 5.902 4.72 5.913 4.768 6.036 4.894 C 6.2 5.062 6.657 5.288 7.167 5.452 C 7.449 5.543 7.614 5.566 7.81 5.541 C 8.265 5.479 8.318 5.365 8.049 5.042 C 7.815 4.762 7.76 4.609 7.835 4.472 C 7.89 4.374 7.935 4.362 8.188 4.387 C 8.55 4.424 9.316 4.702 9.493 4.866 C 9.653 5.007 9.678 5.342 9.537 5.474 C 9.382 5.627 8.684 5.998 8.411 6.076 C 8.094 6.167 7.622 6.167 7.238 6.076"/>
</svg>
