<svg xmlns="http://www.w3.org/2000/svg" width="16" height="16" version="1.1">
 <defs>
   <style id="current-color-scheme" type="text/css">
   .ColorScheme-Text { color: #2b68d1; } .ColorScheme-Highlight { color:#5294e2; }
  </style>
  <linearGradient id="arrongin" x1="0%" x2="0%" y1="0%" y2="100%">
   <stop offset="0%" style="stop-color:#dd9b44; stop-opacity:1"/>
   <stop offset="100%" style="stop-color:#ad6c16; stop-opacity:1"/>
  </linearGradient>
  <linearGradient id="aurora" x1="0%" x2="0%" y1="0%" y2="100%">
   <stop offset="0%" style="stop-color:#09D4DF; stop-opacity:1"/>
   <stop offset="100%" style="stop-color:#9269F4; stop-opacity:1"/>
  </linearGradient>
  <linearGradient id="cyberneon" x1="0%" x2="0%" y1="0%" y2="100%">
    <stop offset="0" style="stop-color:#0abdc6; stop-opacity:1"/>
    <stop offset="1" style="stop-color:#ea00d9; stop-opacity:1"/>
  </linearGradient>
  <linearGradient id="fitdance" x1="0%" x2="0%" y1="0%" y2="100%">
   <stop offset="0%" style="stop-color:#1AD6AB; stop-opacity:1"/>
   <stop offset="100%" style="stop-color:#329DB6; stop-opacity:1"/>
  </linearGradient>
  <linearGradient id="oomox" x1="0%" x2="0%" y1="0%" y2="100%">
   <stop offset="0%" style="stop-color:#efefe7; stop-opacity:1"/>
   <stop offset="100%" style="stop-color:#8f8f8b; stop-opacity:1"/>
  </linearGradient>
  <linearGradient id="rainblue" x1="0%" x2="0%" y1="0%" y2="100%">
   <stop offset="0%" style="stop-color:#00F260; stop-opacity:1"/>
   <stop offset="100%" style="stop-color:#0575E6; stop-opacity:1"/>
  </linearGradient>
  <linearGradient id="sunrise" x1="0%" x2="0%" y1="0%" y2="100%">
   <stop offset="0%" style="stop-color: #FF8501; stop-opacity:1"/>
   <stop offset="100%" style="stop-color: #FFCB01; stop-opacity:1"/>
  </linearGradient>
  <linearGradient id="telinkrin" x1="0%" x2="0%" y1="0%" y2="100%">
   <stop offset="0%" style="stop-color: #b2ced6; stop-opacity:1"/>
   <stop offset="100%" style="stop-color: #6da5b7; stop-opacity:1"/>
  </linearGradient>
  <linearGradient id="60spsycho" x1="0%" x2="0%" y1="0%" y2="100%">
   <stop offset="0%" style="stop-color: #df5940; stop-opacity:1"/>
   <stop offset="25%" style="stop-color: #d8d15f; stop-opacity:1"/>
   <stop offset="50%" style="stop-color: #e9882a; stop-opacity:1"/>
   <stop offset="100%" style="stop-color: #279362; stop-opacity:1"/>
  </linearGradient>
  <linearGradient id="90ssummer" x1="0%" x2="0%" y1="0%" y2="100%">
   <stop offset="0%" style="stop-color: #f618c7; stop-opacity:1"/>
   <stop offset="20%" style="stop-color: #94ffab; stop-opacity:1"/>
   <stop offset="50%" style="stop-color: #fbfd54; stop-opacity:1"/>
   <stop offset="100%" style="stop-color: #0f83ae; stop-opacity:1"/>
  </linearGradient>
 </defs>
 <path fill="currentColor" class="ColorScheme-Text" d="m 8.2130317,0.5000001 -0.6437242,0.0064 c -0.3580305,0 -0.8919177,0.059625 -1.1978685,0.1194879 C 4.5945102,1.0059697 3.1945734,1.8856758 1.8862027,3.4658607 0.99447305,4.539216 0.29679626,6.1723032 0.08210853,7.6991465 -0.21078105,9.8192699 0.27840529,11.827514 1.5737153,13.814366 c 0.3645609,0.560005 0.4428978,0.638561 0.8270501,0.838549 0.7420195,0.39998 1.4442763,0.626454 2.5248985,0.806544 0.1106906,0.02006 0.2083249,0.02832 0.2083249,0.01493 0,-0.01321 -0.1624978,-0.153918 -0.3708184,-0.307255 C 4.1773911,14.713654 3.2341738,13.692734 2.8111655,13.052632 1.7631955,11.485825 1.4374631,10.32669 1.5091345,8.4331437 1.5352563,7.6664614 1.5810909,7.3537636 1.7112097,6.9203415 2.5768176,4.0203259 4.9264432,2.0329885 7.5172263,2.0064013 l 0.5333119,-0.0064 0.039582,-0.4331436 C 8.1162416,1.3269024 8.1473284,0.9935796 8.17345,0.8136559 Z m 0.2083249,1.9651494 c -0.5007203,-0.013043 -1.0552513,0.00115 -1.2374502,0.027738 -2.0440232,0.3399487 -3.7934987,1.694088 -4.6852283,3.6209103 -0.813691,1.7467314 -0.735204,4.0002242 0.2020752,5.8869132 0.6770419,1.36013 1.8348558,2.532324 3.2082044,3.238977 L 6.4235203,15.5 h 2.2769918 c 2.4541339,0 2.8775489,-0.03998 3.8540119,-0.3734 0.468721,-0.153336 0.885094,-0.360307 0.527062,-0.260312 -0.31248,0.09331 -2.883232,0.04693 -3.6123548,-0.05974 -3.7754022,-0.566696 -6.0476735,-2.8597 -6.0476736,-6.1066875 0,-0.7533053 0.020157,-0.8946119 0.1958255,-1.4146514 C 3.981944,6.1984739 4.6454491,5.3063798 5.511057,4.7396871 6.3637672,4.179683 7.1840916,3.93897 8.2255312,3.9523472 c 0.7616109,0 1.3733198,0.1276206 2.0436678,0.4075391 0.266931,0.113372 0.495532,0.1921544 0.502063,0.1856329 0.01307,-0.00669 0.155966,-0.2999978 0.318737,-0.6401137 C 11.434969,3.1920649 11.435807,3.193316 10.862925,2.966572 10.016745,2.6266231 9.3653296,2.4917368 8.4213566,2.4651495 Z M 8.2026154,4.3769561 C 7.9467171,4.3874696 7.6848112,4.4196313 7.4130639,4.4729731 6.8401823,4.5863451 5.881984,5.0453908 5.4589757,5.4054054 4.4369641,6.2720826 3.9361203,7.433781 3.9361203,8.9004269 c 0,0.913498 0.1055744,1.3984611 0.4895637,2.1785211 0.7485499,1.526675 2.3233176,2.567155 4.7123104,3.093882 0.5728816,0.133272 0.9051766,0.154612 2.8123866,0.181367 l 2.16658,0.02561 0.306237,-0.185631 c 0.29289,-0.173402 1.633547,-1.467997 1.574938,-1.521338 -0.0129,-0.0067 -0.259454,8.62e-4 -0.545812,0.03414 -0.28636,0.02675 -1.186509,0.08592 -1.993669,0.125889 C 10.373192,12.979507 8.5329782,12.673218 7.0422454,11.7532 6.6061762,11.479804 5.922694,10.759864 5.7339647,10.359887 5.0634533,8.9330369 5.4472261,7.2535915 6.6318453,6.440256 8.0313155,5.4867941 9.945472,5.8531066 10.850426,7.2532006 l 0.162493,0.2475107 0.624975,-0.341394 C 11.982863,6.9660162 12.27497,6.8056959 12.287868,6.7923187 12.366069,6.7255998 12.008422,6.2139052 11.546231,5.7339972 11.116529,5.2806765 10.920801,5.1341309 10.406693,4.874111 9.679245,4.5089129 8.9703103,4.345415 8.2026154,4.3769561 Z"/>
</svg>
