<svg xmlns="http://www.w3.org/2000/svg" width="16" height="16" version="1.1">
 <defs>
   <style id="current-color-scheme" type="text/css">
   .ColorScheme-Text { color: #498db8; } .ColorScheme-Highlight { color:#5294e2; }
  </style>
  <linearGradient id="arrongin" x1="0%" x2="0%" y1="0%" y2="100%">
   <stop offset="0%" style="stop-color:#dd9b44; stop-opacity:1"/>
   <stop offset="100%" style="stop-color:#ad6c16; stop-opacity:1"/>
  </linearGradient>
  <linearGradient id="aurora" x1="0%" x2="0%" y1="0%" y2="100%">
   <stop offset="0%" style="stop-color:#09D4DF; stop-opacity:1"/>
   <stop offset="100%" style="stop-color:#9269F4; stop-opacity:1"/>
  </linearGradient>
  <linearGradient id="cyberneon" x1="0%" x2="0%" y1="0%" y2="100%">
    <stop offset="0" style="stop-color:#0abdc6; stop-opacity:1"/>
    <stop offset="1" style="stop-color:#ea00d9; stop-opacity:1"/>
  </linearGradient>
  <linearGradient id="fitdance" x1="0%" x2="0%" y1="0%" y2="100%">
   <stop offset="0%" style="stop-color:#1AD6AB; stop-opacity:1"/>
   <stop offset="100%" style="stop-color:#329DB6; stop-opacity:1"/>
  </linearGradient>
  <linearGradient id="oomox" x1="0%" x2="0%" y1="0%" y2="100%">
   <stop offset="0%" style="stop-color:#efefe7; stop-opacity:1"/>
   <stop offset="100%" style="stop-color:#8f8f8b; stop-opacity:1"/>
  </linearGradient>
  <linearGradient id="rainblue" x1="0%" x2="0%" y1="0%" y2="100%">
   <stop offset="0%" style="stop-color:#00F260; stop-opacity:1"/>
   <stop offset="100%" style="stop-color:#0575E6; stop-opacity:1"/>
  </linearGradient>
  <linearGradient id="sunrise" x1="0%" x2="0%" y1="0%" y2="100%">
   <stop offset="0%" style="stop-color: #FF8501; stop-opacity:1"/>
   <stop offset="100%" style="stop-color: #FFCB01; stop-opacity:1"/>
  </linearGradient>
  <linearGradient id="telinkrin" x1="0%" x2="0%" y1="0%" y2="100%">
   <stop offset="0%" style="stop-color: #b2ced6; stop-opacity:1"/>
   <stop offset="100%" style="stop-color: #6da5b7; stop-opacity:1"/>
  </linearGradient>
  <linearGradient id="60spsycho" x1="0%" x2="0%" y1="0%" y2="100%">
   <stop offset="0%" style="stop-color: #df5940; stop-opacity:1"/>
   <stop offset="25%" style="stop-color: #d8d15f; stop-opacity:1"/>
   <stop offset="50%" style="stop-color: #e9882a; stop-opacity:1"/>
   <stop offset="100%" style="stop-color: #279362; stop-opacity:1"/>
  </linearGradient>
  <linearGradient id="90ssummer" x1="0%" x2="0%" y1="0%" y2="100%">
   <stop offset="0%" style="stop-color: #f618c7; stop-opacity:1"/>
   <stop offset="20%" style="stop-color: #94ffab; stop-opacity:1"/>
   <stop offset="50%" style="stop-color: #fbfd54; stop-opacity:1"/>
   <stop offset="100%" style="stop-color: #0f83ae; stop-opacity:1"/>
  </linearGradient>
 </defs>
 <path fill="currentColor" class="ColorScheme-Text" d="M 1.4023438 3.0039062 C 0.86703779 3.1072714 -0.17055275 4.8974618 0.0234375 5.4023438 C 0.26417488 6.0261813 0.98808087 6.6374077 1.8886719 7.1992188 A 3.0110381 3.1492774 0 0 0 0.50390625 9.8515625 A 3.0110381 3.1492774 0 0 0 3.5136719 13 A 3.0110381 3.1492774 0 0 0 6.5253906 9.8515625 A 3.0110381 3.1492774 0 0 0 6.4726562 9.2597656 C 6.6766577 9.3282845 6.9479801 9.433667 7.1132812 9.484375 C 7.4638815 9.592227 7.6953125 8.3671875 7.6953125 8.3671875 C 7.6953125 8.3671875 3.2919899 5.1268454 1.5957031 3.0722656 C 1.5447887 3.0095767 1.478816 2.9891398 1.4023438 3.0039062 z M 14.597656 3.0039062 C 14.521184 2.9891398 14.455211 3.0095767 14.404297 3.0722656 C 12.70801 5.1268454 8.3046875 8.3671875 8.3046875 8.3671875 C 8.3046875 8.3671875 8.5361184 9.592227 8.8867188 9.484375 C 9.0520199 9.433667 9.3233423 9.3282845 9.5273438 9.2597656 A 3.0110381 3.1492774 0 0 0 9.4746094 9.8515625 A 3.0110381 3.1492774 0 0 0 12.486328 13 A 3.0110381 3.1492774 0 0 0 15.496094 9.8515625 A 3.0110381 3.1492774 0 0 0 14.111328 7.1992188 C 15.011919 6.6374077 15.735825 6.0261813 15.976562 5.4023438 C 16.170553 4.8974618 15.132962 3.1072714 14.597656 3.0039062 z M 13.763672 7.6933594 C 13.891227 7.6803314 14.049381 7.766105 14.263672 7.9902344 C 15.243291 9.0148283 15.243291 10.680484 14.263672 11.705078 C 13.284054 12.729672 11.692508 12.729672 10.712891 11.705078 C 9.7332714 10.680484 11.50671 10.876156 12.486328 9.8515625 C 13.251655 9.0510984 13.308119 7.7398912 13.763672 7.6933594 z M 2.2402344 7.6972656 C 2.6944112 7.7423566 2.7483449 9.0510984 3.5136719 9.8515625 C 4.4932905 10.876156 6.2725874 10.686344 5.2929688 11.710938 C 4.3133501 12.735532 2.7198529 12.735532 1.7402344 11.710938 C 0.76061579 10.686343 0.7606158 9.0206876 1.7402344 7.9960938 C 1.9545259 7.771964 2.1130649 7.6846398 2.2402344 7.6972656 z"/>
</svg>
