<svg xmlns="http://www.w3.org/2000/svg" width="16" height="16" version="1.1">
 <defs>
   <style id="current-color-scheme" type="text/css">
   .ColorScheme-Text { color: #498db8; } .ColorScheme-Highlight { color:#5294e2; }
  </style>
  <linearGradient id="arrongin" x1="0%" x2="0%" y1="0%" y2="100%">
   <stop offset="0%" style="stop-color:#dd9b44; stop-opacity:1"/>
   <stop offset="100%" style="stop-color:#ad6c16; stop-opacity:1"/>
  </linearGradient>
  <linearGradient id="aurora" x1="0%" x2="0%" y1="0%" y2="100%">
   <stop offset="0%" style="stop-color:#09D4DF; stop-opacity:1"/>
   <stop offset="100%" style="stop-color:#9269F4; stop-opacity:1"/>
  </linearGradient>
  <linearGradient id="cyberneon" x1="0%" x2="0%" y1="0%" y2="100%">
    <stop offset="0" style="stop-color:#0abdc6; stop-opacity:1"/>
    <stop offset="1" style="stop-color:#ea00d9; stop-opacity:1"/>
  </linearGradient>
  <linearGradient id="fitdance" x1="0%" x2="0%" y1="0%" y2="100%">
   <stop offset="0%" style="stop-color:#1AD6AB; stop-opacity:1"/>
   <stop offset="100%" style="stop-color:#329DB6; stop-opacity:1"/>
  </linearGradient>
  <linearGradient id="oomox" x1="0%" x2="0%" y1="0%" y2="100%">
   <stop offset="0%" style="stop-color:#efefe7; stop-opacity:1"/>
   <stop offset="100%" style="stop-color:#8f8f8b; stop-opacity:1"/>
  </linearGradient>
  <linearGradient id="rainblue" x1="0%" x2="0%" y1="0%" y2="100%">
   <stop offset="0%" style="stop-color:#00F260; stop-opacity:1"/>
   <stop offset="100%" style="stop-color:#0575E6; stop-opacity:1"/>
  </linearGradient>
  <linearGradient id="sunrise" x1="0%" x2="0%" y1="0%" y2="100%">
   <stop offset="0%" style="stop-color: #FF8501; stop-opacity:1"/>
   <stop offset="100%" style="stop-color: #FFCB01; stop-opacity:1"/>
  </linearGradient>
  <linearGradient id="telinkrin" x1="0%" x2="0%" y1="0%" y2="100%">
   <stop offset="0%" style="stop-color: #b2ced6; stop-opacity:1"/>
   <stop offset="100%" style="stop-color: #6da5b7; stop-opacity:1"/>
  </linearGradient>
  <linearGradient id="60spsycho" x1="0%" x2="0%" y1="0%" y2="100%">
   <stop offset="0%" style="stop-color: #df5940; stop-opacity:1"/>
   <stop offset="25%" style="stop-color: #d8d15f; stop-opacity:1"/>
   <stop offset="50%" style="stop-color: #e9882a; stop-opacity:1"/>
   <stop offset="100%" style="stop-color: #279362; stop-opacity:1"/>
  </linearGradient>
  <linearGradient id="90ssummer" x1="0%" x2="0%" y1="0%" y2="100%">
   <stop offset="0%" style="stop-color: #f618c7; stop-opacity:1"/>
   <stop offset="20%" style="stop-color: #94ffab; stop-opacity:1"/>
   <stop offset="50%" style="stop-color: #fbfd54; stop-opacity:1"/>
   <stop offset="100%" style="stop-color: #0f83ae; stop-opacity:1"/>
  </linearGradient>
 </defs>
 <path fill="currentColor" class="ColorScheme-Text" fill-rule="evenodd" d="M 9.375 9.286 C 9.123 9.286 8.919 9.491 8.919 9.742 C 8.919 9.994 9.123 10.198 9.375 10.198 C 9.627 10.198 9.831 9.994 9.831 9.742 C 9.831 9.491 9.627 9.286 9.375 9.286 L 9.375 9.286 L 9.375 9.286 Z M 8 11.111 C 7.998 11.115 7.996 11.117 7.994 11.117 C 7.993 11.117 7.992 11.117 7.991 11.117 C 7.878 11.114 7.765 11.109 7.689 11.11 L 7.689 11.109 C 7.688 11.109 7.688 11.109 7.688 11.109 L 7.688 14.15 C 3.844 13.909 1.001 10.722 1 6.871 C 1.002 6.255 1.082 5.626 1.238 5.031 Q 1.418 4.477 1.703 4.483 Q 2.334 4.497 2.181 5.031 C 2.003 5.623 1.913 6.253 1.912 6.871 C 1.919 9.864 3.853 12.451 6.776 13.092 L 6.776 12.163 C 6.493 12.09 6.216 12.002 5.952 11.887 L 5.864 11.844 C 3.979 10.982 2.824 9.086 2.824 6.87 C 2.824 5.23 3.543 3.904 4.679 2.903 L 4.679 2.903 Q 6.349 1.524 6.776 1.951 Q 7.236 2.513 6.312 2.903 C 4.786 3.639 3.736 5.057 3.736 6.871 C 3.736 8.564 4.501 10.033 5.864 10.82 L 5.865 10.198 C 5.7 10.198 5.561 9.894 5.561 9.59 C 5.561 9.286 5.692 8.982 5.865 8.982 C 5.739 8.341 5.835 7.888 5.298 7.401 C 4.984 7.193 4.952 7.135 4.952 6.772 C 4.952 6.225 5.336 5.437 6.078 4.463 L 6.078 4.463 C 6.488 3.944 7.081 2.903 7.993 2.903 C 7.995 2.903 7.998 2.903 8 2.903 C 8.002 2.903 8.005 2.903 8.007 2.903 C 8.919 2.903 9.512 3.944 9.922 4.463 L 9.922 4.463 C 10.664 5.437 11.048 6.225 11.048 6.772 C 11.048 7.135 11.016 7.193 10.702 7.401 C 10.165 7.888 10.261 8.341 10.135 8.982 C 10.308 8.982 10.439 9.286 10.439 9.59 C 10.439 9.894 10.3 10.198 10.135 10.198 L 10.136 10.82 C 11.499 10.033 12.264 8.564 12.264 6.871 C 12.264 5.057 11.214 3.639 9.688 2.903 Q 8.764 2.513 9.224 1.951 Q 9.651 1.524 11.321 2.903 L 11.321 2.903 C 12.457 3.904 13.176 5.23 13.176 6.87 C 13.176 9.086 12.021 10.982 10.136 11.844 L 10.048 11.887 C 9.784 12.002 9.507 12.09 9.224 12.163 L 9.224 13.092 C 12.147 12.451 14.081 9.864 14.088 6.871 C 14.087 6.253 13.997 5.623 13.819 5.031 Q 13.666 4.497 14.297 4.483 Q 14.582 4.477 14.762 5.031 C 14.918 5.626 14.998 6.255 15 6.871 C 14.999 10.722 12.156 13.909 8.312 14.15 L 8.312 11.109 C 8.312 11.109 8.312 11.109 8.311 11.109 L 8.311 11.11 C 8.235 11.109 8.122 11.114 8.009 11.117 C 8.008 11.117 8.007 11.117 8.006 11.117 C 8.004 11.117 8.002 11.115 8 11.111 Z M 6.625 9.286 C 6.373 9.286 6.169 9.491 6.169 9.742 C 6.169 9.994 6.373 10.198 6.625 10.198 C 6.877 10.198 7.081 9.994 7.081 9.742 C 7.081 9.491 6.877 9.286 6.625 9.286 L 6.625 9.286 L 6.625 9.286 Z"/>
</svg>
