<svg xmlns="http://www.w3.org/2000/svg" width="16" height="16" version="1.1">
 <defs>
   <style id="current-color-scheme" type="text/css">
   .ColorScheme-Text { color: #498db8; } .ColorScheme-Highlight { color:#5294e2; }
  </style>
  <linearGradient id="arrongin" x1="0%" x2="0%" y1="0%" y2="100%">
   <stop offset="0%" style="stop-color:#dd9b44; stop-opacity:1"/>
   <stop offset="100%" style="stop-color:#ad6c16; stop-opacity:1"/>
  </linearGradient>
  <linearGradient id="aurora" x1="0%" x2="0%" y1="0%" y2="100%">
   <stop offset="0%" style="stop-color:#09D4DF; stop-opacity:1"/>
   <stop offset="100%" style="stop-color:#9269F4; stop-opacity:1"/>
  </linearGradient>
  <linearGradient id="cyberneon" x1="0%" x2="0%" y1="0%" y2="100%">
    <stop offset="0" style="stop-color:#0abdc6; stop-opacity:1"/>
    <stop offset="1" style="stop-color:#ea00d9; stop-opacity:1"/>
  </linearGradient>
  <linearGradient id="fitdance" x1="0%" x2="0%" y1="0%" y2="100%">
   <stop offset="0%" style="stop-color:#1AD6AB; stop-opacity:1"/>
   <stop offset="100%" style="stop-color:#329DB6; stop-opacity:1"/>
  </linearGradient>
  <linearGradient id="oomox" x1="0%" x2="0%" y1="0%" y2="100%">
   <stop offset="0%" style="stop-color:#efefe7; stop-opacity:1"/>
   <stop offset="100%" style="stop-color:#8f8f8b; stop-opacity:1"/>
  </linearGradient>
  <linearGradient id="rainblue" x1="0%" x2="0%" y1="0%" y2="100%">
   <stop offset="0%" style="stop-color:#00F260; stop-opacity:1"/>
   <stop offset="100%" style="stop-color:#0575E6; stop-opacity:1"/>
  </linearGradient>
  <linearGradient id="sunrise" x1="0%" x2="0%" y1="0%" y2="100%">
   <stop offset="0%" style="stop-color: #FF8501; stop-opacity:1"/>
   <stop offset="100%" style="stop-color: #FFCB01; stop-opacity:1"/>
  </linearGradient>
  <linearGradient id="telinkrin" x1="0%" x2="0%" y1="0%" y2="100%">
   <stop offset="0%" style="stop-color: #b2ced6; stop-opacity:1"/>
   <stop offset="100%" style="stop-color: #6da5b7; stop-opacity:1"/>
  </linearGradient>
  <linearGradient id="60spsycho" x1="0%" x2="0%" y1="0%" y2="100%">
   <stop offset="0%" style="stop-color: #df5940; stop-opacity:1"/>
   <stop offset="25%" style="stop-color: #d8d15f; stop-opacity:1"/>
   <stop offset="50%" style="stop-color: #e9882a; stop-opacity:1"/>
   <stop offset="100%" style="stop-color: #279362; stop-opacity:1"/>
  </linearGradient>
  <linearGradient id="90ssummer" x1="0%" x2="0%" y1="0%" y2="100%">
   <stop offset="0%" style="stop-color: #f618c7; stop-opacity:1"/>
   <stop offset="20%" style="stop-color: #94ffab; stop-opacity:1"/>
   <stop offset="50%" style="stop-color: #fbfd54; stop-opacity:1"/>
   <stop offset="100%" style="stop-color: #0f83ae; stop-opacity:1"/>
  </linearGradient>
 </defs>
 <path fill="currentColor" class="ColorScheme-Text" fill-rule="evenodd" d="M 4.571 5.143 L 11.714 5.143 L 11.714 10.857 L 4.571 10.857 L 4.571 5.143 L 4.571 5.143 L 4.571 5.143 L 4.571 5.143 L 4.571 5.143 L 4.571 5.143 L 4.571 5.143 L 4.571 5.143 L 4.571 5.143 L 4.571 5.143 L 4.571 5.143 Z M 1.943 6.286 C 1.753 6.286 1.6 6.439 1.6 6.629 L 1.6 7.314 L 0.914 7.314 C 0.724 7.314 0.571 7.467 0.571 7.657 L 0.571 8.343 C 0.571 8.533 0.724 8.686 0.914 8.686 L 1.6 8.686 L 1.6 9.371 C 1.6 9.561 1.753 9.714 1.943 9.714 L 2.629 9.714 C 2.819 9.714 2.971 9.561 2.971 9.371 L 2.971 8.686 L 3.657 8.686 C 3.847 8.686 4 8.533 4 8.343 L 4 7.657 C 4 7.467 3.847 7.314 3.657 7.314 L 2.971 7.314 L 2.971 6.629 C 2.971 6.439 2.819 6.286 2.629 6.286 L 1.943 6.286 L 1.943 6.286 L 1.943 6.286 L 1.943 6.286 L 1.943 6.286 L 1.943 6.286 L 1.943 6.286 L 1.943 6.286 L 1.943 6.286 L 1.943 6.286 Z M 13.714 6.286 C 14.03 6.286 14.286 6.542 14.286 6.857 C 14.286 7.173 14.03 7.429 13.714 7.429 C 13.399 7.429 13.143 7.173 13.143 6.857 C 13.143 6.542 13.399 6.286 13.714 6.286 L 13.714 6.286 L 13.714 6.286 L 13.714 6.286 L 13.714 6.286 L 13.714 6.286 L 13.714 6.286 L 13.714 6.286 L 13.714 6.286 Z M 13.714 8.571 C 14.03 8.571 14.286 8.827 14.286 9.143 C 14.286 9.458 14.03 9.714 13.714 9.714 C 13.399 9.714 13.143 9.458 13.143 9.143 C 13.143 8.827 13.399 8.571 13.714 8.571 L 13.714 8.571 L 13.714 8.571 L 13.714 8.571 L 13.714 8.571 L 13.714 8.571 L 13.714 8.571 Z M 15.428 8 C 15.428 8.315 15.172 8.571 14.857 8.571 C 14.542 8.571 14.286 8.315 14.286 8 C 14.286 7.685 14.542 7.429 14.857 7.429 C 15.172 7.429 15.428 7.685 15.428 8 L 15.428 8 L 15.428 8 L 15.428 8 Z M 2.4 4 L 13.6 4 C 14.925 4 16 5.075 16 6.4 L 16 9.6 C 16 10.925 14.925 12 13.6 12 L 2.4 12 C 1.075 12 0 10.925 0 9.6 L 0 6.4 C 0 5.075 1.075 4 2.4 4 L 2.4 4 L 2.4 4 L 2.4 4 L 2.4 4 L 2.4 4 L 2.4 4 L 2.4 4 L 2.4 4 L 2.4 4 L 2.4 4 Z M 13.143 8 C 13.143 8.315 12.887 8.571 12.571 8.571 C 12.256 8.571 12 8.315 12 8 C 12 7.685 12.256 7.429 12.571 7.429 C 12.887 7.429 13.143 7.685 13.143 8 Z"/>
</svg>
