<svg xmlns="http://www.w3.org/2000/svg" width="16" height="16" version="1.1">
 <defs>
   <style id="current-color-scheme" type="text/css">
   .ColorScheme-Text { color: #498db8; } .ColorScheme-Highlight { color:#5294e2; }
  </style>
  <linearGradient id="arrongin" x1="0%" x2="0%" y1="0%" y2="100%">
   <stop offset="0%" style="stop-color:#dd9b44; stop-opacity:1"/>
   <stop offset="100%" style="stop-color:#ad6c16; stop-opacity:1"/>
  </linearGradient>
  <linearGradient id="aurora" x1="0%" x2="0%" y1="0%" y2="100%">
   <stop offset="0%" style="stop-color:#09D4DF; stop-opacity:1"/>
   <stop offset="100%" style="stop-color:#9269F4; stop-opacity:1"/>
  </linearGradient>
  <linearGradient id="cyberneon" x1="0%" x2="0%" y1="0%" y2="100%">
    <stop offset="0" style="stop-color:#0abdc6; stop-opacity:1"/>
    <stop offset="1" style="stop-color:#ea00d9; stop-opacity:1"/>
  </linearGradient>
  <linearGradient id="fitdance" x1="0%" x2="0%" y1="0%" y2="100%">
   <stop offset="0%" style="stop-color:#1AD6AB; stop-opacity:1"/>
   <stop offset="100%" style="stop-color:#329DB6; stop-opacity:1"/>
  </linearGradient>
  <linearGradient id="oomox" x1="0%" x2="0%" y1="0%" y2="100%">
   <stop offset="0%" style="stop-color:#efefe7; stop-opacity:1"/>
   <stop offset="100%" style="stop-color:#8f8f8b; stop-opacity:1"/>
  </linearGradient>
  <linearGradient id="rainblue" x1="0%" x2="0%" y1="0%" y2="100%">
   <stop offset="0%" style="stop-color:#00F260; stop-opacity:1"/>
   <stop offset="100%" style="stop-color:#0575E6; stop-opacity:1"/>
  </linearGradient>
  <linearGradient id="sunrise" x1="0%" x2="0%" y1="0%" y2="100%">
   <stop offset="0%" style="stop-color: #FF8501; stop-opacity:1"/>
   <stop offset="100%" style="stop-color: #FFCB01; stop-opacity:1"/>
  </linearGradient>
  <linearGradient id="telinkrin" x1="0%" x2="0%" y1="0%" y2="100%">
   <stop offset="0%" style="stop-color: #b2ced6; stop-opacity:1"/>
   <stop offset="100%" style="stop-color: #6da5b7; stop-opacity:1"/>
  </linearGradient>
  <linearGradient id="60spsycho" x1="0%" x2="0%" y1="0%" y2="100%">
   <stop offset="0%" style="stop-color: #df5940; stop-opacity:1"/>
   <stop offset="25%" style="stop-color: #d8d15f; stop-opacity:1"/>
   <stop offset="50%" style="stop-color: #e9882a; stop-opacity:1"/>
   <stop offset="100%" style="stop-color: #279362; stop-opacity:1"/>
  </linearGradient>
  <linearGradient id="90ssummer" x1="0%" x2="0%" y1="0%" y2="100%">
   <stop offset="0%" style="stop-color: #f618c7; stop-opacity:1"/>
   <stop offset="20%" style="stop-color: #94ffab; stop-opacity:1"/>
   <stop offset="50%" style="stop-color: #fbfd54; stop-opacity:1"/>
   <stop offset="100%" style="stop-color: #0f83ae; stop-opacity:1"/>
  </linearGradient>
 </defs>
 <path fill="currentColor" class="ColorScheme-Text" fill-rule="evenodd" d="m 8.1593513,16.018953 c 0.43344,0 0.784812,-0.351372 0.784812,-0.784812 -2.78e-4,-0.211797 -0.08615,-0.41449 -0.238101,-0.562031 l 0.950356,-2.058093 c 0.02411,0.0025 0.04832,0.0038 0.07255,0.0041 0.235652,-6.8e-4 0.4585167,-0.10725 0.6070257,-0.290218 l 2.219555,0.79198 c 0.0076,0.19682 0.08896,0.383582 0.227884,0.523209 0.306475,0.306412 0.803302,0.306412 1.109777,0 0.306412,-0.306475 0.306412,-0.803302 0,-1.109778 -0.139467,-0.1393 -0.326247,-0.221016 -0.523208,-0.228903 L 12.578021,10.086892 C 12.761259,9.9381627 12.867839,9.7148717 12.86824,9.4788717 h 0.523208 l 0.587563,-0.07051 2.02848,-0.244234 v -2.511819 l -2.026384,-0.243231 c -0.141216,-0.546504 -0.35863,-1.070419 -0.645848,-1.556336 l 1.261037,-1.606407 -1.775037,-1.775037 -1.606407,1.261037 C 10.728823,2.4458267 10.204913,2.2291007 9.6585163,2.0885267 L 9.4153073,0.06004774 h -2.511819 v 0.00105 L 6.6602803,2.0874847 c -0.54645,0.140887 -1.070362,0.357948 -1.556336,0.644802 l -1.606512,-1.260932 -1.607128,1.775769 1.260985,1.606774 0.365828,0.465655 0.401614,0.401824 c -0.189861,0.148929 -0.300657,0.37692 -0.300436,0.618223 2.41e-4,0.02423 0.0016,0.04844 0.0041,0.07255 L 1.3553977,7.3625057 C 1.2076042,7.2102917 1.0044808,7.1243997 0.79232074,7.1244037 c -0.4334401,0 -0.7848127,0.351373 -0.7848127,0.784813 0,0.43344 0.3513726,0.784812 0.7848127,0.784812 0.21179686,-2.78e-4 0.41449006,-0.08615 0.56203056,-0.238101 l 2.268044,0.949361 c -0.0025,0.02445 -0.0039,0.049 -0.0041,0.07357 1.49e-4,0.235829 0.106339,0.459091 0.289193,0.6080213 l -1.001853,2.218508 c -0.196463,0.0079 -0.382817,0.08919 -0.522188,0.227884 -0.306412,0.306475 -0.306412,0.803302 0,1.109777 0.306475,0.306412 0.803302,0.306412 1.109778,0 0.139299,-0.139467 0.221016,-0.326247 0.228903,-0.523208 l 2.259268,-0.791091 c 0.148929,0.182856 0.37219,0.289048 0.60802,0.289198 0.02424,-2.39e-4 0.04844,-0.0016 0.07255,-0.0041 l 0.949362,2.058093 c -0.151577,0.147712 -0.237068,0.350384 -0.237077,0.56203 0,0.43344 0.351373,0.784813 0.784813,0.784813 z m -0.07255,-1.565544 -0.949362,-2.058093 c 0.08588,-0.08418 0.151257,-0.186973 0.191097,-0.300437 h 1.661606 c 0.04013,0.113561 0.105872,0.21636 0.192117,0.300437 l -0.949362,2.057047 c -0.02446,-0.0022 -0.04901,-0.0032 -0.07357,-0.0031 -0.02424,2.39e-4 -0.04844,0.0016 -0.07255,0.0041 z m 4.6230177,-1.83327 -2.196063,-0.784813 v -0.002 c -4.75e-4,-0.116787 -0.02701,-0.231995 -0.07767,-0.337224 l 1.310062,-1.310062 c 0.105229,0.05066 0.220437,0.07719 0.337223,0.07766 h 0.002 l 0.784813,2.196063 c -0.0307,0.02239 -0.05973,0.04698 -0.08686,0.07358 -0.0266,0.02713 -0.05119,0.05617 -0.07357,0.08686 z m -9.1431737,0 c -0.02239,-0.0307 -0.04698,-0.05973 -0.07357,-0.08686 -0.0271,-0.02695 -0.05613,-0.05188 -0.08686,-0.0746 l 0.994684,-2.195017 h 0.002 c 0.116786,-4.75e-4 0.231994,-0.02701 0.337223,-0.07766 l 1.142153,1.310062 c -0.05066,0.105229 -0.07719,0.220437 -0.07766,0.337223 v 0.002 L 3.5665893,12.6201 Z m 5.423162,-1.048458 h -1.660559 c -0.110857,-0.313548 -0.407301,-0.523183 -0.739869,-0.523208 -0.116708,1.55e-4 -0.231913,0.02634 -0.337224,0.07664 L 5.1100033,9.8160457 c 0.05066,-0.10523 0.07719,-0.220437 0.07766,-0.337224 -2.5e-5,-0.332568 -0.20966,-0.629013 -0.523209,-0.739869 v -1.660559 c 0.313187,-0.110728 0.522741,-0.406638 0.523209,-0.738823 -2.98e-4,-0.184799 -0.0658,-0.363566 -0.184965,-0.504812 0.715155,-1.148341 1.803474,-1.992589 3.156296,-1.994907 2.8089007,0 4.1101197,1.902123 4.1101197,4.069324 -7.85e-4,0.265435 -0.02854,0.530104 -0.08277,0.78994 -0.548787,0.01001 -0.887714,0.378574 -0.888097,0.779685 3.23e-4,0.117131 0.02686,0.232705 0.07766,0.338244 l -1.309068,1.3090683 c -0.1055387,-0.0508 -0.2211127,-0.07734 -0.3382437,-0.07766 -0.332184,4.68e-4 -0.628095,0.210021 -0.738822,0.523208 z M 3.8419143,8.9321467 1.5728763,7.9817907 c 0.00248,-0.02411 0.00385,-0.04832 0.00409,-0.07255 -2.411e-4,-0.02423 -0.00161,-0.04844 -0.00409,-0.07255 l 2.268044,-0.949362 c 0.08418,0.08587 0.186974,0.151253 0.300437,0.191092 v 1.661605 c -0.113196,0.04028 -0.215633,0.106003 -0.299417,0.192117 z"/>
</svg>
