<svg xmlns="http://www.w3.org/2000/svg" width="16" height="16" version="1.1">
 <defs>
   <style id="current-color-scheme" type="text/css">
   .ColorScheme-Text { color: #498db8; } .ColorScheme-Highlight { color:#5294e2; }
  </style>
  <linearGradient id="arrongin" x1="0%" x2="0%" y1="0%" y2="100%">
   <stop offset="0%" style="stop-color:#dd9b44; stop-opacity:1"/>
   <stop offset="100%" style="stop-color:#ad6c16; stop-opacity:1"/>
  </linearGradient>
  <linearGradient id="aurora" x1="0%" x2="0%" y1="0%" y2="100%">
   <stop offset="0%" style="stop-color:#09D4DF; stop-opacity:1"/>
   <stop offset="100%" style="stop-color:#9269F4; stop-opacity:1"/>
  </linearGradient>
  <linearGradient id="cyberneon" x1="0%" x2="0%" y1="0%" y2="100%">
    <stop offset="0" style="stop-color:#0abdc6; stop-opacity:1"/>
    <stop offset="1" style="stop-color:#ea00d9; stop-opacity:1"/>
  </linearGradient>
  <linearGradient id="fitdance" x1="0%" x2="0%" y1="0%" y2="100%">
   <stop offset="0%" style="stop-color:#1AD6AB; stop-opacity:1"/>
   <stop offset="100%" style="stop-color:#329DB6; stop-opacity:1"/>
  </linearGradient>
  <linearGradient id="oomox" x1="0%" x2="0%" y1="0%" y2="100%">
   <stop offset="0%" style="stop-color:#efefe7; stop-opacity:1"/>
   <stop offset="100%" style="stop-color:#8f8f8b; stop-opacity:1"/>
  </linearGradient>
  <linearGradient id="rainblue" x1="0%" x2="0%" y1="0%" y2="100%">
   <stop offset="0%" style="stop-color:#00F260; stop-opacity:1"/>
   <stop offset="100%" style="stop-color:#0575E6; stop-opacity:1"/>
  </linearGradient>
  <linearGradient id="sunrise" x1="0%" x2="0%" y1="0%" y2="100%">
   <stop offset="0%" style="stop-color: #FF8501; stop-opacity:1"/>
   <stop offset="100%" style="stop-color: #FFCB01; stop-opacity:1"/>
  </linearGradient>
  <linearGradient id="telinkrin" x1="0%" x2="0%" y1="0%" y2="100%">
   <stop offset="0%" style="stop-color: #b2ced6; stop-opacity:1"/>
   <stop offset="100%" style="stop-color: #6da5b7; stop-opacity:1"/>
  </linearGradient>
  <linearGradient id="60spsycho" x1="0%" x2="0%" y1="0%" y2="100%">
   <stop offset="0%" style="stop-color: #df5940; stop-opacity:1"/>
   <stop offset="25%" style="stop-color: #d8d15f; stop-opacity:1"/>
   <stop offset="50%" style="stop-color: #e9882a; stop-opacity:1"/>
   <stop offset="100%" style="stop-color: #279362; stop-opacity:1"/>
  </linearGradient>
  <linearGradient id="90ssummer" x1="0%" x2="0%" y1="0%" y2="100%">
   <stop offset="0%" style="stop-color: #f618c7; stop-opacity:1"/>
   <stop offset="20%" style="stop-color: #94ffab; stop-opacity:1"/>
   <stop offset="50%" style="stop-color: #fbfd54; stop-opacity:1"/>
   <stop offset="100%" style="stop-color: #0f83ae; stop-opacity:1"/>
  </linearGradient>
 </defs>
 <path fill="currentColor" class="ColorScheme-Text" fill-rule="evenodd" d="M 8.786 0 L 8.786 0 Q 11.898 0 13.438 1.415 L 13.438 1.415 L 13.438 1.415 Q 14.978 2.829 14.978 5.69 L 14.978 5.69 L 14.978 5.69 Q 14.978 6.287 14.947 6.601 L 14.947 6.601 L 14.35 14.114 L 14.35 14.114 Q 14.287 14.994 13.768 15.466 L 13.768 15.466 L 13.768 15.466 Q 13.25 15.937 12.369 15.937 L 12.369 15.937 L 12.369 15.937 Q 11.552 15.937 11.065 15.418 L 11.065 15.418 L 11.065 15.418 Q 10.578 14.9 10.64 14.083 L 10.64 14.083 L 10.672 13.485 L 10.672 13.485 Q 10.043 14.68 8.912 15.34 L 8.912 15.34 L 8.912 15.34 Q 7.78 16 6.334 16 L 6.334 16 L 6.334 16 Q 4.825 16 3.615 15.418 L 3.615 15.418 L 3.615 15.418 Q 2.405 14.837 1.713 13.815 L 1.713 13.815 L 1.713 13.815 Q 1.022 12.794 1.022 11.505 L 1.022 11.505 L 1.022 11.505 Q 1.022 9.745 1.917 8.692 L 1.917 8.692 L 1.917 8.692 Q 2.813 7.639 4.794 7.151 L 4.794 7.151 L 4.794 7.151 Q 6.774 6.664 10.075 6.664 L 10.075 6.664 L 11.206 6.664 L 11.238 6.067 L 11.238 6.067 Q 11.363 4.495 10.64 3.741 L 10.64 3.741 L 10.64 3.741 Q 9.917 2.986 8.346 2.986 L 8.346 2.986 L 8.346 2.986 Q 6.491 2.986 4.102 4.212 L 4.102 4.212 L 4.102 4.212 Q 3.694 4.401 3.316 4.401 L 3.316 4.401 L 3.316 4.401 Q 2.75 4.401 2.373 4.008 L 2.373 4.008 L 2.373 4.008 Q 1.996 3.615 1.996 3.049 L 1.996 3.049 L 1.996 3.049 Q 1.996 2.64 2.248 2.216 L 2.248 2.216 L 2.248 2.216 Q 2.499 1.792 2.971 1.509 L 2.971 1.509 L 2.971 1.509 Q 4.102 0.817 5.642 0.409 L 5.642 0.409 L 5.642 0.409 Q 7.183 0 8.786 0 L 8.786 0 Z M 7.34 13.171 L 7.34 13.171 Q 8.817 13.171 9.839 12.118 L 9.839 12.118 L 9.839 12.118 Q 10.861 11.065 10.986 9.43 L 10.986 9.43 L 11.049 8.739 L 10.169 8.739 L 10.169 8.739 Q 8.157 8.739 7.01 8.959 L 7.01 8.959 L 7.01 8.959 Q 5.862 9.179 5.36 9.697 L 5.36 9.697 L 5.36 9.697 Q 4.857 10.216 4.857 11.096 L 4.857 11.096 L 4.857 11.096 Q 4.857 12.039 5.532 12.605 L 5.532 12.605 L 5.532 12.605 Q 6.208 13.171 7.34 13.171 L 7.34 13.171 Z"/>
</svg>
