<svg xmlns="http://www.w3.org/2000/svg" width="16" height="16" version="1.1">
 <defs>
   <style id="current-color-scheme" type="text/css">
   .ColorScheme-Text { color: #1d4195; } .ColorScheme-Highlight { color:#5294e2; }
  </style>
  <linearGradient id="arrongin" x1="0%" x2="0%" y1="0%" y2="100%">
   <stop offset="0%" style="stop-color:#dd9b44; stop-opacity:1"/>
   <stop offset="100%" style="stop-color:#ad6c16; stop-opacity:1"/>
  </linearGradient>
  <linearGradient id="aurora" x1="0%" x2="0%" y1="0%" y2="100%">
   <stop offset="0%" style="stop-color:#09D4DF; stop-opacity:1"/>
   <stop offset="100%" style="stop-color:#9269F4; stop-opacity:1"/>
  </linearGradient>
  <linearGradient id="cyberneon" x1="0%" x2="0%" y1="0%" y2="100%">
    <stop offset="0" style="stop-color:#0abdc6; stop-opacity:1"/>
    <stop offset="1" style="stop-color:#ea00d9; stop-opacity:1"/>
  </linearGradient>
  <linearGradient id="fitdance" x1="0%" x2="0%" y1="0%" y2="100%">
   <stop offset="0%" style="stop-color:#1AD6AB; stop-opacity:1"/>
   <stop offset="100%" style="stop-color:#329DB6; stop-opacity:1"/>
  </linearGradient>
  <linearGradient id="oomox" x1="0%" x2="0%" y1="0%" y2="100%">
   <stop offset="0%" style="stop-color:#efefe7; stop-opacity:1"/>
   <stop offset="100%" style="stop-color:#8f8f8b; stop-opacity:1"/>
  </linearGradient>
  <linearGradient id="rainblue" x1="0%" x2="0%" y1="0%" y2="100%">
   <stop offset="0%" style="stop-color:#00F260; stop-opacity:1"/>
   <stop offset="100%" style="stop-color:#0575E6; stop-opacity:1"/>
  </linearGradient>
  <linearGradient id="sunrise" x1="0%" x2="0%" y1="0%" y2="100%">
   <stop offset="0%" style="stop-color: #FF8501; stop-opacity:1"/>
   <stop offset="100%" style="stop-color: #FFCB01; stop-opacity:1"/>
  </linearGradient>
  <linearGradient id="telinkrin" x1="0%" x2="0%" y1="0%" y2="100%">
   <stop offset="0%" style="stop-color: #b2ced6; stop-opacity:1"/>
   <stop offset="100%" style="stop-color: #6da5b7; stop-opacity:1"/>
  </linearGradient>
  <linearGradient id="60spsycho" x1="0%" x2="0%" y1="0%" y2="100%">
   <stop offset="0%" style="stop-color: #df5940; stop-opacity:1"/>
   <stop offset="25%" style="stop-color: #d8d15f; stop-opacity:1"/>
   <stop offset="50%" style="stop-color: #e9882a; stop-opacity:1"/>
   <stop offset="100%" style="stop-color: #279362; stop-opacity:1"/>
  </linearGradient>
  <linearGradient id="90ssummer" x1="0%" x2="0%" y1="0%" y2="100%">
   <stop offset="0%" style="stop-color: #f618c7; stop-opacity:1"/>
   <stop offset="20%" style="stop-color: #94ffab; stop-opacity:1"/>
   <stop offset="50%" style="stop-color: #fbfd54; stop-opacity:1"/>
   <stop offset="100%" style="stop-color: #0f83ae; stop-opacity:1"/>
  </linearGradient>
 </defs>
 <path fill="currentColor" class="ColorScheme-Text" d="M 5.862 13.979 C 5.81 13.363 6.402 12.782 7.229 12.75 C 7.374 12.75 7.529 12.771 7.692 12.808 C 7.885 12.851 8.155 12.858 8.317 12.872 C 8.374 12.834 8.371 12.799 8.296 12.611 C 8.075 12.053 7.619 11.431 7.039 11.259 C 6.917 11.223 6.731 11.201 6.552 11.197 C 5.351 11.228 4.476 12.379 3.929 13.239 C 3.754 13.512 3.549 13.82 3.473 13.923 C 3.088 14.449 2.638 14.748 2.185 14.88 C 2.015 14.93 1.604 14.95 1.434 14.917 C 0.528 14.744 -0.077 13.879 0.008 12.953 C 0.015 12.875 0.027 12.811 0.033 12.812 C 0.04 12.813 0.076 12.854 0.114 12.904 C 0.269 13.111 0.608 13.237 0.874 13.3 C 1.072 13.348 1.265 13.355 1.45 13.322 C 1.951 13.234 2.272 13.023 2.795 12.313 C 3.587 11.239 4.152 10.255 5.264 7.83 C 5.997 6.23 6.399 5.429 6.838 4.688 C 7.404 3.733 8.001 2.964 8.561 2.469 C 9.417 1.713 10.43 1.255 11.596 1.099 C 11.947 1.052 12.554 1.057 12.886 1.108 C 14.076 1.294 14.992 1.892 15.555 2.852 C 15.737 3.162 15.893 3.601 15.965 4.005 C 16.011 4.262 16.012 4.836 15.965 5.094 C 15.928 5.307 15.832 5.654 15.767 5.814 L 15.722 5.924 L 15.72 5.726 C 15.711 4.892 15.169 3.983 14.357 3.755 C 14.198 3.711 14.148 3.706 13.896 3.706 C 13.65 3.707 13.591 3.713 13.432 3.756 C 12.522 4.004 11.647 5.183 11.349 6.379 C 11.129 7.257 11.164 8.224 11.451 9.262 C 11.721 10.237 13.015 11.56 13.28 11.757 C 14.219 12.453 14.853 12.69 15.572 13.189 C 15.82 13.361 15.889 13.447 15.912 13.612 C 15.939 13.816 15.815 14.006 15.502 14.241 C 15.415 14.306 15.252 14.434 15.139 14.525 C 14.763 14.826 14.717 14.907 14.465 14.908 C 14.321 14.909 14.288 14.902 14.197 14.857 C 13.906 14.712 13.786 14.51 13.927 14.22 C 14.057 13.951 14.354 13.827 14.634 13.924 C 14.697 13.946 14.767 13.992 14.837 14.058 C 14.95 14.164 14.9 14.041 14.933 13.979 C 14.968 13.911 14.975 13.676 14.945 13.523 C 14.842 12.982 14.367 12.761 13.833 12.791 C 13.522 12.808 13.225 12.95 12.979 13.201 C 12.456 13.961 11.733 14.915 10.934 14.904 C 10.796 14.919 10.661 14.907 10.554 14.865 C 10.473 14.834 10.392 14.777 10.322 14.705 C 10.123 14.506 10.145 14.294 10.164 14.038 C 10.185 13.748 10.364 13.529 10.536 13.367 C 10.785 13.162 11.038 13.078 11.313 13.05 C 11.657 13.016 11.977 12.989 12.29 13.072 C 12.463 13.128 12.521 13.129 12.54 13.076 C 12.57 12.998 12.407 12.354 12.271 12.164 C 12.047 11.85 11.824 11.722 11.453 11.613 C 11.282 11.563 10.879 11.544 10.676 11.577 C 9.543 11.791 9.164 12.636 8.714 13.43 C 8.195 14.339 7.719 14.686 7.231 14.855 C 7.16 14.88 7.063 14.898 6.964 14.907 C 6.309 14.969 5.91 14.555 5.862 13.979 L 5.862 13.979 Z"/>
</svg>
