<svg xmlns="http://www.w3.org/2000/svg" width="16" height="16" version="1.1">
 <defs>
   <style id="current-color-scheme" type="text/css">
   .ColorScheme-Text { color: #1d4195; } .ColorScheme-Highlight { color:#5294e2; }
  </style>
  <linearGradient id="arrongin" x1="0%" x2="0%" y1="0%" y2="100%">
   <stop offset="0%" style="stop-color:#dd9b44; stop-opacity:1"/>
   <stop offset="100%" style="stop-color:#ad6c16; stop-opacity:1"/>
  </linearGradient>
  <linearGradient id="aurora" x1="0%" x2="0%" y1="0%" y2="100%">
   <stop offset="0%" style="stop-color:#09D4DF; stop-opacity:1"/>
   <stop offset="100%" style="stop-color:#9269F4; stop-opacity:1"/>
  </linearGradient>
  <linearGradient id="cyberneon" x1="0%" x2="0%" y1="0%" y2="100%">
    <stop offset="0" style="stop-color:#0abdc6; stop-opacity:1"/>
    <stop offset="1" style="stop-color:#ea00d9; stop-opacity:1"/>
  </linearGradient>
  <linearGradient id="fitdance" x1="0%" x2="0%" y1="0%" y2="100%">
   <stop offset="0%" style="stop-color:#1AD6AB; stop-opacity:1"/>
   <stop offset="100%" style="stop-color:#329DB6; stop-opacity:1"/>
  </linearGradient>
  <linearGradient id="oomox" x1="0%" x2="0%" y1="0%" y2="100%">
   <stop offset="0%" style="stop-color:#efefe7; stop-opacity:1"/>
   <stop offset="100%" style="stop-color:#8f8f8b; stop-opacity:1"/>
  </linearGradient>
  <linearGradient id="rainblue" x1="0%" x2="0%" y1="0%" y2="100%">
   <stop offset="0%" style="stop-color:#00F260; stop-opacity:1"/>
   <stop offset="100%" style="stop-color:#0575E6; stop-opacity:1"/>
  </linearGradient>
  <linearGradient id="sunrise" x1="0%" x2="0%" y1="0%" y2="100%">
   <stop offset="0%" style="stop-color: #FF8501; stop-opacity:1"/>
   <stop offset="100%" style="stop-color: #FFCB01; stop-opacity:1"/>
  </linearGradient>
  <linearGradient id="telinkrin" x1="0%" x2="0%" y1="0%" y2="100%">
   <stop offset="0%" style="stop-color: #b2ced6; stop-opacity:1"/>
   <stop offset="100%" style="stop-color: #6da5b7; stop-opacity:1"/>
  </linearGradient>
  <linearGradient id="60spsycho" x1="0%" x2="0%" y1="0%" y2="100%">
   <stop offset="0%" style="stop-color: #df5940; stop-opacity:1"/>
   <stop offset="25%" style="stop-color: #d8d15f; stop-opacity:1"/>
   <stop offset="50%" style="stop-color: #e9882a; stop-opacity:1"/>
   <stop offset="100%" style="stop-color: #279362; stop-opacity:1"/>
  </linearGradient>
  <linearGradient id="90ssummer" x1="0%" x2="0%" y1="0%" y2="100%">
   <stop offset="0%" style="stop-color: #f618c7; stop-opacity:1"/>
   <stop offset="20%" style="stop-color: #94ffab; stop-opacity:1"/>
   <stop offset="50%" style="stop-color: #fbfd54; stop-opacity:1"/>
   <stop offset="100%" style="stop-color: #0f83ae; stop-opacity:1"/>
  </linearGradient>
 </defs>
 <g transform="matrix(1.0666641,0,0,1.0666641,-0.5333128,-0.59787915)">
  <path fill="currentColor" class="ColorScheme-Text" opacity="0.6" d="m 6.0794044,10.017676 c -0.1326571,0.610614 0.1209516,1.348028 0.2555588,1.927429 0.068276,0.298475 0.1560669,0.665235 0.380413,0.852517 0.1307063,0.11314 0.2828712,0.150211 0.4389377,0.159963 0.3140839,0.01565 0.6184142,0.09364 0.7822845,-0.319935 0.044867,-0.111194 0.1248527,-0.296531 0.2458049,-0.187281 0.111198,0.103394 0.072184,0.282867 0.200936,0.382364 0.3979703,0.300428 1.0280897,0.202889 1.2465827,-0.347253 0.2477559,-0.628167 0.30433,-1.269984 0.413577,-1.933272 L 9.4992169,9.6801782 7.9795165,9.2314925 Z"/>
  <path fill="currentColor" class="ColorScheme-Text" opacity="1.0" d="M 1.9238281,3.1210938 C 1.1434944,3.1152412 0.50780334,3.9269564 0.5,4.9277344 0.49609833,5.9363157 1.1278694,6.7500091 1.9082031,6.7578125 2.6846352,6.7597633 3.324221,5.9519475 3.3261719,4.9492188 3.3320244,3.9464898 2.7002602,3.1249937 1.9238281,3.1210938 Z m 12.1523439,0 c -0.778383,0.0039 -1.408197,0.825396 -1.402344,1.828125 0.002,1.0027287 0.639586,1.8105445 1.417969,1.8085937 C 14.87213,6.7500125 15.503902,5.9363157 15.5,4.9277344 15.4922,3.9269564 14.854555,3.1152413 14.076172,3.1210938 Z M 9.7929688,6.3847656 C 9.5042451,6.3340375 9.2184319,6.5723448 8.9472656,6.6367188 8.5863619,6.7264612 8.1362832,6.765625 7.765625,6.765625 7.5412786,6.7679957 6.8744551,6.5449153 6.4101562,6.5410156 6.0297432,6.538645 5.7932667,6.6861782 6.046875,7.2246094 6.3292011,7.8228479 6.8909787,8.2366418 7.5136719,8.3964844 7.5184264,8.5186285 7.4933499,8.6030471 7.4746094,8.7304688 7.4609544,8.8241077 7.4609066,8.8926751 7.4316406,8.9746094 7.3848206,9.1092187 7.2693845,9.2637758 7.1445312,9.3515625 6.8597091,9.5544513 6.5406199,9.6778043 6.203125,9.7402344 5.8402697,9.8046024 5.448816,9.7849882 5.1054688,9.6855469 4.8694175,9.6172674 4.6110437,9.3847564 4.3691406,9.3828125 4.1467454,9.3804419 4.0156431,9.5744612 4.03125,9.7792969 4.070266,10.26115 4.5610053,10.422017 4.9511719,10.544922 c 0.579398,0.181428 1.2311441,0.183347 1.8066406,-0.02148 0.3491992,-0.124851 0.7152856,-0.287181 1.0917969,-0.351563 0.3687072,-0.06245 0.5824278,0.09777 0.9199218,0.191406 0.3706585,0.105341 0.7192033,0.255905 1.1054688,0.298828 0.39797,0.04481 0.807092,0.0023 1.191406,-0.117187 0.310183,-0.09754 0.997934,-0.340387 0.902344,-0.7988282 -0.0117,-0.048737 -0.02736,-0.091835 -0.04492,-0.1269532 -0.181427,-0.3530997 -0.705401,-0.04865 -0.980469,0.023437 -0.200936,0.050725 -0.418219,0.035156 -0.630859,0.035156 -0.4135777,0 -0.8363907,-0.021669 -1.2226562,-0.1835938 C 8.9513336,9.4355948 8.7557561,9.343597 8.6679688,9.2109375 8.5323195,9.0103724 8.5510366,8.7008247 8.5410156,8.4082031 8.739508,8.360518 8.9350396,8.2926002 9.1152344,8.1796875 9.2869084,8.0723877 9.5099358,7.9470964 9.6542969,7.8066406 9.8337742,7.6349668 9.9590807,7.3395674 10.041016,7.109375 10.14441,6.8265047 10.161676,6.4491425 9.7929688,6.3847656 Z"/>
 </g>
</svg>
