<svg xmlns="http://www.w3.org/2000/svg" width="16" height="16" version="1.1">
 <defs>
   <style id="current-color-scheme" type="text/css">
   .ColorScheme-Text { color: #1d4195; } .ColorScheme-Highlight { color:#5294e2; }
  </style>
  <linearGradient id="arrongin" x1="0%" x2="0%" y1="0%" y2="100%">
   <stop offset="0%" style="stop-color:#dd9b44; stop-opacity:1"/>
   <stop offset="100%" style="stop-color:#ad6c16; stop-opacity:1"/>
  </linearGradient>
  <linearGradient id="aurora" x1="0%" x2="0%" y1="0%" y2="100%">
   <stop offset="0%" style="stop-color:#09D4DF; stop-opacity:1"/>
   <stop offset="100%" style="stop-color:#9269F4; stop-opacity:1"/>
  </linearGradient>
  <linearGradient id="cyberneon" x1="0%" x2="0%" y1="0%" y2="100%">
    <stop offset="0" style="stop-color:#0abdc6; stop-opacity:1"/>
    <stop offset="1" style="stop-color:#ea00d9; stop-opacity:1"/>
  </linearGradient>
  <linearGradient id="fitdance" x1="0%" x2="0%" y1="0%" y2="100%">
   <stop offset="0%" style="stop-color:#1AD6AB; stop-opacity:1"/>
   <stop offset="100%" style="stop-color:#329DB6; stop-opacity:1"/>
  </linearGradient>
  <linearGradient id="oomox" x1="0%" x2="0%" y1="0%" y2="100%">
   <stop offset="0%" style="stop-color:#efefe7; stop-opacity:1"/>
   <stop offset="100%" style="stop-color:#8f8f8b; stop-opacity:1"/>
  </linearGradient>
  <linearGradient id="rainblue" x1="0%" x2="0%" y1="0%" y2="100%">
   <stop offset="0%" style="stop-color:#00F260; stop-opacity:1"/>
   <stop offset="100%" style="stop-color:#0575E6; stop-opacity:1"/>
  </linearGradient>
  <linearGradient id="sunrise" x1="0%" x2="0%" y1="0%" y2="100%">
   <stop offset="0%" style="stop-color: #FF8501; stop-opacity:1"/>
   <stop offset="100%" style="stop-color: #FFCB01; stop-opacity:1"/>
  </linearGradient>
  <linearGradient id="telinkrin" x1="0%" x2="0%" y1="0%" y2="100%">
   <stop offset="0%" style="stop-color: #b2ced6; stop-opacity:1"/>
   <stop offset="100%" style="stop-color: #6da5b7; stop-opacity:1"/>
  </linearGradient>
  <linearGradient id="60spsycho" x1="0%" x2="0%" y1="0%" y2="100%">
   <stop offset="0%" style="stop-color: #df5940; stop-opacity:1"/>
   <stop offset="25%" style="stop-color: #d8d15f; stop-opacity:1"/>
   <stop offset="50%" style="stop-color: #e9882a; stop-opacity:1"/>
   <stop offset="100%" style="stop-color: #279362; stop-opacity:1"/>
  </linearGradient>
  <linearGradient id="90ssummer" x1="0%" x2="0%" y1="0%" y2="100%">
   <stop offset="0%" style="stop-color: #f618c7; stop-opacity:1"/>
   <stop offset="20%" style="stop-color: #94ffab; stop-opacity:1"/>
   <stop offset="50%" style="stop-color: #fbfd54; stop-opacity:1"/>
   <stop offset="100%" style="stop-color: #0f83ae; stop-opacity:1"/>
  </linearGradient>
 </defs>
 <path fill="currentColor" class="ColorScheme-Text" d="M 13.837 1.816 C 13.776 1.813 13.716 1.826 13.662 1.855 C 13.215 2.056 13.733 2.532 12.191 3.229 C 10.677 3.911 7.462 3.508 4.565 4.816 C 4.181 4.99 3.844 5.179 3.54 5.358 C 3.469 5.206 3.371 5.068 3.249 4.952 C 2.97 4.676 2.555 4.526 2.088 4.526 C 1.947 4.526 1.943 4.497 1.914 4.468 C 1.856 4.409 1.816 4.335 1.797 4.255 C 1.739 4.025 1.778 3.732 1.778 3.732 C 1.807 3.533 1.738 3.332 1.592 3.193 C 1.445 3.055 1.24 2.996 1.042 3.036 C 0.773 3.086 0.569 3.306 0.539 3.578 C 0.539 3.578 0.469 4.032 0.598 4.546 C 0.663 4.802 0.793 5.089 1.042 5.338 C 1.322 5.611 1.697 5.764 2.088 5.765 C 2.313 5.765 2.352 5.815 2.378 5.842 C 2.405 5.869 2.438 5.919 2.456 6.036 C 2.458 6.055 2.453 6.074 2.456 6.094 C 0.897 7.417 1.045 8.673 0.946 9.075 C 0.822 8.883 0.532 8.828 0.288 8.939 C 0.024 9.058 -0.208 9.597 0.307 10.739 C 0.822 11.881 1.398 12.077 1.662 11.958 C 1.906 11.847 2.032 11.595 1.972 11.378 C 2.214 11.504 2.681 11.947 3.539 12.152 C 3.44 11.806 3.388 11.448 3.385 11.088 C 3.388 8.898 5.162 7.123 7.353 7.12 C 8.838 7.12 10.14 7.942 10.817 9.152 C 11.824 8.189 12.949 7.078 13.759 6.713 C 15.3 6.017 15.346 6.798 15.792 6.597 C 16.067 6.473 16.029 6.244 15.908 5.978 L 14.205 2.184 C 14.115 1.986 14.003 1.833 13.837 1.816 Z M 7.353 7.991 C 5.642 7.991 4.256 9.377 4.256 11.088 C 4.256 12.798 5.642 14.185 7.353 14.185 C 9.063 14.185 10.449 12.798 10.449 11.088 C 10.449 9.377 9.063 7.991 7.353 7.991 Z M 7.353 9.171 C 8.411 9.172 9.268 10.029 9.269 11.088 C 9.268 12.146 8.411 13.003 7.353 13.004 C 6.294 13.003 5.437 12.146 5.436 11.088 C 5.437 10.029 6.294 9.172 7.353 9.171 L 7.353 9.171 Z M 7.353 10.43 C 6.995 10.43 6.694 10.73 6.694 11.088 C 6.694 11.446 6.995 11.746 7.353 11.746 C 7.711 11.746 8.011 11.446 8.011 11.088 C 8.011 10.73 7.711 10.429 7.353 10.429 L 7.353 10.43 Z"/>
</svg>
