<svg xmlns="http://www.w3.org/2000/svg" width="16" height="16" version="1.1">
 <defs>
   <style id="current-color-scheme" type="text/css">
   .ColorScheme-Text { color: #1d4195; } .ColorScheme-Highlight { color:#5294e2; }
  </style>
  <linearGradient id="arrongin" x1="0%" x2="0%" y1="0%" y2="100%">
   <stop offset="0%" style="stop-color:#dd9b44; stop-opacity:1"/>
   <stop offset="100%" style="stop-color:#ad6c16; stop-opacity:1"/>
  </linearGradient>
  <linearGradient id="aurora" x1="0%" x2="0%" y1="0%" y2="100%">
   <stop offset="0%" style="stop-color:#09D4DF; stop-opacity:1"/>
   <stop offset="100%" style="stop-color:#9269F4; stop-opacity:1"/>
  </linearGradient>
  <linearGradient id="cyberneon" x1="0%" x2="0%" y1="0%" y2="100%">
    <stop offset="0" style="stop-color:#0abdc6; stop-opacity:1"/>
    <stop offset="1" style="stop-color:#ea00d9; stop-opacity:1"/>
  </linearGradient>
  <linearGradient id="fitdance" x1="0%" x2="0%" y1="0%" y2="100%">
   <stop offset="0%" style="stop-color:#1AD6AB; stop-opacity:1"/>
   <stop offset="100%" style="stop-color:#329DB6; stop-opacity:1"/>
  </linearGradient>
  <linearGradient id="oomox" x1="0%" x2="0%" y1="0%" y2="100%">
   <stop offset="0%" style="stop-color:#efefe7; stop-opacity:1"/>
   <stop offset="100%" style="stop-color:#8f8f8b; stop-opacity:1"/>
  </linearGradient>
  <linearGradient id="rainblue" x1="0%" x2="0%" y1="0%" y2="100%">
   <stop offset="0%" style="stop-color:#00F260; stop-opacity:1"/>
   <stop offset="100%" style="stop-color:#0575E6; stop-opacity:1"/>
  </linearGradient>
  <linearGradient id="sunrise" x1="0%" x2="0%" y1="0%" y2="100%">
   <stop offset="0%" style="stop-color: #FF8501; stop-opacity:1"/>
   <stop offset="100%" style="stop-color: #FFCB01; stop-opacity:1"/>
  </linearGradient>
  <linearGradient id="telinkrin" x1="0%" x2="0%" y1="0%" y2="100%">
   <stop offset="0%" style="stop-color: #b2ced6; stop-opacity:1"/>
   <stop offset="100%" style="stop-color: #6da5b7; stop-opacity:1"/>
  </linearGradient>
  <linearGradient id="60spsycho" x1="0%" x2="0%" y1="0%" y2="100%">
   <stop offset="0%" style="stop-color: #df5940; stop-opacity:1"/>
   <stop offset="25%" style="stop-color: #d8d15f; stop-opacity:1"/>
   <stop offset="50%" style="stop-color: #e9882a; stop-opacity:1"/>
   <stop offset="100%" style="stop-color: #279362; stop-opacity:1"/>
  </linearGradient>
  <linearGradient id="90ssummer" x1="0%" x2="0%" y1="0%" y2="100%">
   <stop offset="0%" style="stop-color: #f618c7; stop-opacity:1"/>
   <stop offset="20%" style="stop-color: #94ffab; stop-opacity:1"/>
   <stop offset="50%" style="stop-color: #fbfd54; stop-opacity:1"/>
   <stop offset="100%" style="stop-color: #0f83ae; stop-opacity:1"/>
  </linearGradient>
 </defs>
 <path fill="currentColor" class="ColorScheme-Text" d="M 15.466665,2.66667 C 15.466665,1.20022 14.266445,0 12.800005,0 c -1.46645,0 -2.66667,1.20022 -2.66667,2.66667 0,1.46644 1.20022,2.66666 2.66667,2.66666 1.46644,0 2.66666,-1.20022 2.66666,-2.66666 z m 0,10.66666 c 0,-1.46644 -1.20022,-2.66666 -2.66666,-2.66666 -1.46645,0 -2.66667,1.20022 -2.66667,2.66666 0,1.46645 1.20022,2.66667 2.66667,2.66667 1.46644,0 2.66666,-1.20022 2.66666,-2.66667 z M 14.400005,2.66667 c 0,0.88997 -0.71003,1.6 -1.6,1.6 -0.88997,0 -1.6,-0.71003 -1.6,-1.6 0,-0.88998 0.71003,-1.6 1.6,-1.6 0.88997,0 1.6,0.71002 1.6,1.6 z m 0,10.66666 c 0,0.88998 -0.71003,1.6 -1.6,1.6 -0.88997,0 -1.6,-0.71002 -1.6,-1.6 0,-0.88997 0.71003,-1.6 1.6,-1.6 0.88997,0 1.6,0.71003 1.6,1.6 z m -4.55,-8.41666 C 9.632515,4.6335 9.453145,4.32471 9.322925,3.9875 l -4.11042,2.28542 c -0.49006,-0.56958 -1.2069,-0.93959 -2.0125,-0.93959 -1.46645,0 -2.66667,1.20023 -2.66667,2.66667 0,1.46644 1.20022,2.66667 2.66667,2.66667 0.8056,0 1.52244,-0.37001 2.0125,-0.93959 l 4.11042,2.28542 c 0.13022,-0.33721 0.30959,-0.64598 0.52708,-0.92917 L 5.731255,8.79583 C 5.811555,8.54273 5.866665,8.27876 5.866665,8 c 0,-0.27876 -0.055,-0.54273 -0.13541,-0.79583 z M 4.800005,8 c 0,0.88997 -0.71003,1.6 -1.6,1.6 -0.88997,0 -1.6,-0.71003 -1.6,-1.6 0,-0.88997 0.71003,-1.6 1.6,-1.6 0.88997,0 1.6,0.71003 1.6,1.6 z"/>
</svg>
