<svg xmlns="http://www.w3.org/2000/svg" width="16" height="16" version="1.1">
 <defs>
   <style id="current-color-scheme" type="text/css">
   .ColorScheme-Text { color: #1d4195; } .ColorScheme-Highlight { color:#5294e2; }
  </style>
  <linearGradient id="arrongin" x1="0%" x2="0%" y1="0%" y2="100%">
   <stop offset="0%" style="stop-color:#dd9b44; stop-opacity:1"/>
   <stop offset="100%" style="stop-color:#ad6c16; stop-opacity:1"/>
  </linearGradient>
  <linearGradient id="aurora" x1="0%" x2="0%" y1="0%" y2="100%">
   <stop offset="0%" style="stop-color:#09D4DF; stop-opacity:1"/>
   <stop offset="100%" style="stop-color:#9269F4; stop-opacity:1"/>
  </linearGradient>
  <linearGradient id="cyberneon" x1="0%" x2="0%" y1="0%" y2="100%">
    <stop offset="0" style="stop-color:#0abdc6; stop-opacity:1"/>
    <stop offset="1" style="stop-color:#ea00d9; stop-opacity:1"/>
  </linearGradient>
  <linearGradient id="fitdance" x1="0%" x2="0%" y1="0%" y2="100%">
   <stop offset="0%" style="stop-color:#1AD6AB; stop-opacity:1"/>
   <stop offset="100%" style="stop-color:#329DB6; stop-opacity:1"/>
  </linearGradient>
  <linearGradient id="oomox" x1="0%" x2="0%" y1="0%" y2="100%">
   <stop offset="0%" style="stop-color:#efefe7; stop-opacity:1"/>
   <stop offset="100%" style="stop-color:#8f8f8b; stop-opacity:1"/>
  </linearGradient>
  <linearGradient id="rainblue" x1="0%" x2="0%" y1="0%" y2="100%">
   <stop offset="0%" style="stop-color:#00F260; stop-opacity:1"/>
   <stop offset="100%" style="stop-color:#0575E6; stop-opacity:1"/>
  </linearGradient>
  <linearGradient id="sunrise" x1="0%" x2="0%" y1="0%" y2="100%">
   <stop offset="0%" style="stop-color: #FF8501; stop-opacity:1"/>
   <stop offset="100%" style="stop-color: #FFCB01; stop-opacity:1"/>
  </linearGradient>
  <linearGradient id="telinkrin" x1="0%" x2="0%" y1="0%" y2="100%">
   <stop offset="0%" style="stop-color: #b2ced6; stop-opacity:1"/>
   <stop offset="100%" style="stop-color: #6da5b7; stop-opacity:1"/>
  </linearGradient>
  <linearGradient id="60spsycho" x1="0%" x2="0%" y1="0%" y2="100%">
   <stop offset="0%" style="stop-color: #df5940; stop-opacity:1"/>
   <stop offset="25%" style="stop-color: #d8d15f; stop-opacity:1"/>
   <stop offset="50%" style="stop-color: #e9882a; stop-opacity:1"/>
   <stop offset="100%" style="stop-color: #279362; stop-opacity:1"/>
  </linearGradient>
  <linearGradient id="90ssummer" x1="0%" x2="0%" y1="0%" y2="100%">
   <stop offset="0%" style="stop-color: #f618c7; stop-opacity:1"/>
   <stop offset="20%" style="stop-color: #94ffab; stop-opacity:1"/>
   <stop offset="50%" style="stop-color: #fbfd54; stop-opacity:1"/>
   <stop offset="100%" style="stop-color: #0f83ae; stop-opacity:1"/>
  </linearGradient>
 </defs>
 <path fill="currentColor" class="ColorScheme-Text" fill-rule="evenodd" d="M 7.838 0 C 7.8 0 7.703 0.05 7.622 0.112 C 7.429 0.259 6.79 0.839 6.469 1.014 L 6.214 1.152 L 5.976 1.105 C 5.845 1.078 5.717 1.057 5.691 1.057 C 5.666 1.057 5.548 1.136 5.429 1.233 C 5.177 1.438 4.913 1.644 4.782 1.644 C 4.732 1.644 4.648 1.617 4.595 1.585 C 4.543 1.553 4.47 1.527 4.432 1.527 C 4.342 1.527 3.496 2.038 3.208 2.228 C 2.987 2.374 2.764 2.551 2.418 2.856 C 2.225 3.025 2.147 3.114 2.053 3.479 C 1.936 3.934 2.004 4.349 2.251 4.53 C 2.391 4.632 2.608 4.871 2.703 5.027 C 2.779 5.152 2.797 5.16 3.034 5.16 L 3.245 5.16 L 3.618 4.829 C 3.982 4.471 4.251 4.558 4.733 4.583 C 5.334 4.614 5.39 4.703 5.432 5.123 C 5.411 5.38 5.353 5.53 5.204 5.704 C 5.11 5.814 5.106 5.815 4.774 5.856 C 4.59 5.879 3.67 6.004 2.923 6.134 C 2.176 6.264 1.538 6.256 1.507 6.256 C 1.467 6.256 1.399 6.179 1.286 6.007 C 1.105 5.734 1.028 5.686 0.903 5.768 C 0.716 5.892 0.451 6.366 0.344 6.77 C 0.26 7.089 0.268 8.064 0.359 8.495 C 0.479 9.063 0.707 9.72 1.004 10.355 C 1.138 10.641 1.201 10.71 1.252 10.626 C 1.263 10.609 1.283 10.322 1.297 9.988 C 1.332 9.16 1.4 8.571 1.484 8.367 C 1.607 8.07 1.606 8.042 1.462 7.742 C 1.311 7.429 1.277 7.314 1.331 7.295 C 1.352 7.288 1.741 7.269 2.198 7.252 C 3.179 7.217 3.545 7.185 4.025 7.088 C 4.448 7.003 4.509 7.001 4.574 7.066 C 4.625 7.118 4.625 7.153 4.571 7.721 C 4.546 7.988 4.617 8.192 4.875 8.597 C 5.134 9.002 5.289 9.336 5.419 9.77 C 5.535 10.155 5.541 10.225 5.461 10.305 C 5.271 10.496 4.925 10.254 4.209 9.305 C 3.652 8.567 3.496 8.396 3.376 8.396 C 3.18 8.396 2.878 8.685 2.562 9.174 C 2.371 9.471 2.288 9.638 2.014 10.28 C 1.721 10.968 1.663 11.155 1.535 11.831 C 1.437 12.353 1.428 12.447 1.43 12.888 C 1.432 13.383 1.472 13.809 1.617 14.843 C 1.67 15.22 1.713 15.436 1.738 15.453 C 1.813 15.502 1.988 15.249 2.24 14.732 C 2.719 13.748 2.942 13.114 3.003 12.58 C 3.078 11.929 3.225 11.406 3.441 11.016 C 3.544 10.831 3.701 10.627 3.741 10.627 C 3.753 10.627 3.826 10.73 3.904 10.855 C 4.083 11.141 4.379 11.413 4.529 11.481 C 4.611 11.519 4.683 11.529 4.781 11.517 L 4.919 11.501 L 4.955 11.621 C 4.986 11.726 4.981 11.778 4.92 12.029 C 4.827 12.413 4.827 12.864 4.92 13.468 C 4.997 13.963 5.017 14.031 5.097 14.031 C 5.211 14.031 5.518 13.652 5.704 13.279 C 5.738 13.213 5.85 12.868 5.956 12.512 C 6.171 11.783 6.4 11.214 6.44 11.173 C 6.456 11.156 6.587 11.202 6.78 11.295 C 7.09 11.442 7.113 11.445 7.655 11.511 C 8.074 11.562 8.209 11.588 8.227 11.623 C 8.241 11.649 8.293 11.881 8.344 12.139 C 8.666 13.771 9.046 15.066 9.25 15.355 C 9.347 15.492 9.409 15.465 9.521 15.241 C 9.652 14.977 10.04 14.23 10.453 13.203 C 10.638 12.743 10.807 12.253 10.828 12.213 C 10.86 12.15 10.894 12.136 11.054 12.118 C 11.652 12.049 11.769 12.03 11.899 11.98 C 12.095 11.905 12.249 11.775 12.427 11.535 C 12.509 11.423 12.586 11.332 12.598 11.332 C 12.624 11.332 12.82 11.776 12.947 12.125 C 13.097 12.533 13.208 12.968 13.254 13.328 C 13.278 13.514 13.318 13.732 13.345 13.813 C 13.498 14.288 13.925 14.936 14.589 15.699 C 14.733 15.865 14.868 16 14.887 16 C 14.929 16 14.963 15.889 15.132 15.207 C 15.24 14.768 15.274 14.681 15.483 14.277 L 15.714 13.83 L 15.714 13.262 C 15.714 12.096 15.566 10.973 15.305 10.155 C 15.125 9.593 14.767 9.152 14.432 8.776 C 14.182 8.495 14.049 8.467 13.909 8.665 C 13.834 8.772 13.743 9.02 13.715 9.194 C 13.705 9.262 13.677 9.324 13.654 9.333 C 13.629 9.343 13.553 9.371 13.462 9.282 C 13.153 8.979 12.883 8.872 12.79 9.018 C 12.767 9.055 12.708 9.19 12.658 9.319 C 12.543 9.621 12.412 9.614 12.319 9.675 C 12.21 9.748 12.028 9.715 11.773 9.596 C 11.583 9.508 11.559 9.487 11.467 9.321 C 11.32 9.056 11.296 8.844 11.335 8.417 C 11.353 8.22 11.371 7.987 11.375 7.801 L 11.38 7.464 L 11.256 7.24 C 11.188 7.116 11.014 6.845 10.87 6.638 C 10.726 6.431 10.608 6.306 10.608 6.292 C 10.608 6.277 10.751 6.274 10.937 6.286 C 11.119 6.297 11.295 6.292 11.406 6.276 L 11.604 6.247 L 11.962 5.872 C 12.66 5.137 12.848 4.827 12.874 4.586 C 12.886 4.479 12.876 4.434 12.816 4.344 C 12.7 4.168 12.541 4.021 12.447 4 C 12.311 3.969 11.202 4.316 10.864 4.487 C 10.552 4.645 10.258 4.587 9.934 4.303 C 9.697 4.095 9.112 3.631 8.356 3.086 C 7.776 2.667 7.617 2.519 7.664 2.443 C 7.683 2.412 7.81 2.36 7.983 2.312 C 8.542 2.154 8.548 2.05 8.607 1.987 C 8.675 1.912 8.875 1.216 8.875 1.051 C 8.875 0.96 8.85 0.911 8.752 0.799 C 8.317 0.306 7.968 0 7.838 0 Z M 2.545 3.143 C 3.266 3.481 2.97 3.998 2.201 4.471 C 2.219 4.489 2.23 4.515 2.251 4.53 C 2.392 4.633 2.608 4.871 2.703 5.027 C 2.712 5.041 2.718 5.049 2.725 5.06 C 3.039 4.777 3.611 4.436 3.706 3.989 C 3.82 3.457 3.794 3.127 2.545 3.143 Z"/>
</svg>
