<svg xmlns="http://www.w3.org/2000/svg" width="16" height="16" version="1.1">
 <defs>
   <style id="current-color-scheme" type="text/css">
   .ColorScheme-Text { color: #1d4195; } .ColorScheme-Highlight { color:#5294e2; }
  </style>
  <linearGradient id="arrongin" x1="0%" x2="0%" y1="0%" y2="100%">
   <stop offset="0%" style="stop-color:#dd9b44; stop-opacity:1"/>
   <stop offset="100%" style="stop-color:#ad6c16; stop-opacity:1"/>
  </linearGradient>
  <linearGradient id="aurora" x1="0%" x2="0%" y1="0%" y2="100%">
   <stop offset="0%" style="stop-color:#09D4DF; stop-opacity:1"/>
   <stop offset="100%" style="stop-color:#9269F4; stop-opacity:1"/>
  </linearGradient>
  <linearGradient id="cyberneon" x1="0%" x2="0%" y1="0%" y2="100%">
    <stop offset="0" style="stop-color:#0abdc6; stop-opacity:1"/>
    <stop offset="1" style="stop-color:#ea00d9; stop-opacity:1"/>
  </linearGradient>
  <linearGradient id="fitdance" x1="0%" x2="0%" y1="0%" y2="100%">
   <stop offset="0%" style="stop-color:#1AD6AB; stop-opacity:1"/>
   <stop offset="100%" style="stop-color:#329DB6; stop-opacity:1"/>
  </linearGradient>
  <linearGradient id="oomox" x1="0%" x2="0%" y1="0%" y2="100%">
   <stop offset="0%" style="stop-color:#efefe7; stop-opacity:1"/>
   <stop offset="100%" style="stop-color:#8f8f8b; stop-opacity:1"/>
  </linearGradient>
  <linearGradient id="rainblue" x1="0%" x2="0%" y1="0%" y2="100%">
   <stop offset="0%" style="stop-color:#00F260; stop-opacity:1"/>
   <stop offset="100%" style="stop-color:#0575E6; stop-opacity:1"/>
  </linearGradient>
  <linearGradient id="sunrise" x1="0%" x2="0%" y1="0%" y2="100%">
   <stop offset="0%" style="stop-color: #FF8501; stop-opacity:1"/>
   <stop offset="100%" style="stop-color: #FFCB01; stop-opacity:1"/>
  </linearGradient>
  <linearGradient id="telinkrin" x1="0%" x2="0%" y1="0%" y2="100%">
   <stop offset="0%" style="stop-color: #b2ced6; stop-opacity:1"/>
   <stop offset="100%" style="stop-color: #6da5b7; stop-opacity:1"/>
  </linearGradient>
  <linearGradient id="60spsycho" x1="0%" x2="0%" y1="0%" y2="100%">
   <stop offset="0%" style="stop-color: #df5940; stop-opacity:1"/>
   <stop offset="25%" style="stop-color: #d8d15f; stop-opacity:1"/>
   <stop offset="50%" style="stop-color: #e9882a; stop-opacity:1"/>
   <stop offset="100%" style="stop-color: #279362; stop-opacity:1"/>
  </linearGradient>
  <linearGradient id="90ssummer" x1="0%" x2="0%" y1="0%" y2="100%">
   <stop offset="0%" style="stop-color: #f618c7; stop-opacity:1"/>
   <stop offset="20%" style="stop-color: #94ffab; stop-opacity:1"/>
   <stop offset="50%" style="stop-color: #fbfd54; stop-opacity:1"/>
   <stop offset="100%" style="stop-color: #0f83ae; stop-opacity:1"/>
  </linearGradient>
 </defs>
 <path fill="currentColor" class="ColorScheme-Text" fill-rule="evenodd" d="M 2.667 1.863 L 13.333 1.863 L 13.333 3.434 L 8 6.053 L 2.667 3.434 L 2.667 1.863 L 2.667 1.863 Z M 2.064 0.72 L 13.936 0.72 C 14.234 0.72 14.476 0.962 14.476 1.26 L 14.476 8.942 C 14.476 9.24 14.234 9.482 13.936 9.482 L 2.064 9.482 C 1.766 9.482 1.524 9.24 1.524 8.942 L 1.524 1.26 C 1.524 0.962 1.766 0.72 2.064 0.72 L 2.064 0.72 Z M 2.442 11.186 C 2.442 11.186 2.442 11.186 2.442 11.186 C 2.442 11.186 2.442 11.186 2.442 11.186 L 2.442 11.186 C 2.303 11.446 1.792 12.281 1.466 12.817 C 1.135 12.269 0.744 11.638 0.489 11.186 L 0.488 11.187 L 0.489 11.186 C 0.287 11.229 0.202 11.232 0.001 11.186 L 0.002 11.187 C 0.001 11.187 0.001 11.186 0 11.186 C 0.4 11.789 1.042 12.938 1.26 13.315 L 1.231 14.888 L 1.232 14.887 L 1.231 14.888 C 1.231 14.888 1.372 14.864 1.466 14.864 C 1.57 14.864 1.7 14.888 1.7 14.888 L 1.7 14.887 L 1.701 14.888 L 1.671 13.315 L 1.67 13.315 C 2.077 12.601 2.748 11.438 2.933 11.187 L 2.934 11.186 C 2.934 11.186 2.934 11.186 2.934 11.186 C 2.934 11.186 2.934 11.186 2.934 11.186 C 2.934 11.186 2.934 11.186 2.934 11.186 C 2.759 11.226 2.6 11.227 2.443 11.186 L 2.442 11.186 L 2.442 11.186 Z M 15.744 11.224 C 15.627 11.224 15.511 11.293 15.511 11.469 C 15.441 12.351 15.369 13.235 15.25 14.077 L 15.249 14.077 C 15.25 14.077 15.25 14.077 15.25 14.077 C 15.25 14.077 15.25 14.077 15.25 14.077 L 15.252 14.077 C 15.323 14.065 15.378 14.084 15.432 14.105 L 15.432 14.105 C 15.567 13.25 15.888 11.97 15.971 11.608 C 15.982 11.557 16 11.496 16 11.453 C 16 11.324 15.918 11.249 15.795 11.229 L 15.795 11.229 C 15.795 11.229 15.765 11.224 15.744 11.224 L 15.744 11.224 L 15.744 11.224 Z M 13.092 11.543 C 13.867 11.543 14.438 12.013 14.438 13.052 C 14.438 14.18 13.747 14.546 13.093 14.546 C 12.395 14.546 11.758 14.136 11.758 13.029 C 11.758 11.882 12.464 11.543 13.092 11.543 L 13.092 11.543 Z M 5.255 11.577 L 5.255 11.577 C 5.298 12.555 5.294 13.532 5.255 14.507 C 5.414 14.469 5.576 14.467 5.743 14.507 L 5.742 14.506 L 5.743 14.507 C 5.719 14.052 5.707 13.598 5.706 13.144 C 6.251 13.136 6.797 13.136 7.343 13.144 C 7.341 13.598 7.329 14.052 7.305 14.507 L 7.307 14.506 L 7.306 14.507 C 7.472 14.467 7.635 14.469 7.793 14.507 C 7.793 14.507 7.794 14.507 7.794 14.507 L 7.794 14.507 C 7.755 13.532 7.751 12.555 7.794 11.577 L 7.794 11.577 C 7.794 11.577 7.794 11.577 7.794 11.577 L 7.793 11.577 C 7.628 11.616 7.465 11.615 7.305 11.577 L 7.305 11.577 L 7.305 11.577 C 7.329 12.032 7.341 12.488 7.343 12.944 C 6.797 12.957 6.251 12.958 5.706 12.944 C 5.707 12.488 5.72 12.032 5.743 11.577 L 5.743 11.577 L 5.743 11.577 C 5.583 11.615 5.421 11.616 5.255 11.577 L 5.255 11.577 L 5.255 11.577 Z M 9.489 11.715 L 9.489 11.715 C 9.498 11.714 9.507 11.715 9.516 11.715 C 10.15 11.715 10.615 12.146 10.615 13.048 C 10.615 13.948 10.15 14.38 9.517 14.38 C 8.827 14.38 8.421 13.885 8.421 13.05 C 8.421 12.106 8.921 11.726 9.489 11.715 L 9.489 11.715 L 9.489 11.715 Z M 3.651 12.082 C 3.813 12.533 3.991 12.987 4.171 13.443 L 4.171 13.443 C 3.825 13.455 3.479 13.455 3.132 13.443 L 3.132 13.443 C 3.343 12.906 3.545 12.388 3.651 12.082 L 3.651 12.082 L 3.651 12.082 Z M 15.235 14.431 C 15.081 14.431 15.004 14.548 15.004 14.674 C 15.004 14.823 15.123 14.899 15.27 14.899 C 15.376 14.899 15.492 14.835 15.492 14.66 C 15.492 14.519 15.382 14.431 15.235 14.431 L 15.235 14.431 Z M 13.091 11.361 C 12.059 11.361 11.271 11.946 11.271 13.036 C 11.271 13.933 11.795 14.723 13.099 14.723 C 14.204 14.723 14.925 14.116 14.925 13.051 C 14.925 12.048 14.252 11.361 13.091 11.361 L 13.091 11.361 L 13.091 11.361 Z M 9.514 11.537 C 8.478 11.537 7.935 12.194 7.935 13.046 C 7.935 13.977 8.528 14.546 9.513 14.546 C 10.577 14.546 11.097 13.905 11.097 13.055 C 11.097 12.107 10.476 11.537 9.514 11.537 L 9.514 11.537 L 9.514 11.537 Z M 3.481 11.575 C 3.088 12.562 2.635 13.676 2.227 14.507 L 2.227 14.507 L 2.227 14.507 L 2.229 14.506 C 2.228 14.507 2.228 14.507 2.228 14.507 L 2.231 14.506 L 2.229 14.506 C 2.415 14.46 2.593 14.474 2.711 14.506 C 2.71 14.506 2.71 14.506 2.709 14.505 L 2.711 14.506 C 2.815 14.243 2.933 13.946 3.051 13.647 L 3.052 13.647 C 3.452 13.636 3.852 13.634 4.252 13.647 C 4.366 13.934 4.48 14.22 4.591 14.507 C 4.592 14.507 4.592 14.507 4.592 14.507 L 4.592 14.507 C 4.77 14.46 4.948 14.473 5.079 14.506 L 5.079 14.506 L 5.079 14.506 C 4.786 13.958 4.196 12.523 3.822 11.576 L 3.819 11.577 L 3.821 11.576 C 3.699 11.618 3.6 11.616 3.481 11.576 L 3.481 11.575 L 3.481 11.575 Z"/>
</svg>
