<svg xmlns="http://www.w3.org/2000/svg" width="24" height="24" version="1.1">
 <defs>
   <style id="current-color-scheme" type="text/css">
   .ColorScheme-Text { color: #498db8; } .ColorScheme-Highlight { color: #1AD6AB; }
  </style>
  <linearGradient id="arrongin" x1="0%" x2="0%" y1="0%" y2="100%">
   <stop offset="0%"    stop-color= "#dd9b44" stop-opacity="1"/>
   <stop offset="100%"  stop-color= "#ad6c16" stop-opacity="1"/>
  </linearGradient>
  <linearGradient id="aurora" x1="0%" x2="0%" y1="0%" y2="100%">
   <stop offset="0%"    stop-color= "#09D4DF" stop-opacity="1"/>
   <stop offset="100%"  stop-color= "#9269F4" stop-opacity="1"/>
  </linearGradient> 
  <linearGradient id="cyberblue" x1="0%" x2="0%" y1="0%" y2="100%">
   <stop offset="0%"    stop-color= "#07B3FF" stop-opacity="1"/>
   <stop offset="100%"  stop-color= "#007DE8" stop-opacity="1"/>
  </linearGradient>
  <linearGradient id="cyberneon" x1="0%" x2="0%" y1="0%" y2="100%">
    <stop offset="0%"   stop-color= "#0abdc6" stop-opacity="1"/>
    <stop offset="100%" stop-color= "#ea00d9" stop-opacity="1"/>
  </linearGradient>
  <linearGradient id="fitdance" x1="0%" x2="0%" y1="0%" y2="100%">
   <stop offset="0%"    stop-color= "#1AD6AB" stop-opacity="1"/>
   <stop offset="100%"  stop-color= "#329DB6" stop-opacity="1"/>
  </linearGradient>
  <linearGradient id="oomox" x1="0%" x2="0%" y1="0%" y2="100%">
   <stop offset="0%"    stop-color= "#efefe7" stop-opacity="1"/>
   <stop offset="100%"  stop-color= "#8f8f8b" stop-opacity="1"/>
  </linearGradient>
  <linearGradient id="rainblue" x1="0%" x2="0%" y1="0%" y2="100%">
   <stop offset="0%"    stop-color= "#00F260" stop-opacity="1"/>
   <stop offset="100%"  stop-color= "#0575E6" stop-opacity="1"/>
  </linearGradient>
  <linearGradient id="redcarbon" x1="0%" x2="0%" y1="0%" y2="100%">
   <stop offset="0%"    stop-color= "#FF6D57" stop-opacity="1"/>
   <stop offset="50%"   stop-color= "#FF5160" stop-opacity="1"/>
   <stop offset="100%"  stop-color= "#F50F22" stop-opacity="1"/>
  </linearGradient>
  <linearGradient id="sunrise" x1="0%" x2="0%" y1="0%" y2="100%">
   <stop offset="0%"    stop-color= "#FF8501" stop-opacity="1"/>
   <stop offset="100%"  stop-color= "#FFCB01" stop-opacity="1"/>
  </linearGradient>
  <linearGradient id="telinkrin" x1="0%" x2="0%" y1="0%" y2="100%">
   <stop offset="0%"    stop-color= "#b2ced6" stop-opacity="1"/>
   <stop offset="100%"  stop-color= "#6da5b7" stop-opacity="1"/>
  </linearGradient>
  <linearGradient id="60spsycho" x1="0%" x2="0%" y1="0%" y2="100%">
   <stop offset="0%"    stop-color= "#df5940" stop-opacity="1"/>
   <stop offset="25%"   stop-color= "#d8d15f" stop-opacity="1"/>
   <stop offset="50%"   stop-color= "#e9882a" stop-opacity="1"/>
   <stop offset="100%"  stop-color= "#279362" stop-opacity="1"/>
  </linearGradient>
  <linearGradient id="90ssummer" x1="0%" x2="0%" y1="0%" y2="100%">
   <stop offset="0%"    stop-color= "#f618c7" stop-opacity="1"/>
   <stop offset="20%"   stop-color= "#94ffab" stop-opacity="1"/>
   <stop offset="50%"   stop-color= "#fbfd54" stop-opacity="1"/>
   <stop offset="100%"  stop-color= "#0f83ae" stop-opacity="1"/>
  </linearGradient>
 </defs>
 <path id="format-text-symbol" fill="currentColor" class="ColorScheme-Text" d="M 15.444735 19.030094 C 13.739635 19.014803 12.731538 17.834006 12.749155 15.869408 C 12.762333 14.399879 12.972675 12.70643 13.236556 10.563738 C 13.338887 9.734524 13.450047 8.841024 13.560636 7.873254 L 11.626567 7.85591 L 11.521168 8.843119 C 10.731301 16.223469 10.435876 18.985177 7.688244 18.960537 C 6.858178 18.953094 5.713986 18.225751 5.726054 16.879989 C 5.735029 15.879125 6.19388 15.551517 6.678899 15.204339 C 7.467462 14.640798 8.774675 13.70645 9.359564 7.83558 L 8.695347 7.829624 C 7.755954 7.8212 7.083051 8.27768 6.576178 9.267478 C 6.351825 9.624832 5.993824 10.024723 5.259388 9.797401 C 5.147378 9.762962 5.05545 9.682251 5.006809 9.575638 C 4.957632 9.469743 4.955725 9.347949 5.001561 9.240567 C 5.421311 8.25824 5.844975 7.391473 6.294661 6.475429 L 6.314429 6.433522 C 6.705412 5.668372 7.465832 4.930465 12.021703 4.971319 L 18.622621 5.030513 C 18.85047 5.032556 19.033522 5.218921 19.031478 5.44677 L 19.01298 7.509557 C 19.010937 7.737406 18.824573 7.920458 18.596723 7.918415 L 16.085899 7.895899 C 15.64052 12.472485 15.4818 15.218915 15.946282 15.735517 C 16.0149 15.813287 16.122583 15.859638 16.462531 15.862686 C 17.012057 15.867614 17.501541 15.02248 17.506136 14.510083 C 17.50819 14.281114 17.693424 14.099172 17.922393 14.101226 L 18.541229 14.106775 C 18.770199 14.108828 18.95214 14.294063 18.950087 14.523032 C 18.92308 17.534701 17.744329 19.050715 15.444735 19.030094 Z"/>
</svg>
