<svg xmlns="http://www.w3.org/2000/svg" width="22" height="22" version="1.1">
 <defs>
   <style id="current-color-scheme" type="text/css">
   .ColorScheme-Text { color: #2b68d1; } .ColorScheme-Highlight { color: #1AD6AB; }
  </style>
  <linearGradient id="arrongin" x1="0%" x2="0%" y1="0%" y2="100%">
   <stop offset="0%"    stop-color= "#dd9b44" stop-opacity="1"/>
   <stop offset="100%"  stop-color= "#ad6c16" stop-opacity="1"/>
  </linearGradient>
  <linearGradient id="aurora" x1="0%" x2="0%" y1="0%" y2="100%">
   <stop offset="0%"    stop-color= "#09D4DF" stop-opacity="1"/>
   <stop offset="100%"  stop-color= "#9269F4" stop-opacity="1"/>
  </linearGradient> 
  <linearGradient id="cyberblue" x1="0%" x2="0%" y1="0%" y2="100%">
   <stop offset="0%"    stop-color= "#07B3FF" stop-opacity="1"/>
   <stop offset="100%"  stop-color= "#007DE8" stop-opacity="1"/>
  </linearGradient>
  <linearGradient id="cyberneon" x1="0%" x2="0%" y1="0%" y2="100%">
    <stop offset="0%"   stop-color= "#0abdc6" stop-opacity="1"/>
    <stop offset="100%" stop-color= "#ea00d9" stop-opacity="1"/>
  </linearGradient>
  <linearGradient id="fitdance" x1="0%" x2="0%" y1="0%" y2="100%">
   <stop offset="0%"    stop-color= "#1AD6AB" stop-opacity="1"/>
   <stop offset="100%"  stop-color= "#329DB6" stop-opacity="1"/>
  </linearGradient>
  <linearGradient id="oomox" x1="0%" x2="0%" y1="0%" y2="100%">
   <stop offset="0%"    stop-color= "#efefe7" stop-opacity="1"/>
   <stop offset="100%"  stop-color= "#8f8f8b" stop-opacity="1"/>
  </linearGradient>
  <linearGradient id="rainblue" x1="0%" x2="0%" y1="0%" y2="100%">
   <stop offset="0%"    stop-color= "#00F260" stop-opacity="1"/>
   <stop offset="100%"  stop-color= "#0575E6" stop-opacity="1"/>
  </linearGradient>
  <linearGradient id="redcarbon" x1="0%" x2="0%" y1="0%" y2="100%">
   <stop offset="0%"    stop-color= "#FF6D57" stop-opacity="1"/>
   <stop offset="50%"   stop-color= "#FF5160" stop-opacity="1"/>
   <stop offset="100%"  stop-color= "#F50F22" stop-opacity="1"/>
  </linearGradient>
  <linearGradient id="sunrise" x1="0%" x2="0%" y1="0%" y2="100%">
   <stop offset="0%"    stop-color= "#FF8501" stop-opacity="1"/>
   <stop offset="100%"  stop-color= "#FFCB01" stop-opacity="1"/>
  </linearGradient>
  <linearGradient id="telinkrin" x1="0%" x2="0%" y1="0%" y2="100%">
   <stop offset="0%"    stop-color= "#b2ced6" stop-opacity="1"/>
   <stop offset="100%"  stop-color= "#6da5b7" stop-opacity="1"/>
  </linearGradient>
  <linearGradient id="60spsycho" x1="0%" x2="0%" y1="0%" y2="100%">
   <stop offset="0%"    stop-color= "#df5940" stop-opacity="1"/>
   <stop offset="25%"   stop-color= "#d8d15f" stop-opacity="1"/>
   <stop offset="50%"   stop-color= "#e9882a" stop-opacity="1"/>
   <stop offset="100%"  stop-color= "#279362" stop-opacity="1"/>
  </linearGradient>
  <linearGradient id="90ssummer" x1="0%" x2="0%" y1="0%" y2="100%">
   <stop offset="0%"    stop-color= "#f618c7" stop-opacity="1"/>
   <stop offset="20%"   stop-color= "#94ffab" stop-opacity="1"/>
   <stop offset="50%"   stop-color= "#fbfd54" stop-opacity="1"/>
   <stop offset="100%"  stop-color= "#0f83ae" stop-opacity="1"/>
  </linearGradient>
 </defs>
 <path fill="currentColor" class="ColorScheme-Text" d="M 8 0.99609375 C 4.134 0.99609375 1 4.1300937 1 7.9960938 C 1 11.862094 4.134 14.996094 8 14.996094 C 11.866 14.996094 15 11.862094 15 7.9960938 C 15 4.1300937 11.866 0.99609375 8 0.99609375 z M 7.5 2.9335938 C 7.5669 2.9265937 7.65125 2.9375937 7.71875 2.9335938 C 7.72675 2.9655938 7.67005 3.0794638 7.59375 3.2460938 C 7.10789 4.3074937 7.08033 5.5504437 7.53125 6.2148438 C 7.61285 6.3353038 7.6875 6.4499437 7.6875 6.4648438 C 7.6875 6.4797438 7.5995 6.4960938 7.5 6.4960938 C 7.26642 6.4960938 7.04538 6.3537238 6.59375 5.9960938 C 6.39312 5.8372237 6.1323 5.7037938 6.03125 5.6835938 C 5.87257 5.6518937 5.83028 5.6657938 5.625 5.8710938 C 5.43401 6.0620537 5.375 6.1650237 5.375 6.3398438 C 5.375 7.0027837 6.16208 7.5297437 7.625 7.8398438 C 9.6117 8.2609137 10.10145 8.6389138 10.15625 9.6835938 C 10.22505 10.993594 9.5276 11.981394 8 12.746094 C 7.81767 12.837394 7.7015 12.872844 7.625 12.902344 C 7.5911 12.899344 7.56505 12.905344 7.53125 12.902344 C 7.51825 12.861844 7.5 12.767884 7.5 12.589844 C 7.5 11.894064 7.22575 11.177844 6.8125 10.777344 C 6.70157 10.669824 6.39098 10.441994 6.125 10.277344 C 5.85903 10.112704 5.59105 9.9214438 5.53125 9.8398438 C 5.43215 9.7044337 5.42386 9.6212437 5.5 9.3710938 C 5.63876 8.9142237 5.80392 8.6597637 6.125 8.3710938 C 6.29333 8.2197537 6.46271 8.0928437 6.5 8.0898438 C 6.5373 8.0868438 6.28485 8.0110437 5.90625 7.9335938 C 5.52767 7.8559938 4.97383 7.6934738 4.6875 7.5898438 C 4.16392 7.4003938 3.457 7.0026837 3.1875 6.7148438 C 3.1761 6.7026437 3.16615 6.6943938 3.15625 6.6835938 C 3.54238 5.1454938 4.626 3.8848438 6.0625 3.2773438 C 6.36307 3.1502138 6.67292 3.0629938 7 2.9960938 C 7.16292 2.9627938 7.33178 2.9506937 7.5 2.9335938 z M 12.1875 5.2773438 C 12.30495 5.3499437 12.74841 6.3093438 12.875 6.7773438 C 13.03844 7.3815337 13.02661 8.4271437 12.875 9.0273438 C 12.8173 9.2557838 12.74335 9.4694937 12.71875 9.4960938 C 12.69415 9.5226938 12.60494 9.3695637 12.5 9.1835938 C 12.39505 8.9976538 12.05984 8.6025437 11.78125 8.3085938 C 10.97711 7.4600637 10.85066 7.0170437 11.1875 6.3398438 C 11.35737 5.9983538 12.0966 5.2212438 12.1875 5.2773438 z" transform="translate(3 3)"/>
</svg>
