<svg xmlns="http://www.w3.org/2000/svg" width="16" height="16" version="1.1">
 <defs>
   <style id="current-color-scheme" type="text/css">
   .ColorScheme-Text { color: #0391e8; } .ColorScheme-Highlight { color: #5294e2; }
  </style>
  <linearGradient id="arrongin" x1="0%" x2="0%" y1="0%" y2="100%">
   <stop offset="0%" style="stop-color: #dd9b44; stop-opacity: 1"/>
   <stop offset="100%" style="stop-color: #ad6c16; stop-opacity: 1"/>
  </linearGradient>
  <linearGradient id="aurora" x1="0%" x2="0%" y1="0%" y2="100%">
   <stop offset="0%" style="stop-color: #09D4DF; stop-opacity: 1"/>
   <stop offset="100%" style="stop-color: #9269F4; stop-opacity: 1"/>
  </linearGradient>
  <linearGradient id="cyberneon" x1="0%" x2="0%" y1="0%" y2="100%">
    <stop offset="0" style="stop-color: #0abdc6; stop-opacity: 1"/>
    <stop offset="1" style="stop-color: #ea00d9; stop-opacity: 1"/>
  </linearGradient>
  <linearGradient id="fitdance" x1="0%" x2="0%" y1="0%" y2="100%">
   <stop offset="0%" style="stop-color: #1AD6AB; stop-opacity: 1"/>
   <stop offset="100%" style="stop-color: #329DB6; stop-opacity: 1"/>
  </linearGradient>
  <linearGradient id="oomox" x1="0%" x2="0%" y1="0%" y2="100%">
   <stop offset="0%" style="stop-color: #efefe7; stop-opacity: 1"/>
   <stop offset="100%" style="stop-color: #8f8f8b; stop-opacity: 1"/>
  </linearGradient>
  <linearGradient id="rainblue" x1="0%" x2="0%" y1="0%" y2="100%">
   <stop offset="0%" style="stop-color: #00F260; stop-opacity: 1"/>
   <stop offset="100%" style="stop-color: #0575E6; stop-opacity: 1"/>
  </linearGradient>
  <linearGradient id="sunrise" x1="0%" x2="0%" y1="0%" y2="100%">
   <stop offset="0%" style="stop-color: #FF8501; stop-opacity: 1"/>
   <stop offset="100%" style="stop-color: #FFCB01; stop-opacity: 1"/>
  </linearGradient>
  <linearGradient id="telinkrin" x1="0%" x2="0%" y1="0%" y2="100%">
   <stop offset="0%" style="stop-color: #b2ced6; stop-opacity: 1"/>
   <stop offset="100%" style="stop-color: #6da5b7; stop-opacity: 1"/>
  </linearGradient>
  <linearGradient id="60spsycho" x1="0%" x2="0%" y1="0%" y2="100%">
   <stop offset="0%" style="stop-color: #df5940; stop-opacity: 1"/>
   <stop offset="25%" style="stop-color: #d8d15f; stop-opacity: 1"/>
   <stop offset="50%" style="stop-color: #e9882a; stop-opacity: 1"/>
   <stop offset="100%" style="stop-color: #279362; stop-opacity: 1"/>
  </linearGradient>
  <linearGradient id="90ssummer" x1="0%" x2="0%" y1="0%" y2="100%">
   <stop offset="0%" style="stop-color: #f618c7; stop-opacity: 1"/>
   <stop offset="20%" style="stop-color: #94ffab; stop-opacity: 1"/>
   <stop offset="50%" style="stop-color: #fbfd54; stop-opacity: 1"/>
   <stop offset="100%" style="stop-color: #0f83ae; stop-opacity: 1"/>
  </linearGradient>
 </defs>
 <g fill="currentColor" class="ColorScheme-Text">
  <rect opacity="0.2" width="14.532" height="5.076" x=".7" y="2.04"/>
  <path opacity="1.0" d="M 3.9941406,1 C 2.7359422,1.0145341 1.8152477,0.96943873 1.0625,1.3847656 0.68612613,1.5924291 0.389274,1.9441474 0.22460938,2.3828125 0.05994475,2.8214776 0,3.3423913 0,4 v 8 c 0,0.657609 0.05992671,1.178579 0.22460938,1.617188 C 0.38929204,14.055796 0.68613867,14.405715 1.0625,14.613281 1.8152227,15.028414 2.7360403,14.984933 3.9941406,15 h 0.00195 8.0058594 0.0039 c 1.258193,-0.01454 2.178893,0.03056 2.931641,-0.384766 0.376374,-0.207662 0.673225,-0.559382 0.837891,-0.998046 C 15.940056,13.178523 16,12.657609 16,12 V 4 C 16,3.342391 15.940074,2.8214208 15.775391,2.3828125 15.610707,1.9442042 15.313862,1.5942851 14.9375,1.3867188 14.184777,0.97158609 13.263955,1.0150668 12.005859,1 h -0.002 -8.0058591 z M 4,2 h 8 c 1.258621,0.015235 2.089098,0.059878 2.455078,0.2617188 0.183422,0.1011586 0.28722,0.2128583 0.384766,0.4726562 C 14.93739,2.9941729 15,3.407609 15,4 v 8 c 0,0.592391 -0.06259,1.005718 -0.160156,1.265625 -0.09756,0.259907 -0.201356,0.371461 -0.384766,0.472656 C 14.089122,13.940195 13.258524,13.985293 12,14 H 4.0058594 4 C 2.741374,13.984765 1.9109005,13.940122 1.5449219,13.738281 1.3615007,13.637123 1.2577017,13.525423 1.1601562,13.265625 1.0626108,13.005827 1,12.592391 1,12 V 4 C 1,3.4076087 1.0625928,2.9942833 1.1601562,2.734375 1.2577197,2.4744667 1.3615132,2.3629141 1.5449219,2.2617188 1.9108755,2.0598046 2.7414722,2.0147015 4,2 Z"/>
  <path opacity="0.5" d="m 2.33331,10 c -0.18466,0 -0.33333,0.1115 -0.33333,0.25 v 2.5 c 0,0.1385 0.14867,0.25 0.33333,0.25 h 3.33334 c 0.18466,0 0.33333,-0.1115 0.33333,-0.25 v -2.5 C 5.99998,10.1115 5.85131,10 5.66665,10 Z"/>
  <path opacity="1.0" d="M 10.25,10 C 10.1115,10 10,10.1115 10,10.25 v 0.5 c 0,0.1385 0.1115,0.25 0.25,0.25 h 3.5 C 13.8885,11 14,10.8885 14,10.75 v -0.5 C 14,10.1115 13.8885,10 13.75,10 Z m 0,2 C 10.1115,12 10,12.1115 10,12.25 v 0.5 c 0,0.1385 0.1115,0.25 0.25,0.25 h 3.5 C 13.8885,13 14,12.8885 14,12.75 v -0.5 C 14,12.1115 13.8885,12 13.75,12 Z"/>
  <rect opacity="0.5" width="2" height="6.881" x="7" y="7.12"/>
  <path opacity="1.0" d="M 2.5736485,2.6019712 V 6.4823893 H 3.4162643 V 5.1130369 H 4.1646849 L 4.8684436,6.4823893 H 5.8109387 L 5.0847142,4.985548 C 5.5392778,4.7970711 5.7887435,4.2815082 5.7887435,3.8546615 c 0,-0.6707574 -0.3326829,-1.2526903 -1.3249612,-1.2526903 z m 3.8969291,0 V 6.4823893 H 7.3131934 V 5.0908417 H 8.189103 c 0.9645603,0 1.3525697,-0.6650742 1.3525697,-1.2415936 0,-0.6208662 -0.354748,-1.2472769 -1.3525697,-1.2472769 z m 3.5645384,0 v 3.8804181 h 0.842616 V 4.5586917 4.436887 c 0.02217,0.066517 0.02776,0.083005 0.04439,0.1218047 l 0.953323,1.9902841 0.942496,-2.0013817 c 0.01663,-0.033263 0.02209,-0.044188 0.0498,-0.1107071 -0.0055,0.066517 -0.0054,0.09963 -0.0054,0.1218047 v 1.9236976 h 0.842616 V 2.6019712 h -0.78714 l -0.931397,1.9789157 c -0.0388,0.088695 -0.06648,0.1662712 -0.0942,0.2438794 -0.02772,-0.077608 -0.05539,-0.1551841 -0.09419,-0.2438794 L 10.894243,2.6019712 Z M 3.4162643,3.4001966 H 4.47488 c 0.3381506,0 0.4379549,0.227184 0.4379549,0.4544649 0,0.2439125 -0.1053479,0.46015 -0.4379549,0.46015 H 3.4162643 Z m 3.8969291,0 h 0.9092024 c 0.3381505,0 0.4433682,0.2550311 0.4433682,0.4490515 0,0.2106511 -0.1218475,0.4490524 -0.4433682,0.4490524 H 7.3131934 Z"/>
 </g>
</svg>
