<svg xmlns="http://www.w3.org/2000/svg" width="16" height="16" version="1.1">
 <defs>
  <style id="current-color-scheme" type="text/css">
   .ColorScheme-Text { color: #0391e8; } .ColorScheme-Highlight { color: #5294e2; }
  </style>
  <linearGradient id="arrongin" x1="0%" x2="0%" y1="0%" y2="100%">
   <stop id="stop3" offset="0%" style="stop-color: #dd9b44"/>
   <stop id="stop5" offset="100%" style="stop-color: #ad6c16"/>
  </linearGradient>
  <linearGradient id="aurora" x1="0%" x2="0%" y1="0%" y2="100%">
   <stop id="stop8" offset="0%" style="stop-color: #09D4DF"/>
   <stop id="stop10" offset="100%" style="stop-color: #9269F4"/>
  </linearGradient>
  <linearGradient id="cyberneon" x1="0%" x2="0%" y1="0%" y2="100%">
   <stop id="stop56" offset="0" style="stop-color: #0abdc6"/>
   <stop id="stop58" offset="1" style="stop-color: #ea00d9"/>
  </linearGradient>
  <linearGradient id="fitdance" x1="0%" x2="0%" y1="0%" y2="100%">
   <stop id="stop13" offset="0%" style="stop-color: #1AD6AB"/>
   <stop id="stop15" offset="100%" style="stop-color: #329DB6"/>
  </linearGradient>
  <linearGradient id="oomox" x1="0%" x2="0%" y1="0%" y2="100%">
   <stop id="stop18" offset="0%" style="stop-color: #efefe7"/>
   <stop id="stop20" offset="100%" style="stop-color: #8f8f8b"/>
  </linearGradient>
  <linearGradient id="rainblue" x1="0%" x2="0%" y1="0%" y2="100%">
   <stop id="stop23" offset="0%" style="stop-color: #00F260"/>
   <stop id="stop25" offset="100%" style="stop-color: #0575E6"/>
  </linearGradient>
  <linearGradient id="sunrise" x1="0%" x2="0%" y1="0%" y2="100%">
   <stop id="stop28" offset="0%" style="stop-color: #FF8501"/>
   <stop id="stop30" offset="100%" style="stop-color: #FFCB01"/>
  </linearGradient>
  <linearGradient id="telinkrin" x1="0%" x2="0%" y1="0%" y2="100%">
   <stop id="stop33" offset="0%" style="stop-color: #b2ced6"/>
   <stop id="stop35" offset="100%" style="stop-color: #6da5b7"/>
  </linearGradient>
  <linearGradient id="60spsycho" x1="0%" x2="0%" y1="0%" y2="100%">
   <stop id="stop38" offset="0%" style="stop-color: #df5940"/>
   <stop id="stop40" offset="25%" style="stop-color: #d8d15f"/>
   <stop id="stop42" offset="50%" style="stop-color: #e9882a"/>
   <stop id="stop44" offset="100%" style="stop-color: #279362"/>
  </linearGradient>
  <linearGradient id="90ssummer" x1="0%" x2="0%" y1="0%" y2="100%">
   <stop id="stop47" offset="0%" style="stop-color: #f618c7"/>
   <stop id="stop49" offset="20%" style="stop-color: #94ffab"/>
   <stop id="stop51" offset="50%" style="stop-color: #fbfd54"/>
   <stop id="stop53" offset="100%" style="stop-color: #0f83ae"/>
  </linearGradient>
 </defs>
 <path fill="currentColor" class="ColorScheme-Text" d="M 0.5 0.5 L 0.5 1 L 0.5 7 L 1.5 7 L 1.5 1.5 L 6.9824219 1.5 L 6.9824219 0.5 L 0.5 0.5 z M 8.9824219 0.5 L 8.9824219 1.5 L 14.5 1.5 L 14.5 7 L 15.5 7 L 15.5 0.5 L 8.9824219 0.5 z M 0.5 9 L 0.5 15.5 L 6.9824219 15.5 L 6.9824219 14.5 L 1.5 14.5 L 1.5 9 L 0.5 9 z M 14.5 9 L 14.5 14.5 L 8.9824219 14.5 L 8.9824219 15.5 L 15.5 15.5 L 15.5 9 L 14.5 9 z"/>
</svg>
