<svg xmlns="http://www.w3.org/2000/svg" width="24" height="24" version="1.1">
 <defs>
  <style id="current-color-scheme" type="text/css">
   .ColorScheme-Text { color: #498db8; } .ColorScheme-Highlight { color: #1AD6AB; }
  </style>
  <linearGradient id="arrongin" x1="0%" x2="0%" y1="0%" y2="100%">
   <stop offset="0%" style="stop-color:#dd9b44"/>
   <stop offset="100%" style="stop-color:#ad6c16"/>
  </linearGradient>
  <linearGradient id="aurora" x1="0%" x2="0%" y1="0%" y2="100%">
   <stop offset="0%" style="stop-color:#09D4DF"/>
   <stop offset="100%" style="stop-color:#9269F4"/>
  </linearGradient>
  <linearGradient id="cyberneon" x1="0%" x2="0%" y1="0%" y2="100%">
   <stop offset="0" style="stop-color:#0abdc6"/>
   <stop offset="1" style="stop-color:#ea00d9"/>
  </linearGradient>
  <linearGradient id="fitdance" x1="0%" x2="0%" y1="0%" y2="100%">
   <stop offset="0%" style="stop-color:#1AD6AB"/>
   <stop offset="100%" style="stop-color:#329DB6"/>
  </linearGradient>
  <linearGradient id="oomox" x1="0%" x2="0%" y1="0%" y2="100%">
   <stop offset="0%" style="stop-color:#efefe7"/>
   <stop offset="100%" style="stop-color:#8f8f8b"/>
  </linearGradient>
  <linearGradient id="rainblue" x1="0%" x2="0%" y1="0%" y2="100%">
   <stop offset="0%" style="stop-color:#00F260"/>
   <stop offset="100%" style="stop-color:#0575E6"/>
  </linearGradient>
  <linearGradient id="sunrise" x1="0%" x2="0%" y1="0%" y2="100%">
   <stop offset="0%" style="stop-color:#FF8501"/>
   <stop offset="100%" style="stop-color:#FFCB01"/>
  </linearGradient>
  <linearGradient id="telinkrin" x1="0%" x2="0%" y1="0%" y2="100%">
   <stop offset="0%" style="stop-color:#b2ced6"/>
   <stop offset="100%" style="stop-color:#6da5b7"/>
  </linearGradient>
  <linearGradient id="60spsycho" x1="0%" x2="0%" y1="0%" y2="100%">
   <stop offset="0%" style="stop-color:#df5940"/>
   <stop offset="25%" style="stop-color:#d8d15f"/>
   <stop offset="50%" style="stop-color:#e9882a"/>
   <stop offset="100%" style="stop-color:#279362"/>
  </linearGradient>
  <linearGradient id="90ssummer" x1="0%" x2="0%" y1="0%" y2="100%">
   <stop offset="0%" style="stop-color:#f618c7"/>
   <stop offset="20%" style="stop-color:#94ffab"/>
   <stop offset="50%" style="stop-color:#fbfd54"/>
   <stop offset="100%" style="stop-color:#0f83ae"/>
  </linearGradient>
 </defs>
 <g transform="translate(-448 -956.27)">
  <path fill="currentColor" class="ColorScheme-Text" d="m6 4.002c-1.108 0-2 0.892-2 2v10c0 1.108 0.892 2 2 2h10c1.108 0 2-0.892 2-2v-10c0-1.108-0.892-2-2-2h-10zm2.4961 1.9668c0.77985 0.00001 1.3901 0.22367 1.832 0.66992 0.44192 0.44625 0.66211 1.0613 0.66211 1.8477 0 0.78418-0.2202 1.3995-0.66211 1.8457-0.44191 0.44625-1.0522 0.66992-1.832 0.66992-0.77769 0-1.3899-0.22367-1.834-0.66992-0.4419-0.4462-0.6621-1.0615-0.6621-1.8457 0-0.7863 0.2202-1.4014 0.6621-1.8476 0.4441-0.4463 1.0563-0.6699 1.834-0.6699zm0 0.90625c-0.3813 0-0.6766 0.1403-0.8867 0.4219-0.2102 0.2816-0.3164 0.6782-0.3164 1.1894-2e-7 0.50906 0.10628 0.90589 0.31641 1.1875 0.21011 0.28161 0.50546 0.42187 0.88672 0.42187 0.38343 0 0.68049-0.14027 0.89062-0.42187 0.21013-0.28162 0.31444-0.67843 0.31445-1.1875 0-0.5112-0.1044-0.9078-0.3145-1.1894s-0.5072-0.4219-0.8906-0.4219zm3.5684 3.2754h1.8789c0.6737 0 1.1598 0.10107 1.4609 0.30469 0.30327 0.20363 0.45507 0.53011 0.45508 0.97852-0.00001 0.23612-0.0555 0.43867-0.16602 0.60547-0.11048 0.16463-0.27035 0.28699-0.48047 0.36719 0.26861 0.078 0.47769 0.22151 0.625 0.43164 0.1473 0.21012 0.22069 0.46799 0.2207 0.77344-0.00001 0.4679-0.15834 0.81724-0.47461 1.0469-0.31628 0.22962-0.79782 0.34375-1.4434 0.34375h-2.0762v-4.8516zm1.252 0.85156v1.0273h0.69141c0.19713 0 0.34545-0.04416 0.44727-0.13086 0.1018-0.0867 0.15429-0.21384 0.1543-0.38281 0-0.1668-0.05248-0.29416-0.1543-0.38086-0.10182-0.08881-0.25013-0.13281-0.44727-0.13281h-0.69141zm-0.002 1.8789v1.2695h0.73438c0.25129 0 0.44076-0.05209 0.56641-0.1582 0.12781-0.10615 0.19141-0.26796 0.19141-0.48242 0-0.21013-0.06184-0.36672-0.1875-0.4707-0.12565-0.1061-0.31685-0.1582-0.57031-0.1582h-0.73438z" transform="translate(449 957.27)"/>
 </g>
</svg>
