<svg xmlns="http://www.w3.org/2000/svg" width="24" height="24" version="1.1">
 <defs>
  <style id="current-color-scheme" type="text/css">
   .ColorScheme-Text { color: #498db8; } .ColorScheme-Highlight { color: #1AD6AB; }
  </style>
  <linearGradient id="arrongin" x1="0%" x2="0%" y1="0%" y2="100%">
   <stop offset="0%" style="stop-color:#dd9b44"/>
   <stop offset="100%" style="stop-color:#ad6c16"/>
  </linearGradient>
  <linearGradient id="aurora" x1="0%" x2="0%" y1="0%" y2="100%">
   <stop offset="0%" style="stop-color:#09D4DF"/>
   <stop offset="100%" style="stop-color:#9269F4"/>
  </linearGradient>
  <linearGradient id="cyberneon" x1="0%" x2="0%" y1="0%" y2="100%">
   <stop offset="0" style="stop-color:#0abdc6"/>
   <stop offset="1" style="stop-color:#ea00d9"/>
  </linearGradient>
  <linearGradient id="fitdance" x1="0%" x2="0%" y1="0%" y2="100%">
   <stop offset="0%" style="stop-color:#1AD6AB"/>
   <stop offset="100%" style="stop-color:#329DB6"/>
  </linearGradient>
  <linearGradient id="oomox" x1="0%" x2="0%" y1="0%" y2="100%">
   <stop offset="0%" style="stop-color:#efefe7"/>
   <stop offset="100%" style="stop-color:#8f8f8b"/>
  </linearGradient>
  <linearGradient id="rainblue" x1="0%" x2="0%" y1="0%" y2="100%">
   <stop offset="0%" style="stop-color:#00F260"/>
   <stop offset="100%" style="stop-color:#0575E6"/>
  </linearGradient>
  <linearGradient id="sunrise" x1="0%" x2="0%" y1="0%" y2="100%">
   <stop offset="0%" style="stop-color:#FF8501"/>
   <stop offset="100%" style="stop-color:#FFCB01"/>
  </linearGradient>
  <linearGradient id="telinkrin" x1="0%" x2="0%" y1="0%" y2="100%">
   <stop offset="0%" style="stop-color:#b2ced6"/>
   <stop offset="100%" style="stop-color:#6da5b7"/>
  </linearGradient>
  <linearGradient id="60spsycho" x1="0%" x2="0%" y1="0%" y2="100%">
   <stop offset="0%" style="stop-color:#df5940"/>
   <stop offset="25%" style="stop-color:#d8d15f"/>
   <stop offset="50%" style="stop-color:#e9882a"/>
   <stop offset="100%" style="stop-color:#279362"/>
  </linearGradient>
  <linearGradient id="90ssummer" x1="0%" x2="0%" y1="0%" y2="100%">
   <stop offset="0%" style="stop-color:#f618c7"/>
   <stop offset="20%" style="stop-color:#94ffab"/>
   <stop offset="50%" style="stop-color:#fbfd54"/>
   <stop offset="100%" style="stop-color:#0f83ae"/>
  </linearGradient>
 </defs>
 <circle fill="currentColor" class="ColorScheme-Highlight" cx="20" cy="4" r="2"/>
 <path fill="currentColor" class="ColorScheme-Text" d="m 12.000077,3.999938 c -0.376405,0 -0.754439,0.016971 -0.994141,0.052734 -2.8932644,0.4315301 -4.6029634,1.8938258 -4.9453114,4.226563 -0.03782,0.257736 -0.04861,0.715323 -0.05469,2.46875 l -0.0059,2.082031 0.08398,0.138672 c 0.207221,0.343093 0.493264,0.583776 1.855469,1.5625 2.2773884,1.636272 3.2125684,2.234165 3.7890624,2.416016 0.09098,0.0287 0.21673,0.0519 0.279296,0.05273 0.382606,0.0053 1.501514,-0.643479 3.195313,-1.855469 2.112288,-1.511443 2.503135,-1.825343 2.708984,-2.167969 l 0.08789,-0.14648 0,-1.71875 c 0,-2.240483 -0.01403,-2.637028 -0.115234,-3.117187 C 17.704319,7.137796 17.375044,6.462242 16.851596,5.8729849 16.011412,4.9271679 14.697387,4.3069974 12.992222,4.0526724 c -0.23971,-0.03575 -0.615783,-0.052734 -0.992188,-0.052734 z m 0,3 c 1.999997,9e-6 2.545045,1.178874 2.931641,2.623047 0.06807,0.25426 0.06836,0.264618 0.06836,1.298828 0,0.573422 -0.0078,1.052891 -0.01758,1.064453 -0.0098,0.01154 -1.346061,0.01606 -2.982422,0.01172 -1.63636,0.0044 -2.9726224,-1.59e-4 -2.9824214,-0.01172 -0.0098,-0.01156 -0.01758,-0.491031 -0.01758,-1.064453 0,-1.03421 3.19e-4,-1.044568 0.06836,-1.298828 0.3866,-1.444173 0.9316434,-2.623056 2.9316394,-2.623047 z m -5.9980464,7 c 0,0 -0.0057,0.587641 0.002,2.775391 l 0.0098,2.6875 0.08984,0.167968 c 0.06931,0.128895 0.125514,0.187587 0.238281,0.253907 l 0.148437,0.08789 2.390625,0.01367 c 1.3148174,0.0079 3.7752454,0.01447 5.4687494,0.01367 l 3.080079,-0.002 0.148437,-0.0625 c 0.19133,-0.08219 0.247244,-0.132473 0.335937,-0.298828 l 0.07227,-0.134766 0.0039,-2.451172 0.0097,-3.05073 -0.03906,0 -0.04883,0.08008 c -0.20585,0.333837 -0.596697,0.63864 -2.708985,2.111326 -1.693807,1.180911 -2.812716,1.813794 -3.195322,1.808594 -0.06257,-8e-4 -0.188315,-0.02476 -0.279296,-0.05273 -0.576494,-0.17719 -1.511674,-0.757249 -3.7890624,-2.351563 -1.362207,-0.953626 -1.648249,-1.189142 -1.855469,-1.523437 l -0.04492,-0.07227 -0.03711,0 z"/>
</svg>
