<svg xmlns="http://www.w3.org/2000/svg" width="24" height="24" version="1.1">
 <defs>
  <style id="current-color-scheme" type="text/css">
   .ColorScheme-Text { color: #498db8; } .ColorScheme-Highlight { color: #1AD6AB; }
  </style>
  <linearGradient id="arrongin" x1="0%" x2="0%" y1="0%" y2="100%">
   <stop offset="0%" style="stop-color:#dd9b44"/>
   <stop offset="100%" style="stop-color:#ad6c16"/>
  </linearGradient>
  <linearGradient id="aurora" x1="0%" x2="0%" y1="0%" y2="100%">
   <stop offset="0%" style="stop-color:#09D4DF"/>
   <stop offset="100%" style="stop-color:#9269F4"/>
  </linearGradient>
  <linearGradient id="cyberneon" x1="0%" x2="0%" y1="0%" y2="100%">
   <stop offset="0" style="stop-color:#0abdc6"/>
   <stop offset="1" style="stop-color:#ea00d9"/>
  </linearGradient>
  <linearGradient id="fitdance" x1="0%" x2="0%" y1="0%" y2="100%">
   <stop offset="0%" style="stop-color:#1AD6AB"/>
   <stop offset="100%" style="stop-color:#329DB6"/>
  </linearGradient>
  <linearGradient id="oomox" x1="0%" x2="0%" y1="0%" y2="100%">
   <stop offset="0%" style="stop-color:#efefe7"/>
   <stop offset="100%" style="stop-color:#8f8f8b"/>
  </linearGradient>
  <linearGradient id="rainblue" x1="0%" x2="0%" y1="0%" y2="100%">
   <stop offset="0%" style="stop-color:#00F260"/>
   <stop offset="100%" style="stop-color:#0575E6"/>
  </linearGradient>
  <linearGradient id="sunrise" x1="0%" x2="0%" y1="0%" y2="100%">
   <stop offset="0%" style="stop-color:#FF8501"/>
   <stop offset="100%" style="stop-color:#FFCB01"/>
  </linearGradient>
  <linearGradient id="telinkrin" x1="0%" x2="0%" y1="0%" y2="100%">
   <stop offset="0%" style="stop-color:#b2ced6"/>
   <stop offset="100%" style="stop-color:#6da5b7"/>
  </linearGradient>
  <linearGradient id="60spsycho" x1="0%" x2="0%" y1="0%" y2="100%">
   <stop offset="0%" style="stop-color:#df5940"/>
   <stop offset="25%" style="stop-color:#d8d15f"/>
   <stop offset="50%" style="stop-color:#e9882a"/>
   <stop offset="100%" style="stop-color:#279362"/>
  </linearGradient>
  <linearGradient id="90ssummer" x1="0%" x2="0%" y1="0%" y2="100%">
   <stop offset="0%" style="stop-color:#f618c7"/>
   <stop offset="20%" style="stop-color:#94ffab"/>
   <stop offset="50%" style="stop-color:#fbfd54"/>
   <stop offset="100%" style="stop-color:#0f83ae"/>
  </linearGradient>
 </defs>
 <path fill="currentColor" class="ColorScheme-Text" d="m 13.214328,5.041055 c -0.06635,0.00626 -0.09727,0.00375 -0.171875,0.011719 -2.442655,0.2609122 -4.4795665,1.774117 -6.8105476,5.054688 -0.7038276,0.990553 -1.6080292,2.261654 -2.0097657,2.826172 -1.6923785,2.378122 -1.6202668,4.819444 0.1738282,5.845703 1.1595376,0.663275 2.279051,0.925376 4.0527344,0.951172 0.8915153,0.01295 2.1985157,0.07777 2.9023437,0.142578 1.963707,0.180839 2.2096,0.176243 3.591797,-0.06445 1.546994,-0.269402 2.73888,-0.830451 3.697266,-1.738282 0.38599,-0.365628 0.852472,-1.062621 1.242187,-1.771484 -0.135913,-0.219608 -0.216507,-0.4261 -0.328124,-0.648437 -0.157601,0.132513 -0.299836,0.304158 -0.46875,0.404297 -0.180997,0.107296 -0.360995,0.200902 -0.619141,0.257812 -0.258146,0.05691 -0.766022,0.09377 -1.158203,-0.335938 -0.347774,-0.381029 -0.272544,-0.5705 -0.277344,-0.697265 -0.0048,-0.126766 0.0069,-0.213818 0.01953,-0.298828 0.02531,-0.170015 0.06514,-0.3253 0.123047,-0.492188 -0.04121,0.118766 0.03562,-0.17892 0.06836,-0.470703 0.03274,-0.291783 0.06203,-0.656165 0.07617,-1.001953 l 0.0078,-0.189453 c -0.271467,0.02598 -0.456151,0.04825 -0.763672,0.07422 -0.511484,0.04319 -0.771607,0.09437 -1.201172,0.01563 -0.214783,-0.03938 -0.573515,-0.17616 -0.791016,-0.488282 -0.217488,-0.312122 -0.21289,-0.589621 -0.21289,-0.730468 0,-0.731649 0.279178,-1.112467 0.580078,-1.609376 C 15.141981,9.7493957 15.422607,9.4626247 15.69089,9.1680087 15.448628,9.0281237 15.186943,8.8773759 14.907687,8.728555 14.314385,8.4123728 14.019007,8.293369 13.6655,7.9726956 13.577123,7.8925273 13.47311,7.7892245 13.37839,7.6074613 13.283678,7.425698 13.222228,7.1348383 13.270968,6.8828519 13.368453,6.3788791 13.630003,6.241463 13.743625,6.15043 13.855944,6.0604413 13.957836,6.0602133 14.061984,5.9980863 13.848778,5.7982736 13.526628,5.6067148 13.403781,5.4199613 13.31433,5.2839761 13.267076,5.1619172 13.214328,5.041055 Z m -1.023438,2.96875 c 0.107057,-0.014188 0.212149,-0.01409 0.308594,0.00195 0.128594,0.02139 0.243532,0.071657 0.330078,0.1582031 0.346184,0.3461847 0.119025,1.1348816 -0.265625,1.5195316 -0.384649,0.3846533 -0.978035,0.4165003 -1.324219,0.07032 -0.346185,-0.34619 -0.31434,-0.9395743 0.07031,-1.3242234 0.216366,-0.2163654 0.55969,-0.3832178 0.88086,-0.4257813 z m -4.0000003,2 c 0.1070567,-0.01419 0.2121485,-0.01409 0.3085938,0.0019 0.1285938,0.02139 0.2435319,0.07166 0.3300781,0.158203 0.3461849,0.346185 0.1190254,1.134882 -0.265625,1.519532 -0.3846495,0.38465 -0.9780343,0.416495 -1.3242187,0.07031 -0.3461849,-0.346179 -0.314338,-0.939564 0.070312,-1.324213 0.2163657,-0.216366 0.5596895,-0.383218 0.8808593,-0.425782 z m 3.0000003,2.000001 c 0.107056,-0.01419 0.212148,-0.01409 0.308594,0.002 0.128593,0.02139 0.243531,0.07166 0.330078,0.158203 0.346185,0.346186 0.119026,1.134882 -0.265625,1.519531 -0.384649,0.384649 -0.978035,0.416494 -1.324219,0.07031 -0.346185,-0.346185 -0.314337,-0.939569 0.07031,-1.324219 0.216366,-0.216366 0.559689,-0.383218 0.880859,-0.425781 z m 4,1 c 0.107057,-0.01419 0.212149,-0.01409 0.308594,0.002 0.128594,0.02139 0.243532,0.07166 0.330078,0.158203 0.346185,0.346185 0.119025,1.134881 -0.265625,1.519531 -0.38465,0.384649 -0.978035,0.416494 -1.324219,0.07031 -0.346185,-0.346185 -0.314341,-0.939568 0.07031,-1.324219 0.216367,-0.216365 0.55969,-0.383218 0.880859,-0.425781 z m -9.0000003,1 c 0.1070567,-0.01419 0.2121484,-0.01409 0.3085938,0.002 0.1285939,0.02139 0.2435319,0.07166 0.3300781,0.158203 0.3461852,0.346185 0.1190249,1.134881 -0.265625,1.519531 -0.3846494,0.384649 -0.9780341,0.416494 -1.3242187,0.07031 -0.3461851,-0.346185 -0.3143371,-0.939569 0.070312,-1.324219 0.216366,-0.216366 0.5596895,-0.383218 0.8808593,-0.425781 z m 4.0000003,2 c 0.107056,-0.01419 0.212148,-0.01409 0.308593,0.002 0.128594,0.02139 0.243532,0.07166 0.330079,0.158203 0.346184,0.346186 0.119026,1.134881 -0.265625,1.519531 -0.384649,0.384649 -0.978035,0.416494 -1.3242191,0.07031 -0.3461848,-0.346186 -0.3143378,-0.939571 0.070312,-1.324219 0.2163656,-0.216366 0.5596894,-0.383218 0.8808591,-0.425781 z m 3,1 c 0.107057,-0.01419 0.212149,-0.01409 0.308594,0.002 0.128594,0.02139 0.243532,0.07166 0.330078,0.158203 0.346185,0.346184 0.119025,1.13488 -0.265625,1.519531 -0.384651,0.38465 -0.978034,0.416494 -1.324219,0.07031 -0.346184,-0.346186 -0.314341,-0.939569 0.07031,-1.324219 0.216367,-0.216365 0.55969,-0.383218 0.880859,-0.425781 z"/>
 <path fill="currentColor" class="ColorScheme-Text" d="m 14.087912,4.0000407 c -0.08879,0 -0.114508,0.1809132 -0.05978,0.4198201 0,0 0.157318,0.7623029 1.212868,1.3206632 0.734159,0.3629505 0.732837,0.5727048 -0.0048,0.7903464 -0.321469,0.094846 -0.712152,0.2747285 -0.868059,0.399639 -0.257133,0.2060136 -0.163286,0.2909717 1.009667,0.9160613 0.711194,0.3790096 1.424868,0.799656 1.585757,0.9349187 0.279332,0.2348393 0.266595,0.2677353 -0.278383,0.7231883 -0.608397,0.5084543 -1.328208,1.6971813 -1.328208,2.1933853 0,0.268262 0.118757,0.290053 1.120779,0.205446 0.616429,-0.05205 1.294693,-0.117562 1.507255,-0.145565 l 0.386475,-0.05095 -0.05525,1.349445 c -0.03035,0.74213 -0.11915,1.533981 -0.197465,1.75967 -0.07831,0.22569 -0.110947,0.444811 -0.07246,0.486979 0.162017,0.17752 0.822921,-0.214292 1.276276,-0.756603 0.463478,-0.554422 0.492942,-0.565829 0.591488,-0.225625 0.331871,0.609878 0.478769,1.144115 0.993722,1.678574 0.114993,0.01131 0.202735,-0.135772 0.276514,-0.438962 0.227139,-0.933414 0.105469,-1.836923 -0.372888,-2.770019 -0.257769,-0.502806 -0.510255,-1.295189 -0.561295,-1.760994 -0.05104,-0.465805 -0.135107,-1.007657 -0.186598,-1.2042123 -0.07824,-0.298678 0.07349,-0.473007 0.923618,-1.0612943 0.967991,-0.6698438 1.217838,-1.050926 0.851756,-1.2988288 -0.09096,-0.061593 -0.570059,0.1245365 -1.064921,0.413535 -0.494861,0.2889975 -0.997061,0.5253534 -1.115948,0.5253534 -0.118886,0 -0.491962,-0.3617958 -0.828809,-0.8039105 C 18.243804,6.8317338 18.2169,6.7438938 18.2169,5.6098438 c 0,-1.0775591 -0.02986,-1.1910047 -0.325786,-1.2372944 -0.239184,-0.037414 -0.377723,0.086437 -0.521138,0.465805 -0.107448,0.2842238 -0.24958,0.516752 -0.315823,0.516752 -0.06624,0 -0.725646,-0.3048902 -1.465287,-0.6775342 -0.739656,-0.372642 -1.41515,-0.6775325 -1.500927,-0.6775325 z"/>
</svg>
