<svg xmlns="http://www.w3.org/2000/svg" width="24" height="24" version="1.1">
 <defs>
  <style id="current-color-scheme" type="text/css">
   .ColorScheme-Text { color: #498db8; } .ColorScheme-Highlight { color: #1AD6AB; }
  </style>
  <linearGradient id="arrongin" x1="0%" x2="0%" y1="0%" y2="100%">
   <stop offset="0%" style="stop-color:#dd9b44"/>
   <stop offset="100%" style="stop-color:#ad6c16"/>
  </linearGradient>
  <linearGradient id="aurora" x1="0%" x2="0%" y1="0%" y2="100%">
   <stop offset="0%" style="stop-color:#09D4DF"/>
   <stop offset="100%" style="stop-color:#9269F4"/>
  </linearGradient>
  <linearGradient id="cyberneon" x1="0%" x2="0%" y1="0%" y2="100%">
   <stop offset="0" style="stop-color:#0abdc6"/>
   <stop offset="1" style="stop-color:#ea00d9"/>
  </linearGradient>
  <linearGradient id="fitdance" x1="0%" x2="0%" y1="0%" y2="100%">
   <stop offset="0%" style="stop-color:#1AD6AB"/>
   <stop offset="100%" style="stop-color:#329DB6"/>
  </linearGradient>
  <linearGradient id="oomox" x1="0%" x2="0%" y1="0%" y2="100%">
   <stop offset="0%" style="stop-color:#efefe7"/>
   <stop offset="100%" style="stop-color:#8f8f8b"/>
  </linearGradient>
  <linearGradient id="rainblue" x1="0%" x2="0%" y1="0%" y2="100%">
   <stop offset="0%" style="stop-color:#00F260"/>
   <stop offset="100%" style="stop-color:#0575E6"/>
  </linearGradient>
  <linearGradient id="sunrise" x1="0%" x2="0%" y1="0%" y2="100%">
   <stop offset="0%" style="stop-color:#FF8501"/>
   <stop offset="100%" style="stop-color:#FFCB01"/>
  </linearGradient>
  <linearGradient id="telinkrin" x1="0%" x2="0%" y1="0%" y2="100%">
   <stop offset="0%" style="stop-color:#b2ced6"/>
   <stop offset="100%" style="stop-color:#6da5b7"/>
  </linearGradient>
  <linearGradient id="60spsycho" x1="0%" x2="0%" y1="0%" y2="100%">
   <stop offset="0%" style="stop-color:#df5940"/>
   <stop offset="25%" style="stop-color:#d8d15f"/>
   <stop offset="50%" style="stop-color:#e9882a"/>
   <stop offset="100%" style="stop-color:#279362"/>
  </linearGradient>
  <linearGradient id="90ssummer" x1="0%" x2="0%" y1="0%" y2="100%">
   <stop offset="0%" style="stop-color:#f618c7"/>
   <stop offset="20%" style="stop-color:#94ffab"/>
   <stop offset="50%" style="stop-color:#fbfd54"/>
   <stop offset="100%" style="stop-color:#0f83ae"/>
  </linearGradient>
 </defs>
 <g>
  <path fill="currentColor" class="ColorScheme-Text" d="m 6.8899785,4.2694293 c -0.1198948,-0.0109 -0.2362897,-0.0103 -0.322186,0.0078 l -0.002,0 c -0.251289,0.0519 -0.5662753,0.234695 -1.2479455,0.730486 -0.4095821,0.299795 -0.9714575,0.837785 -1.1035518,1.054681 -0.3064866,0.51399 -0.2891873,0.950582 0.083996,1.955064 0.639972,1.722568 1.5751311,3.3823377 2.8045775,4.9843087 2.3530972,3.064943 5.3172683,5.293902 9.0291053,6.788874 0.47298,0.190997 0.626973,0.222996 0.997957,0.204997 0.448981,-0.021 0.789965,-0.156997 1.270944,-0.513991 0.531977,-0.393993 1.292944,-1.318975 1.488935,-1.811966 0.184993,-0.467992 0.135994,-0.891984 -0.138993,-1.222978 -0.155994,-0.182996 -1.308943,-1.102979 -1.84792,-1.471973 -0.408982,-0.278995 -1.042954,-0.662987 -1.333942,-0.810985 -0.382983,-0.190996 -0.764967,-0.223996 -1.13795,-0.1 -0.293987,0.099 -0.389983,0.182997 -0.818964,0.708987 -0.221991,0.268995 -0.426982,0.512991 -0.45298,0.53599 -0.029,0.023 -0.121995,0.074 -0.208992,0.112998 -0.345984,0.157997 -0.819963,0.063 -1.59393,-0.314994 C 11.753166,14.815733 11.219189,14.44674 10.614415,13.90375 10.099138,13.444759 9.5793607,12.84377 9.2883731,12.376778 8.9130895,11.774789 8.627002,10.994103 8.6243021,10.562311 c 0,-0.185897 0.076897,-0.449892 0.1718924,-0.5839897 0.036998,-0.0539 0.2720882,-0.258295 0.5233772,-0.456991 0.626472,-0.493191 0.7666673,-0.646988 0.8515633,-0.941383 0.0822,-0.273495 -0.0062,-0.644088 -0.2675893,-1.142579 -0.4573795,-0.873084 -1.8548185,-2.619851 -2.3572965,-2.945245 -0.082196,-0.0519 -0.2260901,-0.123298 -0.3183861,-0.154298 -0.095296,-0.0337 -0.2179905,-0.0574 -0.3378852,-0.0684 z"/>
  <path fill="currentColor" class="ColorScheme-Highlight" d="m 13.339097,7.8240633 c -0.051,0.0058 -0.086,0.0187 -0.136994,0.043 -0.266989,0.134098 -0.340985,0.498291 -0.147994,0.722587 0.104996,0.121298 0.203991,0.156997 0.528977,0.195396 0.69297,0.0828 1.100952,0.335794 1.333942,0.824185 0.107996,0.229696 0.172992,0.4782907 0.206991,0.8319847 0.029,0.266095 0.069,0.364093 0.194991,0.456991 0.174993,0.131599 0.461981,0.125599 0.617974,-0.0136 0.165992,-0.149597 0.195991,-0.329594 0.123995,-0.789086 -0.104997,-0.7046867 -0.344986,-1.1966777 -0.784967,-1.6015697 -0.340985,-0.312494 -0.740967,-0.506691 -1.260945,-0.615189 -0.107995,-0.0228 -0.309986,-0.0452 -0.447979,-0.0527 l -0.002,0 c -0.108996,-0.0063 -0.175993,-0.0077 -0.225991,-0.002 z m -0.560976,-1.931564 c -0.148993,0.0229 -0.23599,0.0831 -0.303986,0.187496 l -0.002,0 c -0.126995,0.188597 -0.111995,0.416193 0.039,0.58399 0.097,0.111098 0.23999,0.162697 0.499979,0.183596 0.716968,0.0565 1.501934,0.285795 2.03491,0.595689 0.617974,0.358994 1.125952,0.874784 1.473936,1.499973 0.306986,0.547689 0.484979,1.2528757 0.484979,1.9217637 0,0.433793 0.06,0.59279 0.263988,0.693788 0.120995,0.062 0.341985,0.067 0.444981,0.015 0.095,-0.049 0.205991,-0.165997 0.23999,-0.253995 0.037,-0.093 0.036,-0.653389 0.002,-0.960584 -0.098,-0.8393837 -0.381984,-1.6227697 -0.839964,-2.2890567 -0.813965,-1.182979 -2.05691,-1.910165 -3.66184,-2.140561 -0.315987,-0.0465 -0.526977,-0.06 -0.675971,-0.0371 z m -0.245988,-1.888665 c -0.430981,-0.0128 -0.517978,0.0021 -0.641973,0.113298 -0.203991,0.177796 -0.193991,0.560289 0.017,0.722586 0.113996,0.0849 0.200991,0.104598 0.70297,0.132898 1.485935,0.0848 2.621885,0.477391 3.718838,1.283176 1.315942,0.963282 2.140906,2.305358 2.452892,3.9862267 0.08,0.428492 0.119995,0.786786 0.146994,1.341776 0.016,0.361993 0.028,0.441992 0.076,0.53499 0.150993,0.281995 0.591974,0.322994 0.792966,0.072 0.105996,-0.128998 0.117994,-0.228996 0.099,-0.680988 -0.05,-1.324676 -0.343986,-2.5286537 -0.858963,-3.5411347 -0.369984,-0.725587 -0.716968,-1.193478 -1.345942,-1.810567 -0.67097,-0.653488 -1.178948,-1.011281 -1.971913,-1.390574 -0.806964,-0.384693 -1.541933,-0.599789 -2.450893,-0.710987 -0.179992,-0.0208 -0.511978,-0.0453 -0.736967,-0.0527 z"/>
 </g>
</svg>
