<svg xmlns="http://www.w3.org/2000/svg" width="24" height="24" version="1.1">
 <defs>
  <style id="current-color-scheme" type="text/css">
   .ColorScheme-Text { color: #498db8; } .ColorScheme-Highlight { color: #1AD6AB; }
  </style>
  <linearGradient id="arrongin" x1="0%" x2="0%" y1="0%" y2="100%">
   <stop offset="0%" style="stop-color:#dd9b44"/>
   <stop offset="100%" style="stop-color:#ad6c16"/>
  </linearGradient>
  <linearGradient id="aurora" x1="0%" x2="0%" y1="0%" y2="100%">
   <stop offset="0%" style="stop-color:#09D4DF"/>
   <stop offset="100%" style="stop-color:#9269F4"/>
  </linearGradient>
  <linearGradient id="cyberneon" x1="0%" x2="0%" y1="0%" y2="100%">
   <stop offset="0" style="stop-color:#0abdc6"/>
   <stop offset="1" style="stop-color:#ea00d9"/>
  </linearGradient>
  <linearGradient id="fitdance" x1="0%" x2="0%" y1="0%" y2="100%">
   <stop offset="0%" style="stop-color:#1AD6AB"/>
   <stop offset="100%" style="stop-color:#329DB6"/>
  </linearGradient>
  <linearGradient id="oomox" x1="0%" x2="0%" y1="0%" y2="100%">
   <stop offset="0%" style="stop-color:#efefe7"/>
   <stop offset="100%" style="stop-color:#8f8f8b"/>
  </linearGradient>
  <linearGradient id="rainblue" x1="0%" x2="0%" y1="0%" y2="100%">
   <stop offset="0%" style="stop-color:#00F260"/>
   <stop offset="100%" style="stop-color:#0575E6"/>
  </linearGradient>
  <linearGradient id="sunrise" x1="0%" x2="0%" y1="0%" y2="100%">
   <stop offset="0%" style="stop-color:#FF8501"/>
   <stop offset="100%" style="stop-color:#FFCB01"/>
  </linearGradient>
  <linearGradient id="telinkrin" x1="0%" x2="0%" y1="0%" y2="100%">
   <stop offset="0%" style="stop-color:#b2ced6"/>
   <stop offset="100%" style="stop-color:#6da5b7"/>
  </linearGradient>
  <linearGradient id="60spsycho" x1="0%" x2="0%" y1="0%" y2="100%">
   <stop offset="0%" style="stop-color:#df5940"/>
   <stop offset="25%" style="stop-color:#d8d15f"/>
   <stop offset="50%" style="stop-color:#e9882a"/>
   <stop offset="100%" style="stop-color:#279362"/>
  </linearGradient>
  <linearGradient id="90ssummer" x1="0%" x2="0%" y1="0%" y2="100%">
   <stop offset="0%" style="stop-color:#f618c7"/>
   <stop offset="20%" style="stop-color:#94ffab"/>
   <stop offset="50%" style="stop-color:#fbfd54"/>
   <stop offset="100%" style="stop-color:#0f83ae"/>
  </linearGradient>
 </defs>
 <path fill="#498db8" d="M4 6.34493H7.41089C7.92343 6.34493 8.37995 6.66893 8.54912 7.15274L12.9044 19.6087L11.6986 15.4812L17.4957 7.87536L20 10.2406L15.3159 5H19.258C19.6678 5 20 5.33222 20 5.74203V10.2406L12.9044 19.6087H9.4714C8.99956 19.6087 8.579 19.3112 8.42188 18.8663L4 6.34493Z"/>
 <rect fill="url(#paint0_linear)" width="4" height="6" x="14" y="13"/>
 <path fill="url(#paint1_linear)" d="M16 12C13.7909 12 12 13.7909 12 16C12 18.2091 13.7909 20 16 20C18.2091 20 20 18.2091 20 16C20 13.7909 18.2091 12 16 12ZM15.4286 13.7143H16.5714V16H18L16 18.8571L14 16H15.4286V13.7143Z"/>
 <defs>
  <linearGradient id="paint0_linear" x1="14.583" x2="14.351" y1="19" y2="13.165" gradientUnits="userSpaceOnUse">
   <stop stop-color="#bfc1c1"/>
   <stop offset="1" stop-color="#f1f2f3"/>
  </linearGradient>
  <linearGradient id="paint1_linear" x1="16" x2="16" y1="20" y2="12" gradientUnits="userSpaceOnUse">
   <stop stop-color="#ff0056"/>
   <stop offset=".1" stop-color="#ff0c4e"/>
   <stop offset=".2" stop-color="#ff1845"/>
   <stop offset=".3" stop-color="#ff243d"/>
   <stop offset=".4" stop-color="#ff3034"/>
   <stop offset=".5" stop-color="#ff3c2b"/>
   <stop offset=".6" stop-color="#ff4823"/>
   <stop offset=".7" stop-color="#ff541a"/>
   <stop offset=".8" stop-color="#ff6012"/>
   <stop offset=".9" stop-color="#ff6c09"/>
   <stop offset="1" stop-color="#ff7901"/>
  </linearGradient>
 </defs>
</svg>
