<svg xmlns="http://www.w3.org/2000/svg" width="24" height="24" version="1.1">
 <defs>
  <style id="current-color-scheme" type="text/css">
   .ColorScheme-Text { color: #498db8; } .ColorScheme-Highlight { color: #1AD6AB; }
  </style>
  <linearGradient id="arrongin" x1="0%" x2="0%" y1="0%" y2="100%">
   <stop offset="0%" style="stop-color:#dd9b44"/>
   <stop offset="100%" style="stop-color:#ad6c16"/>
  </linearGradient>
  <linearGradient id="aurora" x1="0%" x2="0%" y1="0%" y2="100%">
   <stop offset="0%" style="stop-color:#09D4DF"/>
   <stop offset="100%" style="stop-color:#9269F4"/>
  </linearGradient>
  <linearGradient id="cyberneon" x1="0%" x2="0%" y1="0%" y2="100%">
   <stop offset="0" style="stop-color:#0abdc6"/>
   <stop offset="1" style="stop-color:#ea00d9"/>
  </linearGradient>
  <linearGradient id="fitdance" x1="0%" x2="0%" y1="0%" y2="100%">
   <stop offset="0%" style="stop-color:#1AD6AB"/>
   <stop offset="100%" style="stop-color:#329DB6"/>
  </linearGradient>
  <linearGradient id="oomox" x1="0%" x2="0%" y1="0%" y2="100%">
   <stop offset="0%" style="stop-color:#efefe7"/>
   <stop offset="100%" style="stop-color:#8f8f8b"/>
  </linearGradient>
  <linearGradient id="rainblue" x1="0%" x2="0%" y1="0%" y2="100%">
   <stop offset="0%" style="stop-color:#00F260"/>
   <stop offset="100%" style="stop-color:#0575E6"/>
  </linearGradient>
  <linearGradient id="sunrise" x1="0%" x2="0%" y1="0%" y2="100%">
   <stop offset="0%" style="stop-color:#FF8501"/>
   <stop offset="100%" style="stop-color:#FFCB01"/>
  </linearGradient>
  <linearGradient id="telinkrin" x1="0%" x2="0%" y1="0%" y2="100%">
   <stop offset="0%" style="stop-color:#b2ced6"/>
   <stop offset="100%" style="stop-color:#6da5b7"/>
  </linearGradient>
  <linearGradient id="60spsycho" x1="0%" x2="0%" y1="0%" y2="100%">
   <stop offset="0%" style="stop-color:#df5940"/>
   <stop offset="25%" style="stop-color:#d8d15f"/>
   <stop offset="50%" style="stop-color:#e9882a"/>
   <stop offset="100%" style="stop-color:#279362"/>
  </linearGradient>
  <linearGradient id="90ssummer" x1="0%" x2="0%" y1="0%" y2="100%">
   <stop offset="0%" style="stop-color:#f618c7"/>
   <stop offset="20%" style="stop-color:#94ffab"/>
   <stop offset="50%" style="stop-color:#fbfd54"/>
   <stop offset="100%" style="stop-color:#0f83ae"/>
  </linearGradient>
 </defs>
 <path fill="currentColor" class="ColorScheme-Highlight" d="M 11.091797 6.046875 C 7.5362406 6.046875 8.3634157 9.2950444 6.5429688 10.273438 C 6.4802247 10.309038 6.4449448 10.341828 6.3886719 10.376953 C 7.5892197 9.662364 9.0689797 9.0648862 10.640625 8.6601562 C 11.971533 8.3177782 13.321465 8.1256975 14.566406 8.1015625 C 14.598396 8.1014485 14.630309 8.1014485 14.662109 8.1015625 C 13.461529 7.7603968 13.330248 6.046875 11.091797 6.046875 z M 14.966797 9.0019531 C 13.721856 9.0260931 12.371924 9.2181679 11.041016 9.5605469 C 6.654542 10.689308 3.5283739 13.143896 4.0585938 15.042969 C 4.3641151 16.128172 5.8361631 16.844284 8.0292969 16.974609 C 8.0282969 16.966409 8.0262906 16.959382 8.0253906 16.951172 C 7.9070036 15.924416 8.5584696 15.031232 9.3222656 14.425781 C 10.086062 13.820328 11.068535 13.380696 12.171875 13.146484 C 13.275215 12.912273 14.30829 12.923593 15.171875 13.183594 C 15.983768 13.428032 16.747621 13.961398 16.935547 14.876953 C 19.133622 13.644619 20.27371 12.158785 19.943359 10.957031 C 19.593401 9.6988342 17.684801 8.9490281 14.966797 9.0019531 z M 13.662109 14 A 1.8585774 3.5769585 76.001371 0 0 12.285156 14.142578 A 1.8585774 3.5769585 76.001371 0 0 9.0058594 16.742188 A 1.8585774 3.5769585 76.001371 0 0 12.714844 17.857422 A 1.8585774 3.5769585 76.001371 0 0 15.992188 15.257812 A 1.8585774 3.5769585 76.001371 0 0 13.662109 14 z"/>
</svg>
