<svg xmlns="http://www.w3.org/2000/svg" width="16" height="16" version="1.1">
 <defs>
   <style id="current-color-scheme" type="text/css">
   .ColorScheme-Text { color: #1d4195; } .ColorScheme-Highlight { color: #5294e2; }
  </style>
  <linearGradient id="arrongin" x1="0%" x2="0%" y1="0%" y2="100%">
   <stop offset="0%" style="stop-color: #dd9b44; stop-opacity: 1"/>
   <stop offset="100%" style="stop-color: #ad6c16; stop-opacity: 1"/>
  </linearGradient>
  <linearGradient id="aurora" x1="0%" x2="0%" y1="0%" y2="100%">
   <stop offset="0%" style="stop-color: #09D4DF; stop-opacity: 1"/>
   <stop offset="100%" style="stop-color: #9269F4; stop-opacity: 1"/>
  </linearGradient>
  <linearGradient id="cyberneon" x1="0%" x2="0%" y1="0%" y2="100%">
    <stop offset="0" style="stop-color: #0abdc6; stop-opacity: 1"/>
    <stop offset="1" style="stop-color: #ea00d9; stop-opacity: 1"/>
  </linearGradient>
  <linearGradient id="fitdance" x1="0%" x2="0%" y1="0%" y2="100%">
   <stop offset="0%" style="stop-color: #1AD6AB; stop-opacity: 1"/>
   <stop offset="100%" style="stop-color: #329DB6; stop-opacity: 1"/>
  </linearGradient>
  <linearGradient id="oomox" x1="0%" x2="0%" y1="0%" y2="100%">
   <stop offset="0%" style="stop-color: #efefe7; stop-opacity: 1"/>
   <stop offset="100%" style="stop-color: #8f8f8b; stop-opacity: 1"/>
  </linearGradient>
  <linearGradient id="rainblue" x1="0%" x2="0%" y1="0%" y2="100%">
   <stop offset="0%" style="stop-color: #00F260; stop-opacity: 1"/>
   <stop offset="100%" style="stop-color: #0575E6; stop-opacity: 1"/>
  </linearGradient>
  <linearGradient id="sunrise" x1="0%" x2="0%" y1="0%" y2="100%">
   <stop offset="0%" style="stop-color: #FF8501; stop-opacity: 1"/>
   <stop offset="100%" style="stop-color: #FFCB01; stop-opacity: 1"/>
  </linearGradient>
  <linearGradient id="telinkrin" x1="0%" x2="0%" y1="0%" y2="100%">
   <stop offset="0%" style="stop-color: #b2ced6; stop-opacity: 1"/>
   <stop offset="100%" style="stop-color: #6da5b7; stop-opacity: 1"/>
  </linearGradient>
  <linearGradient id="60spsycho" x1="0%" x2="0%" y1="0%" y2="100%">
   <stop offset="0%" style="stop-color: #df5940; stop-opacity: 1"/>
   <stop offset="25%" style="stop-color: #d8d15f; stop-opacity: 1"/>
   <stop offset="50%" style="stop-color: #e9882a; stop-opacity: 1"/>
   <stop offset="100%" style="stop-color: #279362; stop-opacity: 1"/>
  </linearGradient>
  <linearGradient id="90ssummer" x1="0%" x2="0%" y1="0%" y2="100%">
   <stop offset="0%" style="stop-color: #f618c7; stop-opacity: 1"/>
   <stop offset="20%" style="stop-color: #94ffab; stop-opacity: 1"/>
   <stop offset="50%" style="stop-color: #fbfd54; stop-opacity: 1"/>
   <stop offset="100%" style="stop-color: #0f83ae; stop-opacity: 1"/>
  </linearGradient>
 </defs>
 <g transform="translate(-270,-160)">
  <path fill="currentColor" class="ColorScheme-Text" clip-rule="evenodd" fill-rule="evenodd" d="m 279.50143,160.00003 c 0.67051,2.64152 -2.36508,3.43933 -3.46066,5.08442 -0.74607,1.12085 0.36622,2.32528 1.88268,3.69336 -0.59136,-1.33679 -2.59684,-2.50615 8e-4,-4.5579 3.23925,-2.55676 1.57715,-4.21988 1.57715,-4.21988 z m 2.00405,3.26814 c 4e-5,0 -5.47733,1.36763 -2.86147,4.38199 0.77223,0.88892 -0.20257,1.6882 -0.20257,1.6882 0,0 1.95964,-1.01139 1.05985,-2.2786 -0.84067,-1.18121 -1.48512,-1.768 2.00419,-3.79159 z m 0.97001,5.38436 c -0.19245,5.3e-4 -0.3968,0.034 -0.60645,0.1077 -0.16808,0.0595 -0.25627,0.19782 -0.25627,0.19782 0,0 0.10626,-0.0428 0.34319,-0.0922 0.96887,-0.20189 2.35709,1.29702 -0.64495,2.85659 -0.0139,0.0372 -0.06,0.0788 -0.06,0.0788 3.5702,-0.93853 2.79159,-3.15163 1.22447,-3.14872 z m -6.43235,0.15221 c -0.23517,-0.005 -1.25181,0.01 -2.46666,0.59737 -1.64246,0.79418 4.06194,1.15597 7.01536,0.37919 0.30704,-0.20954 0.73117,-0.39146 0.73117,-0.39146 0,0 -1.20795,0.21595 -2.41156,0.31696 -1.47317,0.1236 -3.05344,0.148 -3.84669,0.0419 -1.87811,-0.25109 1.02958,-0.94182 1.02958,-0.94182 0,0 -0.0176,-0.002 -0.0512,-0.002 z m -0.62584,1.8171 c -2.70937,0.89922 1.50827,1.91971 5.29493,0.81209 -0.40232,-0.14182 -0.65778,-0.40138 -0.65778,-0.40138 -1.85143,0.35631 -2.92084,0.34493 -4.2754,0.20509 -1.04724,-0.10824 -0.36175,-0.6158 -0.36175,-0.6158 z m 0.38295,1.75154 c -2.46012,0.68739 1.4968,2.10725 4.6292,0.76521 -0.51304,-0.19938 -0.881,-0.42955 -0.881,-0.42955 -1.39686,0.26403 -2.04483,0.28483 -3.31279,0.14007 -1.04646,-0.12002 -0.43541,-0.47573 -0.43541,-0.47573 z m -1.7087,1.16127 c -1.10477,0.0341 -3.26536,1.02743 -1.28949,1.34808 6.3861,1.03514 11.64094,-0.46625 9.98467,-1.21359 0,0 0.45243,0.37302 -0.49818,0.66141 -1.80761,0.54751 -7.5249,0.71266 -9.11288,0.0219 -0.57045,-0.24847 0.49976,-0.59287 0.8365,-0.6656 0.3511,-0.076 0.55161,-0.0621 0.55161,-0.0621 -0.0992,-0.0699 -0.26765,-0.0964 -0.47223,-0.0901 z m 9.709,0.94936 c 0,0 -0.2013,0.51683 -2.38114,0.9269 -2.45922,0.46299 -5.49304,0.40901 -7.29173,0.11204 0,0 0.36843,0.30502 2.26186,0.42689 2.88097,0.18418 7.30628,-0.10248 7.41101,-1.46583 z"/>
 </g>
</svg>
