<svg xmlns="http://www.w3.org/2000/svg" width="16" height="16" version="1.1">
 <defs>
   <style id="current-color-scheme" type="text/css">
   .ColorScheme-Text { color: #0391e8; } .ColorScheme-Highlight { color: #1AD6AB; }
  </style>
  <linearGradient id="arrongin" x1="0%" x2="0%" y1="0%" y2="100%">
   <stop offset="0%"    stop-color= "#dd9b44" stop-opacity="1"/>
   <stop offset="100%"  stop-color= "#ad6c16" stop-opacity="1"/>
  </linearGradient>
  <linearGradient id="aurora" x1="0%" x2="0%" y1="0%" y2="100%">
   <stop offset="0%"    stop-color= "#09D4DF" stop-opacity="1"/>
   <stop offset="100%"  stop-color= "#9269F4" stop-opacity="1"/>
  </linearGradient> 
  <linearGradient id="cyberblue" x1="0%" x2="0%" y1="0%" y2="100%">
   <stop offset="0%"    stop-color= "#07B3FF" stop-opacity="1"/>
   <stop offset="100%"  stop-color= "#007DE8" stop-opacity="1"/>
  </linearGradient>
  <linearGradient id="cyberneon" x1="0%" x2="0%" y1="0%" y2="100%">
    <stop offset="0%"   stop-color= "#0abdc6" stop-opacity="1"/>
    <stop offset="100%" stop-color= "#ea00d9" stop-opacity="1"/>
  </linearGradient>
  <linearGradient id="fitdance" x1="0%" x2="0%" y1="0%" y2="100%">
   <stop offset="0%"    stop-color= "#1AD6AB" stop-opacity="1"/>
   <stop offset="100%"  stop-color= "#329DB6" stop-opacity="1"/>
  </linearGradient>
  <linearGradient id="oomox" x1="0%" x2="0%" y1="0%" y2="100%">
   <stop offset="0%"    stop-color= "#efefe7" stop-opacity="1"/>
   <stop offset="100%"  stop-color= "#8f8f8b" stop-opacity="1"/>
  </linearGradient>
  <linearGradient id="rainblue" x1="0%" x2="0%" y1="0%" y2="100%">
   <stop offset="0%"    stop-color= "#00F260" stop-opacity="1"/>
   <stop offset="100%"  stop-color= "#0575E6" stop-opacity="1"/>
  </linearGradient>
  <linearGradient id="redcarbon" x1="0%" x2="0%" y1="0%" y2="100%">
   <stop offset="0%"    stop-color= "#FF6D57" stop-opacity="1"/>
   <stop offset="50%"   stop-color= "#FF5160" stop-opacity="1"/>
   <stop offset="100%"  stop-color= "#F50F22" stop-opacity="1"/>
  </linearGradient>
  <linearGradient id="sunrise" x1="0%" x2="0%" y1="0%" y2="100%">
   <stop offset="0%"    stop-color= "#FF8501" stop-opacity="1"/>
   <stop offset="100%"  stop-color= "#FFCB01" stop-opacity="1"/>
  </linearGradient>
  <linearGradient id="telinkrin" x1="0%" x2="0%" y1="0%" y2="100%">
   <stop offset="0%"    stop-color= "#b2ced6" stop-opacity="1"/>
   <stop offset="100%"  stop-color= "#6da5b7" stop-opacity="1"/>
  </linearGradient>
  <linearGradient id="60spsycho" x1="0%" x2="0%" y1="0%" y2="100%">
   <stop offset="0%"    stop-color= "#df5940" stop-opacity="1"/>
   <stop offset="25%"   stop-color= "#d8d15f" stop-opacity="1"/>
   <stop offset="50%"   stop-color= "#e9882a" stop-opacity="1"/>
   <stop offset="100%"  stop-color= "#279362" stop-opacity="1"/>
  </linearGradient>
  <linearGradient id="90ssummer" x1="0%" x2="0%" y1="0%" y2="100%">
   <stop offset="0%"    stop-color= "#f618c7" stop-opacity="1"/>
   <stop offset="20%"   stop-color= "#94ffab" stop-opacity="1"/>
   <stop offset="50%"   stop-color= "#fbfd54" stop-opacity="1"/>
   <stop offset="100%"  stop-color= "#0f83ae" stop-opacity="1"/>
  </linearGradient>
 </defs>
 <path fill="currentColor" class="ColorScheme-Text" d="M 1 2 L 1 14 L 3 14 L 3 2 L 1 2 Z"/>
 <path fill="currentColor" class="ColorScheme-Text" fill-rule="evenodd" d="M 14.09375 13.621 L 11.45406 13.621 L 11.45406 12.719 L 11.45406 12.719 Q 10.273147 13.885 8.304957 13.885 L 8.304957 13.885 L 8.304957 13.885 Q 6.406233 13.885 5.213741 12.906 L 5.213741 12.906 L 5.213741 12.906 Q 4.02125 11.927 4.02125 10.145 L 4.02125 10.145 L 4.02125 10.145 Q 4.02125 8.319 5.375828 7.373 L 5.375828 7.373 L 5.375828 7.373 Q 6.730405 6.427 8.652284 6.427 L 8.652284 6.427 L 8.652284 6.427 Q 10.342612 6.427 11.45406 7.021 L 11.45406 7.021 L 11.45406 6.427 L 11.45406 6.427 Q 11.45406 5.349 10.886759 4.865 L 10.886759 4.865 L 10.886759 4.865 Q 10.319457 4.381 9.138543 4.381 L 9.138543 4.381 L 9.138543 4.381 Q 7.216664 4.381 5.618957 5.437 L 5.618957 5.437 L 4.785371 3.347 L 4.785371 3.347 Q 6.70725 2.115 9.416405 2.115 L 9.416405 2.115 L 9.416405 2.115 Q 10.342612 2.115 11.048845 2.258 L 11.048845 2.258 L 11.048845 2.258 Q 11.755078 2.401 12.507621 2.819 L 12.507621 2.819 L 12.507621 2.819 Q 13.260164 3.237 13.676957 4.139 L 13.676957 4.139 L 13.676957 4.139 Q 14.09375 5.041 14.09375 6.383 L 14.09375 6.383 L 14.09375 13.621 Z M 8.814371 11.619 L 8.814371 11.619 L 8.814371 11.619 Q 10.365767 11.619 11.45406 10.541 L 11.45406 10.541 L 11.45406 9.089 L 11.45406 9.089 Q 10.435233 8.627 9.092233 8.627 L 9.092233 8.627 L 9.092233 8.627 Q 8.00394 8.627 7.33244 9.001 L 7.33244 9.001 L 7.33244 9.001 Q 6.66094 9.375 6.66094 10.145 L 6.66094 10.145 L 6.66094 10.145 Q 6.66094 10.827 7.216664 11.223 L 7.216664 11.223 L 7.216664 11.223 Q 7.772388 11.619 8.814371 11.619 Z"/>
</svg>
