<svg xmlns="http://www.w3.org/2000/svg" width="16" height="16" version="1.1">
 <defs>
   <style id="current-color-scheme" type="text/css">
   .ColorScheme-Text { color: #0391e8; } .ColorScheme-Highlight { color: #1AD6AB; }
  </style>
  <linearGradient id="arrongin" x1="0%" x2="0%" y1="0%" y2="100%">
   <stop offset="0%"    stop-color= "#dd9b44" stop-opacity="1"/>
   <stop offset="100%"  stop-color= "#ad6c16" stop-opacity="1"/>
  </linearGradient>
  <linearGradient id="aurora" x1="0%" x2="0%" y1="0%" y2="100%">
   <stop offset="0%"    stop-color= "#09D4DF" stop-opacity="1"/>
   <stop offset="100%"  stop-color= "#9269F4" stop-opacity="1"/>
  </linearGradient> 
  <linearGradient id="cyberblue" x1="0%" x2="0%" y1="0%" y2="100%">
   <stop offset="0%"    stop-color= "#07B3FF" stop-opacity="1"/>
   <stop offset="100%"  stop-color= "#007DE8" stop-opacity="1"/>
  </linearGradient>
  <linearGradient id="cyberneon" x1="0%" x2="0%" y1="0%" y2="100%">
    <stop offset="0%"   stop-color= "#0abdc6" stop-opacity="1"/>
    <stop offset="100%" stop-color= "#ea00d9" stop-opacity="1"/>
  </linearGradient>
  <linearGradient id="fitdance" x1="0%" x2="0%" y1="0%" y2="100%">
   <stop offset="0%"    stop-color= "#1AD6AB" stop-opacity="1"/>
   <stop offset="100%"  stop-color= "#329DB6" stop-opacity="1"/>
  </linearGradient>
  <linearGradient id="oomox" x1="0%" x2="0%" y1="0%" y2="100%">
   <stop offset="0%"    stop-color= "#efefe7" stop-opacity="1"/>
   <stop offset="100%"  stop-color= "#8f8f8b" stop-opacity="1"/>
  </linearGradient>
  <linearGradient id="rainblue" x1="0%" x2="0%" y1="0%" y2="100%">
   <stop offset="0%"    stop-color= "#00F260" stop-opacity="1"/>
   <stop offset="100%"  stop-color= "#0575E6" stop-opacity="1"/>
  </linearGradient>
  <linearGradient id="redcarbon" x1="0%" x2="0%" y1="0%" y2="100%">
   <stop offset="0%"    stop-color= "#FF6D57" stop-opacity="1"/>
   <stop offset="50%"   stop-color= "#FF5160" stop-opacity="1"/>
   <stop offset="100%"  stop-color= "#F50F22" stop-opacity="1"/>
  </linearGradient>
  <linearGradient id="sunrise" x1="0%" x2="0%" y1="0%" y2="100%">
   <stop offset="0%"    stop-color= "#FF8501" stop-opacity="1"/>
   <stop offset="100%"  stop-color= "#FFCB01" stop-opacity="1"/>
  </linearGradient>
  <linearGradient id="telinkrin" x1="0%" x2="0%" y1="0%" y2="100%">
   <stop offset="0%"    stop-color= "#b2ced6" stop-opacity="1"/>
   <stop offset="100%"  stop-color= "#6da5b7" stop-opacity="1"/>
  </linearGradient>
  <linearGradient id="60spsycho" x1="0%" x2="0%" y1="0%" y2="100%">
   <stop offset="0%"    stop-color= "#df5940" stop-opacity="1"/>
   <stop offset="25%"   stop-color= "#d8d15f" stop-opacity="1"/>
   <stop offset="50%"   stop-color= "#e9882a" stop-opacity="1"/>
   <stop offset="100%"  stop-color= "#279362" stop-opacity="1"/>
  </linearGradient>
  <linearGradient id="90ssummer" x1="0%" x2="0%" y1="0%" y2="100%">
   <stop offset="0%"    stop-color= "#f618c7" stop-opacity="1"/>
   <stop offset="20%"   stop-color= "#94ffab" stop-opacity="1"/>
   <stop offset="50%"   stop-color= "#fbfd54" stop-opacity="1"/>
   <stop offset="100%"  stop-color= "#0f83ae" stop-opacity="1"/>
  </linearGradient>
 </defs>
 <path fill="currentColor" class="ColorScheme-Text" d="M 2.25 4.0039062 C 2.1115 4.0039062 2 4.1154064 2 4.2539062 L 2 5.7539062 C 2 5.8924062 2.1115 6.0039062 2.25 6.0039062 L 3.75 6.0039062 C 3.8885 6.0039062 4 5.8924063 4 5.7539062 L 4 4.2539062 C 4 4.1154063 3.8885 4.0039062 3.75 4.0039062 L 2.25 4.0039062 z M 5.25 4.0039062 C 5.1115 4.0039062 5 4.1154064 5 4.2539062 L 5 5.7539062 C 5 5.8924062 5.1115 6.0039062 5.25 6.0039062 L 6.75 6.0039062 C 6.8885 6.0039062 7 5.8924063 7 5.7539062 L 7 4.2539062 C 7 4.1154063 6.8885 4.0039062 6.75 4.0039062 L 5.25 4.0039062 z M 8.25 4.0039062 C 8.1115 4.0039062 8 4.1154064 8 4.2539062 L 8 5.7539062 C 8 5.8924062 8.1115 6.0039062 8.25 6.0039062 L 9.75 6.0039062 C 9.8885 6.0039062 10 5.8924063 10 5.7539062 L 10 4.2539062 C 10 4.1154063 9.8885 4.0039062 9.75 4.0039062 L 8.25 4.0039062 z M 11.25 4.0039062 C 11.1115 4.0039062 11 4.1154064 11 4.2539062 L 11 5.7539062 C 11 5.8924062 11.1115 6.0039062 11.25 6.0039062 L 12.75 6.0039062 C 12.8885 6.0039062 13 5.8924063 13 5.7539062 L 13 4.2539062 C 13 4.1154063 12.8885 4.0039062 12.75 4.0039062 L 11.25 4.0039062 z M 2.25 7.0039062 C 2.1115 7.0039063 2 7.1154064 2 7.2539062 L 2 8.7539062 C 2 8.8924063 2.1115 9.0039062 2.25 9.0039062 L 3.75 9.0039062 C 3.8885 9.0039062 4 8.8924063 4 8.7539062 L 4 7.2539062 C 4 7.1154063 3.8885 7.0039062 3.75 7.0039062 L 2.25 7.0039062 z M 5.25 7.0039062 C 5.1115 7.0039063 5 7.1154064 5 7.2539062 L 5 8.7539062 C 5 8.8924063 5.1115 9.0039062 5.25 9.0039062 L 6.75 9.0039062 C 6.8885 9.0039062 7 8.8924063 7 8.7539062 L 7 7.2539062 C 7 7.1154063 6.8885 7.0039062 6.75 7.0039062 L 5.25 7.0039062 z M 8.25 7.0039062 C 8.1115 7.0039063 8 7.1154064 8 7.2539062 L 8 8.7539062 C 8 8.8924063 8.1115 9.0039062 8.25 9.0039062 L 9.75 9.0039062 C 9.8885 9.0039062 10 8.8924063 10 8.7539062 L 10 7.2539062 C 10 7.1154063 9.8885 7.0039062 9.75 7.0039062 L 8.25 7.0039062 z M 11.25 7.0039062 C 11.1115 7.0039063 11 7.1154064 11 7.2539062 L 11 8.7539062 C 11 8.8924063 11.1115 9.0039062 11.25 9.0039062 L 12.75 9.0039062 C 12.8885 9.0039062 13 8.8924063 13 8.7539062 L 13 7.2539062 C 13 7.1154063 12.8885 7.0039062 12.75 7.0039062 L 11.25 7.0039062 z M 2.25 10.003906 C 2.1115 10.003906 2 10.115406 2 10.253906 L 2 11.753906 C 2 11.892406 2.1115 12.003906 2.25 12.003906 L 3.75 12.003906 C 3.8885 12.003906 4 11.892406 4 11.753906 L 4 10.253906 C 4 10.115406 3.8885 10.003906 3.75 10.003906 L 2.25 10.003906 z M 5.25 10.003906 C 5.1115 10.003906 5 10.115406 5 10.253906 L 5 11.753906 C 5 11.892406 5.1115 12.003906 5.25 12.003906 L 6.75 12.003906 C 6.8885 12.003906 7 11.892406 7 11.753906 L 7 10.253906 C 7 10.115406 6.8885 10.003906 6.75 10.003906 L 5.25 10.003906 z M 8.25 10.003906 C 8.1115 10.003906 8 10.115406 8 10.253906 L 8 11.753906 C 8 11.892406 8.1115 12.003906 8.25 12.003906 L 9.75 12.003906 C 9.8885 12.003906 10 11.892406 10 11.753906 L 10 10.253906 C 10 10.115406 9.8885 10.003906 9.75 10.003906 L 8.25 10.003906 z M 11.25 10.003906 C 11.1115 10.003906 11 10.115406 11 10.253906 L 11 11.753906 C 11 11.892406 11.1115 12.003906 11.25 12.003906 L 12.75 12.003906 C 12.8885 12.003906 13 11.892406 13 11.753906 L 13 10.253906 C 13 10.115406 12.8885 10.003906 12.75 10.003906 L 11.25 10.003906 z"/>
</svg>
