<svg xmlns="http://www.w3.org/2000/svg" width="24" height="24" version="1.1">
 <defs>
  <style id="current-color-scheme" type="text/css">
   .ColorScheme-Text { color: #1d4195; } .ColorScheme-Highlight { color: #1AD6AB; }
  </style>
  <linearGradient id="arrongin" x1="0%" x2="0%" y1="0%" y2="100%">
   <stop offset="0%" style="stop-color:#dd9b44"/>
   <stop offset="100%" style="stop-color:#ad6c16"/>
  </linearGradient>
  <linearGradient id="aurora" x1="0%" x2="0%" y1="0%" y2="100%">
   <stop offset="0%" style="stop-color:#09D4DF"/>
   <stop offset="100%" style="stop-color:#9269F4"/>
  </linearGradient>
  <linearGradient id="cyberneon" x1="0%" x2="0%" y1="0%" y2="100%">
   <stop offset="0" style="stop-color:#0abdc6"/>
   <stop offset="1" style="stop-color:#ea00d9"/>
  </linearGradient>
  <linearGradient id="fitdance" x1="0%" x2="0%" y1="0%" y2="100%">
   <stop offset="0%" style="stop-color:#1AD6AB"/>
   <stop offset="100%" style="stop-color:#329DB6"/>
  </linearGradient>
  <linearGradient id="oomox" x1="0%" x2="0%" y1="0%" y2="100%">
   <stop offset="0%" style="stop-color:#efefe7"/>
   <stop offset="100%" style="stop-color:#8f8f8b"/>
  </linearGradient>
  <linearGradient id="rainblue" x1="0%" x2="0%" y1="0%" y2="100%">
   <stop offset="0%" style="stop-color:#00F260"/>
   <stop offset="100%" style="stop-color:#0575E6"/>
  </linearGradient>
  <linearGradient id="sunrise" x1="0%" x2="0%" y1="0%" y2="100%">
   <stop offset="0%" style="stop-color:#FF8501"/>
   <stop offset="100%" style="stop-color:#FFCB01"/>
  </linearGradient>
  <linearGradient id="telinkrin" x1="0%" x2="0%" y1="0%" y2="100%">
   <stop offset="0%" style="stop-color:#b2ced6"/>
   <stop offset="100%" style="stop-color:#6da5b7"/>
  </linearGradient>
  <linearGradient id="60spsycho" x1="0%" x2="0%" y1="0%" y2="100%">
   <stop offset="0%" style="stop-color:#df5940"/>
   <stop offset="25%" style="stop-color:#d8d15f"/>
   <stop offset="50%" style="stop-color:#e9882a"/>
   <stop offset="100%" style="stop-color:#279362"/>
  </linearGradient>
  <linearGradient id="90ssummer" x1="0%" x2="0%" y1="0%" y2="100%">
   <stop offset="0%" style="stop-color:#f618c7"/>
   <stop offset="20%" style="stop-color:#94ffab"/>
   <stop offset="50%" style="stop-color:#fbfd54"/>
   <stop offset="100%" style="stop-color:#0f83ae"/>
  </linearGradient>
 </defs>
 <g>
  <path fill="currentColor" class="ColorScheme-Text" d="m8 5.0718a8 8 0 0 0 -2.9282 10.928 8 8 0 0 0 10.928 2.928 8 8 0 0 0 2.928 -10.928 8 8 0 0 0 -10.928 -2.9282zm1 1.7321a6 6 0 0 1 4.897 -0.49082 1.5 1.5 0 0 1 0.21663 -0.15213 1.5 1.5 0 0 1 2.049 0.54904 1.5 1.5 0 0 1 0.15086 1.1285 6 6 0 0 1 0.88263 1.1616 6 6 0 0 1 0.7598 3.6637 1.5 1.5 0 0 1 0.49917 0.51694 1.5 1.5 0 0 1 -0.54904 2.049 1.5 1.5 0 0 1 -0.97961 0.18218 6 6 0 0 1 -1.926 1.784 6 6 0 0 1 -5.9969 -0.0041 1.5 1.5 0 0 1 -0.049749 0.03103 1.5 1.5 0 0 1 -2.049 -0.54904 1.5 1.5 0 0 1 0.0076 -1.5064 6 6 0 0 1 -0.1081 -0.168 6 6 0 0 1 2.1961 -8.1962zm0.5 0.866a5 5 0 0 0 -1.8301 6.8301 5 5 0 0 0 0.010741 0.0186 1.5 1.5 0 0 1 1.3027 0.12744l2.7209-2.2092a1.5 1.5 0 0 1 0.66182 -1.8029 1.5 1.5 0 0 1 0.79832 -0.1993l0.719-1.8408a1.5 1.5 0 0 1 -0.318 -0.3843 1.5 1.5 0 0 1 -0.178 -1.0113 5 5 0 0 0 -3.887 0.4713zm5.315 1.2884-0.719 1.8407a1.5 1.5 0 0 1 0.31883 0.38425 1.5 1.5 0 0 1 0.18873 0.92846l1.5077 0.74429a1.5 1.5 0 0 1 0.294 -0.224 1.5 1.5 0 0 1 0.571 -0.19 5 5 0 0 0 -0.647 -2.942 5 5 0 0 0 -0.597 -0.8191 1.5 1.5 0 0 1 -0.119 0.0781 1.5 1.5 0 0 1 -0.799 0.1993zm-2.4792 4.2527-2.7199 2.2108a1.5 1.5 0 0 1 0.0094 0.97335 5 5 0 0 0 4.8744 -0.06507 5 5 0 0 0 1.5411 -1.3972 1.5 1.5 0 0 1 -0.18402 -0.25234 1.5 1.5 0 0 1 -0.18874 -0.92846l-1.507-0.744a1.5 1.5 0 0 1 -0.29456 0.22418 1.5 1.5 0 0 1 -1.53 -0.02105z"/>
 </g>
</svg>
