<svg xmlns="http://www.w3.org/2000/svg" width="24" height="24" version="1.1">
 <defs>
  <style id="current-color-scheme" type="text/css">
   .ColorScheme-Text { color: #1d4195; } .ColorScheme-Highlight { color: #1AD6AB; }
  </style>
  <linearGradient id="arrongin" x1="0%" x2="0%" y1="0%" y2="100%">
   <stop offset="0%" style="stop-color:#dd9b44"/>
   <stop offset="100%" style="stop-color:#ad6c16"/>
  </linearGradient>
  <linearGradient id="aurora" x1="0%" x2="0%" y1="0%" y2="100%">
   <stop offset="0%" style="stop-color:#09D4DF"/>
   <stop offset="100%" style="stop-color:#9269F4"/>
  </linearGradient>
  <linearGradient id="cyberneon" x1="0%" x2="0%" y1="0%" y2="100%">
   <stop offset="0" style="stop-color:#0abdc6"/>
   <stop offset="1" style="stop-color:#ea00d9"/>
  </linearGradient>
  <linearGradient id="fitdance" x1="0%" x2="0%" y1="0%" y2="100%">
   <stop offset="0%" style="stop-color:#1AD6AB"/>
   <stop offset="100%" style="stop-color:#329DB6"/>
  </linearGradient>
  <linearGradient id="oomox" x1="0%" x2="0%" y1="0%" y2="100%">
   <stop offset="0%" style="stop-color:#efefe7"/>
   <stop offset="100%" style="stop-color:#8f8f8b"/>
  </linearGradient>
  <linearGradient id="rainblue" x1="0%" x2="0%" y1="0%" y2="100%">
   <stop offset="0%" style="stop-color:#00F260"/>
   <stop offset="100%" style="stop-color:#0575E6"/>
  </linearGradient>
  <linearGradient id="sunrise" x1="0%" x2="0%" y1="0%" y2="100%">
   <stop offset="0%" style="stop-color:#FF8501"/>
   <stop offset="100%" style="stop-color:#FFCB01"/>
  </linearGradient>
  <linearGradient id="telinkrin" x1="0%" x2="0%" y1="0%" y2="100%">
   <stop offset="0%" style="stop-color:#b2ced6"/>
   <stop offset="100%" style="stop-color:#6da5b7"/>
  </linearGradient>
  <linearGradient id="60spsycho" x1="0%" x2="0%" y1="0%" y2="100%">
   <stop offset="0%" style="stop-color:#df5940"/>
   <stop offset="25%" style="stop-color:#d8d15f"/>
   <stop offset="50%" style="stop-color:#e9882a"/>
   <stop offset="100%" style="stop-color:#279362"/>
  </linearGradient>
  <linearGradient id="90ssummer" x1="0%" x2="0%" y1="0%" y2="100%">
   <stop offset="0%" style="stop-color:#f618c7"/>
   <stop offset="20%" style="stop-color:#94ffab"/>
   <stop offset="50%" style="stop-color:#fbfd54"/>
   <stop offset="100%" style="stop-color:#0f83ae"/>
  </linearGradient>
 </defs>
 <g transform="translate(-56.000007,-680.29017)">
  <path fill="currentColor" class="ColorScheme-Text" d="m 10,3.0019531 -0.5,1.03125 c 0.16191,-0.0133 0.3348,-0.03125 0.5,-0.03125 l 0.5,0 -0.5,-1 z m 0,2 c -2.76142,0 -5,2.23859 -5,4.9999999 0,0.46958 0.07869,0.917123 0.2011719,1.345703 0.514915,-0.53202 1.1711055,-0.930957 1.9140625,-1.123047 0.82344,-1.4053596 2.2402159,-2.4414059 3.9824216,-2.4414059 1.642432,0 3.059043,0.8623444 3.898438,2.1464844 C 14.956904,7.2020675 12.736948,5.0019531 10,5.0019531 Z m -4.9375,0.0625 0.34375,1.0625 c 0.21905,-0.25922 0.45953,-0.4997 0.71875,-0.71875 l -1.0625,-0.34375 z m 9.875,0 -1.09375,0.375 -0.0625,0 c 0.13917,0.11095 0.27498,0.22511 0.40625,0.34375 0.13127,0.11864 0.25799,0.24175 0.375,0.375 l 0.375,-1.09375 z m -3.839844,3.71875 c -1.5533027,0 -2.8760323,0.950935 -3.4453122,2.2968749 -1.4458721,0.21495 -2.5546876,1.447445 -2.5546876,2.953125 0,1.65686 1.343145,3 3,3 l 6.3749998,0 c 1.44975,0 2.625,-1.17525 2.625,-2.625 0,-1.3474 -1.013092,-2.451522 -2.320312,-2.601562 -0.340927,-1.72004 -1.859536,-3.0234379 -3.679688,-3.0234379 z M 4,9.5019531 3,10.001953 l 1.03125,0.5 C 4.01645,10.332643 4,10.175553 4,10.001953 c 0,-0.0275 -0.002,-0.0836 0,-0.1562499 0.006,-0.11583 0.02235,-0.23224 0.03125,-0.34375 l -0.03125,0 z m 11.96875,0 C 15.98355,9.6712631 16,9.8283531 16,10.001953 c 0,0.0275 0.002,0.0836 0,0.15625 -0.006,0.11583 -0.02235,0.23224 -0.03125,0.34375 l 0.03125,0 1,-0.5 -1.03125,-0.4999999 z" transform="translate(57.000007,681.28997)"/>
 </g>
</svg>
