<svg xmlns="http://www.w3.org/2000/svg" width="16" height="16" version="1.1">
 <defs>
   <style id="current-color-scheme" type="text/css">
   .ColorScheme-Text { color: #2b68d1; } .ColorScheme-Highlight { color: #1AD6AB; }
  </style>
  <linearGradient id="arrongin" x1="0%" x2="0%" y1="0%" y2="100%">
   <stop offset="0%" style="stop-color: #dd9b44; stop-opacity: 1"/>
   <stop offset="100%" style="stop-color: #ad6c16; stop-opacity: 1"/>
  </linearGradient>
  <linearGradient id="aurora" x1="0%" x2="0%" y1="0%" y2="100%">
   <stop offset="0%" style="stop-color: #09D4DF; stop-opacity: 1"/>
   <stop offset="100%" style="stop-color: #9269F4; stop-opacity: 1"/>
  </linearGradient>
  <linearGradient id="cyberneon" x1="0%" x2="0%" y1="0%" y2="100%">
    <stop offset="0" style="stop-color: #0abdc6; stop-opacity: 1"/>
    <stop offset="1" style="stop-color: #ea00d9; stop-opacity: 1"/>
  </linearGradient>
  <linearGradient id="fitdance" x1="0%" x2="0%" y1="0%" y2="100%">
   <stop offset="0%" style="stop-color: #1AD6AB; stop-opacity: 1"/>
   <stop offset="100%" style="stop-color: #329DB6; stop-opacity: 1"/>
  </linearGradient>
  <linearGradient id="oomox" x1="0%" x2="0%" y1="0%" y2="100%">
   <stop offset="0%" style="stop-color: #efefe7; stop-opacity: 1"/>
   <stop offset="100%" style="stop-color: #8f8f8b; stop-opacity: 1"/>
  </linearGradient>
  <linearGradient id="rainblue" x1="0%" x2="0%" y1="0%" y2="100%">
   <stop offset="0%" style="stop-color: #00F260; stop-opacity: 1"/>
   <stop offset="100%" style="stop-color: #0575E6; stop-opacity: 1"/>
  </linearGradient>
  <linearGradient id="sunrise" x1="0%" x2="0%" y1="0%" y2="100%">
   <stop offset="0%" style="stop-color: #FF8501; stop-opacity: 1"/>
   <stop offset="100%" style="stop-color: #FFCB01; stop-opacity: 1"/>
  </linearGradient>
  <linearGradient id="telinkrin" x1="0%" x2="0%" y1="0%" y2="100%">
   <stop offset="0%" style="stop-color: #b2ced6; stop-opacity: 1"/>
   <stop offset="100%" style="stop-color: #6da5b7; stop-opacity: 1"/>
  </linearGradient>
  <linearGradient id="60spsycho" x1="0%" x2="0%" y1="0%" y2="100%">
   <stop offset="0%" style="stop-color: #df5940; stop-opacity: 1"/>
   <stop offset="25%" style="stop-color: #d8d15f; stop-opacity: 1"/>
   <stop offset="50%" style="stop-color: #e9882a; stop-opacity: 1"/>
   <stop offset="100%" style="stop-color: #279362; stop-opacity: 1"/>
  </linearGradient>
  <linearGradient id="90ssummer" x1="0%" x2="0%" y1="0%" y2="100%">
   <stop offset="0%" style="stop-color: #f618c7; stop-opacity: 1"/>
   <stop offset="20%" style="stop-color: #94ffab; stop-opacity: 1"/>
   <stop offset="50%" style="stop-color: #fbfd54; stop-opacity: 1"/>
   <stop offset="100%" style="stop-color: #0f83ae; stop-opacity: 1"/>
  </linearGradient>
 </defs>
 <path fill="currentColor" class="ColorScheme-Text" d="M 3.108,1 A 1.0001,1.0001 0 0 1 4.014,2 V 15 A 1.0001,1.0001 0 1 1 2.014,15 V 3 H 1.014 A 1.0001,1.0001 0 1 1 1.014,1 H 3.014 A 1.0001,1.0001 0 0 1 3.108,1 Z"/>
 <path fill="currentColor" class="ColorScheme-Text" d="M 3.014,6 V 6.5 8.5 9 H 2.514 0.514 0.014 V 8.5 6.5 6 H 0.514 2.514 Z M 2.014,7 H 1.014 V 8 H 2.014 Z"/>
 <path fill="currentColor" class="ColorScheme-Text" d="M 3.014,10 V 10.5 12.5 13 H 2.514 0.514 0.014 V 12.5 10.5 10 H 0.514 2.514 Z M 2.014,11 H 1.014 V 12 H 2.014 Z"/>
 <path fill="currentColor" class="ColorScheme-Text" d="M 16.014,4 V 5 15 16 H 15.014 7.014 6.014 V 15 14 H 5.014 V 12 H 6.014 7.014 8.014 V 13 14 H 14.014 V 6 H 12.014 11.014 6.014 5.514 5.014 V 4 H 5.514 6.014 11.014 12.014 15.014 Z"/>
 <path fill="currentColor" class="ColorScheme-Text" d="M 13.014,7.1 V 11.1 H 12.014 V 7.1 Z M 11.014,7.1 V 11.1 H 10.014 V 7.1 Z M 9.014,7.1 V 11.1 H 8.014 V 7.1 Z M 7.014,7.1 V 11.1 H 6.014 V 7.1 Z"/>
</svg>
