<svg xmlns="http://www.w3.org/2000/svg" width="16" height="16" version="1.1">
 <defs>
   <style id="current-color-scheme" type="text/css">
   .ColorScheme-Text { color: #2b68d1; } .ColorScheme-Highlight { color: #1AD6AB; }
  </style>
  <linearGradient id="arrongin" x1="0%" x2="0%" y1="0%" y2="100%">
   <stop offset="0%" style="stop-color: #dd9b44; stop-opacity: 1"/>
   <stop offset="100%" style="stop-color: #ad6c16; stop-opacity: 1"/>
  </linearGradient>
  <linearGradient id="aurora" x1="0%" x2="0%" y1="0%" y2="100%">
   <stop offset="0%" style="stop-color: #09D4DF; stop-opacity: 1"/>
   <stop offset="100%" style="stop-color: #9269F4; stop-opacity: 1"/>
  </linearGradient>
  <linearGradient id="cyberneon" x1="0%" x2="0%" y1="0%" y2="100%">
    <stop offset="0" style="stop-color: #0abdc6; stop-opacity: 1"/>
    <stop offset="1" style="stop-color: #ea00d9; stop-opacity: 1"/>
  </linearGradient>
  <linearGradient id="fitdance" x1="0%" x2="0%" y1="0%" y2="100%">
   <stop offset="0%" style="stop-color: #1AD6AB; stop-opacity: 1"/>
   <stop offset="100%" style="stop-color: #329DB6; stop-opacity: 1"/>
  </linearGradient>
  <linearGradient id="oomox" x1="0%" x2="0%" y1="0%" y2="100%">
   <stop offset="0%" style="stop-color: #efefe7; stop-opacity: 1"/>
   <stop offset="100%" style="stop-color: #8f8f8b; stop-opacity: 1"/>
  </linearGradient>
  <linearGradient id="rainblue" x1="0%" x2="0%" y1="0%" y2="100%">
   <stop offset="0%" style="stop-color: #00F260; stop-opacity: 1"/>
   <stop offset="100%" style="stop-color: #0575E6; stop-opacity: 1"/>
  </linearGradient>
  <linearGradient id="sunrise" x1="0%" x2="0%" y1="0%" y2="100%">
   <stop offset="0%" style="stop-color: #FF8501; stop-opacity: 1"/>
   <stop offset="100%" style="stop-color: #FFCB01; stop-opacity: 1"/>
  </linearGradient>
  <linearGradient id="telinkrin" x1="0%" x2="0%" y1="0%" y2="100%">
   <stop offset="0%" style="stop-color: #b2ced6; stop-opacity: 1"/>
   <stop offset="100%" style="stop-color: #6da5b7; stop-opacity: 1"/>
  </linearGradient>
  <linearGradient id="60spsycho" x1="0%" x2="0%" y1="0%" y2="100%">
   <stop offset="0%" style="stop-color: #df5940; stop-opacity: 1"/>
   <stop offset="25%" style="stop-color: #d8d15f; stop-opacity: 1"/>
   <stop offset="50%" style="stop-color: #e9882a; stop-opacity: 1"/>
   <stop offset="100%" style="stop-color: #279362; stop-opacity: 1"/>
  </linearGradient>
  <linearGradient id="90ssummer" x1="0%" x2="0%" y1="0%" y2="100%">
   <stop offset="0%" style="stop-color: #f618c7; stop-opacity: 1"/>
   <stop offset="20%" style="stop-color: #94ffab; stop-opacity: 1"/>
   <stop offset="50%" style="stop-color: #fbfd54; stop-opacity: 1"/>
   <stop offset="100%" style="stop-color: #0f83ae; stop-opacity: 1"/>
  </linearGradient>
 </defs>
 <path fill="currentColor" class="ColorScheme-Text" d="M 8 1 A 7.0000104 7.0000104 0 0 0 7.2929688 1.0351562 A 7.0000104 7.0000104 0 0 0 6.609375 1.140625 C 6.4289882 1.177214 6.2532453 1.2251606 6.078125 1.2753906 A 7.0000104 7.0000104 0 0 0 5.921875 1.3164062 C 5.890393 1.3262262 5.8613751 1.3393534 5.8300781 1.3496094 A 7.0000104 7.0000104 0 0 0 2.609375 3.5429688 C 2.606315 3.5466787 2.6026944 3.5490204 2.5996094 3.5527344 A 7.0000104 7.0000104 0 0 0 2.2578125 4.0117188 C 2.2332605 4.0469408 2.2055636 4.0795471 2.1816406 4.1152344 A 7.0000104 7.0000104 0 0 0 1.9453125 4.5039062 C 1.9008805 4.5804742 1.854076 4.6560174 1.8125 4.734375 A 7.0000104 7.0000104 0 0 0 1.6445312 5.0878906 C 1.6039663 5.1759606 1.5623589 5.2635306 1.5253906 5.3535156 A 7.0000104 7.0000104 0 0 0 1.3867188 5.7285156 C 1.3540637 5.8231756 1.3216087 5.9172399 1.2929688 6.0136719 A 7.0000104 7.0000104 0 0 0 1.2070312 6.34375 C 1.1760563 6.470517 1.1450337 6.5972285 1.1210938 6.7265625 A 7.0000104 7.0000104 0 0 0 1.078125 7.0097656 C 1.059829 7.1379366 1.042468 7.2662064 1.03125 7.3964844 A 7.0000104 7.0000104 0 0 0 1 8 A 7.0000104 7.0000104 0 0 0 1.0351562 8.7070312 C 1.0353828 8.7093312 1.0349278 8.7126438 1.0351562 8.7148438 A 7.0000104 7.0000104 0 0 0 1.140625 9.390625 C 1.177218 9.57101 1.2251595 9.746754 1.2753906 9.921875 A 7.0000104 7.0000104 0 0 0 1.3164062 10.074219 C 1.3265392 10.106759 1.3390124 10.137592 1.3496094 10.169922 A 7.0000104 7.0000104 0 0 0 3.5429688 13.390625 C 3.5466388 13.393725 3.5490394 13.397331 3.5527344 13.400391 A 7.0000104 7.0000104 0 0 0 4 13.734375 L 4 11.384766 A 5.2500078 5.2500078 0 0 1 2.75 8 A 5.2500078 5.2500078 0 0 1 4.7304688 3.890625 C 4.5234302 4.3450904 4.3856461 4.9298202 4.3867188 5.4101562 C 4.3877688 5.8586323 4.4978405 6.3911143 4.6679688 6.8164062 C 4.7129088 6.9286863 4.7672876 7.0789435 4.9296875 7.1796875 C 5.0921017 7.2804875 5.2080353 7.2765789 5.3710938 7.2949219 C 5.5127739 7.3108819 5.8061447 7.3753979 5.9355469 7.4199219 C 7.0307934 7.7967265 7.6268157 8.9122549 7.4296875 10 L 8.5371094 10 C 8.3187964 8.7174751 9.1160674 7.5465213 10.445312 7.3222656 C 10.573972 7.3005656 10.703504 7.2918419 10.833984 7.2949219 C 11.742543 7.3164819 12.638636 7.923596 12.966797 8.796875 C 12.992837 8.866315 13.010544 8.9188115 13.027344 8.9609375 C 13.035744 8.9819375 13.044747 8.9982512 13.054688 9.0195312 C 13.060287 9.0307313 13.064819 9.0417938 13.074219 9.0585938 C 13.078419 9.0669937 13.08437 9.0762638 13.09375 9.0898438 C 13.09955 9.0981438 13.11202 9.11124 13.125 9.125 A 5.2500078 5.2500078 0 0 1 12.845703 10 L 14.703125 10 C 14.704498 9.9954448 14.705676 9.9908925 14.707031 9.9863281 A 7.0000104 7.0000104 0 0 0 14.792969 9.65625 C 14.823949 9.529483 14.854966 9.4027735 14.878906 9.2734375 A 7.0000104 7.0000104 0 0 0 14.921875 8.9902344 C 14.940175 8.8620624 14.95754 8.7337936 14.96875 8.6035156 A 7.0000104 7.0000104 0 0 0 15 8 A 7.0000104 7.0000104 0 0 0 14.964844 7.2929688 A 7.0000104 7.0000104 0 0 0 14.964844 7.2851562 C 14.941474 7.0559873 14.904439 6.831544 14.859375 6.609375 C 14.822785 6.428989 14.774839 6.253245 14.724609 6.078125 C 14.710859 6.030205 14.70225 5.9791446 14.6875 5.9316406 A 7.0000104 7.0000104 0 0 0 14.683594 5.921875 C 14.673794 5.890395 14.660651 5.8613781 14.650391 5.8300781 A 7.0000104 7.0000104 0 0 0 12.457031 2.609375 A 7.0000104 7.0000104 0 0 0 12.449219 2.6015625 C 12.449219 2.6015625 12.447266 2.5996094 12.447266 2.5996094 A 7.0000104 7.0000104 0 0 0 11.988281 2.2578125 C 11.953061 2.2332595 11.920454 2.2075128 11.884766 2.1835938 A 7.0000104 7.0000104 0 0 0 11.496094 1.9453125 C 11.419524 1.9008825 11.343982 1.854076 11.265625 1.8125 A 7.0000104 7.0000104 0 0 0 10.912109 1.6445312 C 10.824039 1.6039633 10.736467 1.5623577 10.646484 1.5253906 A 7.0000104 7.0000104 0 0 0 10.271484 1.3867188 C 10.176824 1.3540678 10.08276 1.3216137 9.9863281 1.2929688 A 7.0000104 7.0000104 0 0 0 9.65625 1.2070312 C 9.529485 1.1760542 9.4027705 1.1450318 9.2734375 1.1210938 A 7.0000104 7.0000104 0 0 0 8.9902344 1.078125 C 8.8620654 1.059827 8.7337896 1.042466 8.6035156 1.03125 A 7.0000104 7.0000104 0 0 0 8 1 z M 8 2.75 A 5.2500078 5.2500078 0 0 1 13.214844 7.4433594 C 13.069698 7.2121974 12.903559 6.9903044 12.697266 6.7871094 C 12.121866 6.2174484 11.419759 5.8785981 10.591797 5.7675781 C 10.468597 5.7510581 10.365687 5.7210431 10.197266 5.7832031 C 10.028846 5.8448031 9.9461844 5.9801721 9.8964844 6.0644531 C 9.8246644 6.1859731 9.4148679 6.60356 9.1855469 6.75 C 8.5348259 7.165801 7.422491 7.165941 6.7695312 6.75 C 5.9974299 6.258181 5.5564323 5.2937207 5.6953125 4.4433594 C 5.7739927 3.9620387 5.9794187 3.5445074 6.3183594 3.1855469 C 6.3887794 3.1109269 6.4413389 3.0520803 6.484375 3.0039062 C 6.494726 2.9923112 6.5027497 2.978462 6.5117188 2.96875 A 5.2500078 5.2500078 0 0 1 8 2.75 z M 5.1308594 5.2265625 L 5.1328125 5.2285156 C 5.2246525 5.7806636 5.4463648 6.2489625 5.8183594 6.6796875 C 5.6906791 6.6507075 5.5652161 6.6105362 5.4511719 6.5976562 C 5.3233517 6.5830962 5.317065 6.5781406 5.328125 6.5878906 C 5.323925 6.5780906 5.3256791 6.5824106 5.3144531 6.5566406 C 5.1863529 6.2361796 5.0887306 5.7360831 5.0878906 5.4082031 C 5.0877786 5.3597631 5.1255394 5.2848165 5.1308594 5.2265625 z M 10.46875 6.4492188 C 10.47715 6.4497228 10.446667 6.4558106 10.498047 6.4628906 C 10.783452 6.5011106 10.957571 6.701577 11.193359 6.796875 C 10.897665 6.752215 10.630777 6.5817545 10.328125 6.6328125 C 10.267785 6.6426125 10.250205 6.7131225 10.191406 6.7265625 C 10.280306 6.6271625 10.405359 6.5507188 10.46875 6.4492188 z M 9.0917969 7.4726562 C 8.5852759 7.8842573 8.1826425 8.3957084 7.9765625 8.9746094 C 7.7815425 8.4158684 7.4133602 7.9007144 6.9375 7.4902344 C 7.6431002 7.7545544 8.3947359 7.7550373 9.0917969 7.4726562 z"/>
 <path fill="currentColor" class="ColorScheme-Highlight" d="m 5,11 v 1 1 1 2 H 6 V 14.707031 L 7.292969,16 H 8 V 15.292969 L 6.707031,14 H 7 8 V 13 12 11 H 7 Z m 4,0 v 1 3 1 h 1 2 v -1 h -2 v -1 h 2 v -1 h -2 v -1 h 2 v -1 z m 4,0 v 1 4 h 3 v -1 h -2 v -3 h 2 v -1 z m -7,1 h 1 v 1 H 6 Z"/>
</svg>
