<svg xmlns="http://www.w3.org/2000/svg" width="16" height="16" version="1.1">
 <defs>
   <style id="current-color-scheme" type="text/css">
   .ColorScheme-Text { color: #2b68d1; } .ColorScheme-Highlight { color: #1AD6AB; }
  </style>
  <linearGradient id="arrongin" x1="0%" x2="0%" y1="0%" y2="100%">
   <stop offset="0%" style="stop-color: #dd9b44; stop-opacity: 1"/>
   <stop offset="100%" style="stop-color: #ad6c16; stop-opacity: 1"/>
  </linearGradient>
  <linearGradient id="aurora" x1="0%" x2="0%" y1="0%" y2="100%">
   <stop offset="0%" style="stop-color: #09D4DF; stop-opacity: 1"/>
   <stop offset="100%" style="stop-color: #9269F4; stop-opacity: 1"/>
  </linearGradient>
  <linearGradient id="cyberneon" x1="0%" x2="0%" y1="0%" y2="100%">
    <stop offset="0" style="stop-color: #0abdc6; stop-opacity: 1"/>
    <stop offset="1" style="stop-color: #ea00d9; stop-opacity: 1"/>
  </linearGradient>
  <linearGradient id="fitdance" x1="0%" x2="0%" y1="0%" y2="100%">
   <stop offset="0%" style="stop-color: #1AD6AB; stop-opacity: 1"/>
   <stop offset="100%" style="stop-color: #329DB6; stop-opacity: 1"/>
  </linearGradient>
  <linearGradient id="oomox" x1="0%" x2="0%" y1="0%" y2="100%">
   <stop offset="0%" style="stop-color: #efefe7; stop-opacity: 1"/>
   <stop offset="100%" style="stop-color: #8f8f8b; stop-opacity: 1"/>
  </linearGradient>
  <linearGradient id="rainblue" x1="0%" x2="0%" y1="0%" y2="100%">
   <stop offset="0%" style="stop-color: #00F260; stop-opacity: 1"/>
   <stop offset="100%" style="stop-color: #0575E6; stop-opacity: 1"/>
  </linearGradient>
  <linearGradient id="sunrise" x1="0%" x2="0%" y1="0%" y2="100%">
   <stop offset="0%" style="stop-color: #FF8501; stop-opacity: 1"/>
   <stop offset="100%" style="stop-color: #FFCB01; stop-opacity: 1"/>
  </linearGradient>
  <linearGradient id="telinkrin" x1="0%" x2="0%" y1="0%" y2="100%">
   <stop offset="0%" style="stop-color: #b2ced6; stop-opacity: 1"/>
   <stop offset="100%" style="stop-color: #6da5b7; stop-opacity: 1"/>
  </linearGradient>
  <linearGradient id="60spsycho" x1="0%" x2="0%" y1="0%" y2="100%">
   <stop offset="0%" style="stop-color: #df5940; stop-opacity: 1"/>
   <stop offset="25%" style="stop-color: #d8d15f; stop-opacity: 1"/>
   <stop offset="50%" style="stop-color: #e9882a; stop-opacity: 1"/>
   <stop offset="100%" style="stop-color: #279362; stop-opacity: 1"/>
  </linearGradient>
  <linearGradient id="90ssummer" x1="0%" x2="0%" y1="0%" y2="100%">
   <stop offset="0%" style="stop-color: #f618c7; stop-opacity: 1"/>
   <stop offset="20%" style="stop-color: #94ffab; stop-opacity: 1"/>
   <stop offset="50%" style="stop-color: #fbfd54; stop-opacity: 1"/>
   <stop offset="100%" style="stop-color: #0f83ae; stop-opacity: 1"/>
  </linearGradient>
 </defs>
 <path fill="currentColor" class="ColorScheme-Text" d="M 7,0 6.5,1.0313 C 6.6619,1.018 6.8348,1 7,1 H 7.5 Z M 7,2 C 4.2386,2 2,4.2386 2,7 2,9.254 3.5126,11.126 5.5625,11.75 6.0313,11.072 6.7423,10.545 7.531,10.312 8.151,8.99 9.506,7.974 11,8 11.304,7.995 11.587,8.056 11.875,8.125 11.96,7.761 12,7.39 12,7 12,4.2386 9.761,2 7,2 Z M 2.0625,2.0625 2.4062,3.125 C 2.6253,2.8658 2.8658,2.6253 3.125,2.4063 Z M 11.938,2.0625 10.844,2.4375 H 10.781 C 10.92,2.5485 11.056,2.6626 11.188,2.7813 11.319,2.8999 11.445,3.023 11.563,3.1563 Z M 1,6.5 0,7 1.0312,7.5 C 1.0164,7.331 1,7.174 1,7 1,6.9725 0.998,6.9164 1,6.8438 1.006,6.7279 1.0224,6.6115 1.0312,6.5 Z M 12.969,6.5 C 12.984,6.6693 13,6.8264 13,7 13,7.027 13.002,7.084 13,7.156 12.994,7.272 12.978,7.388 12.969,7.5 H 13 L 14,7 Z M 11,9 C 9.688,9 8.595,9.858 8.188,11.031 6.9567,11.187 6,12.227 6,13.5 6,14.881 7.119,16 8.5,16 H 14 C 15.105,16 16,15.104 16,14 16,12.895 15.105,12 14,12 14,10.343 12.657,9 11,9 Z M 2.4375,10.844 2.0625,11.937 3.1562,11.562 H 3.2187 C 3.0796,11.451 2.9438,11.337 2.8125,11.219 2.6812,11.1 2.5545,10.977 2.4375,10.844 Z"/>
</svg>
