<svg xmlns="http://www.w3.org/2000/svg" width="22" height="22" version="1.1">
 <defs>
  <style id="current-color-scheme" type="text/css">
   .ColorScheme-Text { color: #2b68d1; } .ColorScheme-Highlight { color: #1AD6AB; }
  </style>
  <linearGradient id="arrongin" x1="0%" x2="0%" y1="0%" y2="100%">
   <stop offset="0%" style="stop-color:#dd9b44"/>
   <stop offset="100%" style="stop-color:#ad6c16"/>
  </linearGradient>
  <linearGradient id="aurora" x1="0%" x2="0%" y1="0%" y2="100%">
   <stop offset="0%" style="stop-color:#09D4DF"/>
   <stop offset="100%" style="stop-color:#9269F4"/>
  </linearGradient>
  <linearGradient id="cyberneon" x1="0%" x2="0%" y1="0%" y2="100%">
   <stop offset="0" style="stop-color:#0abdc6"/>
   <stop offset="1" style="stop-color:#ea00d9"/>
  </linearGradient>
  <linearGradient id="fitdance" x1="0%" x2="0%" y1="0%" y2="100%">
   <stop offset="0%" style="stop-color:#1AD6AB"/>
   <stop offset="100%" style="stop-color:#329DB6"/>
  </linearGradient>
  <linearGradient id="oomox" x1="0%" x2="0%" y1="0%" y2="100%">
   <stop offset="0%" style="stop-color:#efefe7"/>
   <stop offset="100%" style="stop-color:#8f8f8b"/>
  </linearGradient>
  <linearGradient id="rainblue" x1="0%" x2="0%" y1="0%" y2="100%">
   <stop offset="0%" style="stop-color:#00F260"/>
   <stop offset="100%" style="stop-color:#0575E6"/>
  </linearGradient>
  <linearGradient id="sunrise" x1="0%" x2="0%" y1="0%" y2="100%">
   <stop offset="0%" style="stop-color:#FF8501"/>
   <stop offset="100%" style="stop-color:#FFCB01"/>
  </linearGradient>
  <linearGradient id="telinkrin" x1="0%" x2="0%" y1="0%" y2="100%">
   <stop offset="0%" style="stop-color:#b2ced6"/>
   <stop offset="100%" style="stop-color:#6da5b7"/>
  </linearGradient>
  <linearGradient id="60spsycho" x1="0%" x2="0%" y1="0%" y2="100%">
   <stop offset="0%" style="stop-color:#df5940"/>
   <stop offset="25%" style="stop-color:#d8d15f"/>
   <stop offset="50%" style="stop-color:#e9882a"/>
   <stop offset="100%" style="stop-color:#279362"/>
  </linearGradient>
  <linearGradient id="90ssummer" x1="0%" x2="0%" y1="0%" y2="100%">
   <stop offset="0%" style="stop-color:#f618c7"/>
   <stop offset="20%" style="stop-color:#94ffab"/>
   <stop offset="50%" style="stop-color:#fbfd54"/>
   <stop offset="100%" style="stop-color:#0f83ae"/>
  </linearGradient>
 </defs>
 <g transform="translate(-449 -957.27)">
  <path fill="currentColor" class="ColorScheme-Text" d="m6 4.002c-1.108 0-2 0.892-2 2v10c0 1.108 0.892 2 2 2h10c1.108 0 2-0.892 2-2v-10c0-1.108-0.892-2-2-2h-10zm2.4961 1.9668c0.7798 0 1.3901 0.2236 1.8319 0.6699 0.442 0.4462 0.662 1.0613 0.662 1.8476 0 0.7842-0.22 1.3995-0.662 1.8457-0.4418 0.446-1.0521 0.67-1.8319 0.67-0.7777 0-1.3899-0.224-1.834-0.67-0.4419-0.4462-0.6621-1.0615-0.6621-1.8457 0-0.7863 0.2202-1.4014 0.6621-1.8476 0.4441-0.4463 1.0563-0.6699 1.834-0.6699zm0 0.9062c-0.3813 0-0.6766 0.1403-0.8867 0.4219-0.2102 0.2816-0.3164 0.6782-0.3164 1.1894 0 0.5091 0.1062 0.9059 0.3164 1.1875 0.2101 0.2816 0.5054 0.4222 0.8867 0.4222 0.3834 0 0.6805-0.1406 0.8906-0.4222s0.3145-0.6784 0.3145-1.1875c0-0.5112-0.1044-0.9078-0.3145-1.1894s-0.5072-0.4219-0.8906-0.4219zm3.5679 3.275h1.879c0.674 0 1.16 0.101 1.461 0.305 0.304 0.204 0.455 0.53 0.455 0.979 0 0.236-0.055 0.438-0.166 0.605-0.11 0.165-0.27 0.287-0.48 0.367 0.269 0.078 0.478 0.222 0.625 0.432s0.221 0.468 0.221 0.773c0 0.468-0.159 0.818-0.475 1.047-0.316 0.23-0.798 0.344-1.443 0.344h-2.077v-4.852zm1.252 0.852v1.027h0.692c0.197 0 0.345-0.044 0.447-0.131 0.102-0.086 0.154-0.213 0.154-0.382 0-0.167-0.052-0.295-0.154-0.381-0.102-0.089-0.25-0.133-0.447-0.133h-0.692zm-0.002 1.879v1.269h0.735c0.251 0 0.441-0.052 0.566-0.158 0.128-0.106 0.192-0.268 0.192-0.482 0-0.21-0.062-0.367-0.188-0.471-0.126-0.106-0.317-0.158-0.57-0.158h-0.735z" transform="translate(449 957.27)"/>
 </g>
</svg>
