<svg xmlns="http://www.w3.org/2000/svg" width="24" height="24" version="1.1">
 <defs>
  <style id="current-color-scheme" type="text/css">
   .ColorScheme-Text { color: #2b68d1; } .ColorScheme-Highlight { color: #1AD6AB; }
  </style>
  <linearGradient id="arrongin" x1="0%" x2="0%" y1="0%" y2="100%">
   <stop offset="0%" style="stop-color:#dd9b44"/>
   <stop offset="100%" style="stop-color:#ad6c16"/>
  </linearGradient>
  <linearGradient id="aurora" x1="0%" x2="0%" y1="0%" y2="100%">
   <stop offset="0%" style="stop-color:#09D4DF"/>
   <stop offset="100%" style="stop-color:#9269F4"/>
  </linearGradient>
  <linearGradient id="cyberneon" x1="0%" x2="0%" y1="0%" y2="100%">
   <stop offset="0" style="stop-color:#0abdc6"/>
   <stop offset="1" style="stop-color:#ea00d9"/>
  </linearGradient>
  <linearGradient id="fitdance" x1="0%" x2="0%" y1="0%" y2="100%">
   <stop offset="0%" style="stop-color:#1AD6AB"/>
   <stop offset="100%" style="stop-color:#329DB6"/>
  </linearGradient>
  <linearGradient id="oomox" x1="0%" x2="0%" y1="0%" y2="100%">
   <stop offset="0%" style="stop-color:#efefe7"/>
   <stop offset="100%" style="stop-color:#8f8f8b"/>
  </linearGradient>
  <linearGradient id="rainblue" x1="0%" x2="0%" y1="0%" y2="100%">
   <stop offset="0%" style="stop-color:#00F260"/>
   <stop offset="100%" style="stop-color:#0575E6"/>
  </linearGradient>
  <linearGradient id="sunrise" x1="0%" x2="0%" y1="0%" y2="100%">
   <stop offset="0%" style="stop-color:#FF8501"/>
   <stop offset="100%" style="stop-color:#FFCB01"/>
  </linearGradient>
  <linearGradient id="telinkrin" x1="0%" x2="0%" y1="0%" y2="100%">
   <stop offset="0%" style="stop-color:#b2ced6"/>
   <stop offset="100%" style="stop-color:#6da5b7"/>
  </linearGradient>
  <linearGradient id="60spsycho" x1="0%" x2="0%" y1="0%" y2="100%">
   <stop offset="0%" style="stop-color:#df5940"/>
   <stop offset="25%" style="stop-color:#d8d15f"/>
   <stop offset="50%" style="stop-color:#e9882a"/>
   <stop offset="100%" style="stop-color:#279362"/>
  </linearGradient>
  <linearGradient id="90ssummer" x1="0%" x2="0%" y1="0%" y2="100%">
   <stop offset="0%" style="stop-color:#f618c7"/>
   <stop offset="20%" style="stop-color:#94ffab"/>
   <stop offset="50%" style="stop-color:#fbfd54"/>
   <stop offset="100%" style="stop-color:#0f83ae"/>
  </linearGradient>
 </defs>
 <path fill="currentColor" class="ColorScheme-Text" d="m 10.175781,6.0000002 c 0,0 -1.9804458,-0.04304 -4.0781248,1.4980469 C 3.9999782,9.0391301 3,12.228965 3,16.824219 c 0,0 2.2239914,2.074982 5.4433594,2.175781 0,0 0.5395465,-0.634246 0.9765625,-1.181641 C 7.5699399,17.270965 6.8691406,15.632812 6.8691406,15.632812 8.5736651,16.585677 9.732467,16.983424 11.5,17 c 1.767533,-0.01658 3.926335,-0.414323 5.630859,-1.367188 0,0 -0.700799,1.638153 -2.550781,2.185547 C 15.017094,18.365754 15.556641,19 15.556641,19 18.776009,18.899201 21,16.824219 21,16.824219 21,12.228965 20.000022,9.0391301 17.902344,7.4980471 15.804665,5.9569601 13.824219,6.0000002 13.824219,6.0000002 l -0.146485,0.171875 c 2.622073,0.734693 3.816407,2.3730469 3.816407,2.3730469 0,0 -0.320389,-0.1718468 -0.859375,-0.4023438 C 14.999968,7.3578111 13.000043,6.9999687 11.5,7.0000002 9.999957,6.9999687 9.0000334,7.3578111 7.3652344,8.1425783 c -0.5389855,0.230497 -0.859375,0.4023438 -0.859375,0.4023438 0,0 1.1943322,-1.6383539 3.8164066,-2.3730469 z M 9.5,12 c 0.838151,0 1.5146,0.668208 1.5,1.5 C 11,14.331792 10.338151,15 9.5,15 8.676558,15 8,14.331792 8,13.5 8,12.668208 8.661868,12 9.5,12 Z m 5,0 C 15.338132,12 16,12.668208 16,13.5 16,14.331792 15.323442,15 14.5,15 13.661849,15 13,14.331792 13,13.5 12.9854,12.668208 13.661849,12 14.5,12 Z"/>
 <circle fill="currentColor" class="ColorScheme-Highlight" cx="21" cy="7" r="2"/>
</svg>
