<svg xmlns="http://www.w3.org/2000/svg" width="24" height="24" version="1.1">
 <defs>
  <style id="current-color-scheme" type="text/css">
   .ColorScheme-Text { color: #2b68d1; } .ColorScheme-Highlight { color: #1AD6AB; }
  </style>
  <linearGradient id="arrongin" x1="0%" x2="0%" y1="0%" y2="100%">
   <stop offset="0%" style="stop-color:#dd9b44"/>
   <stop offset="100%" style="stop-color:#ad6c16"/>
  </linearGradient>
  <linearGradient id="aurora" x1="0%" x2="0%" y1="0%" y2="100%">
   <stop offset="0%" style="stop-color:#09D4DF"/>
   <stop offset="100%" style="stop-color:#9269F4"/>
  </linearGradient>
  <linearGradient id="cyberneon" x1="0%" x2="0%" y1="0%" y2="100%">
   <stop offset="0" style="stop-color:#0abdc6"/>
   <stop offset="1" style="stop-color:#ea00d9"/>
  </linearGradient>
  <linearGradient id="fitdance" x1="0%" x2="0%" y1="0%" y2="100%">
   <stop offset="0%" style="stop-color:#1AD6AB"/>
   <stop offset="100%" style="stop-color:#329DB6"/>
  </linearGradient>
  <linearGradient id="oomox" x1="0%" x2="0%" y1="0%" y2="100%">
   <stop offset="0%" style="stop-color:#efefe7"/>
   <stop offset="100%" style="stop-color:#8f8f8b"/>
  </linearGradient>
  <linearGradient id="rainblue" x1="0%" x2="0%" y1="0%" y2="100%">
   <stop offset="0%" style="stop-color:#00F260"/>
   <stop offset="100%" style="stop-color:#0575E6"/>
  </linearGradient>
  <linearGradient id="sunrise" x1="0%" x2="0%" y1="0%" y2="100%">
   <stop offset="0%" style="stop-color:#FF8501"/>
   <stop offset="100%" style="stop-color:#FFCB01"/>
  </linearGradient>
  <linearGradient id="telinkrin" x1="0%" x2="0%" y1="0%" y2="100%">
   <stop offset="0%" style="stop-color:#b2ced6"/>
   <stop offset="100%" style="stop-color:#6da5b7"/>
  </linearGradient>
  <linearGradient id="60spsycho" x1="0%" x2="0%" y1="0%" y2="100%">
   <stop offset="0%" style="stop-color:#df5940"/>
   <stop offset="25%" style="stop-color:#d8d15f"/>
   <stop offset="50%" style="stop-color:#e9882a"/>
   <stop offset="100%" style="stop-color:#279362"/>
  </linearGradient>
  <linearGradient id="90ssummer" x1="0%" x2="0%" y1="0%" y2="100%">
   <stop offset="0%" style="stop-color:#f618c7"/>
   <stop offset="20%" style="stop-color:#94ffab"/>
   <stop offset="50%" style="stop-color:#fbfd54"/>
   <stop offset="100%" style="stop-color:#0f83ae"/>
  </linearGradient>
 </defs>
 <g transform="translate(-128.00001,-680.28999)">
  <path fill="currentColor" class="ColorScheme-Text" d="m 11,3.0039062 c -2.07107,0 -3.83471,1.2679201 -4.59375,3.0625 C 4.47842,6.3530063 3,7.9963263 3,10.003906 c 0,2.20914 1.79086,4 4,4 l 8.5,0 c 1.933,0 3.5,-1.567 3.5,-3.5 C 19,8.7073662 17.64921,7.2352063 15.90625,7.0351562 15.45168,4.7417662 13.42687,3.0039062 11,3.0039062 Z M 5.9785156,14.994141 a 0.50005,0.50005 0 0 0 -0.4257812,0.283203 l -1,2 a 0.50006306,0.50006306 0 1 0 0.8945312,0.447265 l 1,-2 a 0.50005,0.50005 0 0 0 -0.46875,-0.730468 z m 2.5,0 a 0.50005,0.50005 0 0 0 -0.4257812,0.283203 l -1,2 a 0.50006306,0.50006306 0 1 0 0.8945312,0.447265 l 1,-2 a 0.50005,0.50005 0 0 0 -0.46875,-0.730468 z m 2.5000004,0 a 0.50005,0.50005 0 0 0 -0.425782,0.283203 l -0.9999996,2 a 0.50006306,0.50006306 0 1 0 0.8945316,0.447265 l 1,-2 a 0.50005,0.50005 0 0 0 -0.46875,-0.730468 z m 2.5,0 a 0.50005,0.50005 0 0 0 -0.425782,0.283203 l -1,2 a 0.50006306,0.50006306 0 1 0 0.894532,0.447265 l 1,-2 a 0.50005,0.50005 0 0 0 -0.46875,-0.730468 z m 2.5,0 a 0.50005,0.50005 0 0 0 -0.425782,0.283203 l -1,2 a 0.50006306,0.50006306 0 1 0 0.894532,0.447265 l 1,-2 a 0.50005,0.50005 0 0 0 -0.46875,-0.730468 z" transform="translate(129.00001,681.28994)"/>
 </g>
</svg>
