<svg xmlns="http://www.w3.org/2000/svg" width="16" height="16" version="1.1">
 <defs>
   <style id="current-color-scheme" type="text/css">
   .ColorScheme-Text { color: #0391e8; } .ColorScheme-Highlight { color: #1AD6AB; }
  </style>
  <linearGradient id="arrongin" x1="0%" x2="0%" y1="0%" y2="100%">
   <stop offset="0%" style="stop-color: #dd9b44; stop-opacity: 1"/>
   <stop offset="100%" style="stop-color: #ad6c16; stop-opacity: 1"/>
  </linearGradient>
  <linearGradient id="aurora" x1="0%" x2="0%" y1="0%" y2="100%">
   <stop offset="0%" style="stop-color: #09D4DF; stop-opacity: 1"/>
   <stop offset="100%" style="stop-color: #9269F4; stop-opacity: 1"/>
  </linearGradient>
  <linearGradient id="cyberneon" x1="0%" x2="0%" y1="0%" y2="100%">
    <stop offset="0" style="stop-color: #0abdc6; stop-opacity: 1"/>
    <stop offset="1" style="stop-color: #ea00d9; stop-opacity: 1"/>
  </linearGradient>
  <linearGradient id="fitdance" x1="0%" x2="0%" y1="0%" y2="100%">
   <stop offset="0%" style="stop-color: #1AD6AB; stop-opacity: 1"/>
   <stop offset="100%" style="stop-color: #329DB6; stop-opacity: 1"/>
  </linearGradient>
  <linearGradient id="oomox" x1="0%" x2="0%" y1="0%" y2="100%">
   <stop offset="0%" style="stop-color: #efefe7; stop-opacity: 1"/>
   <stop offset="100%" style="stop-color: #8f8f8b; stop-opacity: 1"/>
  </linearGradient>
  <linearGradient id="rainblue" x1="0%" x2="0%" y1="0%" y2="100%">
   <stop offset="0%" style="stop-color: #00F260; stop-opacity: 1"/>
   <stop offset="100%" style="stop-color: #0575E6; stop-opacity: 1"/>
  </linearGradient>
  <linearGradient id="sunrise" x1="0%" x2="0%" y1="0%" y2="100%">
   <stop offset="0%" style="stop-color: #FF8501; stop-opacity: 1"/>
   <stop offset="100%" style="stop-color: #FFCB01; stop-opacity: 1"/>
  </linearGradient>
  <linearGradient id="telinkrin" x1="0%" x2="0%" y1="0%" y2="100%">
   <stop offset="0%" style="stop-color: #b2ced6; stop-opacity: 1"/>
   <stop offset="100%" style="stop-color: #6da5b7; stop-opacity: 1"/>
  </linearGradient>
  <linearGradient id="60spsycho" x1="0%" x2="0%" y1="0%" y2="100%">
   <stop offset="0%" style="stop-color: #df5940; stop-opacity: 1"/>
   <stop offset="25%" style="stop-color: #d8d15f; stop-opacity: 1"/>
   <stop offset="50%" style="stop-color: #e9882a; stop-opacity: 1"/>
   <stop offset="100%" style="stop-color: #279362; stop-opacity: 1"/>
  </linearGradient>
  <linearGradient id="90ssummer" x1="0%" x2="0%" y1="0%" y2="100%">
   <stop offset="0%" style="stop-color: #f618c7; stop-opacity: 1"/>
   <stop offset="20%" style="stop-color: #94ffab; stop-opacity: 1"/>
   <stop offset="50%" style="stop-color: #fbfd54; stop-opacity: 1"/>
   <stop offset="100%" style="stop-color: #0f83ae; stop-opacity: 1"/>
  </linearGradient>
 </defs>
 <path fill="currentColor" class="ColorScheme-Text" d="M 5.25,0 C 5.1115,0 5,0.1115 5,0.25 V 1.75 C 5,1.8885 5.1115,2 5.25,2 H 5.75 C 5.8885,2 6,1.8885 6,1.75 V 0.25 C 6,0.1115 5.8885,0 5.75,0 Z M 9.25,0 C 9.112,0 9,0.1115 9,0.25 V 1.75 C 9,1.8885 9.112,2 9.25,2 H 9.75 C 9.888,2 10,1.8885 10,1.75 V 0.25 C 10,0.1115 9.888,0 9.75,0 Z M 13.25,0 C 13.112,0 13,0.1115 13,0.25 V 1.75 C 13,1.8885 13.112,2 13.25,2 H 13.75 C 13.888,2 14,1.8885 14,1.75 V 0.25 C 14,0.1115 13.888,0 13.75,0 Z M 3.25,2 C 2.5575,2 2,2.5575 2,3.25 V 4.0254 C 2.5716,4.1408 3,4.6434 3,5.25 V 5.75 C 3,6.3566 2.5716,6.8592 2,6.9746 V 8.025 C 2.5716,8.141 3,8.643 3,9.25 V 9.75 C 3,10.357 2.5716,10.859 2,10.975 V 12.025 C 2.5716,12.141 3,12.643 3,13.25 V 13.75 C 3,14.349 2.582,14.845 2.0215,14.969 2.1249,15.556 2.6326,16 3.25,16 H 14.75 C 15.442,16 16,15.442 16,14.75 V 3.25 C 16,2.6414 15.569,2.1387 14.994,2.0254 14.98,2.5668 14.545,3 14,3 H 13 C 12.446,3 12,2.554 12,2 H 11 C 11,2.554 10.554,3 10,3 H 9 C 8.446,3 8,2.554 8,2 H 7 C 7,2.554 6.554,3 6,3 H 5 C 4.446,3 4,2.554 4,2 Z M 5,4 H 14 C 14.554,4 15,4.446 15,5 V 14 C 15,14.554 14.554,15 14,15 H 5 C 4.446,15 4,14.554 4,14 V 5 C 4,4.446 4.446,4 5,4 Z M 0.25,5 C 0.1115,5 0,5.1115 0,5.25 V 5.75 C 0,5.8885 0.1115,6 0.25,6 H 1.75 C 1.8885,6 2,5.8885 2,5.75 V 5.25 C 2,5.1115 1.8885,5 1.75,5 Z M 5.25,5 C 5.1115,5 5,5.1115 5,5.25 V 13.75 C 5,13.888 5.1115,14 5.25,14 H 13.75 C 13.888,14 14,13.888 14,13.75 V 5.25 C 14,5.1115 13.888,5 13.75,5 Z M 0.25,9 C 0.1115,9 0,9.112 0,9.25 V 9.75 C 0,9.888 0.1115,10 0.25,10 H 1.75 C 1.8885,10 2,9.888 2,9.75 V 9.25 C 2,9.112 1.8885,9 1.75,9 Z M 0.25,13 C 0.1115,13 0,13.112 0,13.25 V 13.75 C 0,13.888 0.1115,14 0.25,14 H 1.75 C 1.8885,14 2,13.888 2,13.75 V 13.25 C 2,13.112 1.8885,13 1.75,13 Z"/>
</svg>
