<svg xmlns="http://www.w3.org/2000/svg" width="16" height="16" version="1.1">
 <defs>
   <style id="current-color-scheme" type="text/css">
   .ColorScheme-Text { color: #0391e8; } .ColorScheme-Highlight { color: #1AD6AB; }
  </style>
  <linearGradient id="arrongin" x1="0%" x2="0%" y1="0%" y2="100%">
   <stop offset="0%" style="stop-color: #dd9b44; stop-opacity: 1"/>
   <stop offset="100%" style="stop-color: #ad6c16; stop-opacity: 1"/>
  </linearGradient>
  <linearGradient id="aurora" x1="0%" x2="0%" y1="0%" y2="100%">
   <stop offset="0%" style="stop-color: #09D4DF; stop-opacity: 1"/>
   <stop offset="100%" style="stop-color: #9269F4; stop-opacity: 1"/>
  </linearGradient>
  <linearGradient id="cyberneon" x1="0%" x2="0%" y1="0%" y2="100%">
    <stop offset="0" style="stop-color: #0abdc6; stop-opacity: 1"/>
    <stop offset="1" style="stop-color: #ea00d9; stop-opacity: 1"/>
  </linearGradient>
  <linearGradient id="fitdance" x1="0%" x2="0%" y1="0%" y2="100%">
   <stop offset="0%" style="stop-color: #1AD6AB; stop-opacity: 1"/>
   <stop offset="100%" style="stop-color: #329DB6; stop-opacity: 1"/>
  </linearGradient>
  <linearGradient id="oomox" x1="0%" x2="0%" y1="0%" y2="100%">
   <stop offset="0%" style="stop-color: #efefe7; stop-opacity: 1"/>
   <stop offset="100%" style="stop-color: #8f8f8b; stop-opacity: 1"/>
  </linearGradient>
  <linearGradient id="rainblue" x1="0%" x2="0%" y1="0%" y2="100%">
   <stop offset="0%" style="stop-color: #00F260; stop-opacity: 1"/>
   <stop offset="100%" style="stop-color: #0575E6; stop-opacity: 1"/>
  </linearGradient>
  <linearGradient id="sunrise" x1="0%" x2="0%" y1="0%" y2="100%">
   <stop offset="0%" style="stop-color: #FF8501; stop-opacity: 1"/>
   <stop offset="100%" style="stop-color: #FFCB01; stop-opacity: 1"/>
  </linearGradient>
  <linearGradient id="telinkrin" x1="0%" x2="0%" y1="0%" y2="100%">
   <stop offset="0%" style="stop-color: #b2ced6; stop-opacity: 1"/>
   <stop offset="100%" style="stop-color: #6da5b7; stop-opacity: 1"/>
  </linearGradient>
  <linearGradient id="60spsycho" x1="0%" x2="0%" y1="0%" y2="100%">
   <stop offset="0%" style="stop-color: #df5940; stop-opacity: 1"/>
   <stop offset="25%" style="stop-color: #d8d15f; stop-opacity: 1"/>
   <stop offset="50%" style="stop-color: #e9882a; stop-opacity: 1"/>
   <stop offset="100%" style="stop-color: #279362; stop-opacity: 1"/>
  </linearGradient>
  <linearGradient id="90ssummer" x1="0%" x2="0%" y1="0%" y2="100%">
   <stop offset="0%" style="stop-color: #f618c7; stop-opacity: 1"/>
   <stop offset="20%" style="stop-color: #94ffab; stop-opacity: 1"/>
   <stop offset="50%" style="stop-color: #fbfd54; stop-opacity: 1"/>
   <stop offset="100%" style="stop-color: #0f83ae; stop-opacity: 1"/>
  </linearGradient>
 </defs>
 <path fill="currentColor" class="ColorScheme-Text" d="m 8,1 c 3.865993,0 7,3.1340068 7,7 0,3.865993 -3.134007,7 -7,7 -0.296373,0 -0.5863599,-0.0248 -0.8730469,-0.06055 -0.04526,-0.0058 -0.089656,-0.01286 -0.1347656,-0.01953 -0.26223,-0.03794 -0.5195074,-0.09204 -0.7714844,-0.158203 -0.02505,-0.0066 -0.049239,-0.01066 -0.074219,-0.01758 C 5.554959,14.581746 4.99636,14.343683 4.478516,14.041016 2.92499,13.133018 1.754098,11.64741 1.261719,9.875 1.256619,9.85687 1.253017,9.8384915 1.248047,9.8203125 1.178527,9.5619575 1.123761,9.2985559 1.083984,9.0292969 1.076484,8.9796369 1.066997,8.9306999 1.060547,8.8808594 1.024224,8.5919299 1,8.298788 1,8 1,4.1340068 4.134007,1 8,1 Z M 9.5996094,4 C 9.1175323,4 8.5891959,4.05122 8.1367188,4.1992188 7.5466393,4.3263082 7.6260449,4.6059481 7.390625,5 H 6.7988281 C 6.5779243,5.0000223 6.3984594,5.177534 6.3984375,5.3984375 V 6 C 6.2368385,6.00272 6.1446966,6.00824 5.4375,6 5.231823,5.9975931 4.82812,5.999171 4.474609,6 A 1.25,1.25 0 0 0 3.25,5 1.25,1.25 0 0 0 2,6.25 1.25,1.25 0 0 0 3.25,7.5 1.25,1.25 0 0 0 3.505859,7.4726562 c 0.681916,0.5446642 1.660482,1.0858626 2.097657,1.5019532 l -0.00391,0.2167968 c -0.0055,0.2265403 0.177708,0.4109652 0.4042972,0.4082032 0.3575981,-0.00402 0.4003188,0.075134 0.3867188,0.052734 -0.0128,-0.021595 0.013504,0.070236 -0.0625,0.2734374 C 6.252121,10.12978 6.1091957,10.395971 5.966797,10.667969 5.824398,10.939968 5.678175,11.212168 5.609375,11.509766 5.551298,11.76018 5.742941,11.99942 6,12 h 2.3984375 c 0.00104,3e-6 0.00286,3e-6 0.00391,0 1.0605498,-0.0064 3.1953122,0 3.1953122,0 0.332745,0.0015 0.521285,-0.380822 0.31836,-0.644531 C 11.694897,11.067472 11.489109,10.522721 11.34375,9.953125 11.239268,9.5443265 11.164875,9.1467543 11.103516,8.7851562 c 0.05592,-0.010404 0.113621,-0.027752 0.175781,-0.060547 0.130079,-0.067995 0.270599,-0.2724199 0.261719,-0.4492188 -0.0058,-0.1183993 -0.0192,-0.1137063 -0.02344,-0.1289062 -0.0042,-0.016 -0.0049,-0.022897 -0.0059,-0.029297 v -0.00195 C 11.84689,7.6463754 12,7.0257265 12,6.4746094 12,5.772614 11.666761,5.1563473 11.214844,4.71875 10.763007,4.2812327 10.187126,4 9.5996094,4 Z m 0,0.8007812 c 0.3134381,0 0.7357156,0.1795494 1.0585936,0.4921876 0.322878,0.3126381 0.541016,0.7347637 0.541016,1.1816406 0,0.400718 -0.179815,0.9987295 -0.371094,1.2363281 -0.02616,0.03178 -0.0472,0.067261 -0.0625,0.1054687 -0.02136,0.055204 -0.0072,0.093332 -0.01563,0.1445313 C 10.64072,7.9457422 10.535166,7.9368781 10.304688,7.8632812 10.031329,7.7552819 9.7885786,7.6345648 9.5625,7.5097656 c 0,0 -1.2271073,-0.7289004 -1.59375,-1.265625 C 7.9059655,6.0961995 7.7603216,5.9998116 7.5996094,6 7.8205132,5.999978 7.9999771,5.420122 8,5.1992188 8,5.1774588 7.9930681,5.1777063 8.0488281,5.1289062 8.1045874,5.080027 8.2236466,5.0135771 8.3847656,4.9609375 8.7070836,4.8554981 9.1807319,4.8007812 9.5996094,4.8007812 Z m -2.8671875,2 c 0.023241,0.00411 0.046706,0.00586 0.070312,0.00586 l 0.4082031,-0.00391 c 0.06912,0.041444 0.1562188,0.1138077 0.2675781,0.2480468 0.7523211,0.6473501 1.4485609,1.0242612 2.3574219,1.4726563 0.064,0.028004 0.115481,0.063449 0.1816405,0.089844 0.0077,0.00265 0.01555,0.00571 0.02344,0.00781 0.0532,0.0176 0.08963,0.022709 0.138672,0.037109 0.02312,0.00795 0.08688,0.035419 0.103515,0.041016 0.06632,0.4087973 0.146837,0.9115278 0.285156,1.4531252 0.09752,0.382398 0.283728,0.702078 0.441407,1.046875 -0.552797,-0.0016 -1.7399271,-0.0056 -2.6132816,0 H 6.6035156 c 0.0304,-0.0616 0.035919,-0.09536 0.070312,-0.160157 C 6.811428,10.775868 6.9701257,10.494676 7.078125,10.205078 7.1861244,9.9154801 7.2777625,9.5718792 7.0761719,9.2382812 6.9505727,9.0310826 6.6558494,9.0256432 6.40625,8.9648438 l 0.00195,-0.15625 C 6.4107631,8.6990043 6.368678,8.5949426 6.2910156,8.5175781 c 0,0 -1.3636336,-0.8884217 -2.0585936,-1.4960937 A 1.25,1.25 0 0 0 4.371094,6.8007812 c 0.241911,-0.0012 0.785672,-0.00316 1.058594,0 0.9431923,0.011035 1.2619341,0.0011 1.3027339,0 z"/>
</svg>
