<svg xmlns="http://www.w3.org/2000/svg" width="16" height="16" version="1.1">
 <defs>
   <style id="current-color-scheme" type="text/css">
   .ColorScheme-Text { color: #0391e8; } .ColorScheme-Highlight { color: #1AD6AB; }
  </style>
  <linearGradient id="arrongin" x1="0%" x2="0%" y1="0%" y2="100%">
   <stop offset="0%" style="stop-color: #dd9b44; stop-opacity: 1"/>
   <stop offset="100%" style="stop-color: #ad6c16; stop-opacity: 1"/>
  </linearGradient>
  <linearGradient id="aurora" x1="0%" x2="0%" y1="0%" y2="100%">
   <stop offset="0%" style="stop-color: #09D4DF; stop-opacity: 1"/>
   <stop offset="100%" style="stop-color: #9269F4; stop-opacity: 1"/>
  </linearGradient>
  <linearGradient id="cyberneon" x1="0%" x2="0%" y1="0%" y2="100%">
    <stop offset="0" style="stop-color: #0abdc6; stop-opacity: 1"/>
    <stop offset="1" style="stop-color: #ea00d9; stop-opacity: 1"/>
  </linearGradient>
  <linearGradient id="fitdance" x1="0%" x2="0%" y1="0%" y2="100%">
   <stop offset="0%" style="stop-color: #1AD6AB; stop-opacity: 1"/>
   <stop offset="100%" style="stop-color: #329DB6; stop-opacity: 1"/>
  </linearGradient>
  <linearGradient id="oomox" x1="0%" x2="0%" y1="0%" y2="100%">
   <stop offset="0%" style="stop-color: #efefe7; stop-opacity: 1"/>
   <stop offset="100%" style="stop-color: #8f8f8b; stop-opacity: 1"/>
  </linearGradient>
  <linearGradient id="rainblue" x1="0%" x2="0%" y1="0%" y2="100%">
   <stop offset="0%" style="stop-color: #00F260; stop-opacity: 1"/>
   <stop offset="100%" style="stop-color: #0575E6; stop-opacity: 1"/>
  </linearGradient>
  <linearGradient id="sunrise" x1="0%" x2="0%" y1="0%" y2="100%">
   <stop offset="0%" style="stop-color: #FF8501; stop-opacity: 1"/>
   <stop offset="100%" style="stop-color: #FFCB01; stop-opacity: 1"/>
  </linearGradient>
  <linearGradient id="telinkrin" x1="0%" x2="0%" y1="0%" y2="100%">
   <stop offset="0%" style="stop-color: #b2ced6; stop-opacity: 1"/>
   <stop offset="100%" style="stop-color: #6da5b7; stop-opacity: 1"/>
  </linearGradient>
  <linearGradient id="60spsycho" x1="0%" x2="0%" y1="0%" y2="100%">
   <stop offset="0%" style="stop-color: #df5940; stop-opacity: 1"/>
   <stop offset="25%" style="stop-color: #d8d15f; stop-opacity: 1"/>
   <stop offset="50%" style="stop-color: #e9882a; stop-opacity: 1"/>
   <stop offset="100%" style="stop-color: #279362; stop-opacity: 1"/>
  </linearGradient>
  <linearGradient id="90ssummer" x1="0%" x2="0%" y1="0%" y2="100%">
   <stop offset="0%" style="stop-color: #f618c7; stop-opacity: 1"/>
   <stop offset="20%" style="stop-color: #94ffab; stop-opacity: 1"/>
   <stop offset="50%" style="stop-color: #fbfd54; stop-opacity: 1"/>
   <stop offset="100%" style="stop-color: #0f83ae; stop-opacity: 1"/>
  </linearGradient>
 </defs>
 <path fill="currentColor" class="ColorScheme-Text" d="M 8 1 A 7 6.5 0 0 0 1 7.5 A 7 6.5 0 0 0 2.3300781 11.291016 A 2.5 2.5 0 0 1 3.5 11 A 2.5 2.5 0 0 1 6 13.5 A 2.5 2.5 0 0 1 5.9902344 13.714844 A 7 6.5 0 0 0 8 14 A 7 6.5 0 0 0 15 7.5 A 7 6.5 0 0 0 8 1 z M 7.9804688 3 L 8 3 L 8.0195312 3 L 8.4882812 3.0195312 L 8.5058594 3.0214844 L 8.5253906 3.0253906 L 8.9824219 3.0859375 L 9.0097656 3.0917969 L 9.0351562 3.0996094 L 9.1660156 3.1347656 L 8.9414062 3.9238281 L 8.8457031 3.8964844 L 8.4277344 3.8398438 L 8 3.8203125 L 7.5703125 3.8398438 L 7.4550781 3.8535156 L 7.3417969 3.0429688 L 7.4726562 3.0253906 L 7.4941406 3.0214844 L 7.5097656 3.0195312 L 7.9804688 3 z M 6.4726562 3.2363281 L 6.6992188 4.0214844 L 6.3652344 4.1171875 L 5.6542969 4.4609375 L 5.3554688 4.6816406 L 4.8554688 4.0253906 L 5.1875 3.78125 L 5.2167969 3.7578125 L 5.2519531 3.7421875 L 6.03125 3.3632812 L 6.0664062 3.3476562 L 6.1015625 3.3378906 L 6.4726562 3.2363281 z M 10.035156 3.3964844 L 10.748047 3.7421875 L 10.78125 3.7578125 L 10.8125 3.78125 L 11.492188 4.28125 L 11.521484 4.3046875 L 11.548828 4.3339844 L 11.566406 4.3515625 L 11.162109 4.7109375 L 10.992188 4.9375 L 10.345703 4.4609375 L 9.6660156 4.1308594 L 10.035156 3.3964844 z M 4.1796875 4.625 L 4.796875 5.1757812 L 4.5253906 5.4707031 L 4.328125 5.7636719 L 4.1542969 6.0859375 L 4.0097656 6.4355469 L 3.2363281 6.1289062 L 3.390625 5.7578125 L 3.3964844 5.7363281 L 3.4082031 5.7207031 L 3.6015625 5.3613281 L 3.6113281 5.3417969 L 3.6230469 5.3242188 L 3.8515625 4.9863281 L 3.8710938 4.9628906 L 3.8886719 4.9394531 L 4.1796875 4.625 z M 12.160156 5.0097656 L 12.376953 5.3242188 L 12.388672 5.3417969 L 12.398438 5.359375 L 12.591797 5.71875 L 12.601562 5.7363281 L 12.611328 5.7558594 L 12.765625 6.1328125 L 12.773438 6.15625 L 12.777344 6.1757812 L 12.892578 6.5664062 L 12.898438 6.5898438 L 12.900391 6.6132812 L 12.90625 6.6503906 L 12.136719 6.7792969 L 12.087891 6.7910156 L 12.085938 6.7851562 L 12.083984 6.7851562 L 12.082031 6.7695312 L 11.982422 6.4160156 L 11.845703 6.0859375 L 11.671875 5.7636719 L 11.46875 5.4648438 L 12.160156 5.0097656 z M 3.0273438 7.0136719 L 3.4746094 7.0878906 L 3.8554688 7.1074219 L 3.8339844 7.5039062 L 3.8535156 7.875 L 3.9160156 8.2363281 L 4.015625 8.5859375 L 3.2148438 8.8105469 L 3.1074219 8.4414062 L 3.1035156 8.4199219 L 3.0996094 8.3964844 L 3.0273438 7.9902344 L 3.0234375 7.96875 L 3.0234375 7.9472656 L 3 7.5273438 L 3 7.5039062 L 3 7.4824219 L 3.0234375 7.0644531 L 3.0234375 7.0410156 L 3.0273438 7.0175781 L 3.0273438 7.0136719 z M 12.166016 7.4824219 L 13 7.5273438 L 12.976562 7.9453125 L 12.974609 7.96875 L 12.970703 7.9902344 L 12.900391 8.3964844 L 12.896484 8.4179688 L 12.892578 8.4414062 L 12.777344 8.8339844 L 12.773438 8.8535156 L 12.763672 8.875 L 12.611328 9.2441406 L 11.839844 8.9394531 L 11.982422 8.5917969 L 12.083984 8.2363281 L 12.146484 7.875 L 12.166016 7.4824219 z M 4.3164062 9.2285156 L 4.3320312 9.25 L 4.5253906 9.5371094 L 5.0371094 10.095703 L 5.3320312 10.3125 L 4.8320312 10.966797 L 4.5078125 10.726562 L 4.4765625 10.703125 L 4.4492188 10.673828 L 3.8886719 10.070312 L 3.8710938 10.044922 L 3.8515625 10.021484 L 3.6230469 9.6855469 L 3.6113281 9.6679688 L 3.6015625 9.6464844 L 3.59375 9.6347656 L 4.0917969 9.375 L 4.3164062 9.2285156 z M 11.492188 9.5195312 L 12.109375 10.070312 L 11.548828 10.673828 L 11.521484 10.703125 L 11.492188 10.726562 L 10.822266 11.220703 L 10.322266 10.566406 L 10.960938 10.095703 L 11.492188 9.5195312 z M 5.9726562 10.701172 L 6.3652344 10.892578 L 7.1503906 11.113281 L 7.4257812 11.150391 L 7.3125 11.962891 L 7.0175781 11.923828 L 6.9902344 11.917969 L 6.9628906 11.910156 L 6.1015625 11.669922 L 6.0664062 11.662109 L 6.03125 11.642578 L 5.6035156 11.439453 L 5.9726562 10.701172 z M 9.671875 10.882812 L 9.7167969 11.041016 L 10.009766 11.625 L 9.96875 11.644531 L 9.9335938 11.662109 L 9.8964844 11.669922 L 9.0351562 11.910156 L 9.0097656 11.917969 L 8.9824219 11.923828 L 8.5253906 11.984375 L 8.5058594 11.986328 L 8.4882812 11.988281 L 8.21875 12 L 8.1816406 11.181641 L 8.4277344 11.171875 L 8.8476562 11.113281 L 9.6386719 10.892578 L 9.640625 10.890625 L 9.671875 10.882812 z"/>
 <circle fill="currentColor" class="ColorScheme-Highlight" cx="3.5" cy="13.5" r="1.5"/>
</svg>
