<svg xmlns="http://www.w3.org/2000/svg" width="16" height="16" version="1.1">
 <defs>
  <style id="current-color-scheme" type="text/css">
   .ColorScheme-Text { color: #1d4195; } .ColorScheme-Highlight { color: #5294e2; }
  </style>
  <linearGradient id="arrongin" x1="0%" x2="0%" y1="0%" y2="100%">
   <stop offset="0%" style="stop-color: #dd9b44; stop-opacity: 1"/>
   <stop offset="100%" style="stop-color: #ad6c16; stop-opacity: 1"/>
  </linearGradient>
  <linearGradient id="aurora" x1="0%" x2="0%" y1="0%" y2="100%">
   <stop offset="0%" style="stop-color: #09D4DF; stop-opacity: 1"/>
   <stop offset="100%" style="stop-color: #9269F4; stop-opacity: 1"/>
  </linearGradient>
  <linearGradient id="cyberneon" x1="0%" x2="0%" y1="0%" y2="100%">
    <stop offset="0" style="stop-color: #0abdc6; stop-opacity: 1"/>
    <stop offset="1" style="stop-color: #ea00d9; stop-opacity: 1"/>
  </linearGradient>
  <linearGradient id="fitdance" x1="0%" x2="0%" y1="0%" y2="100%">
   <stop offset="0%" style="stop-color: #1AD6AB; stop-opacity: 1"/>
   <stop offset="100%" style="stop-color: #329DB6; stop-opacity: 1"/>
  </linearGradient>
  <linearGradient id="oomox" x1="0%" x2="0%" y1="0%" y2="100%">
   <stop offset="0%" style="stop-color: #efefe7; stop-opacity: 1"/>
   <stop offset="100%" style="stop-color: #8f8f8b; stop-opacity: 1"/>
  </linearGradient>
  <linearGradient id="rainblue" x1="0%" x2="0%" y1="0%" y2="100%">
   <stop offset="0%" style="stop-color: #00F260; stop-opacity: 1"/>
   <stop offset="100%" style="stop-color: #0575E6; stop-opacity: 1"/>
  </linearGradient>
  <linearGradient id="sunrise" x1="0%" x2="0%" y1="0%" y2="100%">
   <stop offset="0%" style="stop-color:  #FF8501; stop-opacity: 1"/>
   <stop offset="100%" style="stop-color:  #FFCB01; stop-opacity: 1"/>
  </linearGradient>
  <linearGradient id="telinkrin" x1="0%" x2="0%" y1="0%" y2="100%">
   <stop offset="0%" style="stop-color:  #b2ced6; stop-opacity: 1"/>
   <stop offset="100%" style="stop-color:  #6da5b7; stop-opacity: 1"/>
  </linearGradient>
  <linearGradient id="60spsycho" x1="0%" x2="0%" y1="0%" y2="100%">
   <stop offset="0%" style="stop-color:  #df5940; stop-opacity: 1"/>
   <stop offset="25%" style="stop-color:  #d8d15f; stop-opacity: 1"/>
   <stop offset="50%" style="stop-color:  #e9882a; stop-opacity: 1"/>
   <stop offset="100%" style="stop-color:  #279362; stop-opacity: 1"/>
  </linearGradient>
  <linearGradient id="90ssummer" x1="0%" x2="0%" y1="0%" y2="100%">
   <stop offset="0%" style="stop-color:  #f618c7; stop-opacity: 1"/>
   <stop offset="20%" style="stop-color:  #94ffab; stop-opacity: 1"/>
   <stop offset="50%" style="stop-color:  #fbfd54; stop-opacity: 1"/>
   <stop offset="100%" style="stop-color:  #0f83ae; stop-opacity: 1"/>
  </linearGradient>
 </defs>
 <g transform="translate(-452,-140)">
  <path fill="currentColor" class="ColorScheme-Text" d="m 460,140 c -1.43719,-8.2e-4 -2.59548,0.26776 -3.53711,0.69922 -0.19253,0.0849 -0.3801,0.17695 -0.56055,0.2793 -0.0489,0.0286 -0.0932,0.0602 -0.14062,0.0898 -0.11916,0.0722 -0.23898,0.14417 -0.35156,0.22461 -0.0931,0.0665 -0.17671,0.14019 -0.26368,0.21094 -0.61254,0.49828 -1.06089,1.10259 -1.39453,1.75976 -0.0166,0.033 -0.0388,0.0645 -0.0547,0.0977 -0.0164,0.0341 -0.0273,0.0692 -0.043,0.10351 -0.20436,0.44371 -0.37317,0.902 -0.47266,1.37891 -0.0186,0.0893 -0.0217,0.18147 -0.0371,0.27148 -0.0451,0.24538 -0.0797,0.48765 -0.10156,0.72657 -0.002,0.0216 -0.004,0.0428 -0.006,0.0645 -0.0241,0.28728 -0.017,0.54917 -0.0137,0.81836 0.002,0.0999 -7.9e-4,0.19901 0.004,0.29883 0.0132,0.28766 0.0348,0.54468 0.0703,0.79492 0.0213,0.17484 0.0492,0.34669 0.0781,0.51953 0.005,0.023 0.007,0.0557 0.0117,0.0781 v 0.002 l 0.0215,0.0976 c 0.031,0.16986 0.0542,0.3429 0.0918,0.50977 l 0.10938,0.48828 0.008,-0.002 1.05469,5.00781 1.17382,-0.20703 c 0.66034,-0.11709 1.13106,-0.21985 1.34961,-0.39453 0.10972,-0.0877 0.17262,-0.18253 0.20508,-0.35156 0.0325,-0.16904 0.0242,-0.41548 -0.0469,-0.75196 l -0.79102,-3.74023 c -0.0711,-0.33649 -0.16295,-0.56845 -0.26367,-0.7168 -0.10072,-0.14835 -0.20256,-0.21859 -0.34375,-0.26367 -0.28239,-0.0902 -0.75932,-0.024 -1.42383,0.0937 l -0.16211,0.0293 c -0.18209,-1.06859 -0.21795,-2.17204 -0.01,-3.16992 0.24666,-1.18237 0.80309,-2.20573 1.83007,-2.93946 1.01145,-0.72263 2.51511,-1.08713 4.00977,-1.08398 1.49466,-0.003 2.99832,0.36135 4.00977,1.08398 1.02698,0.73373 1.58341,1.75709 1.83007,2.93946 0.20795,0.99788 0.17233,2.10133 -0.01,3.16992 l -0.16211,-0.0293 c -0.66451,-0.1177 -1.14144,-0.18395 -1.42383,-0.0937 -0.14119,0.0451 -0.24303,0.11532 -0.34375,0.26367 -0.10072,0.14835 -0.19257,0.38031 -0.26367,0.7168 l -0.79102,3.74023 c -0.0711,0.33648 -0.0794,0.58292 -0.0469,0.75196 0.0325,0.16903 0.0954,0.26386 0.20508,0.35156 0.21855,0.17468 0.68927,0.27744 1.34961,0.39453 l 1.17382,0.20703 1.05469,-5.00781 0.008,0.002 0.10938,-0.48828 c 0.0376,-0.16687 0.0608,-0.3399 0.0918,-0.50977 l 0.0215,-0.0976 v -0.002 c 0.005,-0.0224 0.007,-0.0551 0.0117,-0.0781 0.0289,-0.17284 0.0568,-0.34469 0.0781,-0.51953 0.0355,-0.25024 0.0571,-0.50726 0.0703,-0.79492 0.005,-0.0998 0.002,-0.19893 0.004,-0.29883 0.003,-0.26919 0.0104,-0.53108 -0.0137,-0.81836 -0.002,-0.0217 -0.004,-0.0428 -0.006,-0.0645 -0.0219,-0.23892 -0.0565,-0.48119 -0.10156,-0.72657 -0.0154,-0.09 -0.0185,-0.18218 -0.0371,-0.27148 -0.0995,-0.47691 -0.2683,-0.9352 -0.47266,-1.37891 -0.0157,-0.0343 -0.0266,-0.0694 -0.043,-0.10351 -0.0159,-0.0332 -0.0381,-0.0647 -0.0547,-0.0977 -0.33364,-0.65717 -0.78199,-1.26148 -1.39453,-1.75976 -0.087,-0.0708 -0.17058,-0.14444 -0.26368,-0.21094 -0.11258,-0.0804 -0.2324,-0.15241 -0.35156,-0.22461 -0.0474,-0.0296 -0.0917,-0.0612 -0.14062,-0.0898 -0.18045,-0.10235 -0.36802,-0.1944 -0.56055,-0.2793 C 462.59548,140.26776 461.43719,139.99918 460,140 Z"/>
 </g>
</svg>