<svg xmlns="http://www.w3.org/2000/svg" width="24" height="24" version="1.1">
 <defs>
   <style id="current-color-scheme" type="text/css">
   .ColorScheme-Text { color: #1d4195; } .ColorScheme-Highlight { color: #1AD6AB; }
  </style>
  <linearGradient id="arrongin" x1="0%" x2="0%" y1="0%" y2="100%">
   <stop offset="0%"    stop-color= "#dd9b44" stop-opacity="1"/>
   <stop offset="100%"  stop-color= "#ad6c16" stop-opacity="1"/>
  </linearGradient>
  <linearGradient id="aurora" x1="0%" x2="0%" y1="0%" y2="100%">
   <stop offset="0%"    stop-color= "#09D4DF" stop-opacity="1"/>
   <stop offset="100%"  stop-color= "#9269F4" stop-opacity="1"/>
  </linearGradient> 
  <linearGradient id="cyberblue" x1="0%" x2="0%" y1="0%" y2="100%">
   <stop offset="0%"    stop-color= "#07B3FF" stop-opacity="1"/>
   <stop offset="100%"  stop-color= "#007DE8" stop-opacity="1"/>
  </linearGradient>
  <linearGradient id="cyberneon" x1="0%" x2="0%" y1="0%" y2="100%">
    <stop offset="0%"   stop-color= "#0abdc6" stop-opacity="1"/>
    <stop offset="100%" stop-color= "#ea00d9" stop-opacity="1"/>
  </linearGradient>
  <linearGradient id="fitdance" x1="0%" x2="0%" y1="0%" y2="100%">
   <stop offset="0%"    stop-color= "#1AD6AB" stop-opacity="1"/>
   <stop offset="100%"  stop-color= "#329DB6" stop-opacity="1"/>
  </linearGradient>
  <linearGradient id="oomox" x1="0%" x2="0%" y1="0%" y2="100%">
   <stop offset="0%"    stop-color= "#efefe7" stop-opacity="1"/>
   <stop offset="100%"  stop-color= "#8f8f8b" stop-opacity="1"/>
  </linearGradient>
  <linearGradient id="rainblue" x1="0%" x2="0%" y1="0%" y2="100%">
   <stop offset="0%"    stop-color= "#00F260" stop-opacity="1"/>
   <stop offset="100%"  stop-color= "#0575E6" stop-opacity="1"/>
  </linearGradient>
  <linearGradient id="redcarbon" x1="0%" x2="0%" y1="0%" y2="100%">
   <stop offset="0%"    stop-color= "#FF6D57" stop-opacity="1"/>
   <stop offset="50%"   stop-color= "#FF5160" stop-opacity="1"/>
   <stop offset="100%"  stop-color= "#F50F22" stop-opacity="1"/>
  </linearGradient>
  <linearGradient id="sunrise" x1="0%" x2="0%" y1="0%" y2="100%">
   <stop offset="0%"    stop-color= "#FF8501" stop-opacity="1"/>
   <stop offset="100%"  stop-color= "#FFCB01" stop-opacity="1"/>
  </linearGradient>
  <linearGradient id="telinkrin" x1="0%" x2="0%" y1="0%" y2="100%">
   <stop offset="0%"    stop-color= "#b2ced6" stop-opacity="1"/>
   <stop offset="100%"  stop-color= "#6da5b7" stop-opacity="1"/>
  </linearGradient>
  <linearGradient id="60spsycho" x1="0%" x2="0%" y1="0%" y2="100%">
   <stop offset="0%"    stop-color= "#df5940" stop-opacity="1"/>
   <stop offset="25%"   stop-color= "#d8d15f" stop-opacity="1"/>
   <stop offset="50%"   stop-color= "#e9882a" stop-opacity="1"/>
   <stop offset="100%"  stop-color= "#279362" stop-opacity="1"/>
  </linearGradient>
  <linearGradient id="90ssummer" x1="0%" x2="0%" y1="0%" y2="100%">
   <stop offset="0%"    stop-color= "#f618c7" stop-opacity="1"/>
   <stop offset="20%"   stop-color= "#94ffab" stop-opacity="1"/>
   <stop offset="50%"   stop-color= "#fbfd54" stop-opacity="1"/>
   <stop offset="100%"  stop-color= "#0f83ae" stop-opacity="1"/>
  </linearGradient>
 </defs>
 <path fill="currentColor" class="ColorScheme-Text" d="M 6.5 0 A 0.5 0.5 0 0 0 6 0.5 A 0.5 0.5 0 0 0 6.5 1 A 0.5 0.5 0 0 0 7 0.5 A 0.5 0.5 0 0 0 6.5 0 z M 9.5 0 A 0.5 0.5 0 0 0 9 0.5 A 0.5 0.5 0 0 0 9.5 1 A 0.5 0.5 0 0 0 10 0.5 A 0.5 0.5 0 0 0 9.5 0 z M 4.5 1 A 0.5 0.5 0 0 0 4 1.5 A 0.5 0.5 0 0 0 4.5 2 A 0.5 0.5 0 0 0 5 1.5 A 0.5 0.5 0 0 0 4.5 1 z M 11.5 1 A 0.5 0.5 0 0 0 11 1.5 A 0.5 0.5 0 0 0 11.5 2 A 0.5 0.5 0 0 0 12 1.5 A 0.5 0.5 0 0 0 11.5 1 z M 2.5 2 A 0.5 0.5 0 0 0 2 2.5 A 0.5 0.5 0 0 0 2.5 3 A 0.5 0.5 0 0 0 3 2.5 A 0.5 0.5 0 0 0 2.5 2 z M 13.5 2 A 0.5 0.5 0 0 0 13 2.5 A 0.5 0.5 0 0 0 13.5 3 A 0.5 0.5 0 0 0 14 2.5 A 0.5 0.5 0 0 0 13.5 2 z M 1.5 4 A 0.5 0.5 0 0 0 1 4.5 A 0.5 0.5 0 0 0 1.5 5 A 0.5 0.5 0 0 0 2 4.5 A 0.5 0.5 0 0 0 1.5 4 z M 14.5 4 A 0.5 0.5 0 0 0 14 4.5 A 0.5 0.5 0 0 0 14.5 5 A 0.5 0.5 0 0 0 15 4.5 A 0.5 0.5 0 0 0 14.5 4 z M 0.5 6 A 0.5 0.5 0 0 0 0 6.5 A 0.5 0.5 0 0 0 0.5 7 A 0.5 0.5 0 0 0 1 6.5 A 0.5 0.5 0 0 0 0.5 6 z M 15.5 6 A 0.5 0.5 0 0 0 15 6.5 A 0.5 0.5 0 0 0 15.5 7 A 0.5 0.5 0 0 0 16 6.5 A 0.5 0.5 0 0 0 15.5 6 z M 0.5 9 A 0.5 0.5 0 0 0 0 9.5 A 0.5 0.5 0 0 0 0.5 10 A 0.5 0.5 0 0 0 1 9.5 A 0.5 0.5 0 0 0 0.5 9 z M 15.5 9 A 0.5 0.5 0 0 0 15 9.5 A 0.5 0.5 0 0 0 15.5 10 A 0.5 0.5 0 0 0 16 9.5 A 0.5 0.5 0 0 0 15.5 9 z M 1.5 11 A 0.5 0.5 0 0 0 1 11.5 A 0.5 0.5 0 0 0 1.5 12 A 0.5 0.5 0 0 0 2 11.5 A 0.5 0.5 0 0 0 1.5 11 z M 14.5 11 A 0.5 0.5 0 0 0 14 11.5 A 0.5 0.5 0 0 0 14.5 12 A 0.5 0.5 0 0 0 15 11.5 A 0.5 0.5 0 0 0 14.5 11 z M 2.5 13 A 0.5 0.5 0 0 0 2 13.5 A 0.5 0.5 0 0 0 2.5 14 A 0.5 0.5 0 0 0 3 13.5 A 0.5 0.5 0 0 0 2.5 13 z M 13.5 13 A 0.5 0.5 0 0 0 13 13.5 A 0.5 0.5 0 0 0 13.5 14 A 0.5 0.5 0 0 0 14 13.5 A 0.5 0.5 0 0 0 13.5 13 z M 4.5 14 A 0.5 0.5 0 0 0 4 14.5 A 0.5 0.5 0 0 0 4.5 15 A 0.5 0.5 0 0 0 5 14.5 A 0.5 0.5 0 0 0 4.5 14 z M 11.5 14 A 0.5 0.5 0 0 0 11 14.5 A 0.5 0.5 0 0 0 11.5 15 A 0.5 0.5 0 0 0 12 14.5 A 0.5 0.5 0 0 0 11.5 14 z M 6.5 15 A 0.5 0.5 0 0 0 6 15.5 A 0.5 0.5 0 0 0 6.5 16 A 0.5 0.5 0 0 0 7 15.5 A 0.5 0.5 0 0 0 6.5 15 z M 9.5 15 A 0.5 0.5 0 0 0 9 15.5 A 0.5 0.5 0 0 0 9.5 16 A 0.5 0.5 0 0 0 10 15.5 A 0.5 0.5 0 0 0 9.5 15 z" transform="translate(4 4)"/>
</svg>
