<svg xmlns="http://www.w3.org/2000/svg" width="22" height="22" version="1.1">
 <defs>
  <linearGradient id="linearGradient4177" x1="393" x2="393" y1="-63.996" y2="-77.996" gradientTransform="translate(-385,78.996)" gradientUnits="userSpaceOnUse">
   <stop style="stop-color:#2b68d1" offset="0"/>
   <stop style="stop-color:#2b68d1;stop-opacity:0" offset="1" stop-opacity="0"/>
  </linearGradient>
 </defs>
 <path style="fill:url(#linearGradient4177)" d="M 1 1 L 1 15 L 15 15 L 15 1 L 1 1 z" transform="translate(3 3)"/>
</svg>
