<svg xmlns="http://www.w3.org/2000/svg" width="22" height="22" version="1.1">
 <defs>
   <style id="current-color-scheme" type="text/css">
   .ColorScheme-Text { color: #2b68d1; } .ColorScheme-Highlight { color: #1AD6AB; }
  </style>
  <linearGradient id="arrongin" x1="0%" x2="0%" y1="0%" y2="100%">
   <stop offset="0%"    stop-color= "#dd9b44" stop-opacity="1"/>
   <stop offset="100%"  stop-color= "#ad6c16" stop-opacity="1"/>
  </linearGradient>
  <linearGradient id="aurora" x1="0%" x2="0%" y1="0%" y2="100%">
   <stop offset="0%"    stop-color= "#09D4DF" stop-opacity="1"/>
   <stop offset="100%"  stop-color= "#9269F4" stop-opacity="1"/>
  </linearGradient> 
  <linearGradient id="cyberblue" x1="0%" x2="0%" y1="0%" y2="100%">
   <stop offset="0%"    stop-color= "#07B3FF" stop-opacity="1"/>
   <stop offset="100%"  stop-color= "#007DE8" stop-opacity="1"/>
  </linearGradient>
  <linearGradient id="cyberneon" x1="0%" x2="0%" y1="0%" y2="100%">
    <stop offset="0%"   stop-color= "#0abdc6" stop-opacity="1"/>
    <stop offset="100%" stop-color= "#ea00d9" stop-opacity="1"/>
  </linearGradient>
  <linearGradient id="fitdance" x1="0%" x2="0%" y1="0%" y2="100%">
   <stop offset="0%"    stop-color= "#1AD6AB" stop-opacity="1"/>
   <stop offset="100%"  stop-color= "#329DB6" stop-opacity="1"/>
  </linearGradient>
  <linearGradient id="oomox" x1="0%" x2="0%" y1="0%" y2="100%">
   <stop offset="0%"    stop-color= "#efefe7" stop-opacity="1"/>
   <stop offset="100%"  stop-color= "#8f8f8b" stop-opacity="1"/>
  </linearGradient>
  <linearGradient id="rainblue" x1="0%" x2="0%" y1="0%" y2="100%">
   <stop offset="0%"    stop-color= "#00F260" stop-opacity="1"/>
   <stop offset="100%"  stop-color= "#0575E6" stop-opacity="1"/>
  </linearGradient>
  <linearGradient id="redcarbon" x1="0%" x2="0%" y1="0%" y2="100%">
   <stop offset="0%"    stop-color= "#FF6D57" stop-opacity="1"/>
   <stop offset="50%"   stop-color= "#FF5160" stop-opacity="1"/>
   <stop offset="100%"  stop-color= "#F50F22" stop-opacity="1"/>
  </linearGradient>
  <linearGradient id="sunrise" x1="0%" x2="0%" y1="0%" y2="100%">
   <stop offset="0%"    stop-color= "#FF8501" stop-opacity="1"/>
   <stop offset="100%"  stop-color= "#FFCB01" stop-opacity="1"/>
  </linearGradient>
  <linearGradient id="telinkrin" x1="0%" x2="0%" y1="0%" y2="100%">
   <stop offset="0%"    stop-color= "#b2ced6" stop-opacity="1"/>
   <stop offset="100%"  stop-color= "#6da5b7" stop-opacity="1"/>
  </linearGradient>
  <linearGradient id="60spsycho" x1="0%" x2="0%" y1="0%" y2="100%">
   <stop offset="0%"    stop-color= "#df5940" stop-opacity="1"/>
   <stop offset="25%"   stop-color= "#d8d15f" stop-opacity="1"/>
   <stop offset="50%"   stop-color= "#e9882a" stop-opacity="1"/>
   <stop offset="100%"  stop-color= "#279362" stop-opacity="1"/>
  </linearGradient>
  <linearGradient id="90ssummer" x1="0%" x2="0%" y1="0%" y2="100%">
   <stop offset="0%"    stop-color= "#f618c7" stop-opacity="1"/>
   <stop offset="20%"   stop-color= "#94ffab" stop-opacity="1"/>
   <stop offset="50%"   stop-color= "#fbfd54" stop-opacity="1"/>
   <stop offset="100%"  stop-color= "#0f83ae" stop-opacity="1"/>
  </linearGradient>
 </defs>
 <path fill="currentColor" class="ColorScheme-Text" d="M 13.519531 2.0039062 C 12.701731 2.0039062 11.994094 2.7271637 11.996094 3.5273438 C 11.994094 4.3275738 12.701771 5.0039062 13.519531 5.0039062 C 14.337321 5.0039062 14.997994 4.3276137 14.996094 3.5273438 C 14.998094 2.7271238 14.337361 2.0039062 13.519531 2.0039062 z M 6.5195312 3.0039062 C 5.7017312 3.0039062 4.9940938 3.7271637 4.9960938 4.5273438 C 4.9940938 5.3275738 5.7017712 6.0039062 6.5195312 6.0039062 C 7.3373212 6.0039062 7.9979938 5.3276137 7.9960938 4.5273438 C 7.9980937 3.7271238 7.3373612 3.0039062 6.5195312 3.0039062 z M 1.5195312 7.0039062 C 0.70173125 7.0039062 -0.00590625 7.7271637 -0.00390625 8.5273438 C -0.00590625 9.3275738 0.70177125 10.003906 1.5195312 10.003906 C 2.1670112 10.003906 2.7106563 9.5777562 2.9101562 9.0039062 L 15.996094 9.0039062 L 15.996094 8.0039062 L 2.8964844 8.0039062 C 2.6859044 7.4377963 2.1520412 7.0039062 1.5195312 7.0039062 z M 14.519531 10.003906 C 13.701731 10.003906 12.994094 10.727164 12.996094 11.527344 C 12.994094 12.327574 13.701771 13.003906 14.519531 13.003906 C 15.337321 13.003906 15.997994 12.327614 15.996094 11.527344 C 15.998094 10.727124 15.337361 10.003906 14.519531 10.003906 z M 9.0195312 11.003906 C 8.2017312 11.003906 7.4940938 11.727164 7.4960938 12.527344 C 7.4940938 13.327574 8.2017712 14.003906 9.0195312 14.003906 C 9.8373212 14.003906 10.497994 13.327614 10.496094 12.527344 C 10.498094 11.727124 9.8373612 11.003906 9.0195312 11.003906 z" transform="translate(3 3)"/>
</svg>
