<svg xmlns="http://www.w3.org/2000/svg" width="16" height="16" version="1.1">
 <defs>
  <style id="current-color-scheme" type="text/css">
   .ColorScheme-Text { color: #1d4195; } .ColorScheme-Highlight { color: #5294e2; }
  </style>
  <linearGradient id="arrongin" x1="0%" x2="0%" y1="0%" y2="100%">
   <stop offset="0%" style="stop-color: #dd9b44; stop-opacity: 1"/>
   <stop offset="100%" style="stop-color: #ad6c16; stop-opacity: 1"/>
  </linearGradient>
  <linearGradient id="aurora" x1="0%" x2="0%" y1="0%" y2="100%">
   <stop offset="0%" style="stop-color: #09D4DF; stop-opacity: 1"/>
   <stop offset="100%" style="stop-color: #9269F4; stop-opacity: 1"/>
  </linearGradient>
  <linearGradient id="cyberneon" x1="0%" x2="0%" y1="0%" y2="100%">
    <stop offset="0" style="stop-color: #0abdc6; stop-opacity: 1"/>
    <stop offset="1" style="stop-color: #ea00d9; stop-opacity: 1"/>
  </linearGradient>
  <linearGradient id="fitdance" x1="0%" x2="0%" y1="0%" y2="100%">
   <stop offset="0%" style="stop-color: #1AD6AB; stop-opacity: 1"/>
   <stop offset="100%" style="stop-color: #329DB6; stop-opacity: 1"/>
  </linearGradient>
  <linearGradient id="oomox" x1="0%" x2="0%" y1="0%" y2="100%">
   <stop offset="0%" style="stop-color: #efefe7; stop-opacity: 1"/>
   <stop offset="100%" style="stop-color: #8f8f8b; stop-opacity: 1"/>
  </linearGradient>
  <linearGradient id="rainblue" x1="0%" x2="0%" y1="0%" y2="100%">
   <stop offset="0%" style="stop-color: #00F260; stop-opacity: 1"/>
   <stop offset="100%" style="stop-color: #0575E6; stop-opacity: 1"/>
  </linearGradient>
  <linearGradient id="sunrise" x1="0%" x2="0%" y1="0%" y2="100%">
   <stop offset="0%" style="stop-color:  #FF8501; stop-opacity: 1"/>
   <stop offset="100%" style="stop-color:  #FFCB01; stop-opacity: 1"/>
  </linearGradient>
  <linearGradient id="telinkrin" x1="0%" x2="0%" y1="0%" y2="100%">
   <stop offset="0%" style="stop-color:  #b2ced6; stop-opacity: 1"/>
   <stop offset="100%" style="stop-color:  #6da5b7; stop-opacity: 1"/>
  </linearGradient>
  <linearGradient id="60spsycho" x1="0%" x2="0%" y1="0%" y2="100%">
   <stop offset="0%" style="stop-color:  #df5940; stop-opacity: 1"/>
   <stop offset="25%" style="stop-color:  #d8d15f; stop-opacity: 1"/>
   <stop offset="50%" style="stop-color:  #e9882a; stop-opacity: 1"/>
   <stop offset="100%" style="stop-color:  #279362; stop-opacity: 1"/>
  </linearGradient>
  <linearGradient id="90ssummer" x1="0%" x2="0%" y1="0%" y2="100%">
   <stop offset="0%" style="stop-color:  #f618c7; stop-opacity: 1"/>
   <stop offset="20%" style="stop-color:  #94ffab; stop-opacity: 1"/>
   <stop offset="50%" style="stop-color:  #fbfd54; stop-opacity: 1"/>
   <stop offset="100%" style="stop-color:  #0f83ae; stop-opacity: 1"/>
  </linearGradient>
 </defs>
 <path fill="currentColor" class="ColorScheme-Text" d="M 8.1425781 0.0078125 C 6.4398881 -0.0286469 4.0292969 0.0083501 4.0292969 1.3554688 C 4.0292969 3.1177788 4.0208488 5.50141 4.0117188 7.8125 C 4.0031387 9.98744 3.9941406 12.098959 3.9941406 13.568359 C 3.9941406 15.972559 4.8519125 15.977841 7.5703125 15.994141 C 7.6978225 15.994941 7.8290438 15.994994 7.9648438 15.996094 C 11.208574 16.021494 12.005859 15.996759 12.005859 13.568359 L 12.005859 1.3554688 C 12.005859 0.08080045 9.9761269 0.043047775 8.4042969 0.013671875 C 8.3151669 0.012005775 8.2283181 0.00964843 8.1425781 0.0078125 z M 7.4375 1.3691406 L 8.546875 1.3691406 C 10.024315 1.3494816 11.828125 1.4030625 11.828125 2.5859375 C 11.828125 3.9986775 11.812222 5.0177575 11.794922 6.7734375 C 11.776822 8.6082375 11.757812 9.8837938 11.757812 11.496094 C 11.757812 13.250894 11.509286 13.464844 8.0351562 13.464844 C 4.6681862 13.464844 4.2070312 13.109094 4.2070312 11.496094 C 4.2070312 10.215994 4.2105737 9.1176687 4.2148438 7.3554688 C 4.2194237 5.4575787 4.2246094 4.1851775 4.2246094 2.5859375 C 4.2246094 1.4059255 5.88636 1.3495166 7.4375 1.3691406 z M 7.9863281 14.005859 A 0.75 0.75 0 0 1 8 14.005859 A 0.75 0.75 0 0 1 8.75 14.755859 A 0.75 0.75 0 0 1 8 15.505859 A 0.75 0.75 0 0 1 7.25 14.755859 A 0.75 0.75 0 0 1 7.9863281 14.005859 z"/>
</svg>
