<svg xmlns="http://www.w3.org/2000/svg" width="16" height="16" version="1.1">
 <defs>
   <style id="current-color-scheme" type="text/css">
   .ColorScheme-Text { color: #498db8; } .ColorScheme-Highlight { color:#5294e2; }
  </style>
  <linearGradient id="arrongin" x1="0%" x2="0%" y1="0%" y2="100%">
   <stop offset="0%" style="stop-color:#dd9b44; stop-opacity:1"/>
   <stop offset="100%" style="stop-color:#ad6c16; stop-opacity:1"/>
  </linearGradient>
  <linearGradient id="aurora" x1="0%" x2="0%" y1="0%" y2="100%">
   <stop offset="0%" style="stop-color:#09D4DF; stop-opacity:1"/>
   <stop offset="100%" style="stop-color:#9269F4; stop-opacity:1"/>
  </linearGradient>
  <linearGradient id="cyberneon" x1="0%" x2="0%" y1="0%" y2="100%">
    <stop offset="0" style="stop-color:#0abdc6; stop-opacity:1"/>
    <stop offset="1" style="stop-color:#ea00d9; stop-opacity:1"/>
  </linearGradient>
  <linearGradient id="fitdance" x1="0%" x2="0%" y1="0%" y2="100%">
   <stop offset="0%" style="stop-color:#1AD6AB; stop-opacity:1"/>
   <stop offset="100%" style="stop-color:#329DB6; stop-opacity:1"/>
  </linearGradient>
  <linearGradient id="oomox" x1="0%" x2="0%" y1="0%" y2="100%">
   <stop offset="0%" style="stop-color:#efefe7; stop-opacity:1"/>
   <stop offset="100%" style="stop-color:#8f8f8b; stop-opacity:1"/>
  </linearGradient>
  <linearGradient id="rainblue" x1="0%" x2="0%" y1="0%" y2="100%">
   <stop offset="0%" style="stop-color:#00F260; stop-opacity:1"/>
   <stop offset="100%" style="stop-color:#0575E6; stop-opacity:1"/>
  </linearGradient>
  <linearGradient id="sunrise" x1="0%" x2="0%" y1="0%" y2="100%">
   <stop offset="0%" style="stop-color: #FF8501; stop-opacity:1"/>
   <stop offset="100%" style="stop-color: #FFCB01; stop-opacity:1"/>
  </linearGradient>
  <linearGradient id="telinkrin" x1="0%" x2="0%" y1="0%" y2="100%">
   <stop offset="0%" style="stop-color: #b2ced6; stop-opacity:1"/>
   <stop offset="100%" style="stop-color: #6da5b7; stop-opacity:1"/>
  </linearGradient>
  <linearGradient id="60spsycho" x1="0%" x2="0%" y1="0%" y2="100%">
   <stop offset="0%" style="stop-color: #df5940; stop-opacity:1"/>
   <stop offset="25%" style="stop-color: #d8d15f; stop-opacity:1"/>
   <stop offset="50%" style="stop-color: #e9882a; stop-opacity:1"/>
   <stop offset="100%" style="stop-color: #279362; stop-opacity:1"/>
  </linearGradient>
  <linearGradient id="90ssummer" x1="0%" x2="0%" y1="0%" y2="100%">
   <stop offset="0%" style="stop-color: #f618c7; stop-opacity:1"/>
   <stop offset="20%" style="stop-color: #94ffab; stop-opacity:1"/>
   <stop offset="50%" style="stop-color: #fbfd54; stop-opacity:1"/>
   <stop offset="100%" style="stop-color: #0f83ae; stop-opacity:1"/>
  </linearGradient>
 </defs>
 <path fill="currentColor" class="ColorScheme-Text" d="M 12.385 0.001 C 11.8 0.017 11.218 0.207 10.744 0.553 C 10.194 0.954 9.805 1.532 9.376 2.061 C 9.161 2.326 8.934 2.582 8.671 2.798 C 8.408 3.014 8.113 3.234 7.779 3.278 C 7.103 3.367 6.401 3.024 5.79 2.81 C 5.155 2.567 4.529 2.262 3.853 2.19 C 2.92 2.092 1.95 2.48 1.34 3.196 C 0.731 3.912 0.501 5.152 0.743 6.061 C 0.986 6.971 1.695 7.741 2.579 8.055 C 3.463 8.369 4.497 8.218 5.256 7.664 C 5.806 7.263 6.195 6.685 6.624 6.156 C 7.083 5.585 7.564 5.023 8.221 4.765 C 8.535 4.642 8.898 4.678 9.233 4.733 C 9.568 4.788 9.893 4.896 10.21 5.018 C 10.845 5.261 11.471 5.566 12.147 5.637 C 13.08 5.736 14.05 5.348 14.66 4.632 C 15.269 3.916 15.499 3.065 15.257 2.156 C 15.014 1.246 14.305 0.476 13.421 0.162 C 13.089 0.044 12.736 -0.009 12.385 0.001 Z M 12.737 6.488 C 12.307 6.499 11.88 6.639 11.531 6.894 C 11.127 7.19 10.84 7.615 10.524 8.005 C 10.367 8.2 10.199 8.389 10.006 8.548 C 9.812 8.708 9.592 8.837 9.35 8.902 C 9.109 8.967 8.854 8.966 8.607 8.925 C 8.361 8.885 8.121 8.806 7.888 8.716 C 7.421 8.537 6.962 8.312 6.465 8.26 C 5.779 8.187 5.065 8.473 4.617 9 C 4.17 9.528 4 10.282 4.178 10.952 C 4.357 11.622 4.878 12.19 5.528 12.422 C 6.178 12.653 6.938 12.542 7.496 12.134 C 7.9 11.838 8.187 11.412 8.503 11.022 C 8.66 10.827 8.828 10.638 9.021 10.479 C 9.215 10.32 9.435 10.19 9.677 10.125 C 9.918 10.06 10.173 10.062 10.42 10.102 C 10.666 10.143 10.906 10.221 11.139 10.311 C 11.606 10.49 12.065 10.715 12.562 10.768 C 13.248 10.841 13.962 10.555 14.41 10.027 C 14.858 9.5 15.027 8.746 14.849 8.075 C 14.67 7.405 14.149 6.837 13.499 6.606 C 13.255 6.519 12.996 6.48 12.737 6.488 Z M 8.117 12.976 C 8.019 12.982 7.92 12.998 7.824 13.024 C 7.441 13.126 7.103 13.386 6.905 13.729 C 6.706 14.073 6.651 14.496 6.753 14.879 C 6.856 15.262 7.115 15.6 7.459 15.798 C 7.802 15.997 8.225 16.052 8.608 15.95 C 8.991 15.847 9.33 15.588 9.528 15.244 C 9.726 14.901 9.782 14.478 9.679 14.095 C 9.576 13.712 9.317 13.373 8.974 13.175 C 8.716 13.026 8.414 12.957 8.117 12.976 Z"/>
</svg>
