<svg xmlns="http://www.w3.org/2000/svg" width="16" height="16" version="1.1">
 <defs>
   <style id="current-color-scheme" type="text/css">
   .ColorScheme-Text { color: #498db8; } .ColorScheme-Highlight { color:#5294e2; }
  </style>
  <linearGradient id="arrongin" x1="0%" x2="0%" y1="0%" y2="100%">
   <stop offset="0%" style="stop-color:#dd9b44; stop-opacity:1"/>
   <stop offset="100%" style="stop-color:#ad6c16; stop-opacity:1"/>
  </linearGradient>
  <linearGradient id="aurora" x1="0%" x2="0%" y1="0%" y2="100%">
   <stop offset="0%" style="stop-color:#09D4DF; stop-opacity:1"/>
   <stop offset="100%" style="stop-color:#9269F4; stop-opacity:1"/>
  </linearGradient>
  <linearGradient id="cyberneon" x1="0%" x2="0%" y1="0%" y2="100%">
    <stop offset="0" style="stop-color:#0abdc6; stop-opacity:1"/>
    <stop offset="1" style="stop-color:#ea00d9; stop-opacity:1"/>
  </linearGradient>
  <linearGradient id="fitdance" x1="0%" x2="0%" y1="0%" y2="100%">
   <stop offset="0%" style="stop-color:#1AD6AB; stop-opacity:1"/>
   <stop offset="100%" style="stop-color:#329DB6; stop-opacity:1"/>
  </linearGradient>
  <linearGradient id="oomox" x1="0%" x2="0%" y1="0%" y2="100%">
   <stop offset="0%" style="stop-color:#efefe7; stop-opacity:1"/>
   <stop offset="100%" style="stop-color:#8f8f8b; stop-opacity:1"/>
  </linearGradient>
  <linearGradient id="rainblue" x1="0%" x2="0%" y1="0%" y2="100%">
   <stop offset="0%" style="stop-color:#00F260; stop-opacity:1"/>
   <stop offset="100%" style="stop-color:#0575E6; stop-opacity:1"/>
  </linearGradient>
  <linearGradient id="sunrise" x1="0%" x2="0%" y1="0%" y2="100%">
   <stop offset="0%" style="stop-color: #FF8501; stop-opacity:1"/>
   <stop offset="100%" style="stop-color: #FFCB01; stop-opacity:1"/>
  </linearGradient>
  <linearGradient id="telinkrin" x1="0%" x2="0%" y1="0%" y2="100%">
   <stop offset="0%" style="stop-color: #b2ced6; stop-opacity:1"/>
   <stop offset="100%" style="stop-color: #6da5b7; stop-opacity:1"/>
  </linearGradient>
  <linearGradient id="60spsycho" x1="0%" x2="0%" y1="0%" y2="100%">
   <stop offset="0%" style="stop-color: #df5940; stop-opacity:1"/>
   <stop offset="25%" style="stop-color: #d8d15f; stop-opacity:1"/>
   <stop offset="50%" style="stop-color: #e9882a; stop-opacity:1"/>
   <stop offset="100%" style="stop-color: #279362; stop-opacity:1"/>
  </linearGradient>
  <linearGradient id="90ssummer" x1="0%" x2="0%" y1="0%" y2="100%">
   <stop offset="0%" style="stop-color: #f618c7; stop-opacity:1"/>
   <stop offset="20%" style="stop-color: #94ffab; stop-opacity:1"/>
   <stop offset="50%" style="stop-color: #fbfd54; stop-opacity:1"/>
   <stop offset="100%" style="stop-color: #0f83ae; stop-opacity:1"/>
  </linearGradient>
 </defs>
 <path fill="currentColor" class="ColorScheme-Text" fill-rule="evenodd" d="M 0 12.5 L 16 12.5 L 16 14.5 L 0 14.5 L 0 12.5 Z M 4.645 10.517 L 4.645 10.517 L 4.645 10.517 Q 3.868 10.517 3.239 10.258 L 3.239 10.258 L 3.239 10.258 Q 2.61 9.999 2.209 9.568 L 2.209 9.568 L 2.209 9.568 Q 1.808 9.136 1.537 8.544 L 1.537 8.544 L 1.537 8.544 Q 1.266 7.952 1.148 7.335 L 1.148 7.335 L 1.148 7.335 Q 1.031 6.718 1.031 6.052 L 1.031 6.052 L 1.031 6.052 Q 1.031 5.263 1.229 4.511 L 1.229 4.511 L 1.229 4.511 Q 1.426 3.758 1.833 3.086 L 1.833 3.086 L 1.833 3.086 Q 2.24 2.414 2.968 2.001 L 2.968 2.001 L 2.968 2.001 Q 3.695 1.588 4.645 1.588 L 4.645 1.588 L 4.645 1.588 Q 5.792 1.588 6.569 2.124 L 6.569 2.124 L 6.569 2.124 Q 7.346 2.661 7.655 3.425 L 7.655 3.425 L 6.323 4.03 L 6.323 4.03 Q 5.977 3.499 5.601 3.253 L 5.601 3.253 L 5.601 3.253 Q 5.225 3.006 4.645 3.006 L 4.645 3.006 L 4.645 3.006 Q 4.078 3.006 3.652 3.283 L 3.652 3.283 L 3.652 3.283 Q 3.227 3.561 2.999 4.023 L 2.999 4.023 L 2.999 4.023 Q 2.77 4.486 2.666 4.998 L 2.666 4.998 L 2.666 4.998 Q 2.561 5.51 2.561 6.052 L 2.561 6.052 L 2.561 6.052 Q 2.561 7.261 3.097 8.174 L 3.097 8.174 L 3.097 8.174 Q 3.634 9.087 4.645 9.087 L 4.645 9.087 L 4.645 9.087 Q 5.632 9.087 6.298 7.977 L 6.298 7.977 L 7.667 8.495 L 7.667 8.495 Q 6.767 10.517 4.645 10.517 L 4.645 10.517 Z M 14.969 10.369 L 9.295 10.369 L 9.295 1.736 L 10.775 1.736 L 10.775 8.951 L 14.969 8.951 L 14.969 10.369 L 14.969 10.369 Z"/>
</svg>
