<svg xmlns="http://www.w3.org/2000/svg" width="16" height="16" version="1.1">
 <defs>
   <style id="current-color-scheme" type="text/css">
   .ColorScheme-Text { color: #498db8; } .ColorScheme-Highlight { color:#5294e2; }
  </style>
  <linearGradient id="arrongin" x1="0%" x2="0%" y1="0%" y2="100%">
   <stop offset="0%" style="stop-color:#dd9b44; stop-opacity:1"/>
   <stop offset="100%" style="stop-color:#ad6c16; stop-opacity:1"/>
  </linearGradient>
  <linearGradient id="aurora" x1="0%" x2="0%" y1="0%" y2="100%">
   <stop offset="0%" style="stop-color:#09D4DF; stop-opacity:1"/>
   <stop offset="100%" style="stop-color:#9269F4; stop-opacity:1"/>
  </linearGradient>
  <linearGradient id="cyberneon" x1="0%" x2="0%" y1="0%" y2="100%">
    <stop offset="0" style="stop-color:#0abdc6; stop-opacity:1"/>
    <stop offset="1" style="stop-color:#ea00d9; stop-opacity:1"/>
  </linearGradient>
  <linearGradient id="fitdance" x1="0%" x2="0%" y1="0%" y2="100%">
   <stop offset="0%" style="stop-color:#1AD6AB; stop-opacity:1"/>
   <stop offset="100%" style="stop-color:#329DB6; stop-opacity:1"/>
  </linearGradient>
  <linearGradient id="oomox" x1="0%" x2="0%" y1="0%" y2="100%">
   <stop offset="0%" style="stop-color:#efefe7; stop-opacity:1"/>
   <stop offset="100%" style="stop-color:#8f8f8b; stop-opacity:1"/>
  </linearGradient>
  <linearGradient id="rainblue" x1="0%" x2="0%" y1="0%" y2="100%">
   <stop offset="0%" style="stop-color:#00F260; stop-opacity:1"/>
   <stop offset="100%" style="stop-color:#0575E6; stop-opacity:1"/>
  </linearGradient>
  <linearGradient id="sunrise" x1="0%" x2="0%" y1="0%" y2="100%">
   <stop offset="0%" style="stop-color: #FF8501; stop-opacity:1"/>
   <stop offset="100%" style="stop-color: #FFCB01; stop-opacity:1"/>
  </linearGradient>
  <linearGradient id="telinkrin" x1="0%" x2="0%" y1="0%" y2="100%">
   <stop offset="0%" style="stop-color: #b2ced6; stop-opacity:1"/>
   <stop offset="100%" style="stop-color: #6da5b7; stop-opacity:1"/>
  </linearGradient>
  <linearGradient id="60spsycho" x1="0%" x2="0%" y1="0%" y2="100%">
   <stop offset="0%" style="stop-color: #df5940; stop-opacity:1"/>
   <stop offset="25%" style="stop-color: #d8d15f; stop-opacity:1"/>
   <stop offset="50%" style="stop-color: #e9882a; stop-opacity:1"/>
   <stop offset="100%" style="stop-color: #279362; stop-opacity:1"/>
  </linearGradient>
  <linearGradient id="90ssummer" x1="0%" x2="0%" y1="0%" y2="100%">
   <stop offset="0%" style="stop-color: #f618c7; stop-opacity:1"/>
   <stop offset="20%" style="stop-color: #94ffab; stop-opacity:1"/>
   <stop offset="50%" style="stop-color: #fbfd54; stop-opacity:1"/>
   <stop offset="100%" style="stop-color: #0f83ae; stop-opacity:1"/>
  </linearGradient>
 </defs>
 <path fill="currentColor" class="ColorScheme-Text" opacity="1.0" d="M 1 0 C 0.448 0 0 0.448 0 1 L 0 15 C 0 15.552 0.448 16 1 16 L 15 16 C 15.552 16 16 15.552 16 15 L 16 1 C 16 0.448 15.552 0 15 0 L 1 0 z M 1.6523438 1.28125 L 2.5976562 1.28125 C 2.7517303 1.28125 2.875 1.4045198 2.875 1.5585938 L 2.875 2.5019531 C 2.875 2.6560269 2.7517302 2.78125 2.5976562 2.78125 L 1.6523438 2.78125 C 1.4982699 2.78125 1.375 2.6560269 1.375 2.5019531 L 1.375 1.5585938 C 1.375 1.4045198 1.4982698 1.28125 1.6523438 1.28125 z M 1.078125 3.5996094 L 14.921875 3.5996094 C 15.075949 3.5996094 15.199219 3.7248323 15.199219 3.8789062 L 15.199219 14.921875 C 15.199219 15.075949 15.075949 15.199219 14.921875 15.199219 L 1.078125 15.199219 C 0.92405096 15.199219 0.80078125 15.075949 0.80078125 14.921875 L 0.80078125 3.8789062 C 0.80078125 3.7248322 0.92405096 3.5996094 1.078125 3.5996094 z"/>
 <path fill="currentColor" class="ColorScheme-Text" opacity="0.6" d="M 4.391 11.172 C 5.404 11.172 5.549 11.316 5.549 12.329 L 5.549 13.14 C 5.549 14.152 5.404 14.297 4.391 14.297 L 3.359 14.297 C 2.346 14.297 2.201 14.152 2.201 13.14 L 2.201 12.329 C 2.201 11.316 2.346 11.172 3.359 11.172 L 4.391 11.172 Z"/>
 <path fill="currentColor" class="ColorScheme-Text" opacity="0.6" d="M 8.563 11.172 C 9.576 11.172 9.721 11.316 9.721 12.329 L 9.721 13.14 C 9.721 14.152 9.576 14.297 8.563 14.297 L 7.531 14.297 C 6.518 14.297 6.373 14.152 6.373 13.14 L 6.373 12.329 C 6.373 11.316 6.518 11.172 7.531 11.172 L 8.563 11.172 Z"/>
 <path fill="currentColor" class="ColorScheme-Text" opacity="0.6" d="M 12.734 11.172 C 13.748 11.172 13.893 11.316 13.893 12.329 L 13.893 13.14 C 13.893 14.152 13.748 14.297 12.734 14.297 L 11.703 14.297 C 10.689 14.297 10.545 14.152 10.545 13.14 L 10.545 12.329 C 10.545 11.316 10.689 11.172 11.703 11.172 L 12.734 11.172 Z"/>
</svg>
