<svg xmlns="http://www.w3.org/2000/svg" width="16" height="16" version="1.1">
 <defs>
   <style id="current-color-scheme" type="text/css">
   .ColorScheme-Text { color: #498db8; } .ColorScheme-Highlight { color:#5294e2; }
  </style>
  <linearGradient id="arrongin" x1="0%" x2="0%" y1="0%" y2="100%">
   <stop offset="0%" style="stop-color:#dd9b44; stop-opacity:1"/>
   <stop offset="100%" style="stop-color:#ad6c16; stop-opacity:1"/>
  </linearGradient>
  <linearGradient id="aurora" x1="0%" x2="0%" y1="0%" y2="100%">
   <stop offset="0%" style="stop-color:#09D4DF; stop-opacity:1"/>
   <stop offset="100%" style="stop-color:#9269F4; stop-opacity:1"/>
  </linearGradient>
  <linearGradient id="cyberneon" x1="0%" x2="0%" y1="0%" y2="100%">
    <stop offset="0" style="stop-color:#0abdc6; stop-opacity:1"/>
    <stop offset="1" style="stop-color:#ea00d9; stop-opacity:1"/>
  </linearGradient>
  <linearGradient id="fitdance" x1="0%" x2="0%" y1="0%" y2="100%">
   <stop offset="0%" style="stop-color:#1AD6AB; stop-opacity:1"/>
   <stop offset="100%" style="stop-color:#329DB6; stop-opacity:1"/>
  </linearGradient>
  <linearGradient id="oomox" x1="0%" x2="0%" y1="0%" y2="100%">
   <stop offset="0%" style="stop-color:#efefe7; stop-opacity:1"/>
   <stop offset="100%" style="stop-color:#8f8f8b; stop-opacity:1"/>
  </linearGradient>
  <linearGradient id="rainblue" x1="0%" x2="0%" y1="0%" y2="100%">
   <stop offset="0%" style="stop-color:#00F260; stop-opacity:1"/>
   <stop offset="100%" style="stop-color:#0575E6; stop-opacity:1"/>
  </linearGradient>
  <linearGradient id="sunrise" x1="0%" x2="0%" y1="0%" y2="100%">
   <stop offset="0%" style="stop-color: #FF8501; stop-opacity:1"/>
   <stop offset="100%" style="stop-color: #FFCB01; stop-opacity:1"/>
  </linearGradient>
  <linearGradient id="telinkrin" x1="0%" x2="0%" y1="0%" y2="100%">
   <stop offset="0%" style="stop-color: #b2ced6; stop-opacity:1"/>
   <stop offset="100%" style="stop-color: #6da5b7; stop-opacity:1"/>
  </linearGradient>
  <linearGradient id="60spsycho" x1="0%" x2="0%" y1="0%" y2="100%">
   <stop offset="0%" style="stop-color: #df5940; stop-opacity:1"/>
   <stop offset="25%" style="stop-color: #d8d15f; stop-opacity:1"/>
   <stop offset="50%" style="stop-color: #e9882a; stop-opacity:1"/>
   <stop offset="100%" style="stop-color: #279362; stop-opacity:1"/>
  </linearGradient>
  <linearGradient id="90ssummer" x1="0%" x2="0%" y1="0%" y2="100%">
   <stop offset="0%" style="stop-color: #f618c7; stop-opacity:1"/>
   <stop offset="20%" style="stop-color: #94ffab; stop-opacity:1"/>
   <stop offset="50%" style="stop-color: #fbfd54; stop-opacity:1"/>
   <stop offset="100%" style="stop-color: #0f83ae; stop-opacity:1"/>
  </linearGradient>
 </defs>
 <path fill="currentColor" class="ColorScheme-Text" d="M 7.273 3.636 L 7.273 12.364 L 0.727 12.364 L 0.727 13.091 L 8 13.091 L 8 8.727 L 15.273 8.727 L 15.273 8 L 8 8 L 8 3.636 L 7.273 3.636 Z"/>
 <path fill="currentColor" class="ColorScheme-Text" d="M 7.636 2.182 C 7.034 2.182 6.545 2.67 6.545 3.273 C 6.545 3.875 7.034 4.364 7.636 4.364 C 8.239 4.364 8.727 3.875 8.727 3.273 C 8.727 2.67 8.239 2.182 7.636 2.182 Z M 7.636 7.273 C 7.034 7.273 6.545 7.761 6.545 8.364 C 6.545 8.966 7.034 9.455 7.636 9.455 C 8.239 9.455 8.727 8.966 8.727 8.364 C 8.727 7.761 8.239 7.273 7.636 7.273 Z M 14.909 7.273 C 14.307 7.273 13.818 7.761 13.818 8.364 C 13.818 8.966 14.307 9.455 14.909 9.455 C 15.512 9.455 16 8.966 16 8.364 C 16 7.761 15.512 7.273 14.909 7.273 Z M 1.091 11.636 C 0.488 11.636 0 12.125 0 12.727 C 0 13.33 0.488 13.818 1.091 13.818 C 1.693 13.818 2.182 13.33 2.182 12.727 C 2.182 12.125 1.693 11.636 1.091 11.636 Z M 7.636 11.636 C 7.034 11.636 6.545 12.125 6.545 12.727 C 6.545 13.33 7.034 13.818 7.636 13.818 C 8.239 13.818 8.727 13.33 8.727 12.727 C 8.727 12.125 8.239 11.636 7.636 11.636 Z"/>
</svg>
