<svg xmlns="http://www.w3.org/2000/svg" width="16" height="16" version="1.1">
 <defs>
   <style id="current-color-scheme" type="text/css">
   .ColorScheme-Text { color: #498db8; } .ColorScheme-Highlight { color:#5294e2; }
  </style>
  <linearGradient id="arrongin" x1="0%" x2="0%" y1="0%" y2="100%">
   <stop offset="0%" style="stop-color:#dd9b44; stop-opacity:1"/>
   <stop offset="100%" style="stop-color:#ad6c16; stop-opacity:1"/>
  </linearGradient>
  <linearGradient id="aurora" x1="0%" x2="0%" y1="0%" y2="100%">
   <stop offset="0%" style="stop-color:#09D4DF; stop-opacity:1"/>
   <stop offset="100%" style="stop-color:#9269F4; stop-opacity:1"/>
  </linearGradient>
  <linearGradient id="cyberneon" x1="0%" x2="0%" y1="0%" y2="100%">
    <stop offset="0" style="stop-color:#0abdc6; stop-opacity:1"/>
    <stop offset="1" style="stop-color:#ea00d9; stop-opacity:1"/>
  </linearGradient>
  <linearGradient id="fitdance" x1="0%" x2="0%" y1="0%" y2="100%">
   <stop offset="0%" style="stop-color:#1AD6AB; stop-opacity:1"/>
   <stop offset="100%" style="stop-color:#329DB6; stop-opacity:1"/>
  </linearGradient>
  <linearGradient id="oomox" x1="0%" x2="0%" y1="0%" y2="100%">
   <stop offset="0%" style="stop-color:#efefe7; stop-opacity:1"/>
   <stop offset="100%" style="stop-color:#8f8f8b; stop-opacity:1"/>
  </linearGradient>
  <linearGradient id="rainblue" x1="0%" x2="0%" y1="0%" y2="100%">
   <stop offset="0%" style="stop-color:#00F260; stop-opacity:1"/>
   <stop offset="100%" style="stop-color:#0575E6; stop-opacity:1"/>
  </linearGradient>
  <linearGradient id="sunrise" x1="0%" x2="0%" y1="0%" y2="100%">
   <stop offset="0%" style="stop-color: #FF8501; stop-opacity:1"/>
   <stop offset="100%" style="stop-color: #FFCB01; stop-opacity:1"/>
  </linearGradient>
  <linearGradient id="telinkrin" x1="0%" x2="0%" y1="0%" y2="100%">
   <stop offset="0%" style="stop-color: #b2ced6; stop-opacity:1"/>
   <stop offset="100%" style="stop-color: #6da5b7; stop-opacity:1"/>
  </linearGradient>
  <linearGradient id="60spsycho" x1="0%" x2="0%" y1="0%" y2="100%">
   <stop offset="0%" style="stop-color: #df5940; stop-opacity:1"/>
   <stop offset="25%" style="stop-color: #d8d15f; stop-opacity:1"/>
   <stop offset="50%" style="stop-color: #e9882a; stop-opacity:1"/>
   <stop offset="100%" style="stop-color: #279362; stop-opacity:1"/>
  </linearGradient>
  <linearGradient id="90ssummer" x1="0%" x2="0%" y1="0%" y2="100%">
   <stop offset="0%" style="stop-color: #f618c7; stop-opacity:1"/>
   <stop offset="20%" style="stop-color: #94ffab; stop-opacity:1"/>
   <stop offset="50%" style="stop-color: #fbfd54; stop-opacity:1"/>
   <stop offset="100%" style="stop-color: #0f83ae; stop-opacity:1"/>
  </linearGradient>
 </defs>
 <path fill="currentColor" class="ColorScheme-Text" d="M 8.1445312,0 C 7.8579495,0 7.577846,0.01538538 7.3027344,0.04296875 3.2114771,0.39657091 0,3.8231371 0,8.0039062 0,12.419835 3.581739,16 8,16 12.418261,16 16,12.419835 16,8.0039062 16,3.6510746 12.520514,0.11201361 8.1894531,0.01171875 12.140514,0.11177026 15.3125,3.3433044 15.3125,7.3164062 c 0,0.2277406 -0.01087,0.4533597 -0.03125,0.6757813 C 14.940202,11.711754 11.810435,14.625 8,14.625 c -3.8104697,0 -7.28125,-2.897644 -7.28125,-6.6328125 0,-3.735203 3.6153115,-6.5390625 7.4257812,-6.5390625 z M 7.2871094,0.04492187 C 7.0879656,0.0652802 6.8938173,0.09473222 6.7011719,0.12890625 6.8943476,0.09426043 7.088988,0.06408227 7.2871094,0.04492187 Z M 6.5644531,0.15039062 c -0.1111472,0.0217162 -0.21736,0.0538754 -0.3261719,0.0800781 0.1088369,-0.0269545 0.2154725,-0.0580581 0.3261719,-0.0800781 z"/>
 <path fill="currentColor" class="ColorScheme-Text" d="M 6.03125 3.9707031 C 5.9161892 3.9707031 5.8222656 4.0906375 5.8222656 4.2382812 L 5.8222656 8.0332031 L 5.8222656 11.769531 C 5.8222656 11.917175 5.9161542 12.037109 6.03125 12.037109 C 6.1463109 12.037109 6.2402344 11.91714 6.2402344 11.769531 L 6.2402344 7.9765625 L 6.2402344 4.2382812 C 6.2402344 4.0906722 6.1463109 3.9707031 6.03125 3.9707031 z M 11.28125 4.1113281 C 11.166192 4.1113281 11.072301 4.2312625 11.072266 4.3789062 L 11.072266 7.9765625 L 11.072266 8.0332031 L 11.072266 11.630859 C 11.072301 11.778503 11.166192 11.898437 11.28125 11.898438 C 11.396311 11.898438 11.490234 11.778468 11.490234 11.630859 L 11.490234 8.0332031 L 11.490234 7.9765625 L 11.490234 4.3769531 C 11.490234 4.2293441 11.396311 4.1113281 11.28125 4.1113281 z M 4.71875 4.59375 C 4.6036892 4.59375 4.5097656 4.7136843 4.5097656 4.8613281 L 4.5097656 8.0332031 L 4.5097656 11.148438 C 4.5097656 11.296046 4.6036892 11.414062 4.71875 11.414062 C 4.8338109 11.414062 4.9277344 11.296047 4.9277344 11.148438 L 4.9277344 7.9765625 L 4.9277344 4.8613281 C 4.9277344 4.713719 4.8338109 4.59375 4.71875 4.59375 z M 10.625 5.0351562 C 10.509942 5.0351562 10.416016 5.1550907 10.416016 5.3027344 L 10.416016 8.0332031 L 10.416016 10.705078 C 10.416016 10.852722 10.509942 10.972656 10.625 10.972656 C 10.74006 10.972656 10.833984 10.852687 10.833984 10.705078 L 10.833984 7.9765625 L 10.833984 5.3027344 C 10.833984 5.1551254 10.74006 5.0351562 10.625 5.0351562 z M 5.375 5.1992188 C 5.2599392 5.1992187 5.1660156 5.3191879 5.1660156 5.4667969 L 5.1660156 8.0332031 L 5.1660156 10.542969 C 5.1660156 10.690578 5.2599392 10.808594 5.375 10.808594 C 5.4900609 10.808594 5.5839844 10.690578 5.5839844 10.542969 L 5.5839844 7.9765625 L 5.5839844 5.4667969 C 5.5839844 5.3191879 5.4900609 5.1992188 5.375 5.1992188 z M 4.0625 5.4726562 C 3.9474392 5.4726562 3.8535156 5.5906722 3.8535156 5.7382812 L 3.8535156 8.0332031 L 3.8535156 10.269531 C 3.8535156 10.41714 3.9474392 10.537109 4.0625 10.537109 C 4.1775609 10.537109 4.2714844 10.41714 4.2714844 10.269531 L 4.2714844 7.9765625 L 4.2714844 5.7382812 C 4.2714844 5.5906722 4.1775609 5.4726562 4.0625 5.4726562 z M 11.9375 5.9511719 C 11.822443 5.9511719 11.728516 6.071141 11.728516 6.21875 L 11.728516 8.0332031 L 11.728516 9.7890625 C 11.728516 9.9366715 11.822443 10.056641 11.9375 10.056641 C 12.052561 10.056641 12.146484 9.9366715 12.146484 9.7890625 L 12.146484 7.9765625 L 12.146484 6.21875 C 12.146484 6.071141 12.052561 5.9511719 11.9375 5.9511719 z M 9.96875 6.0273438 C 9.8536892 6.0273438 9.7598003 6.1473129 9.7597656 6.2949219 L 9.7597656 8.0332031 L 9.7597656 9.7128906 C 9.7598003 9.8604996 9.8536892 9.9804687 9.96875 9.9804688 C 10.083811 9.9804688 10.177734 9.8604996 10.177734 9.7128906 L 10.177734 7.9765625 L 10.177734 6.2949219 C 10.177734 6.1473129 10.083811 6.0273438 9.96875 6.0273438 z M 6.6875 6.1914062 C 6.5724392 6.1914062 6.4785156 6.3113407 6.4785156 6.4589844 L 6.4785156 8.0332031 L 6.4785156 9.5488281 C 6.4785156 9.6964719 6.5724392 9.8164063 6.6875 9.8164062 C 6.8025609 9.8164062 6.8964844 9.6964371 6.8964844 9.5488281 L 6.8964844 7.9765625 L 6.8964844 6.4589844 C 6.8964844 6.3113754 6.8025609 6.1914062 6.6875 6.1914062 z M 2.75 6.6328125 C 2.6349392 6.6328125 2.5410156 6.7527469 2.5410156 6.9003906 L 2.5410156 8.0332031 L 2.5410156 9.1074219 C 2.5410156 9.2550657 2.6349392 9.375 2.75 9.375 C 2.8650609 9.375 2.9589844 9.2550309 2.9589844 9.1074219 L 2.9589844 7.9765625 L 2.9589844 6.9003906 C 2.9589844 6.7527816 2.8650609 6.6328125 2.75 6.6328125 z M 8.65625 6.8183594 C 8.5411892 6.8183594 8.4473004 6.9382937 8.4472656 7.0859375 L 8.4472656 8.0332031 L 8.4472656 8.921875 C 8.4473004 9.0695187 8.5411892 9.1894531 8.65625 9.1894531 C 8.7713109 9.1894531 8.8652344 9.069484 8.8652344 8.921875 L 8.8652344 7.9765625 L 8.8652344 7.0859375 C 8.8652344 6.9383285 8.7713109 6.8183594 8.65625 6.8183594 z M 7.34375 6.8574219 C 7.2286542 6.8574219 7.1347656 6.9773562 7.1347656 7.125 L 7.1347656 8.0332031 L 7.1347656 8.8828125 C 7.1347656 9.0304562 7.2286542 9.1503906 7.34375 9.1503906 C 7.4588109 9.1503906 7.5527344 9.0323746 7.5527344 8.8847656 L 7.5527344 7.9765625 L 7.5527344 7.125 C 7.5527344 6.977391 7.4588109 6.8574219 7.34375 6.8574219 z M 3.40625 7.2695312 C 3.2911892 7.2695312 3.1972656 7.3895004 3.1972656 7.5371094 L 3.1972656 8.0332031 L 3.1972656 8.4726562 C 3.1972656 8.6202652 3.2911892 8.7382813 3.40625 8.7382812 C 3.5213109 8.7382812 3.6152344 8.6202652 3.6152344 8.4726562 L 3.6152344 7.9765625 L 3.6152344 7.5371094 C 3.6152344 7.3895004 3.5213109 7.2695312 3.40625 7.2695312 z M 12.59375 7.2695312 C 12.478692 7.2695312 12.384801 7.3895004 12.384766 7.5371094 L 12.384766 8.0332031 L 12.384766 8.4726562 C 12.384801 8.6202652 12.478692 8.7382813 12.59375 8.7382812 C 12.708811 8.7382812 12.802734 8.6202652 12.802734 8.4726562 L 12.802734 7.9765625 L 12.802734 7.5371094 C 12.802734 7.3895004 12.708811 7.2695312 12.59375 7.2695312 z M 8 7.4902344 C 7.8849391 7.4902344 7.7910156 7.6102035 7.7910156 7.7578125 L 7.7910156 8.0332031 L 7.7910156 8.2519531 C 7.7910156 8.3995621 7.8849392 8.5175781 8 8.5175781 C 8.1150609 8.5175781 8.2089844 8.3995621 8.2089844 8.2519531 L 8.2089844 7.9765625 L 8.2089844 7.7578125 C 8.2089844 7.6102035 8.1150609 7.4902344 8 7.4902344 z M 9.3125 7.4902344 C 9.1974392 7.4902344 9.1035156 7.6102035 9.1035156 7.7578125 L 9.1035156 8.0332031 L 9.1035156 8.2519531 C 9.1035156 8.3995621 9.1974392 8.5175781 9.3125 8.5175781 C 9.4275609 8.5175781 9.5214844 8.3995621 9.5214844 8.2519531 L 9.5214844 7.9765625 L 9.5214844 7.7578125 C 9.5214844 7.6102035 9.4275609 7.4902344 9.3125 7.4902344 z M 13.25 7.5820312 C 13.134942 7.5820313 13.041016 7.7020004 13.041016 7.8496094 L 13.041016 8.0332031 L 13.041016 8.1582031 C 13.041016 8.3058468 13.134942 8.4257813 13.25 8.4257812 C 13.365061 8.4257812 13.458984 8.3058121 13.458984 8.1582031 L 13.458984 7.9765625 L 13.458984 7.8496094 C 13.458984 7.7020004 13.365061 7.5820312 13.25 7.5820312 z"/>
</svg>
