<svg xmlns="http://www.w3.org/2000/svg" width="16" height="16" version="1.1">
 <defs>
   <style id="current-color-scheme" type="text/css">
   .ColorScheme-Text { color: #498db8; } .ColorScheme-Highlight { color:#5294e2; }
  </style>
  <linearGradient id="arrongin" x1="0%" x2="0%" y1="0%" y2="100%">
   <stop offset="0%" style="stop-color:#dd9b44; stop-opacity:1"/>
   <stop offset="100%" style="stop-color:#ad6c16; stop-opacity:1"/>
  </linearGradient>
  <linearGradient id="aurora" x1="0%" x2="0%" y1="0%" y2="100%">
   <stop offset="0%" style="stop-color:#09D4DF; stop-opacity:1"/>
   <stop offset="100%" style="stop-color:#9269F4; stop-opacity:1"/>
  </linearGradient>
  <linearGradient id="cyberneon" x1="0%" x2="0%" y1="0%" y2="100%">
    <stop offset="0" style="stop-color:#0abdc6; stop-opacity:1"/>
    <stop offset="1" style="stop-color:#ea00d9; stop-opacity:1"/>
  </linearGradient>
  <linearGradient id="fitdance" x1="0%" x2="0%" y1="0%" y2="100%">
   <stop offset="0%" style="stop-color:#1AD6AB; stop-opacity:1"/>
   <stop offset="100%" style="stop-color:#329DB6; stop-opacity:1"/>
  </linearGradient>
  <linearGradient id="oomox" x1="0%" x2="0%" y1="0%" y2="100%">
   <stop offset="0%" style="stop-color:#efefe7; stop-opacity:1"/>
   <stop offset="100%" style="stop-color:#8f8f8b; stop-opacity:1"/>
  </linearGradient>
  <linearGradient id="rainblue" x1="0%" x2="0%" y1="0%" y2="100%">
   <stop offset="0%" style="stop-color:#00F260; stop-opacity:1"/>
   <stop offset="100%" style="stop-color:#0575E6; stop-opacity:1"/>
  </linearGradient>
  <linearGradient id="sunrise" x1="0%" x2="0%" y1="0%" y2="100%">
   <stop offset="0%" style="stop-color: #FF8501; stop-opacity:1"/>
   <stop offset="100%" style="stop-color: #FFCB01; stop-opacity:1"/>
  </linearGradient>
  <linearGradient id="telinkrin" x1="0%" x2="0%" y1="0%" y2="100%">
   <stop offset="0%" style="stop-color: #b2ced6; stop-opacity:1"/>
   <stop offset="100%" style="stop-color: #6da5b7; stop-opacity:1"/>
  </linearGradient>
  <linearGradient id="60spsycho" x1="0%" x2="0%" y1="0%" y2="100%">
   <stop offset="0%" style="stop-color: #df5940; stop-opacity:1"/>
   <stop offset="25%" style="stop-color: #d8d15f; stop-opacity:1"/>
   <stop offset="50%" style="stop-color: #e9882a; stop-opacity:1"/>
   <stop offset="100%" style="stop-color: #279362; stop-opacity:1"/>
  </linearGradient>
  <linearGradient id="90ssummer" x1="0%" x2="0%" y1="0%" y2="100%">
   <stop offset="0%" style="stop-color: #f618c7; stop-opacity:1"/>
   <stop offset="20%" style="stop-color: #94ffab; stop-opacity:1"/>
   <stop offset="50%" style="stop-color: #fbfd54; stop-opacity:1"/>
   <stop offset="100%" style="stop-color: #0f83ae; stop-opacity:1"/>
  </linearGradient>
 </defs>
 <path fill="currentColor" class="ColorScheme-Text" fill-rule="evenodd" d="M 2.045 3.487 L 0 10.462 L 0.846 10.462 L 2.872 3.487 L 2.045 3.487 L 2.045 3.487 L 2.045 3.487 L 2.045 3.487 Z M 6.564 10.462 L 6.564 9.231 L 7.795 9.231 L 7.795 10.462 L 6.564 10.462 L 6.564 10.462 L 6.564 10.462 L 6.564 10.462 Z M 10.661 3.487 L 8.615 10.462 L 9.461 10.462 L 11.487 3.487 L 10.661 3.487 L 10.661 3.487 L 10.661 3.487 Z M 13.49 5.949 C 13.737 5.949 13.958 6.022 14.151 6.169 C 14.348 6.313 14.501 6.524 14.608 6.8 C 14.716 7.074 14.769 7.617 14.769 7.998 C 14.769 8.369 14.716 8.536 14.608 8.807 C 14.501 9.075 14.348 9.281 14.151 9.425 C 13.955 9.569 13.73 9.641 13.476 9.641 C 13.049 9.641 12.748 9.502 12.572 9.222 C 12.396 8.942 12.308 8.638 12.308 7.998 C 12.308 7.352 12.402 6.67 12.59 6.381 C 12.778 6.093 13.078 5.949 13.49 5.949 L 13.49 5.949 L 13.49 5.949 Z M 15.163 5.128 C 15.15 5.15 15.136 5.378 15.123 5.613 C 15.11 5.848 15.103 6.013 15.103 6.108 L 15.093 6.108 C 14.943 5.8 14.73 5.564 14.452 5.399 C 14.177 5.231 13.852 5.147 13.477 5.147 C 12.807 5.147 12.308 5.365 11.978 5.8 C 11.651 6.231 11.487 7.147 11.487 8.058 C 11.487 8.956 11.639 9.443 11.943 9.862 C 12.25 10.281 12.729 10.49 13.379 10.49 C 13.768 10.49 14.108 10.408 14.398 10.243 C 14.689 10.075 14.917 9.826 15.083 9.496 L 15.093 9.496 L 15.093 10.324 C 15.093 11.323 14.654 11.697 13.776 11.697 C 13.449 11.697 13.184 11.633 12.982 11.503 C 12.782 11.376 12.653 11.193 12.595 10.955 L 11.708 11.079 C 11.806 11.485 12.026 11.961 12.369 12.18 C 12.712 12.402 13.173 12.513 13.752 12.513 C 15.231 12.513 16 11.751 16 10.304 L 16 6.264 L 16 5.128 L 15.163 5.128 L 15.163 5.128 L 15.163 5.128 Z M 3.698 3.487 L 5.744 10.462 L 4.898 10.462 L 2.872 3.487 L 3.698 3.487 Z"/>
</svg>
