<svg xmlns="http://www.w3.org/2000/svg" width="16" height="16" version="1.1">
 <defs>
   <style id="current-color-scheme" type="text/css">
   .ColorScheme-Text { color: #2b68d1; } .ColorScheme-Highlight { color: #1AD6AB; }
  </style>
  <linearGradient id="arrongin" x1="0%" x2="0%" y1="0%" y2="100%">
   <stop offset="0%" style="stop-color: #dd9b44; stop-opacity: 1"/>
   <stop offset="100%" style="stop-color: #ad6c16; stop-opacity: 1"/>
  </linearGradient>
  <linearGradient id="aurora" x1="0%" x2="0%" y1="0%" y2="100%">
   <stop offset="0%" style="stop-color: #09D4DF; stop-opacity: 1"/>
   <stop offset="100%" style="stop-color: #9269F4; stop-opacity: 1"/>
  </linearGradient>
  <linearGradient id="cyberneon" x1="0%" x2="0%" y1="0%" y2="100%">
    <stop offset="0" style="stop-color: #0abdc6; stop-opacity: 1"/>
    <stop offset="1" style="stop-color: #ea00d9; stop-opacity: 1"/>
  </linearGradient>
  <linearGradient id="fitdance" x1="0%" x2="0%" y1="0%" y2="100%">
   <stop offset="0%" style="stop-color: #1AD6AB; stop-opacity: 1"/>
   <stop offset="100%" style="stop-color: #329DB6; stop-opacity: 1"/>
  </linearGradient>
  <linearGradient id="oomox" x1="0%" x2="0%" y1="0%" y2="100%">
   <stop offset="0%" style="stop-color: #efefe7; stop-opacity: 1"/>
   <stop offset="100%" style="stop-color: #8f8f8b; stop-opacity: 1"/>
  </linearGradient>
  <linearGradient id="rainblue" x1="0%" x2="0%" y1="0%" y2="100%">
   <stop offset="0%" style="stop-color: #00F260; stop-opacity: 1"/>
   <stop offset="100%" style="stop-color: #0575E6; stop-opacity: 1"/>
  </linearGradient>
  <linearGradient id="sunrise" x1="0%" x2="0%" y1="0%" y2="100%">
   <stop offset="0%" style="stop-color: #FF8501; stop-opacity: 1"/>
   <stop offset="100%" style="stop-color: #FFCB01; stop-opacity: 1"/>
  </linearGradient>
  <linearGradient id="telinkrin" x1="0%" x2="0%" y1="0%" y2="100%">
   <stop offset="0%" style="stop-color: #b2ced6; stop-opacity: 1"/>
   <stop offset="100%" style="stop-color: #6da5b7; stop-opacity: 1"/>
  </linearGradient>
  <linearGradient id="60spsycho" x1="0%" x2="0%" y1="0%" y2="100%">
   <stop offset="0%" style="stop-color: #df5940; stop-opacity: 1"/>
   <stop offset="25%" style="stop-color: #d8d15f; stop-opacity: 1"/>
   <stop offset="50%" style="stop-color: #e9882a; stop-opacity: 1"/>
   <stop offset="100%" style="stop-color: #279362; stop-opacity: 1"/>
  </linearGradient>
  <linearGradient id="90ssummer" x1="0%" x2="0%" y1="0%" y2="100%">
   <stop offset="0%" style="stop-color: #f618c7; stop-opacity: 1"/>
   <stop offset="20%" style="stop-color: #94ffab; stop-opacity: 1"/>
   <stop offset="50%" style="stop-color: #fbfd54; stop-opacity: 1"/>
   <stop offset="100%" style="stop-color: #0f83ae; stop-opacity: 1"/>
  </linearGradient>
 </defs>
 <path fill="currentColor" class="ColorScheme-Text" d="M 2,2 C 0.892,2 0,2.892 0,4 V 12 C 0,13.108 0.892,14 2,14 H 13 C 14.108,14 15,13.108 15,12 V 4 C 15,2.892 14.108,2 13,2 Z M 2.25,4 H 3.75 C 3.8885,4 4,4.1115 4,4.25 V 5.75 C 4,5.8885 3.8885,6 3.75,6 H 2.25 C 2.1115,6 2,5.8885 2,5.75 V 4.25 C 2,4.1115 2.1115,4 2.25,4 Z M 5.25,4 H 6.75 C 6.8885,4 7,4.1115 7,4.25 V 5.75 C 7,5.8885 6.8885,6 6.75,6 H 5.25 C 5.1115,6 5,5.8885 5,5.75 V 4.25 C 5,4.1115 5.1115,4 5.25,4 Z M 8.25,4 H 9.75 C 9.889,4 10,4.1115 10,4.25 V 5.75 C 10,5.8885 9.889,6 9.75,6 H 8.25 C 8.111,6 8,5.8885 8,5.75 V 4.25 C 8,4.1115 8.111,4 8.25,4 Z M 11.25,4 H 12.75 C 12.889,4 13,4.1115 13,4.25 V 5.75 C 13,5.8885 12.889,6 12.75,6 H 11.25 C 11.111,6 11,5.8885 11,5.75 V 4.25 C 11,4.1115 11.111,4 11.25,4 Z M 2.25,7 H 3.75 C 3.8885,7 4,7.111 4,7.25 V 8.75 C 4,8.889 3.8885,9 3.75,9 H 2.25 C 2.1115,9 2,8.889 2,8.75 V 7.25 C 2,7.111 2.1115,7 2.25,7 Z M 5.25,7 H 6.75 C 6.8885,7 7,7.111 7,7.25 V 8.75 C 7,8.889 6.8885,9 6.75,9 H 5.25 C 5.1115,9 5,8.889 5,8.75 V 7.25 C 5,7.111 5.1115,7 5.25,7 Z M 8.25,7 H 9.75 C 9.889,7 10,7.111 10,7.25 V 8.75 C 10,8.889 9.889,9 9.75,9 H 8.25 C 8.111,9 8,8.889 8,8.75 V 7.25 C 8,7.111 8.111,7 8.25,7 Z M 11.25,7 H 12.75 C 12.889,7 13,7.111 13,7.25 V 8.75 C 13,8.889 12.889,9 12.75,9 H 11.25 C 11.111,9 11,8.889 11,8.75 V 7.25 C 11,7.111 11.111,7 11.25,7 Z M 4.25,10 H 10.75 C 10.889,10 11,10.111 11,10.25 V 11.75 C 11,11.889 10.889,12 10.75,12 H 4.25 C 4.1115,12 4,11.889 4,11.75 V 10.25 C 4,10.111 4.1115,10 4.25,10 Z"/>
</svg>
