<svg xmlns="http://www.w3.org/2000/svg" width="16" height="16" version="1.1">
 <defs>
   <style id="current-color-scheme" type="text/css">
   .ColorScheme-Text { color: #0391e8; } .ColorScheme-Highlight { color:#5294e2; }
  </style>
  <linearGradient id="arrongin" x1="0%" x2="0%" y1="0%" y2="100%">
   <stop offset="0%" style="stop-color:#dd9b44; stop-opacity:1"/>
   <stop offset="100%" style="stop-color:#ad6c16; stop-opacity:1"/>
  </linearGradient>
  <linearGradient id="aurora" x1="0%" x2="0%" y1="0%" y2="100%">
   <stop offset="0%" style="stop-color:#09D4DF; stop-opacity:1"/>
   <stop offset="100%" style="stop-color:#9269F4; stop-opacity:1"/>
  </linearGradient>
  <linearGradient id="cyberneon" x1="0%" x2="0%" y1="0%" y2="100%">
    <stop offset="0" style="stop-color:#0abdc6; stop-opacity:1"/>
    <stop offset="1" style="stop-color:#ea00d9; stop-opacity:1"/>
  </linearGradient>
  <linearGradient id="fitdance" x1="0%" x2="0%" y1="0%" y2="100%">
   <stop offset="0%" style="stop-color:#1AD6AB; stop-opacity:1"/>
   <stop offset="100%" style="stop-color:#329DB6; stop-opacity:1"/>
  </linearGradient>
  <linearGradient id="oomox" x1="0%" x2="0%" y1="0%" y2="100%">
   <stop offset="0%" style="stop-color:#efefe7; stop-opacity:1"/>
   <stop offset="100%" style="stop-color:#8f8f8b; stop-opacity:1"/>
  </linearGradient>
  <linearGradient id="rainblue" x1="0%" x2="0%" y1="0%" y2="100%">
   <stop offset="0%" style="stop-color:#00F260; stop-opacity:1"/>
   <stop offset="100%" style="stop-color:#0575E6; stop-opacity:1"/>
  </linearGradient>
  <linearGradient id="sunrise" x1="0%" x2="0%" y1="0%" y2="100%">
   <stop offset="0%" style="stop-color: #FF8501; stop-opacity:1"/>
   <stop offset="100%" style="stop-color: #FFCB01; stop-opacity:1"/>
  </linearGradient>
  <linearGradient id="telinkrin" x1="0%" x2="0%" y1="0%" y2="100%">
   <stop offset="0%" style="stop-color: #b2ced6; stop-opacity:1"/>
   <stop offset="100%" style="stop-color: #6da5b7; stop-opacity:1"/>
  </linearGradient>
  <linearGradient id="60spsycho" x1="0%" x2="0%" y1="0%" y2="100%">
   <stop offset="0%" style="stop-color: #df5940; stop-opacity:1"/>
   <stop offset="25%" style="stop-color: #d8d15f; stop-opacity:1"/>
   <stop offset="50%" style="stop-color: #e9882a; stop-opacity:1"/>
   <stop offset="100%" style="stop-color: #279362; stop-opacity:1"/>
  </linearGradient>
  <linearGradient id="90ssummer" x1="0%" x2="0%" y1="0%" y2="100%">
   <stop offset="0%" style="stop-color: #f618c7; stop-opacity:1"/>
   <stop offset="20%" style="stop-color: #94ffab; stop-opacity:1"/>
   <stop offset="50%" style="stop-color: #fbfd54; stop-opacity:1"/>
   <stop offset="100%" style="stop-color: #0f83ae; stop-opacity:1"/>
  </linearGradient>
 </defs>
 <path fill="currentColor" class="ColorScheme-Text" d="m 8.6117033,0.49999981 c -0.08424,0.04203 -0.180623,0.07347 -0.256521,0.131097 -0.146093,0.11213805 -0.28839,0.23191205 -0.419303,0.36105809 -0.143815,0.141679 -0.292563,0.222002 -0.502404,0.265126 -0.504301,0.102236 -0.802151,0.215403 -1.27344,0.41311 -1.048066,0.441079 -1.741719,1.271947 -2.2361528,2.27133 -0.438655,0.888393 -0.446623,1.851409 -0.410575,2.8189148 0.07437,1.99609 1.2634858,3.4533623 1.8994578,4.9893853 h 0.164686 c -0.248166,0 -0.470309,0.166881 -0.470309,0.374256 v 0.751431 c 0,0.207382 0.222143,0.48127 0.470309,0.48127 h -0.353542 c -0.324437,0 -0.652482,0.250499 -0.652482,0.561758 v 1.019498 c 0,0.311251 0.328045,0.561766 0.652482,0.561766 h 5.1728747 c 0.324437,0 0.603213,-0.250515 0.603213,-0.561766 v -1.019498 c 0,-0.311259 -0.278776,-0.561758 -0.603213,-0.561758 H 10.04326 c 0.248166,0 0.421024,-0.273888 0.421024,-0.48127 v -0.751431 c 0,-0.207375 -0.172858,-0.374256 -0.421024,-0.374256 h 0.06907 c 0.16089,-0.149254 0.153848,-0.41664 0.297285,-0.569258 0.650013,-0.687768 0.766128,-1.6639063 0.309639,-2.4997943 -0.223122,-0.408008 -0.536935,-0.739132 -0.8989376,-1.022264 -0.4075407,-0.318682 -0.8287401,-0.619057 -1.2397021,-0.932931 -0.117632,-0.09001 -0.102841,-0.191917 -0.259179,-0.332924 0.387428,0.0818 0.577932,0.182922 0.8898484,0.19866 0.538452,0.02623 1.0029093,0.258731 1.4339753,0.572235 0.166583,0.121134 0.360107,0.218261 0.555149,0.285748 0.253478,0.08697 0.37946,0.02472 0.530484,-0.204374 0.03984,-0.0607 0.06375,-0.130122 0.101696,-0.209628 0.300151,0.0068 0.465216,-0.222728 0.547559,-0.500228 0.02809,-0.09486 0.07589,-0.182627 0.110422,-0.274878 0.233367,-0.6180048 0.113458,-1.1651448 -0.333544,-1.6421508 -0.0998,-0.10913 -0.218569,-0.199877 -0.32292,-0.304502 C 11.485762,3.9657279 11.13552,3.6195989 10.795906,3.2633409 10.549256,3.0042169 10.327272,2.7222029 10.078347,2.4651049 9.9550234,2.3384229 9.8510514,2.2115969 9.7937524,2.0417219 9.7072324,1.7871709 9.5448277,1.5911869 9.3084267,1.4587379 9.2245567,1.4114179 8.9304573,1.3571139 8.8697443,1.3181089 8.7722243,1.0340019 9.0033133,0.67857481 8.6117113,0.49999981 Z"/>
</svg>
