<svg xmlns="http://www.w3.org/2000/svg" width="16" height="16" version="1.1">
 <defs>
   <style id="current-color-scheme" type="text/css">
   .ColorScheme-Text { color: #0391e8; } .ColorScheme-Highlight { color:#5294e2; }
  </style>
  <linearGradient id="arrongin" x1="0%" x2="0%" y1="0%" y2="100%">
   <stop offset="0%" style="stop-color:#dd9b44; stop-opacity:1"/>
   <stop offset="100%" style="stop-color:#ad6c16; stop-opacity:1"/>
  </linearGradient>
  <linearGradient id="aurora" x1="0%" x2="0%" y1="0%" y2="100%">
   <stop offset="0%" style="stop-color:#09D4DF; stop-opacity:1"/>
   <stop offset="100%" style="stop-color:#9269F4; stop-opacity:1"/>
  </linearGradient>
  <linearGradient id="cyberneon" x1="0%" x2="0%" y1="0%" y2="100%">
    <stop offset="0" style="stop-color:#0abdc6; stop-opacity:1"/>
    <stop offset="1" style="stop-color:#ea00d9; stop-opacity:1"/>
  </linearGradient>
  <linearGradient id="fitdance" x1="0%" x2="0%" y1="0%" y2="100%">
   <stop offset="0%" style="stop-color:#1AD6AB; stop-opacity:1"/>
   <stop offset="100%" style="stop-color:#329DB6; stop-opacity:1"/>
  </linearGradient>
  <linearGradient id="oomox" x1="0%" x2="0%" y1="0%" y2="100%">
   <stop offset="0%" style="stop-color:#efefe7; stop-opacity:1"/>
   <stop offset="100%" style="stop-color:#8f8f8b; stop-opacity:1"/>
  </linearGradient>
  <linearGradient id="rainblue" x1="0%" x2="0%" y1="0%" y2="100%">
   <stop offset="0%" style="stop-color:#00F260; stop-opacity:1"/>
   <stop offset="100%" style="stop-color:#0575E6; stop-opacity:1"/>
  </linearGradient>
  <linearGradient id="sunrise" x1="0%" x2="0%" y1="0%" y2="100%">
   <stop offset="0%" style="stop-color: #FF8501; stop-opacity:1"/>
   <stop offset="100%" style="stop-color: #FFCB01; stop-opacity:1"/>
  </linearGradient>
  <linearGradient id="telinkrin" x1="0%" x2="0%" y1="0%" y2="100%">
   <stop offset="0%" style="stop-color: #b2ced6; stop-opacity:1"/>
   <stop offset="100%" style="stop-color: #6da5b7; stop-opacity:1"/>
  </linearGradient>
  <linearGradient id="60spsycho" x1="0%" x2="0%" y1="0%" y2="100%">
   <stop offset="0%" style="stop-color: #df5940; stop-opacity:1"/>
   <stop offset="25%" style="stop-color: #d8d15f; stop-opacity:1"/>
   <stop offset="50%" style="stop-color: #e9882a; stop-opacity:1"/>
   <stop offset="100%" style="stop-color: #279362; stop-opacity:1"/>
  </linearGradient>
  <linearGradient id="90ssummer" x1="0%" x2="0%" y1="0%" y2="100%">
   <stop offset="0%" style="stop-color: #f618c7; stop-opacity:1"/>
   <stop offset="20%" style="stop-color: #94ffab; stop-opacity:1"/>
   <stop offset="50%" style="stop-color: #fbfd54; stop-opacity:1"/>
   <stop offset="100%" style="stop-color: #0f83ae; stop-opacity:1"/>
  </linearGradient>
 </defs>
 <path fill="currentColor" class="ColorScheme-Text" opacity="0.4" d="m 12.373,9.415 c 0.406,2.839 -1.623,6.763 -2.295,6.566 C 9.849,16.249 5.642,13.669 5.153,10.88 5.107,10.619 3.939,8.797 4.474,9.367 5.235,10.176 3.687,7.767 4.032,7.026 4.54,5.933 7.363,5.772 8.684,5.772 c 1.207,0 2.621,-0.548 3.226,0.142 0.509,0.578 0.287,2.273 0.463,3.501 z"/>
 <path fill="currentColor" class="ColorScheme-Text" opacity="1.0" fill-rule="evenodd" d="M 8.801 13.638 C 8.801 13.559 8.973 13.46 9.507 13.232 C 9.753 13.128 9.838 13.118 9.895 13.187 C 9.935 13.235 9.954 13.291 9.938 13.311 C 9.91 13.344 8.895 13.714 8.83 13.714 C 8.814 13.714 8.801 13.68 8.801 13.638 L 8.801 13.638 L 8.801 13.638 L 8.801 13.638 L 8.801 13.638 L 8.801 13.638 L 8.801 13.638 Z M 9.066 12.679 C 8.776 12.555 8.695 12.368 8.97 12.457 C 9.412 12.6 9.427 12.577 9.393 11.775 C 9.373 11.274 9.394 11.042 9.457 11.092 C 9.51 11.135 9.569 11.535 9.588 11.983 C 9.628 12.878 9.605 12.909 9.066 12.679 L 9.066 12.679 L 9.066 12.679 L 9.066 12.679 L 9.066 12.679 L 9.066 12.679 L 9.066 12.679 Z M 3.034 9.909 C 2.761 9.723 2.538 9.556 2.539 9.537 C 2.539 9.519 2.681 9.389 2.853 9.248 C 3.151 9.004 3.192 8.79 3.191 8.621 C 3.19 8.529 2.084 7.002 1.394 6.139 C 1.127 5.805 0.889 5.479 0.866 5.414 C 0.84 5.341 0.873 5.232 0.954 5.126 C 1.227 4.77 1.689 4.202 1.944 3.714 C 2.197 3.23 2.5 2.833 2.552 2.917 C 2.628 3.039 2.704 2.963 3.304 2.16 C 3.908 1.352 4.402 0.598 4.523 0.598 C 4.659 0.598 4.603 0.734 4.343 1.029 C 3.88 1.523 3.736 2.206 3.735 2.653 C 3.694 3.496 4.38 4.102 5.126 4.446 C 6.081 4.671 6.971 4.57 7.138 3.772 C 7.278 3.108 6.809 2.701 6.266 2.538 C 6.133 2.599 5.748 3.005 5.626 3.393 C 5.583 3.528 5.46 3.478 5.46 3.325 C 5.46 3.008 5.819 2.198 6.009 1.853 C 6.275 1.368 6.566 1.344 6.805 1.392 C 6.939 1.419 7.04 1.335 7.161 1.239 L 7.331 1.106 C 7.921 1.54 8.582 1.859 9.212 2.226 C 9.919 2.728 10.599 3.012 10.607 3.083 C 10.611 3.126 10.608 3.128 10.6 3.436 C 10.587 3.971 10.592 3.997 10.723 3.997 C 10.988 3.997 11.255 3.849 11.608 3.422 C 12.228 2.674 12.308 2.667 12.308 2.04 C 12.352 1.559 11.719 0.531 11.323 0.916 C 11.156 1.083 10.963 1.669 11.023 1.826 C 11.064 1.932 11.318 2.005 11.459 1.951 C 11.606 1.894 11.582 2.011 11.416 2.162 C 11.197 2.361 10.96 2.395 10.784 2.253 C 10.568 2.077 10.51 1.38 10.674 0.932 C 10.83 0.507 11.387 0.056 11.504 0.011 C 11.636 -0.04 11.784 0.066 12.31 0.758 C 13.159 2.034 14.084 3.177 14.912 4.396 C 15.015 4.547 15.115 4.768 15.134 4.887 C 15.166 5.086 15.128 5.151 14.675 5.67 C 13.929 6.525 13.427 7.217 13.427 7.393 C 13.427 7.581 13.813 7.734 14.152 7.786 C 14.397 7.824 14.558 7.908 14.558 7.997 C 14.156 8.546 12.568 10.788 12.377 10.635 C 12.358 10.605 12.327 10.244 12.308 9.834 C 12.161 8.723 12.108 8.124 11.979 7.039 C 11.94 6.828 11.934 6.824 11.675 6.86 C 11.042 6.948 10.262 6.997 9.639 7.101 C 9.136 7.185 8.696 7.536 8.491 7.426 C 8.281 7.314 7.175 7.114 6.518 7.032 C 4.58 6.789 4.898 6.83 4.898 7.069 L 5.322 10.506 C 5.322 10.506 5.526 11.429 5.356 11.429 C 4.432 11.076 3.753 10.404 3.034 9.908 L 3.034 9.909 L 3.034 9.909 L 3.034 9.909 L 3.034 9.909 L 3.034 9.909 Z M 7.143 10.857 C 7.143 10.542 7.399 10.286 7.714 10.286 C 8.03 10.286 8.286 10.542 8.286 10.857 C 8.286 11.172 8.03 11.429 7.714 11.429 C 7.399 11.429 7.143 11.172 7.143 10.857 L 7.143 10.857 L 7.143 10.857 L 7.143 10.857 Z M 6.157 9.715 C 6.116 9.715 6.09 9.72 6.081 9.724 C 6.05 9.744 6.019 9.862 6.012 9.986 L 6 10.212 L 6.788 10.25 C 7.232 10.288 7.725 10.298 8.142 10.269 C 8.289 10.269 8.305 10.258 8.27 10.183 C 8.177 9.983 8.028 9.868 7.851 9.857 C 7.754 9.852 7.329 9.811 6.906 9.767 C 6.544 9.73 6.281 9.711 6.157 9.714 L 6.157 9.715 L 6.157 9.715 L 6.157 9.715 Z M 9.566 9.143 C 9.51 9.143 9.475 9.149 9.467 9.155 C 9.437 9.183 9.421 9.319 9.432 9.457 C 9.45 9.685 9.465 9.707 9.606 9.697 C 9.999 9.717 10.395 9.714 10.794 9.714 C 11.107 9.701 11.494 9.502 11.714 9.395 C 11.714 9.363 11.685 9.337 11.648 9.337 C 11.612 9.337 11.118 9.284 10.552 9.22 C 10.098 9.169 9.734 9.141 9.566 9.143 L 9.566 9.143 L 9.566 9.143 Z M 9.429 10.286 C 9.429 9.97 9.685 9.714 10 9.714 C 10.315 9.714 10.571 9.97 10.571 10.286 C 10.571 10.601 10.315 10.857 10 10.857 C 9.685 10.857 9.429 10.601 9.429 10.286 Z"/>
</svg>
