<svg xmlns="http://www.w3.org/2000/svg" width="16" height="16" version="1.1">
 <defs>
   <style id="current-color-scheme" type="text/css">
   .ColorScheme-Text { color: #0391e8; } .ColorScheme-Highlight { color:#5294e2; }
  </style>
  <linearGradient id="arrongin" x1="0%" x2="0%" y1="0%" y2="100%">
   <stop offset="0%" style="stop-color:#dd9b44; stop-opacity:1"/>
   <stop offset="100%" style="stop-color:#ad6c16; stop-opacity:1"/>
  </linearGradient>
  <linearGradient id="aurora" x1="0%" x2="0%" y1="0%" y2="100%">
   <stop offset="0%" style="stop-color:#09D4DF; stop-opacity:1"/>
   <stop offset="100%" style="stop-color:#9269F4; stop-opacity:1"/>
  </linearGradient>
  <linearGradient id="cyberneon" x1="0%" x2="0%" y1="0%" y2="100%">
    <stop offset="0" style="stop-color:#0abdc6; stop-opacity:1"/>
    <stop offset="1" style="stop-color:#ea00d9; stop-opacity:1"/>
  </linearGradient>
  <linearGradient id="fitdance" x1="0%" x2="0%" y1="0%" y2="100%">
   <stop offset="0%" style="stop-color:#1AD6AB; stop-opacity:1"/>
   <stop offset="100%" style="stop-color:#329DB6; stop-opacity:1"/>
  </linearGradient>
  <linearGradient id="oomox" x1="0%" x2="0%" y1="0%" y2="100%">
   <stop offset="0%" style="stop-color:#efefe7; stop-opacity:1"/>
   <stop offset="100%" style="stop-color:#8f8f8b; stop-opacity:1"/>
  </linearGradient>
  <linearGradient id="rainblue" x1="0%" x2="0%" y1="0%" y2="100%">
   <stop offset="0%" style="stop-color:#00F260; stop-opacity:1"/>
   <stop offset="100%" style="stop-color:#0575E6; stop-opacity:1"/>
  </linearGradient>
  <linearGradient id="sunrise" x1="0%" x2="0%" y1="0%" y2="100%">
   <stop offset="0%" style="stop-color: #FF8501; stop-opacity:1"/>
   <stop offset="100%" style="stop-color: #FFCB01; stop-opacity:1"/>
  </linearGradient>
  <linearGradient id="telinkrin" x1="0%" x2="0%" y1="0%" y2="100%">
   <stop offset="0%" style="stop-color: #b2ced6; stop-opacity:1"/>
   <stop offset="100%" style="stop-color: #6da5b7; stop-opacity:1"/>
  </linearGradient>
  <linearGradient id="60spsycho" x1="0%" x2="0%" y1="0%" y2="100%">
   <stop offset="0%" style="stop-color: #df5940; stop-opacity:1"/>
   <stop offset="25%" style="stop-color: #d8d15f; stop-opacity:1"/>
   <stop offset="50%" style="stop-color: #e9882a; stop-opacity:1"/>
   <stop offset="100%" style="stop-color: #279362; stop-opacity:1"/>
  </linearGradient>
  <linearGradient id="90ssummer" x1="0%" x2="0%" y1="0%" y2="100%">
   <stop offset="0%" style="stop-color: #f618c7; stop-opacity:1"/>
   <stop offset="20%" style="stop-color: #94ffab; stop-opacity:1"/>
   <stop offset="50%" style="stop-color: #fbfd54; stop-opacity:1"/>
   <stop offset="100%" style="stop-color: #0f83ae; stop-opacity:1"/>
  </linearGradient>
 </defs>
 <path fill="currentColor" class="ColorScheme-Text" fill-rule="evenodd" d="M 8 2.012 C 6.391 3.142 4.438 4.232 2.266 4.807 C 2.384 5.385 2.454 5.823 2.612 6.352 C 2.979 7.58 3.369 8.567 3.895 9.61 C 5.008 11.818 6.309 13.073 8 14.136 C 9.691 13.073 10.992 11.818 12.105 9.61 C 12.631 8.567 13.021 7.58 13.388 6.352 C 13.546 5.823 13.616 5.385 13.734 4.807 C 11.562 4.232 9.609 3.142 8 2.012 L 8 2.012 Z M 8 0 C 7.954 0 7.758 0.13 7.548 0.289 C 5.695 1.661 3.089 3.09 0.608 3.443 L 0.286 3.493 L 0.308 3.817 C 0.345 4.365 0.663 5.821 0.969 6.843 C 1.361 8.152 1.795 9.252 2.365 10.383 C 3.656 12.943 5.288 14.529 7.293 15.746 C 7.555 15.905 7.797 15.99 8 16 C 8.203 15.99 8.445 15.905 8.707 15.746 C 10.712 14.529 12.344 12.943 13.635 10.383 C 14.205 9.252 14.639 8.152 15.031 6.843 C 15.337 5.821 15.655 4.365 15.692 3.817 L 15.714 3.493 L 15.392 3.443 C 12.911 3.09 10.305 1.661 8.452 0.289 C 8.242 0.13 8.046 0 8 0 L 8 0 L 8 0 Z M 7.986 3.454 C 6.836 5.452 5.892 6.773 5.15 7.413 L 6.077 7.553 C 5.936 8.358 5.521 9.107 4.827 9.8 C 6.076 9.737 6.962 9.64 7.256 9.505 L 7.172 12.046 C 7.723 12.197 8.29 12.198 8.87 12.046 L 8.758 9.477 C 9.619 9.648 10.467 9.724 11.103 9.701 C 10.444 8.831 10.071 8.135 9.98 7.609 L 10.808 7.371 C 10.145 6.859 9.206 5.555 7.986 3.454 Z"/>
</svg>
