<svg xmlns="http://www.w3.org/2000/svg" width="16" height="16" version="1.1">
 <defs>
   <style id="current-color-scheme" type="text/css">
   .ColorScheme-Text { color: #0391e8; } .ColorScheme-Highlight { color:#5294e2; }
  </style>
  <linearGradient id="arrongin" x1="0%" x2="0%" y1="0%" y2="100%">
   <stop offset="0%" style="stop-color:#dd9b44; stop-opacity:1"/>
   <stop offset="100%" style="stop-color:#ad6c16; stop-opacity:1"/>
  </linearGradient>
  <linearGradient id="aurora" x1="0%" x2="0%" y1="0%" y2="100%">
   <stop offset="0%" style="stop-color:#09D4DF; stop-opacity:1"/>
   <stop offset="100%" style="stop-color:#9269F4; stop-opacity:1"/>
  </linearGradient>
  <linearGradient id="cyberneon" x1="0%" x2="0%" y1="0%" y2="100%">
    <stop offset="0" style="stop-color:#0abdc6; stop-opacity:1"/>
    <stop offset="1" style="stop-color:#ea00d9; stop-opacity:1"/>
  </linearGradient>
  <linearGradient id="fitdance" x1="0%" x2="0%" y1="0%" y2="100%">
   <stop offset="0%" style="stop-color:#1AD6AB; stop-opacity:1"/>
   <stop offset="100%" style="stop-color:#329DB6; stop-opacity:1"/>
  </linearGradient>
  <linearGradient id="oomox" x1="0%" x2="0%" y1="0%" y2="100%">
   <stop offset="0%" style="stop-color:#efefe7; stop-opacity:1"/>
   <stop offset="100%" style="stop-color:#8f8f8b; stop-opacity:1"/>
  </linearGradient>
  <linearGradient id="rainblue" x1="0%" x2="0%" y1="0%" y2="100%">
   <stop offset="0%" style="stop-color:#00F260; stop-opacity:1"/>
   <stop offset="100%" style="stop-color:#0575E6; stop-opacity:1"/>
  </linearGradient>
  <linearGradient id="sunrise" x1="0%" x2="0%" y1="0%" y2="100%">
   <stop offset="0%" style="stop-color: #FF8501; stop-opacity:1"/>
   <stop offset="100%" style="stop-color: #FFCB01; stop-opacity:1"/>
  </linearGradient>
  <linearGradient id="telinkrin" x1="0%" x2="0%" y1="0%" y2="100%">
   <stop offset="0%" style="stop-color: #b2ced6; stop-opacity:1"/>
   <stop offset="100%" style="stop-color: #6da5b7; stop-opacity:1"/>
  </linearGradient>
  <linearGradient id="60spsycho" x1="0%" x2="0%" y1="0%" y2="100%">
   <stop offset="0%" style="stop-color: #df5940; stop-opacity:1"/>
   <stop offset="25%" style="stop-color: #d8d15f; stop-opacity:1"/>
   <stop offset="50%" style="stop-color: #e9882a; stop-opacity:1"/>
   <stop offset="100%" style="stop-color: #279362; stop-opacity:1"/>
  </linearGradient>
  <linearGradient id="90ssummer" x1="0%" x2="0%" y1="0%" y2="100%">
   <stop offset="0%" style="stop-color: #f618c7; stop-opacity:1"/>
   <stop offset="20%" style="stop-color: #94ffab; stop-opacity:1"/>
   <stop offset="50%" style="stop-color: #fbfd54; stop-opacity:1"/>
   <stop offset="100%" style="stop-color: #0f83ae; stop-opacity:1"/>
  </linearGradient>
 </defs>
 <path fill="currentColor" class="ColorScheme-Text" d="m 6.2781035,16 h 4.7757805 c 0.0028,-1.017752 0.0057,-2.217071 0.0057,-2.999282 0,-0.921865 -0.381184,-1.52504 -0.726497,-1.830312 2.1452,-0.244535 4.397383,-1.081097 4.397383,-4.8788793 0,-1.0790173 -0.300095,-1.9616881 -0.917363,-2.6523212 0.09876,-0.2498268 0.430144,-1.2558614 -0.09551,-2.6164156 0,0 -0.05061,-0.015118 -0.154999,-0.022677 h -8.23e-4 c -0.313172,-0.015118 -1.19554,0.089953 -2.574713,1.0493479 C 10.215513,1.8166419 9.3347965,1.7308467 8.4166355,1.7331144 c -0.839936,0.00121 -1.710984,0.070677 -2.55758,0.3163464 -1.37961,-0.9593951 -2.084643,-1.06333214 -2.398125,-1.0485542 -0.104504,0.00378 -0.154998,0.018898 -0.154998,0.018898 -0.524478,1.3605542 -0.192794,2.3670801 -0.09347,2.6170581 -0.616127,0.690633 -0.977496,1.5726614 -0.977496,2.6516787 0,3.7880696 2.454441,4.6365736 4.593169,4.8860216 -0.27496,0.247181 -0.447964,0.757607 -0.535475,1.396044 -0.54872,0.253229 -2.020661,0.872429 -2.879811,-0.638135 0,0 -0.508256,-0.949455 -1.475052,-1.019225 0,0 -0.93991499,-0.01134 -0.06535,0.600869 0,0 0.631344,0.304252 1.06952,1.446312 0,0 0.650751,1.738583 3.329926,1.141417 0.0023,0.406035 0.0042,1.162545 0.0061,1.895169 z"/>
</svg>
