<svg xmlns="http://www.w3.org/2000/svg" width="16" height="16" version="1.1">
 <defs>
   <style id="current-color-scheme" type="text/css">
   .ColorScheme-Text { color: #0391e8; } .ColorScheme-Highlight { color:#5294e2; }
  </style>
  <linearGradient id="arrongin" x1="0%" x2="0%" y1="0%" y2="100%">
   <stop offset="0%" style="stop-color:#dd9b44; stop-opacity:1"/>
   <stop offset="100%" style="stop-color:#ad6c16; stop-opacity:1"/>
  </linearGradient>
  <linearGradient id="aurora" x1="0%" x2="0%" y1="0%" y2="100%">
   <stop offset="0%" style="stop-color:#09D4DF; stop-opacity:1"/>
   <stop offset="100%" style="stop-color:#9269F4; stop-opacity:1"/>
  </linearGradient>
  <linearGradient id="cyberneon" x1="0%" x2="0%" y1="0%" y2="100%">
    <stop offset="0" style="stop-color:#0abdc6; stop-opacity:1"/>
    <stop offset="1" style="stop-color:#ea00d9; stop-opacity:1"/>
  </linearGradient>
  <linearGradient id="fitdance" x1="0%" x2="0%" y1="0%" y2="100%">
   <stop offset="0%" style="stop-color:#1AD6AB; stop-opacity:1"/>
   <stop offset="100%" style="stop-color:#329DB6; stop-opacity:1"/>
  </linearGradient>
  <linearGradient id="oomox" x1="0%" x2="0%" y1="0%" y2="100%">
   <stop offset="0%" style="stop-color:#efefe7; stop-opacity:1"/>
   <stop offset="100%" style="stop-color:#8f8f8b; stop-opacity:1"/>
  </linearGradient>
  <linearGradient id="rainblue" x1="0%" x2="0%" y1="0%" y2="100%">
   <stop offset="0%" style="stop-color:#00F260; stop-opacity:1"/>
   <stop offset="100%" style="stop-color:#0575E6; stop-opacity:1"/>
  </linearGradient>
  <linearGradient id="sunrise" x1="0%" x2="0%" y1="0%" y2="100%">
   <stop offset="0%" style="stop-color: #FF8501; stop-opacity:1"/>
   <stop offset="100%" style="stop-color: #FFCB01; stop-opacity:1"/>
  </linearGradient>
  <linearGradient id="telinkrin" x1="0%" x2="0%" y1="0%" y2="100%">
   <stop offset="0%" style="stop-color: #b2ced6; stop-opacity:1"/>
   <stop offset="100%" style="stop-color: #6da5b7; stop-opacity:1"/>
  </linearGradient>
  <linearGradient id="60spsycho" x1="0%" x2="0%" y1="0%" y2="100%">
   <stop offset="0%" style="stop-color: #df5940; stop-opacity:1"/>
   <stop offset="25%" style="stop-color: #d8d15f; stop-opacity:1"/>
   <stop offset="50%" style="stop-color: #e9882a; stop-opacity:1"/>
   <stop offset="100%" style="stop-color: #279362; stop-opacity:1"/>
  </linearGradient>
  <linearGradient id="90ssummer" x1="0%" x2="0%" y1="0%" y2="100%">
   <stop offset="0%" style="stop-color: #f618c7; stop-opacity:1"/>
   <stop offset="20%" style="stop-color: #94ffab; stop-opacity:1"/>
   <stop offset="50%" style="stop-color: #fbfd54; stop-opacity:1"/>
   <stop offset="100%" style="stop-color: #0f83ae; stop-opacity:1"/>
  </linearGradient>
 </defs>
 <path fill="currentColor" class="ColorScheme-Text" d="m 7.9879117,0.50052976 c -2.7024906,0 -4.8781416,2.17568494 -4.8781416,4.87812274 V 7.8177327 H 2.5 V 11.285789 L 2.7477102,10.961883 C 3.1021921,10.485852 4.0470097,9.8058776 4.7866217,9.5137201 5.1762834,9.3595154 6.1118903,9.1909485 7.1685291,9.0754461 8.7605416,8.8962965 11.768392,9.0372729 12.866051,7.8177705 V 5.3786903 c 0,-2.7024378 -2.175652,-4.87812275 -4.8781468,-4.87812275 z M 8.388073,1.0912699 C 8.6192667,1.106388 8.8458871,1.1317108 9.074061,1.186514 9.8938176,1.3834274 9.9863706,1.5732731 9.1883917,1.4151754 7.9328856,1.1664825 6.2653089,1.7250967 5.2439559,2.7490462 4.93857,3.0551879 4.5532548,3.5621737 4.386468,3.8733422 4.0428334,4.5145013 4.0968806,4.1016257 4.462701,3.3206997 5.1314997,1.8931345 6.7696565,0.99681952 8.3880842,1.0912699 Z M 7.9879117,2.93961 c 1.3512491,0 2.4390733,1.0878236 2.4390733,2.4390425 V 7.8177327 H 5.5488428 V 5.3786525 c 0,-1.3512189 1.0878236,-2.4390425 2.4390689,-2.4390425 z M 13.475828,8.8886619 12.827949,9.42218 c -0.352139,0.2997165 -0.90322,0.709757 -1.238593,0.914645 -0.686374,0.41949 -2.3136723,1.009927 -2.8011218,1.009927 -0.1833448,0 -0.2908346,0.04422 -0.2477102,0.11452 0.08126,0.131906 1.0555313,0.07219 2.077025,-0.133417 0.335357,-0.06765 1.113585,-0.371906 1.734025,-0.685984 l 1.124262,-0.571653 V 9.4795154 Z m 0,1.3147841 -0.342992,0.476409 c -1.137653,1.568126 -2.990162,2.437039 -5.5641343,2.591508 -1.7192315,0.103182 -1.0897777,0.298583 0.9718185,0.30463 1.3965394,0.0017 1.7113218,-0.04044 2.5534038,-0.323905 0.526821,-0.17726 0.96429,-0.312567 0.990875,-0.28611 0.09592,0.096 -0.934749,0.948963 -1.505367,1.238589 -1.0933156,0.55491 -1.8378031,0.710702 -3.8110491,0.800315 -1.4017398,0.06387 -1.9772182,0.136063 -2.2485203,0.285732 C 4.1744138,15.480724 4.4026595,15.493952 8.8072944,15.5 h 4.6685376 z"/>
</svg>
