<svg xmlns="http://www.w3.org/2000/svg" width="16" height="16" version="1.1">
 <defs>
   <style id="current-color-scheme" type="text/css">
   .ColorScheme-Text { color: #0391e8; } .ColorScheme-Highlight { color:#5294e2; }
  </style>
  <linearGradient id="arrongin" x1="0%" x2="0%" y1="0%" y2="100%">
   <stop offset="0%" style="stop-color:#dd9b44; stop-opacity:1"/>
   <stop offset="100%" style="stop-color:#ad6c16; stop-opacity:1"/>
  </linearGradient>
  <linearGradient id="aurora" x1="0%" x2="0%" y1="0%" y2="100%">
   <stop offset="0%" style="stop-color:#09D4DF; stop-opacity:1"/>
   <stop offset="100%" style="stop-color:#9269F4; stop-opacity:1"/>
  </linearGradient>
  <linearGradient id="cyberneon" x1="0%" x2="0%" y1="0%" y2="100%">
    <stop offset="0" style="stop-color:#0abdc6; stop-opacity:1"/>
    <stop offset="1" style="stop-color:#ea00d9; stop-opacity:1"/>
  </linearGradient>
  <linearGradient id="fitdance" x1="0%" x2="0%" y1="0%" y2="100%">
   <stop offset="0%" style="stop-color:#1AD6AB; stop-opacity:1"/>
   <stop offset="100%" style="stop-color:#329DB6; stop-opacity:1"/>
  </linearGradient>
  <linearGradient id="oomox" x1="0%" x2="0%" y1="0%" y2="100%">
   <stop offset="0%" style="stop-color:#efefe7; stop-opacity:1"/>
   <stop offset="100%" style="stop-color:#8f8f8b; stop-opacity:1"/>
  </linearGradient>
  <linearGradient id="rainblue" x1="0%" x2="0%" y1="0%" y2="100%">
   <stop offset="0%" style="stop-color:#00F260; stop-opacity:1"/>
   <stop offset="100%" style="stop-color:#0575E6; stop-opacity:1"/>
  </linearGradient>
  <linearGradient id="sunrise" x1="0%" x2="0%" y1="0%" y2="100%">
   <stop offset="0%" style="stop-color: #FF8501; stop-opacity:1"/>
   <stop offset="100%" style="stop-color: #FFCB01; stop-opacity:1"/>
  </linearGradient>
  <linearGradient id="telinkrin" x1="0%" x2="0%" y1="0%" y2="100%">
   <stop offset="0%" style="stop-color: #b2ced6; stop-opacity:1"/>
   <stop offset="100%" style="stop-color: #6da5b7; stop-opacity:1"/>
  </linearGradient>
  <linearGradient id="60spsycho" x1="0%" x2="0%" y1="0%" y2="100%">
   <stop offset="0%" style="stop-color: #df5940; stop-opacity:1"/>
   <stop offset="25%" style="stop-color: #d8d15f; stop-opacity:1"/>
   <stop offset="50%" style="stop-color: #e9882a; stop-opacity:1"/>
   <stop offset="100%" style="stop-color: #279362; stop-opacity:1"/>
  </linearGradient>
  <linearGradient id="90ssummer" x1="0%" x2="0%" y1="0%" y2="100%">
   <stop offset="0%" style="stop-color: #f618c7; stop-opacity:1"/>
   <stop offset="20%" style="stop-color: #94ffab; stop-opacity:1"/>
   <stop offset="50%" style="stop-color: #fbfd54; stop-opacity:1"/>
   <stop offset="100%" style="stop-color: #0f83ae; stop-opacity:1"/>
  </linearGradient>
 </defs>
 <path fill="currentColor" class="ColorScheme-Text" fill-rule="evenodd" d="M 12.29 15.916 L 9.979 15.916 C 9.796 15.916 9.649 15.768 9.649 15.585 C 9.649 9.139 14.625 5.698 15.592 5.698 C 15.837 5.698 15.933 5.85 15.963 5.916 C 16.075 6.16 15.925 6.333 15.626 6.678 C 14.804 7.627 12.62 10.146 12.62 15.585 C 12.62 15.768 12.472 15.916 12.29 15.916 L 12.29 15.916 Z M 13.634 2.983 C 13.603 2.865 13.497 2.735 13.294 2.726 L 13.258 2.726 C 13.222 2.726 10.05 2.781 8.231 6.921 C 8.63 7.994 8.976 9.233 9.227 10.639 C 9.7 7.857 10.827 5.01 13.322 3.47 C 13.499 3.36 13.7 3.236 13.634 2.983 L 13.634 2.983 Z M 6.353 15.916 L 4.035 15.916 C 3.853 15.916 3.705 15.768 3.705 15.585 C 3.705 10.085 1.301 7.593 0.396 6.656 C 0.084 6.332 -0.073 6.17 0.033 5.922 C 0.055 5.869 0.148 5.698 0.403 5.698 C 1.128 5.698 6.639 8.846 6.677 15.518 C 6.697 15.616 6.672 15.717 6.609 15.794 C 6.547 15.871 6.453 15.916 6.353 15.916 L 6.353 15.916 Z M 8.988 15.519 C 8.964 3.65 2.43 0.084 1.724 0.084 C 1.478 0.084 1.388 0.254 1.367 0.306 C 1.27 0.543 1.426 0.698 1.662 0.932 C 3.565 2.823 4.847 5.614 5.502 9.253 C 6.535 10.866 7.313 12.936 7.337 15.466 C 7.354 15.618 7.336 15.772 7.282 15.915 L 8.665 15.915 C 8.764 15.915 8.858 15.871 8.92 15.794 C 8.983 15.717 9.008 15.616 8.988 15.519 Z"/>
</svg>
