<svg xmlns="http://www.w3.org/2000/svg" width="16" height="16" version="1.1">
 <defs>
   <style id="current-color-scheme" type="text/css">
   .ColorScheme-Text { color: #0391e8; } .ColorScheme-Highlight { color:#5294e2; }
  </style>
  <linearGradient id="arrongin" x1="0%" x2="0%" y1="0%" y2="100%">
   <stop offset="0%" style="stop-color:#dd9b44; stop-opacity:1"/>
   <stop offset="100%" style="stop-color:#ad6c16; stop-opacity:1"/>
  </linearGradient>
  <linearGradient id="aurora" x1="0%" x2="0%" y1="0%" y2="100%">
   <stop offset="0%" style="stop-color:#09D4DF; stop-opacity:1"/>
   <stop offset="100%" style="stop-color:#9269F4; stop-opacity:1"/>
  </linearGradient>
  <linearGradient id="cyberneon" x1="0%" x2="0%" y1="0%" y2="100%">
    <stop offset="0" style="stop-color:#0abdc6; stop-opacity:1"/>
    <stop offset="1" style="stop-color:#ea00d9; stop-opacity:1"/>
  </linearGradient>
  <linearGradient id="fitdance" x1="0%" x2="0%" y1="0%" y2="100%">
   <stop offset="0%" style="stop-color:#1AD6AB; stop-opacity:1"/>
   <stop offset="100%" style="stop-color:#329DB6; stop-opacity:1"/>
  </linearGradient>
  <linearGradient id="oomox" x1="0%" x2="0%" y1="0%" y2="100%">
   <stop offset="0%" style="stop-color:#efefe7; stop-opacity:1"/>
   <stop offset="100%" style="stop-color:#8f8f8b; stop-opacity:1"/>
  </linearGradient>
  <linearGradient id="rainblue" x1="0%" x2="0%" y1="0%" y2="100%">
   <stop offset="0%" style="stop-color:#00F260; stop-opacity:1"/>
   <stop offset="100%" style="stop-color:#0575E6; stop-opacity:1"/>
  </linearGradient>
  <linearGradient id="sunrise" x1="0%" x2="0%" y1="0%" y2="100%">
   <stop offset="0%" style="stop-color: #FF8501; stop-opacity:1"/>
   <stop offset="100%" style="stop-color: #FFCB01; stop-opacity:1"/>
  </linearGradient>
  <linearGradient id="telinkrin" x1="0%" x2="0%" y1="0%" y2="100%">
   <stop offset="0%" style="stop-color: #b2ced6; stop-opacity:1"/>
   <stop offset="100%" style="stop-color: #6da5b7; stop-opacity:1"/>
  </linearGradient>
  <linearGradient id="60spsycho" x1="0%" x2="0%" y1="0%" y2="100%">
   <stop offset="0%" style="stop-color: #df5940; stop-opacity:1"/>
   <stop offset="25%" style="stop-color: #d8d15f; stop-opacity:1"/>
   <stop offset="50%" style="stop-color: #e9882a; stop-opacity:1"/>
   <stop offset="100%" style="stop-color: #279362; stop-opacity:1"/>
  </linearGradient>
  <linearGradient id="90ssummer" x1="0%" x2="0%" y1="0%" y2="100%">
   <stop offset="0%" style="stop-color: #f618c7; stop-opacity:1"/>
   <stop offset="20%" style="stop-color: #94ffab; stop-opacity:1"/>
   <stop offset="50%" style="stop-color: #fbfd54; stop-opacity:1"/>
   <stop offset="100%" style="stop-color: #0f83ae; stop-opacity:1"/>
  </linearGradient>
 </defs>
 <path fill="currentColor" class="ColorScheme-Text" fill-rule="evenodd" d="M 7.78 3.822 C 7.737 3.557 7.715 3.292 7.711 3.027 C 7.715 2.647 7.758 2.268 7.84 1.895 C 7.923 1.601 8.055 1.322 8.224 1.068 C 8.385 0.828 8.585 0.624 8.815 0.455 C 9.248 0.151 9.764 -0.007 10.29 0 C 10.717 0.007 11.139 0.097 11.533 0.262 C 11.92 0.423 12.282 0.638 12.604 0.903 C 12.826 1.082 12.966 1.343 12.995 1.626 C 13.02 1.913 12.934 2.196 12.755 2.414 C 12.575 2.636 12.314 2.776 12.031 2.805 C 11.745 2.83 11.462 2.744 11.243 2.565 C 11.082 2.432 10.899 2.325 10.706 2.246 C 10.563 2.185 10.409 2.153 10.254 2.149 C 10.187 2.149 10.122 2.167 10.065 2.203 C 10.043 2.221 10.025 2.242 10.007 2.264 C 9.972 2.321 9.943 2.378 9.921 2.439 C 9.882 2.633 9.864 2.826 9.861 3.023 C 9.864 3.206 9.882 3.389 9.918 3.564 C 10.308 3.593 10.695 3.654 11.078 3.74 C 11.53 3.843 11.963 4.005 12.371 4.22 C 12.862 4.477 13.306 4.811 13.693 5.205 C 14.144 5.667 14.499 6.211 14.742 6.806 C 15.018 7.508 15.158 8.253 15.147 9.005 C 15.147 9.417 15.111 9.825 15.047 10.23 C 14.914 11.111 14.639 11.96 14.227 12.748 C 13.879 13.4 13.421 13.983 12.869 14.47 C 12.024 15.219 10.978 15.706 9.861 15.871 C 9.295 15.953 8.725 15.996 8.156 16 C 7.479 16.004 6.809 15.935 6.15 15.789 C 5.365 15.62 4.617 15.312 3.94 14.879 C 3.155 14.37 2.5 13.69 2.02 12.887 C 1.744 12.429 1.522 11.938 1.354 11.43 C 1.164 10.853 1.028 10.262 0.949 9.66 C 0.885 9.212 0.852 8.758 0.852 8.303 C 0.849 7.64 0.928 6.974 1.092 6.329 C 1.268 5.663 1.544 5.029 1.916 4.445 C 2.317 3.822 2.815 3.263 3.392 2.794 C 4.047 2.26 4.767 1.816 5.537 1.469 C 5.795 1.354 6.093 1.343 6.358 1.444 C 6.626 1.548 6.841 1.748 6.959 2.01 C 7.074 2.268 7.085 2.565 6.984 2.83 C 6.881 3.098 6.68 3.313 6.418 3.432 C 5.82 3.7 5.258 4.044 4.749 4.459 C 4.352 4.785 4.004 5.172 3.725 5.606 C 3.478 5.996 3.292 6.422 3.173 6.87 C 3.055 7.336 2.998 7.812 3.002 8.296 C 3.002 8.654 3.027 9.015 3.077 9.37 C 3.138 9.843 3.245 10.305 3.392 10.756 C 3.514 11.114 3.671 11.462 3.865 11.784 C 4.173 12.304 4.595 12.744 5.1 13.074 C 5.562 13.364 6.075 13.575 6.608 13.69 C 7.11 13.801 7.626 13.854 8.141 13.851 C 8.61 13.851 9.08 13.811 9.545 13.743 C 10.251 13.64 10.91 13.335 11.444 12.862 C 11.802 12.547 12.099 12.167 12.325 11.745 C 12.626 11.168 12.83 10.545 12.923 9.897 C 12.973 9.599 12.998 9.295 12.998 8.99 C 13.005 8.518 12.919 8.048 12.747 7.608 C 12.608 7.271 12.407 6.963 12.156 6.705 C 11.927 6.469 11.662 6.275 11.368 6.121 C 11.197 6.032 11.017 5.957 10.831 5.896 C 10.86 5.971 10.885 6.046 10.914 6.121 C 11.111 6.666 11.268 7.225 11.383 7.79 C 11.444 8.095 11.472 8.403 11.476 8.715 C 11.479 9.084 11.426 9.449 11.318 9.8 C 11.189 10.194 10.974 10.556 10.684 10.857 C 10.366 11.175 9.972 11.415 9.542 11.551 C 9.072 11.702 8.582 11.773 8.091 11.763 L 7.976 11.763 C 7.697 11.759 7.418 11.709 7.156 11.609 C 6.891 11.508 6.648 11.358 6.436 11.168 C 6.243 10.989 6.071 10.788 5.924 10.566 C 5.777 10.344 5.648 10.111 5.534 9.872 C 5.258 9.291 5.122 8.657 5.129 8.02 C 5.133 7.056 5.412 6.114 5.935 5.305 C 6.311 4.714 6.848 4.241 7.479 3.944 C 7.579 3.901 7.679 3.858 7.78 3.822 Z M 8.485 5.853 C 8.449 5.867 8.414 5.881 8.381 5.896 C 8.12 6.021 7.898 6.222 7.744 6.465 C 7.439 6.934 7.278 7.479 7.278 8.038 C 7.275 8.353 7.339 8.664 7.475 8.951 C 7.547 9.101 7.629 9.248 7.722 9.388 C 7.765 9.456 7.819 9.517 7.88 9.574 C 7.891 9.585 7.905 9.592 7.919 9.599 C 7.948 9.61 7.973 9.614 8.002 9.614 C 8.002 9.614 8.002 9.614 8.002 9.614 L 8.12 9.614 C 8.123 9.614 8.127 9.614 8.131 9.614 C 8.388 9.621 8.643 9.585 8.883 9.506 C 8.987 9.474 9.076 9.42 9.155 9.345 C 9.205 9.291 9.244 9.223 9.27 9.152 C 9.309 9.015 9.33 8.876 9.327 8.736 C 9.327 8.561 9.309 8.385 9.277 8.21 C 9.184 7.751 9.055 7.3 8.897 6.859 C 8.768 6.519 8.632 6.182 8.485 5.853 Z"/>
</svg>
