<svg xmlns="http://www.w3.org/2000/svg" width="16" height="16" version="1.1">
 <defs>
   <style id="current-color-scheme" type="text/css">
   .ColorScheme-Text { color: #0391e8; } .ColorScheme-Highlight { color:#5294e2; }
  </style>
  <linearGradient id="arrongin" x1="0%" x2="0%" y1="0%" y2="100%">
   <stop offset="0%" style="stop-color:#dd9b44; stop-opacity:1"/>
   <stop offset="100%" style="stop-color:#ad6c16; stop-opacity:1"/>
  </linearGradient>
  <linearGradient id="aurora" x1="0%" x2="0%" y1="0%" y2="100%">
   <stop offset="0%" style="stop-color:#09D4DF; stop-opacity:1"/>
   <stop offset="100%" style="stop-color:#9269F4; stop-opacity:1"/>
  </linearGradient>
  <linearGradient id="cyberneon" x1="0%" x2="0%" y1="0%" y2="100%">
    <stop offset="0" style="stop-color:#0abdc6; stop-opacity:1"/>
    <stop offset="1" style="stop-color:#ea00d9; stop-opacity:1"/>
  </linearGradient>
  <linearGradient id="fitdance" x1="0%" x2="0%" y1="0%" y2="100%">
   <stop offset="0%" style="stop-color:#1AD6AB; stop-opacity:1"/>
   <stop offset="100%" style="stop-color:#329DB6; stop-opacity:1"/>
  </linearGradient>
  <linearGradient id="oomox" x1="0%" x2="0%" y1="0%" y2="100%">
   <stop offset="0%" style="stop-color:#efefe7; stop-opacity:1"/>
   <stop offset="100%" style="stop-color:#8f8f8b; stop-opacity:1"/>
  </linearGradient>
  <linearGradient id="rainblue" x1="0%" x2="0%" y1="0%" y2="100%">
   <stop offset="0%" style="stop-color:#00F260; stop-opacity:1"/>
   <stop offset="100%" style="stop-color:#0575E6; stop-opacity:1"/>
  </linearGradient>
  <linearGradient id="sunrise" x1="0%" x2="0%" y1="0%" y2="100%">
   <stop offset="0%" style="stop-color: #FF8501; stop-opacity:1"/>
   <stop offset="100%" style="stop-color: #FFCB01; stop-opacity:1"/>
  </linearGradient>
  <linearGradient id="telinkrin" x1="0%" x2="0%" y1="0%" y2="100%">
   <stop offset="0%" style="stop-color: #b2ced6; stop-opacity:1"/>
   <stop offset="100%" style="stop-color: #6da5b7; stop-opacity:1"/>
  </linearGradient>
  <linearGradient id="60spsycho" x1="0%" x2="0%" y1="0%" y2="100%">
   <stop offset="0%" style="stop-color: #df5940; stop-opacity:1"/>
   <stop offset="25%" style="stop-color: #d8d15f; stop-opacity:1"/>
   <stop offset="50%" style="stop-color: #e9882a; stop-opacity:1"/>
   <stop offset="100%" style="stop-color: #279362; stop-opacity:1"/>
  </linearGradient>
  <linearGradient id="90ssummer" x1="0%" x2="0%" y1="0%" y2="100%">
   <stop offset="0%" style="stop-color: #f618c7; stop-opacity:1"/>
   <stop offset="20%" style="stop-color: #94ffab; stop-opacity:1"/>
   <stop offset="50%" style="stop-color: #fbfd54; stop-opacity:1"/>
   <stop offset="100%" style="stop-color: #0f83ae; stop-opacity:1"/>
  </linearGradient>
 </defs>
 <path fill="currentColor" class="ColorScheme-Text" fill-rule="evenodd" d="M4.04476 14.2619C4.54812 14.4957 5.50572 14.8054 6.17273 14.95C7.07206 15.145 7.74233 15.1982 8.76593 15.1557C10.9182 15.0665 12.3752 14.4658 13.7505 13.1005C15.1366 11.7244 15.8476 10.0695 15.982 7.81363C16.2226 3.77509 14.0387 0.931583 10.1688 0.205285C7.03446 -0.382982 4.46708 0.291176 2.48458 2.25205C0.877482 3.84161 0.264553 5.30039 0.270881 7.74515C0.27501 9.34085 0.591941 10.4153 1.11441 11.2943L1.39437 11.7654L0.697183 13.1446C0.313735 13.9031 0 14.5944 0 14.6808C0 14.9211 0.995033 14.7189 2.1389 14.2462L3.12953 13.8367L4.04476 14.2619ZM11.4192 11.2013C11.8042 12.0037 11.7382 12.1867 10.9505 12.4973C9.19414 13.1899 8.19741 12.4476 6.11596 8.8978C4.37175 5.92298 4.03264 4.79373 4.56393 3.72917C4.84166 3.17269 5.62306 2.43793 5.93718 2.43793C6.21477 2.43793 6.71255 3.02102 7.08474 3.78219C7.49041 4.61181 7.48716 4.86438 7.06729 5.13656C6.5122 5.49651 6.05485 5.9829 6.05485 6.21337C6.05485 6.33245 6.40558 6.79186 6.83423 7.23437C7.53494 7.95762 7.64958 8.15103 7.96933 9.14929C8.16902 9.77275 8.42062 10.3186 8.54284 10.3941C8.71512 10.5004 8.92922 10.4368 9.56829 10.0895L9.82573 9.94947C9.8711 9.92481 9.91285 9.90154 9.95152 9.87999C10.3445 9.66099 10.4193 9.61931 10.736 10.0895C10.9342 10.3309 11.2416 10.8312 11.4192 11.2013Z" clip-rule="evenodd"/>
</svg>
