<svg xmlns="http://www.w3.org/2000/svg" width="16" height="16" version="1.1">
 <defs>
   <style id="current-color-scheme" type="text/css">
   .ColorScheme-Text { color: #0391e8; } .ColorScheme-Highlight { color:#5294e2; }
  </style>
  <linearGradient id="arrongin" x1="0%" x2="0%" y1="0%" y2="100%">
   <stop offset="0%" style="stop-color:#dd9b44; stop-opacity:1"/>
   <stop offset="100%" style="stop-color:#ad6c16; stop-opacity:1"/>
  </linearGradient>
  <linearGradient id="aurora" x1="0%" x2="0%" y1="0%" y2="100%">
   <stop offset="0%" style="stop-color:#09D4DF; stop-opacity:1"/>
   <stop offset="100%" style="stop-color:#9269F4; stop-opacity:1"/>
  </linearGradient>
  <linearGradient id="cyberneon" x1="0%" x2="0%" y1="0%" y2="100%">
    <stop offset="0" style="stop-color:#0abdc6; stop-opacity:1"/>
    <stop offset="1" style="stop-color:#ea00d9; stop-opacity:1"/>
  </linearGradient>
  <linearGradient id="fitdance" x1="0%" x2="0%" y1="0%" y2="100%">
   <stop offset="0%" style="stop-color:#1AD6AB; stop-opacity:1"/>
   <stop offset="100%" style="stop-color:#329DB6; stop-opacity:1"/>
  </linearGradient>
  <linearGradient id="oomox" x1="0%" x2="0%" y1="0%" y2="100%">
   <stop offset="0%" style="stop-color:#efefe7; stop-opacity:1"/>
   <stop offset="100%" style="stop-color:#8f8f8b; stop-opacity:1"/>
  </linearGradient>
  <linearGradient id="rainblue" x1="0%" x2="0%" y1="0%" y2="100%">
   <stop offset="0%" style="stop-color:#00F260; stop-opacity:1"/>
   <stop offset="100%" style="stop-color:#0575E6; stop-opacity:1"/>
  </linearGradient>
  <linearGradient id="sunrise" x1="0%" x2="0%" y1="0%" y2="100%">
   <stop offset="0%" style="stop-color: #FF8501; stop-opacity:1"/>
   <stop offset="100%" style="stop-color: #FFCB01; stop-opacity:1"/>
  </linearGradient>
  <linearGradient id="telinkrin" x1="0%" x2="0%" y1="0%" y2="100%">
   <stop offset="0%" style="stop-color: #b2ced6; stop-opacity:1"/>
   <stop offset="100%" style="stop-color: #6da5b7; stop-opacity:1"/>
  </linearGradient>
  <linearGradient id="60spsycho" x1="0%" x2="0%" y1="0%" y2="100%">
   <stop offset="0%" style="stop-color: #df5940; stop-opacity:1"/>
   <stop offset="25%" style="stop-color: #d8d15f; stop-opacity:1"/>
   <stop offset="50%" style="stop-color: #e9882a; stop-opacity:1"/>
   <stop offset="100%" style="stop-color: #279362; stop-opacity:1"/>
  </linearGradient>
  <linearGradient id="90ssummer" x1="0%" x2="0%" y1="0%" y2="100%">
   <stop offset="0%" style="stop-color: #f618c7; stop-opacity:1"/>
   <stop offset="20%" style="stop-color: #94ffab; stop-opacity:1"/>
   <stop offset="50%" style="stop-color: #fbfd54; stop-opacity:1"/>
   <stop offset="100%" style="stop-color: #0f83ae; stop-opacity:1"/>
  </linearGradient>
 </defs>
 <path fill="currentColor" class="ColorScheme-Text" d="M 5.769 0 C 4.897 0 4.491 0.762 4.491 1.278 L 4.491 10.93 L 3.004 9.592 C 2.972 9.559 1.983 8.735 1.038 9.722 C 0.252 10.691 0.842 11.669 1.198 12.047 L 3.184 14.024 C 4.459 15.299 6.131 16 7.905 16 L 11.199 16 C 13.488 16 15.351 14.137 15.351 11.848 L 15.351 1.916 C 15.351 1.401 14.946 0.639 14.074 0.639 C 13.202 0.639 12.796 1.401 12.796 1.916 L 12.796 9.003 C 12.802 9.332 12.81 9.94 12.347 10.411 C 12.146 10.614 11.789 10.86 11.199 10.86 C 10.614 10.86 10.252 10.614 10.051 10.411 C 10.004 10.364 9.961 10.314 9.921 10.261 C 9.882 10.314 9.838 10.364 9.792 10.411 C 9.59 10.614 9.234 10.86 8.644 10.86 C 8.058 10.86 7.697 10.614 7.496 10.411 C 7.03 9.936 7.041 9.307 7.047 9.003 L 7.047 1.278 C 7.047 0.747 6.65 0 5.769 0 Z M 8.644 4.472 C 8.353 4.472 8.122 4.561 7.955 4.731 C 7.674 5.016 7.682 5.429 7.685 5.679 L 7.685 9.014 C 7.682 9.264 7.677 9.679 7.955 9.962 C 8.122 10.132 8.352 10.221 8.644 10.221 C 8.939 10.221 9.176 10.132 9.342 9.962 C 9.617 9.682 9.607 9.282 9.602 9.014 L 9.602 5.689 C 9.606 5.439 9.615 5.018 9.332 4.731 C 9.165 4.562 8.933 4.472 8.644 4.472 Z M 11.199 4.472 C 10.908 4.472 10.677 4.561 10.51 4.731 C 10.231 5.016 10.237 5.429 10.241 5.679 L 10.241 9.014 C 10.236 9.264 10.232 9.679 10.51 9.962 C 10.677 10.132 10.907 10.221 11.199 10.221 C 11.495 10.221 11.732 10.132 11.898 9.962 C 12.172 9.682 12.162 9.282 12.157 9.014 L 12.157 5.689 C 12.161 5.439 12.17 5.018 11.888 4.731 C 11.72 4.562 11.488 4.472 11.199 4.472 Z"/>
</svg>
