<svg xmlns="http://www.w3.org/2000/svg" width="16" height="16" version="1.1">
 <defs>
   <style id="current-color-scheme" type="text/css">
   .ColorScheme-Text { color: #0391e8; } .ColorScheme-Highlight { color:#5294e2; }
  </style>
  <linearGradient id="arrongin" x1="0%" x2="0%" y1="0%" y2="100%">
   <stop offset="0%" style="stop-color:#dd9b44; stop-opacity:1"/>
   <stop offset="100%" style="stop-color:#ad6c16; stop-opacity:1"/>
  </linearGradient>
  <linearGradient id="aurora" x1="0%" x2="0%" y1="0%" y2="100%">
   <stop offset="0%" style="stop-color:#09D4DF; stop-opacity:1"/>
   <stop offset="100%" style="stop-color:#9269F4; stop-opacity:1"/>
  </linearGradient>
  <linearGradient id="cyberneon" x1="0%" x2="0%" y1="0%" y2="100%">
    <stop offset="0" style="stop-color:#0abdc6; stop-opacity:1"/>
    <stop offset="1" style="stop-color:#ea00d9; stop-opacity:1"/>
  </linearGradient>
  <linearGradient id="fitdance" x1="0%" x2="0%" y1="0%" y2="100%">
   <stop offset="0%" style="stop-color:#1AD6AB; stop-opacity:1"/>
   <stop offset="100%" style="stop-color:#329DB6; stop-opacity:1"/>
  </linearGradient>
  <linearGradient id="oomox" x1="0%" x2="0%" y1="0%" y2="100%">
   <stop offset="0%" style="stop-color:#efefe7; stop-opacity:1"/>
   <stop offset="100%" style="stop-color:#8f8f8b; stop-opacity:1"/>
  </linearGradient>
  <linearGradient id="rainblue" x1="0%" x2="0%" y1="0%" y2="100%">
   <stop offset="0%" style="stop-color:#00F260; stop-opacity:1"/>
   <stop offset="100%" style="stop-color:#0575E6; stop-opacity:1"/>
  </linearGradient>
  <linearGradient id="sunrise" x1="0%" x2="0%" y1="0%" y2="100%">
   <stop offset="0%" style="stop-color: #FF8501; stop-opacity:1"/>
   <stop offset="100%" style="stop-color: #FFCB01; stop-opacity:1"/>
  </linearGradient>
  <linearGradient id="telinkrin" x1="0%" x2="0%" y1="0%" y2="100%">
   <stop offset="0%" style="stop-color: #b2ced6; stop-opacity:1"/>
   <stop offset="100%" style="stop-color: #6da5b7; stop-opacity:1"/>
  </linearGradient>
  <linearGradient id="60spsycho" x1="0%" x2="0%" y1="0%" y2="100%">
   <stop offset="0%" style="stop-color: #df5940; stop-opacity:1"/>
   <stop offset="25%" style="stop-color: #d8d15f; stop-opacity:1"/>
   <stop offset="50%" style="stop-color: #e9882a; stop-opacity:1"/>
   <stop offset="100%" style="stop-color: #279362; stop-opacity:1"/>
  </linearGradient>
  <linearGradient id="90ssummer" x1="0%" x2="0%" y1="0%" y2="100%">
   <stop offset="0%" style="stop-color: #f618c7; stop-opacity:1"/>
   <stop offset="20%" style="stop-color: #94ffab; stop-opacity:1"/>
   <stop offset="50%" style="stop-color: #fbfd54; stop-opacity:1"/>
   <stop offset="100%" style="stop-color: #0f83ae; stop-opacity:1"/>
  </linearGradient>
 </defs>
 <path fill="currentColor" class="ColorScheme-Text" fill-rule="evenodd" d="M 0 0 L 0 1.778 L 1.778 1.778 L 1.778 0 L 0 0 L 0 0 L 0 0 L 0 0 L 0 0 Z M 1.778 1.778 L 1.778 3.556 L 3.556 3.556 L 3.556 1.778 L 1.778 1.778 L 1.778 1.778 L 1.778 1.778 L 1.778 1.778 L 1.778 1.778 Z M 12.444 3.556 L 14.222 3.556 L 14.222 1.778 L 12.444 1.778 L 12.444 3.556 L 12.444 3.556 L 12.444 3.556 L 12.444 3.556 L 12.444 3.556 Z M 14.222 1.778 L 16 1.778 L 16 0 L 14.222 0 L 14.222 1.778 L 14.222 1.778 L 14.222 1.778 L 14.222 1.778 L 14.222 1.778 Z M 0 11.556 L 0 16 L 8 16 L 16 16 L 16 11.556 L 8 11.556 L 0 11.556 L 0 11.556 L 0 11.556 L 0 11.556 L 0 11.556 Z M 3.556 7.111 L 5.333 7.111 L 5.333 8.889 L 3.556 8.889 L 3.556 7.111 L 3.556 7.111 L 3.556 7.111 Z M 3.556 3.556 L 3.556 5.333 L 1.778 5.333 L 1.778 7.111 L 0 7.111 L 0 9.778 L 8 9.778 L 16 9.778 L 16 7.111 L 14.222 7.111 L 14.222 5.333 L 12.444 5.333 L 12.444 3.556 L 8 3.556 L 3.556 3.556 L 3.556 3.556 L 3.556 3.556 L 3.556 3.556 L 3.556 3.556 Z M 10.667 7.111 L 12.444 7.111 L 12.444 8.889 L 10.667 8.889 L 10.667 7.111 Z"/>
</svg>
