<svg xmlns="http://www.w3.org/2000/svg" width="16" height="16" version="1.1">
 <defs>
   <style id="current-color-scheme" type="text/css">
   .ColorScheme-Text { color: #0391e8; } .ColorScheme-Highlight { color:#5294e2; }
  </style>
  <linearGradient id="arrongin" x1="0%" x2="0%" y1="0%" y2="100%">
   <stop offset="0%" style="stop-color:#dd9b44; stop-opacity:1"/>
   <stop offset="100%" style="stop-color:#ad6c16; stop-opacity:1"/>
  </linearGradient>
  <linearGradient id="aurora" x1="0%" x2="0%" y1="0%" y2="100%">
   <stop offset="0%" style="stop-color:#09D4DF; stop-opacity:1"/>
   <stop offset="100%" style="stop-color:#9269F4; stop-opacity:1"/>
  </linearGradient>
  <linearGradient id="cyberneon" x1="0%" x2="0%" y1="0%" y2="100%">
    <stop offset="0" style="stop-color:#0abdc6; stop-opacity:1"/>
    <stop offset="1" style="stop-color:#ea00d9; stop-opacity:1"/>
  </linearGradient>
  <linearGradient id="fitdance" x1="0%" x2="0%" y1="0%" y2="100%">
   <stop offset="0%" style="stop-color:#1AD6AB; stop-opacity:1"/>
   <stop offset="100%" style="stop-color:#329DB6; stop-opacity:1"/>
  </linearGradient>
  <linearGradient id="oomox" x1="0%" x2="0%" y1="0%" y2="100%">
   <stop offset="0%" style="stop-color:#efefe7; stop-opacity:1"/>
   <stop offset="100%" style="stop-color:#8f8f8b; stop-opacity:1"/>
  </linearGradient>
  <linearGradient id="rainblue" x1="0%" x2="0%" y1="0%" y2="100%">
   <stop offset="0%" style="stop-color:#00F260; stop-opacity:1"/>
   <stop offset="100%" style="stop-color:#0575E6; stop-opacity:1"/>
  </linearGradient>
  <linearGradient id="sunrise" x1="0%" x2="0%" y1="0%" y2="100%">
   <stop offset="0%" style="stop-color: #FF8501; stop-opacity:1"/>
   <stop offset="100%" style="stop-color: #FFCB01; stop-opacity:1"/>
  </linearGradient>
  <linearGradient id="telinkrin" x1="0%" x2="0%" y1="0%" y2="100%">
   <stop offset="0%" style="stop-color: #b2ced6; stop-opacity:1"/>
   <stop offset="100%" style="stop-color: #6da5b7; stop-opacity:1"/>
  </linearGradient>
  <linearGradient id="60spsycho" x1="0%" x2="0%" y1="0%" y2="100%">
   <stop offset="0%" style="stop-color: #df5940; stop-opacity:1"/>
   <stop offset="25%" style="stop-color: #d8d15f; stop-opacity:1"/>
   <stop offset="50%" style="stop-color: #e9882a; stop-opacity:1"/>
   <stop offset="100%" style="stop-color: #279362; stop-opacity:1"/>
  </linearGradient>
  <linearGradient id="90ssummer" x1="0%" x2="0%" y1="0%" y2="100%">
   <stop offset="0%" style="stop-color: #f618c7; stop-opacity:1"/>
   <stop offset="20%" style="stop-color: #94ffab; stop-opacity:1"/>
   <stop offset="50%" style="stop-color: #fbfd54; stop-opacity:1"/>
   <stop offset="100%" style="stop-color: #0f83ae; stop-opacity:1"/>
  </linearGradient>
 </defs>
 <path fill="currentColor" class="ColorScheme-Text" fill-rule="evenodd" d="M 9.4999496,0 C 8.4381166,0 7.5837326,0.82178 7.5136216,1.86523 L 6.6132306,2.76562 6.0585436,3.32031 5.2675276,4.11133 C 5.0210386,4.04623 4.7674536,4 4.4999496,4 c -1.662,0 -3,1.338 -3,3 0,0.8887 0.389896,1.67622 1,2.22461 V 11.5 13 h 4 V 11.5 9.22461 c 0.610104,-0.54839 1,-1.33591 1,-2.22461 0,-0.2675 -0.04623,-0.52109 -0.111328,-0.76758 l 0.791016,-0.79101 0.554687,-0.55469 0.900391,-0.90039 c 0.129123,-0.009 0.253803,-0.0309 0.3750004,-0.0625 l 0.773437,0.77344 0.0098,0.01 0.144531,0.14453 -0.291016,0.29102 c -0.09377,0.0937 -0.146457,0.22092 -0.146484,0.35351 v 2 c 2.8e-5,0.27613 0.223869,0.49998 0.5,0.5 l 2,0.004 c 0.676161,0.01 0.676161,-1.00956 0,-1 l -1.5,-0.002 V 5.70536 l 1.707031,-1.70899 h 1.292969 v 1.5 c -0.0096,0.67617 1.009563,0.67617 1,0 v -2 c -2.8e-5,-0.27613 -0.223869,-0.49997 -0.5,-0.5 h -2 c -0.1326,3e-5 -0.259761,0.0527 -0.353516,0.14649 l -0.294922,0.29492 -0.144531,-0.14453 -0.0098,-0.01 L 11.42573,2.51177 C 11.46939,2.34752 11.49995,2.17864 11.49995,2 c 0,-1.108 -0.892,-2 -2.0000004,-2 z m 0,1 C 10.05395,1 10.49995,1.446 10.49995,2 c 0,0.554 -0.446,1 -1.0000004,1 -0.554,0 -1,-0.446 -1,-1 0,-0.554 0.446,-1 1,-1 z m -5,4 c 1.108,0 2,0.892 2,2 0,0.36693 -0.104291,0.705 -0.275391,1 -0.169746,0.29267 -0.412746,0.53593 -0.701171,0.71094 -0.01474,0.009 -0.02993,0.0169 -0.04492,0.0254 -0.118062,0.0675 -0.245136,0.11985 -0.376954,0.16211 -0.03902,0.0123 -0.07716,0.0252 -0.117187,0.0352 -0.155483,0.0392 -0.31604,0.0663 -0.484377,0.0663 -0.168337,0 -0.328896,-0.0272 -0.484375,-0.0664 -0.04003,-0.01 -0.07817,-0.023 -0.117187,-0.0352 -0.131818,-0.0423 -0.258892,-0.0947 -0.376954,-0.16211 -0.01499,-0.008 -0.03018,-0.0166 -0.04492,-0.0254 -0.288428,-0.17501 -0.531427,-0.41822 -0.701173,-0.71089 -0.1711,-0.295 -0.275391,-0.63307 -0.275391,-1 0,-1.108 0.892,-2 2,-2 z m 0,1 c -0.554,0 -1,0.446 -1,1 0,0.554 0.446,1 1,1 0.554,0 1,-0.446 1,-1 0,-0.554 -0.446,-1 -1,-1 z m -3,8 c 0,0 -1.00000004,0 -1.00000004,1 v 1 H 8.4999496 v -1 c 0,0 0,-1 -1,-1 z"/>
</svg>
