<svg xmlns="http://www.w3.org/2000/svg" width="16" height="16" version="1.1">
 <defs>
   <style id="current-color-scheme" type="text/css">
   .ColorScheme-Text { color: #0391e8; } .ColorScheme-Highlight { color:#5294e2; }
  </style>
  <linearGradient id="arrongin" x1="0%" x2="0%" y1="0%" y2="100%">
   <stop offset="0%" style="stop-color:#dd9b44; stop-opacity:1"/>
   <stop offset="100%" style="stop-color:#ad6c16; stop-opacity:1"/>
  </linearGradient>
  <linearGradient id="aurora" x1="0%" x2="0%" y1="0%" y2="100%">
   <stop offset="0%" style="stop-color:#09D4DF; stop-opacity:1"/>
   <stop offset="100%" style="stop-color:#9269F4; stop-opacity:1"/>
  </linearGradient>
  <linearGradient id="cyberneon" x1="0%" x2="0%" y1="0%" y2="100%">
    <stop offset="0" style="stop-color:#0abdc6; stop-opacity:1"/>
    <stop offset="1" style="stop-color:#ea00d9; stop-opacity:1"/>
  </linearGradient>
  <linearGradient id="fitdance" x1="0%" x2="0%" y1="0%" y2="100%">
   <stop offset="0%" style="stop-color:#1AD6AB; stop-opacity:1"/>
   <stop offset="100%" style="stop-color:#329DB6; stop-opacity:1"/>
  </linearGradient>
  <linearGradient id="oomox" x1="0%" x2="0%" y1="0%" y2="100%">
   <stop offset="0%" style="stop-color:#efefe7; stop-opacity:1"/>
   <stop offset="100%" style="stop-color:#8f8f8b; stop-opacity:1"/>
  </linearGradient>
  <linearGradient id="rainblue" x1="0%" x2="0%" y1="0%" y2="100%">
   <stop offset="0%" style="stop-color:#00F260; stop-opacity:1"/>
   <stop offset="100%" style="stop-color:#0575E6; stop-opacity:1"/>
  </linearGradient>
  <linearGradient id="sunrise" x1="0%" x2="0%" y1="0%" y2="100%">
   <stop offset="0%" style="stop-color: #FF8501; stop-opacity:1"/>
   <stop offset="100%" style="stop-color: #FFCB01; stop-opacity:1"/>
  </linearGradient>
  <linearGradient id="telinkrin" x1="0%" x2="0%" y1="0%" y2="100%">
   <stop offset="0%" style="stop-color: #b2ced6; stop-opacity:1"/>
   <stop offset="100%" style="stop-color: #6da5b7; stop-opacity:1"/>
  </linearGradient>
  <linearGradient id="60spsycho" x1="0%" x2="0%" y1="0%" y2="100%">
   <stop offset="0%" style="stop-color: #df5940; stop-opacity:1"/>
   <stop offset="25%" style="stop-color: #d8d15f; stop-opacity:1"/>
   <stop offset="50%" style="stop-color: #e9882a; stop-opacity:1"/>
   <stop offset="100%" style="stop-color: #279362; stop-opacity:1"/>
  </linearGradient>
  <linearGradient id="90ssummer" x1="0%" x2="0%" y1="0%" y2="100%">
   <stop offset="0%" style="stop-color: #f618c7; stop-opacity:1"/>
   <stop offset="20%" style="stop-color: #94ffab; stop-opacity:1"/>
   <stop offset="50%" style="stop-color: #fbfd54; stop-opacity:1"/>
   <stop offset="100%" style="stop-color: #0f83ae; stop-opacity:1"/>
  </linearGradient>
 </defs>
 <rect fill="currentColor" class="ColorScheme-Text" fill-opacity="0" width="16" height="16"/>
 <path fill="currentColor" class="ColorScheme-Text" d="M 9.173 0 C 4.755 0 1.173 3.582 1.173 8 C 1.173 12.418 4.755 16 9.173 16 C 11.294 15.998 13.328 15.154 14.827 13.654 L 13.829 12.656 C 12.595 13.892 10.92 14.587 9.173 14.589 C 7.426 14.589 5.75 13.895 4.514 12.659 C 3.279 11.423 2.585 9.747 2.585 8 C 2.585 6.253 3.279 4.577 4.514 3.341 C 5.75 2.105 7.426 1.411 9.173 1.411 C 10.92 1.413 12.595 2.108 13.829 3.344 L 14.827 2.346 C 13.328 0.846 11.294 0.002 9.173 0 Z M 9.173 2.333 C 6.044 2.333 3.507 4.87 3.507 8 C 3.507 11.13 6.044 13.667 9.173 13.667 C 10.676 13.665 12.116 13.068 13.178 12.005 L 12.176 11.003 C 11.38 11.8 10.3 12.249 9.173 12.25 C 6.826 12.25 4.923 10.347 4.923 8 C 4.923 5.653 6.826 3.75 9.173 3.75 C 10.3 3.751 11.38 4.2 12.176 4.997 L 13.178 3.995 C 12.116 2.932 10.676 2.335 9.173 2.333 Z M 9.173 4.667 C 7.332 4.667 5.84 6.159 5.84 8 C 5.84 9.841 7.332 11.333 9.173 11.333 C 10.057 11.333 10.904 10.981 11.529 10.356 L 10.519 9.346 C 10.162 9.703 9.678 9.904 9.173 9.905 C 8.668 9.905 8.183 9.704 7.826 9.347 C 7.469 8.99 7.268 8.505 7.268 8 C 7.268 7.495 7.469 7.01 7.826 6.653 C 8.183 6.296 8.668 6.095 9.173 6.095 C 9.678 6.096 10.162 6.297 10.519 6.654 L 11.529 5.644 C 10.904 5.019 10.057 4.667 9.173 4.667 Z"/>
</svg>
