<svg xmlns="http://www.w3.org/2000/svg" width="16" height="16" version="1.1">
 <defs>
   <style id="current-color-scheme" type="text/css">
   .ColorScheme-Text { color: #0391e8; } .ColorScheme-Highlight { color:#5294e2; }
  </style>
  <linearGradient id="arrongin" x1="0%" x2="0%" y1="0%" y2="100%">
   <stop offset="0%" style="stop-color:#dd9b44; stop-opacity:1"/>
   <stop offset="100%" style="stop-color:#ad6c16; stop-opacity:1"/>
  </linearGradient>
  <linearGradient id="aurora" x1="0%" x2="0%" y1="0%" y2="100%">
   <stop offset="0%" style="stop-color:#09D4DF; stop-opacity:1"/>
   <stop offset="100%" style="stop-color:#9269F4; stop-opacity:1"/>
  </linearGradient>
  <linearGradient id="cyberneon" x1="0%" x2="0%" y1="0%" y2="100%">
    <stop offset="0" style="stop-color:#0abdc6; stop-opacity:1"/>
    <stop offset="1" style="stop-color:#ea00d9; stop-opacity:1"/>
  </linearGradient>
  <linearGradient id="fitdance" x1="0%" x2="0%" y1="0%" y2="100%">
   <stop offset="0%" style="stop-color:#1AD6AB; stop-opacity:1"/>
   <stop offset="100%" style="stop-color:#329DB6; stop-opacity:1"/>
  </linearGradient>
  <linearGradient id="oomox" x1="0%" x2="0%" y1="0%" y2="100%">
   <stop offset="0%" style="stop-color:#efefe7; stop-opacity:1"/>
   <stop offset="100%" style="stop-color:#8f8f8b; stop-opacity:1"/>
  </linearGradient>
  <linearGradient id="rainblue" x1="0%" x2="0%" y1="0%" y2="100%">
   <stop offset="0%" style="stop-color:#00F260; stop-opacity:1"/>
   <stop offset="100%" style="stop-color:#0575E6; stop-opacity:1"/>
  </linearGradient>
  <linearGradient id="sunrise" x1="0%" x2="0%" y1="0%" y2="100%">
   <stop offset="0%" style="stop-color: #FF8501; stop-opacity:1"/>
   <stop offset="100%" style="stop-color: #FFCB01; stop-opacity:1"/>
  </linearGradient>
  <linearGradient id="telinkrin" x1="0%" x2="0%" y1="0%" y2="100%">
   <stop offset="0%" style="stop-color: #b2ced6; stop-opacity:1"/>
   <stop offset="100%" style="stop-color: #6da5b7; stop-opacity:1"/>
  </linearGradient>
  <linearGradient id="60spsycho" x1="0%" x2="0%" y1="0%" y2="100%">
   <stop offset="0%" style="stop-color: #df5940; stop-opacity:1"/>
   <stop offset="25%" style="stop-color: #d8d15f; stop-opacity:1"/>
   <stop offset="50%" style="stop-color: #e9882a; stop-opacity:1"/>
   <stop offset="100%" style="stop-color: #279362; stop-opacity:1"/>
  </linearGradient>
  <linearGradient id="90ssummer" x1="0%" x2="0%" y1="0%" y2="100%">
   <stop offset="0%" style="stop-color: #f618c7; stop-opacity:1"/>
   <stop offset="20%" style="stop-color: #94ffab; stop-opacity:1"/>
   <stop offset="50%" style="stop-color: #fbfd54; stop-opacity:1"/>
   <stop offset="100%" style="stop-color: #0f83ae; stop-opacity:1"/>
  </linearGradient>
 </defs>
 <path fill="currentColor" class="ColorScheme-Text" fill-rule="evenodd" d="M 9.377 16 L 9.377 16 L 8.58 14.5 L 8.58 14.5 Q 13.506 13.857 13.506 10.643 L 13.506 10.643 L 13.506 10.643 Q 13.506 8 10.391 7.357 L 10.391 7.357 L 10.391 7.357 Q 9.449 10.429 7.348 12.643 L 7.348 12.643 L 7.348 12.643 Q 7.565 13.429 8.072 14.214 L 8.072 14.214 L 6.551 14.857 L 6.116 13.786 L 6.116 13.786 Q 4.45 14.929 3.436 14.929 L 3.436 14.929 L 3.436 14.929 Q 0.828 14.929 0.828 12.571 L 0.828 12.571 L 0.828 12.571 Q 0.828 9 5.102 6.929 L 5.102 6.929 L 5.247 3.929 L 2.204 3.929 L 2.204 2.429 L 5.392 2.429 L 5.682 0 L 7.276 0.214 L 7.276 0.214 Q 7.058 1.286 6.913 2.429 L 6.913 2.429 L 11.767 2.429 L 11.767 3.929 L 6.768 3.929 L 6.768 3.929 Q 6.623 5.214 6.623 6.357 L 6.623 6.357 L 6.623 6.357 Q 7.928 6 9.159 6 L 9.159 6 L 9.159 6 Q 9.232 5.429 9.377 4.786 L 9.377 4.786 L 10.97 5.143 L 10.97 5.143 Q 10.97 5.286 10.753 6.143 L 10.753 6.143 L 10.753 6.143 Q 15.172 6.929 15.172 10.5 L 15.172 10.5 L 15.172 10.5 Q 15.172 14.929 9.377 16 Z M 6.623 7.786 L 6.623 7.786 L 6.623 7.786 Q 6.623 9.357 6.913 10.929 L 6.913 10.929 L 6.913 10.929 Q 8.145 9.714 8.869 7.357 L 8.869 7.357 L 8.869 7.357 Q 7.71 7.429 6.623 7.786 Z M 5.609 12.214 L 5.609 12.214 L 5.609 12.214 Q 5.247 10.357 5.102 8.429 L 5.102 8.429 L 5.102 8.429 Q 2.277 10.143 2.277 12.357 L 2.277 12.357 L 2.277 12.357 Q 2.277 13.429 3.146 13.429 L 3.146 13.429 L 3.146 13.429 Q 4.233 13.429 5.609 12.214 Z"/>
</svg>
