<svg xmlns="http://www.w3.org/2000/svg" width="16" height="16" version="1.1">
 <defs>
   <style id="current-color-scheme" type="text/css">
   .ColorScheme-Text { color: #0391e8; } .ColorScheme-Highlight { color:#5294e2; }
  </style>
  <linearGradient id="arrongin" x1="0%" x2="0%" y1="0%" y2="100%">
   <stop offset="0%" style="stop-color:#dd9b44; stop-opacity:1"/>
   <stop offset="100%" style="stop-color:#ad6c16; stop-opacity:1"/>
  </linearGradient>
  <linearGradient id="aurora" x1="0%" x2="0%" y1="0%" y2="100%">
   <stop offset="0%" style="stop-color:#09D4DF; stop-opacity:1"/>
   <stop offset="100%" style="stop-color:#9269F4; stop-opacity:1"/>
  </linearGradient>
  <linearGradient id="cyberneon" x1="0%" x2="0%" y1="0%" y2="100%">
    <stop offset="0" style="stop-color:#0abdc6; stop-opacity:1"/>
    <stop offset="1" style="stop-color:#ea00d9; stop-opacity:1"/>
  </linearGradient>
  <linearGradient id="fitdance" x1="0%" x2="0%" y1="0%" y2="100%">
   <stop offset="0%" style="stop-color:#1AD6AB; stop-opacity:1"/>
   <stop offset="100%" style="stop-color:#329DB6; stop-opacity:1"/>
  </linearGradient>
  <linearGradient id="oomox" x1="0%" x2="0%" y1="0%" y2="100%">
   <stop offset="0%" style="stop-color:#efefe7; stop-opacity:1"/>
   <stop offset="100%" style="stop-color:#8f8f8b; stop-opacity:1"/>
  </linearGradient>
  <linearGradient id="rainblue" x1="0%" x2="0%" y1="0%" y2="100%">
   <stop offset="0%" style="stop-color:#00F260; stop-opacity:1"/>
   <stop offset="100%" style="stop-color:#0575E6; stop-opacity:1"/>
  </linearGradient>
  <linearGradient id="sunrise" x1="0%" x2="0%" y1="0%" y2="100%">
   <stop offset="0%" style="stop-color: #FF8501; stop-opacity:1"/>
   <stop offset="100%" style="stop-color: #FFCB01; stop-opacity:1"/>
  </linearGradient>
  <linearGradient id="telinkrin" x1="0%" x2="0%" y1="0%" y2="100%">
   <stop offset="0%" style="stop-color: #b2ced6; stop-opacity:1"/>
   <stop offset="100%" style="stop-color: #6da5b7; stop-opacity:1"/>
  </linearGradient>
  <linearGradient id="60spsycho" x1="0%" x2="0%" y1="0%" y2="100%">
   <stop offset="0%" style="stop-color: #df5940; stop-opacity:1"/>
   <stop offset="25%" style="stop-color: #d8d15f; stop-opacity:1"/>
   <stop offset="50%" style="stop-color: #e9882a; stop-opacity:1"/>
   <stop offset="100%" style="stop-color: #279362; stop-opacity:1"/>
  </linearGradient>
  <linearGradient id="90ssummer" x1="0%" x2="0%" y1="0%" y2="100%">
   <stop offset="0%" style="stop-color: #f618c7; stop-opacity:1"/>
   <stop offset="20%" style="stop-color: #94ffab; stop-opacity:1"/>
   <stop offset="50%" style="stop-color: #fbfd54; stop-opacity:1"/>
   <stop offset="100%" style="stop-color: #0f83ae; stop-opacity:1"/>
  </linearGradient>
 </defs>
 <path fill="currentColor" class="ColorScheme-Text" fill-rule="evenodd" d="M 4.02 8.718 L 6.89 8 L 6.89 8 L 6.89 8 L 4.02 7.282 C 3.799 6.685 3.311 6.217 2.693 6.038 L 2.693 6.038 C 3.381 3.471 6.605 3.899 6.605 3.899 C 3.246 2.706 1.892 5.004 1.23 6.134 C 0.5 6.438 0 7.162 0 8 C 0 8.812 0.469 9.516 1.161 9.837 C 1.857 11.006 3.312 13.28 6.605 12.111 C 6.605 12.111 3.278 12.232 2.659 9.976 L 2.659 9.976 C 3.292 9.801 3.795 9.326 4.02 8.718 Z M 7.619 2.963 C 7.341 2.963 7.111 3.164 7.111 3.407 L 7.111 4.889 C 7.111 5.133 7.341 5.333 7.619 5.333 L 13.714 5.333 C 13.993 5.333 14.222 5.133 14.222 4.889 L 14.222 3.407 C 14.222 3.164 13.993 2.963 13.714 2.963 L 7.619 2.963 L 7.619 2.963 L 7.619 2.963 Z M 8.822 7.111 C 8.534 7.111 8.296 7.312 8.296 7.556 L 8.296 8.444 C 8.296 8.688 8.534 8.889 8.822 8.889 L 15.475 8.889 C 15.763 8.889 16 8.688 16 8.444 L 16 7.556 C 16 7.312 15.763 7.111 15.475 7.111 L 8.822 7.111 L 8.822 7.111 L 8.822 7.111 Z M 7.619 10.667 C 7.341 10.667 7.111 10.867 7.111 11.111 L 7.111 12.593 C 7.111 12.836 7.341 13.037 7.619 13.037 L 13.714 13.037 C 13.993 13.037 14.222 12.836 14.222 12.593 L 14.222 11.111 C 14.222 10.867 13.993 10.667 13.714 10.667 L 7.619 10.667 L 7.619 10.667 Z"/>
</svg>
