<svg xmlns="http://www.w3.org/2000/svg" width="16" height="16" version="1.1">
 <defs>
   <style id="current-color-scheme" type="text/css">
   .ColorScheme-Text { color: #0391e8; } .ColorScheme-Highlight { color:#5294e2; }
  </style>
  <linearGradient id="arrongin" x1="0%" x2="0%" y1="0%" y2="100%">
   <stop offset="0%" style="stop-color:#dd9b44; stop-opacity:1"/>
   <stop offset="100%" style="stop-color:#ad6c16; stop-opacity:1"/>
  </linearGradient>
  <linearGradient id="aurora" x1="0%" x2="0%" y1="0%" y2="100%">
   <stop offset="0%" style="stop-color:#09D4DF; stop-opacity:1"/>
   <stop offset="100%" style="stop-color:#9269F4; stop-opacity:1"/>
  </linearGradient>
  <linearGradient id="cyberneon" x1="0%" x2="0%" y1="0%" y2="100%">
    <stop offset="0" style="stop-color:#0abdc6; stop-opacity:1"/>
    <stop offset="1" style="stop-color:#ea00d9; stop-opacity:1"/>
  </linearGradient>
  <linearGradient id="fitdance" x1="0%" x2="0%" y1="0%" y2="100%">
   <stop offset="0%" style="stop-color:#1AD6AB; stop-opacity:1"/>
   <stop offset="100%" style="stop-color:#329DB6; stop-opacity:1"/>
  </linearGradient>
  <linearGradient id="oomox" x1="0%" x2="0%" y1="0%" y2="100%">
   <stop offset="0%" style="stop-color:#efefe7; stop-opacity:1"/>
   <stop offset="100%" style="stop-color:#8f8f8b; stop-opacity:1"/>
  </linearGradient>
  <linearGradient id="rainblue" x1="0%" x2="0%" y1="0%" y2="100%">
   <stop offset="0%" style="stop-color:#00F260; stop-opacity:1"/>
   <stop offset="100%" style="stop-color:#0575E6; stop-opacity:1"/>
  </linearGradient>
  <linearGradient id="sunrise" x1="0%" x2="0%" y1="0%" y2="100%">
   <stop offset="0%" style="stop-color: #FF8501; stop-opacity:1"/>
   <stop offset="100%" style="stop-color: #FFCB01; stop-opacity:1"/>
  </linearGradient>
  <linearGradient id="telinkrin" x1="0%" x2="0%" y1="0%" y2="100%">
   <stop offset="0%" style="stop-color: #b2ced6; stop-opacity:1"/>
   <stop offset="100%" style="stop-color: #6da5b7; stop-opacity:1"/>
  </linearGradient>
  <linearGradient id="60spsycho" x1="0%" x2="0%" y1="0%" y2="100%">
   <stop offset="0%" style="stop-color: #df5940; stop-opacity:1"/>
   <stop offset="25%" style="stop-color: #d8d15f; stop-opacity:1"/>
   <stop offset="50%" style="stop-color: #e9882a; stop-opacity:1"/>
   <stop offset="100%" style="stop-color: #279362; stop-opacity:1"/>
  </linearGradient>
  <linearGradient id="90ssummer" x1="0%" x2="0%" y1="0%" y2="100%">
   <stop offset="0%" style="stop-color: #f618c7; stop-opacity:1"/>
   <stop offset="20%" style="stop-color: #94ffab; stop-opacity:1"/>
   <stop offset="50%" style="stop-color: #fbfd54; stop-opacity:1"/>
   <stop offset="100%" style="stop-color: #0f83ae; stop-opacity:1"/>
  </linearGradient>
 </defs>
 <path fill="currentColor" class="ColorScheme-Text" fill-rule="evenodd" d="M 3.2 2.408 L 7.2 2.408 L 7.2 4.808 L 1.6 4.808 L 3.2 2.408 L 3.2 2.408 L 3.2 2.408 L 3.2 2.408 L 3.2 2.408 L 3.2 2.408 L 3.2 2.408 Z M 8.8 2.408 L 12.8 2.408 L 14.4 4.808 L 8.8 4.808 L 8.8 2.408 L 8.8 2.408 L 8.8 2.408 L 8.8 2.408 L 8.8 2.408 Z M 7.627 13.229 L 7.627 14.209 L 7.627 14.209 Q 6.666 14.19 6.12 13.635 L 6.12 13.635 L 6.12 13.635 Q 5.574 13.08 5.574 12.026 L 5.574 12.026 L 5.574 11.447 L 5.574 11.447 Q 5.574 11.13 5.453 10.948 L 5.453 10.948 L 5.453 10.948 Q 5.332 10.766 5.108 10.766 L 5.108 10.766 L 4.893 10.766 L 4.893 9.786 L 5.108 9.786 L 5.108 9.786 Q 5.332 9.786 5.453 9.6 L 5.453 9.6 L 5.453 9.6 Q 5.574 9.413 5.574 9.105 L 5.574 9.105 L 5.574 8.536 L 5.574 8.536 Q 5.574 7.482 6.12 6.931 L 6.12 6.931 L 6.12 6.931 Q 6.666 6.381 7.627 6.353 L 7.627 6.353 L 7.627 7.333 L 7.627 7.333 Q 6.666 7.389 6.666 8.368 L 6.666 8.368 L 6.666 9.012 L 6.666 9.012 Q 6.666 9.6 6.475 9.894 L 6.475 9.894 L 6.475 9.894 Q 6.283 10.188 5.901 10.281 L 5.901 10.281 L 5.901 10.281 Q 6.666 10.477 6.666 11.55 L 6.666 11.55 L 6.666 12.193 L 6.666 12.193 Q 6.666 13.192 7.627 13.229 L 7.627 13.229 L 7.627 13.229 L 7.627 13.229 Z M 3.275 0.808 C 2.715 0.808 2.247 1.13 1.925 1.608 L 0.15 4.48 C 0.072 4.639 0 4.964 0 5.204 L 0 13.595 C 0 14.474 0.718 15.192 1.6 15.192 L 14.4 15.192 C 15.282 15.192 16 14.474 16 13.596 L 16 5.205 C 16 4.964 15.931 4.64 15.85 4.48 L 14.075 1.608 C 13.753 1.13 13.284 0.808 12.725 0.808 L 3.275 0.808 L 3.275 0.808 L 3.275 0.808 L 3.275 0.808 L 3.275 0.808 L 3.275 0.808 L 3.275 0.808 Z M 8.373 14.209 L 8.373 14.209 L 8.373 13.229 L 8.373 13.229 Q 9.344 13.182 9.344 12.193 L 9.344 12.193 L 9.344 11.55 L 9.344 11.55 Q 9.344 10.477 10.109 10.281 L 10.109 10.281 L 10.109 10.281 Q 9.726 10.188 9.535 9.894 L 9.535 9.894 L 9.535 9.894 Q 9.344 9.6 9.344 9.012 L 9.344 9.012 L 9.344 8.368 L 9.344 8.368 Q 9.344 7.389 8.373 7.333 L 8.373 7.333 L 8.373 6.353 L 8.373 6.353 Q 9.334 6.381 9.885 6.936 L 9.885 6.936 L 9.885 6.936 Q 10.435 7.491 10.435 8.536 L 10.435 8.536 L 10.435 9.105 L 10.435 9.105 Q 10.435 9.413 10.556 9.6 L 10.556 9.6 L 10.556 9.6 Q 10.678 9.786 10.902 9.786 L 10.902 9.786 L 11.107 9.786 L 11.107 10.766 L 10.902 10.766 L 10.902 10.766 Q 10.678 10.766 10.556 10.948 L 10.556 10.948 L 10.556 10.948 Q 10.435 11.13 10.435 11.447 L 10.435 11.447 L 10.435 12.026 L 10.435 12.026 Q 10.435 13.08 9.885 13.635 L 9.885 13.635 L 9.885 13.635 Q 9.334 14.19 8.373 14.209 Z"/>
</svg>
