<svg xmlns="http://www.w3.org/2000/svg" width="16" height="16" version="1.1">
 <defs>
   <style id="current-color-scheme" type="text/css">
   .ColorScheme-Text { color: #0391e8; } .ColorScheme-Highlight { color:#5294e2; }
  </style>
  <linearGradient id="arrongin" x1="0%" x2="0%" y1="0%" y2="100%">
   <stop offset="0%" style="stop-color:#dd9b44; stop-opacity:1"/>
   <stop offset="100%" style="stop-color:#ad6c16; stop-opacity:1"/>
  </linearGradient>
  <linearGradient id="aurora" x1="0%" x2="0%" y1="0%" y2="100%">
   <stop offset="0%" style="stop-color:#09D4DF; stop-opacity:1"/>
   <stop offset="100%" style="stop-color:#9269F4; stop-opacity:1"/>
  </linearGradient>
  <linearGradient id="cyberneon" x1="0%" x2="0%" y1="0%" y2="100%">
    <stop offset="0" style="stop-color:#0abdc6; stop-opacity:1"/>
    <stop offset="1" style="stop-color:#ea00d9; stop-opacity:1"/>
  </linearGradient>
  <linearGradient id="fitdance" x1="0%" x2="0%" y1="0%" y2="100%">
   <stop offset="0%" style="stop-color:#1AD6AB; stop-opacity:1"/>
   <stop offset="100%" style="stop-color:#329DB6; stop-opacity:1"/>
  </linearGradient>
  <linearGradient id="oomox" x1="0%" x2="0%" y1="0%" y2="100%">
   <stop offset="0%" style="stop-color:#efefe7; stop-opacity:1"/>
   <stop offset="100%" style="stop-color:#8f8f8b; stop-opacity:1"/>
  </linearGradient>
  <linearGradient id="rainblue" x1="0%" x2="0%" y1="0%" y2="100%">
   <stop offset="0%" style="stop-color:#00F260; stop-opacity:1"/>
   <stop offset="100%" style="stop-color:#0575E6; stop-opacity:1"/>
  </linearGradient>
  <linearGradient id="sunrise" x1="0%" x2="0%" y1="0%" y2="100%">
   <stop offset="0%" style="stop-color: #FF8501; stop-opacity:1"/>
   <stop offset="100%" style="stop-color: #FFCB01; stop-opacity:1"/>
  </linearGradient>
  <linearGradient id="telinkrin" x1="0%" x2="0%" y1="0%" y2="100%">
   <stop offset="0%" style="stop-color: #b2ced6; stop-opacity:1"/>
   <stop offset="100%" style="stop-color: #6da5b7; stop-opacity:1"/>
  </linearGradient>
  <linearGradient id="60spsycho" x1="0%" x2="0%" y1="0%" y2="100%">
   <stop offset="0%" style="stop-color: #df5940; stop-opacity:1"/>
   <stop offset="25%" style="stop-color: #d8d15f; stop-opacity:1"/>
   <stop offset="50%" style="stop-color: #e9882a; stop-opacity:1"/>
   <stop offset="100%" style="stop-color: #279362; stop-opacity:1"/>
  </linearGradient>
  <linearGradient id="90ssummer" x1="0%" x2="0%" y1="0%" y2="100%">
   <stop offset="0%" style="stop-color: #f618c7; stop-opacity:1"/>
   <stop offset="20%" style="stop-color: #94ffab; stop-opacity:1"/>
   <stop offset="50%" style="stop-color: #fbfd54; stop-opacity:1"/>
   <stop offset="100%" style="stop-color: #0f83ae; stop-opacity:1"/>
  </linearGradient>
 </defs>
 <circle fill="currentColor" class="ColorScheme-Text" cx="8" cy="1.412"  r="1.412" vector-effect="non-scaling-stroke"/>
 <circle fill="currentColor" class="ColorScheme-Text" cx="8" cy="14.588" r="1.412" vector-effect="non-scaling-stroke"/>
 <path   fill="currentColor" class="ColorScheme-Text" d="M 14.588 9.412 C 15.367 9.412 16 8.779 16 8 C 16 7.221 15.367 6.588 14.588 6.588 C 13.809 6.588 13.176 7.221 13.176 8 C 13.176 8.779 13.809 9.412 14.588 9.412 Z"/>
 <path   fill="currentColor" class="ColorScheme-Text" d="M 1.412 9.412 C 2.191 9.412 2.824 8.779 2.824 8 C 2.824 7.221 2.191 6.588 1.412 6.588 C 0.633 6.588 0 7.221 0 8 C 0 8.779 0.633 9.412 1.412 9.412 Z"/>
 <path   fill="currentColor" class="ColorScheme-Text" d="M 11.66 13.657 C 12.211 14.208 13.106 14.208 13.657 13.657 C 14.208 13.106 14.208 12.211 13.657 11.66 C 13.106 11.109 12.211 11.109 11.66 11.66 C 11.109 12.211 11.109 13.106 11.66 13.657 Z"/>
 <path   fill="currentColor" class="ColorScheme-Text" d="M 2.343 4.339 C 2.894 4.89 3.789 4.89 4.339 4.339 C 4.89 3.789 4.89 2.894 4.339 2.343 C 3.789 1.792 2.894 1.792 2.343 2.343 C 1.792 2.894 1.792 3.789 2.343 4.339 Z"/>
 <path   fill="currentColor" class="ColorScheme-Text" d="M 4.339 13.657 C 3.789 14.208 2.894 14.208 2.343 13.657 C 1.792 13.106 1.792 12.211 2.343 11.66 C 2.894 11.109 3.789 11.109 4.339 11.66 C 4.89 12.211 4.89 13.106 4.339 13.657 Z"/>
 <path   fill="currentColor" class="ColorScheme-Text" d="M 13.657 4.339 C 13.106 4.89 12.211 4.89 11.66 4.339 C 11.109 3.789 11.109 2.894 11.66 2.343 C 12.211 1.792 13.106 1.792 13.657 2.343 C 14.208 2.894 14.208 3.789 13.657 4.339 Z"/>
</svg>
