<svg xmlns="http://www.w3.org/2000/svg" width="16" height="16" version="1.1">
 <defs>
   <style id="current-color-scheme" type="text/css">
   .ColorScheme-Text { color: #0391e8; } .ColorScheme-Highlight { color:#5294e2; }
  </style>
  <linearGradient id="arrongin" x1="0%" x2="0%" y1="0%" y2="100%">
   <stop offset="0%" style="stop-color:#dd9b44; stop-opacity:1"/>
   <stop offset="100%" style="stop-color:#ad6c16; stop-opacity:1"/>
  </linearGradient>
  <linearGradient id="aurora" x1="0%" x2="0%" y1="0%" y2="100%">
   <stop offset="0%" style="stop-color:#09D4DF; stop-opacity:1"/>
   <stop offset="100%" style="stop-color:#9269F4; stop-opacity:1"/>
  </linearGradient>
  <linearGradient id="cyberneon" x1="0%" x2="0%" y1="0%" y2="100%">
    <stop offset="0" style="stop-color:#0abdc6; stop-opacity:1"/>
    <stop offset="1" style="stop-color:#ea00d9; stop-opacity:1"/>
  </linearGradient>
  <linearGradient id="fitdance" x1="0%" x2="0%" y1="0%" y2="100%">
   <stop offset="0%" style="stop-color:#1AD6AB; stop-opacity:1"/>
   <stop offset="100%" style="stop-color:#329DB6; stop-opacity:1"/>
  </linearGradient>
  <linearGradient id="oomox" x1="0%" x2="0%" y1="0%" y2="100%">
   <stop offset="0%" style="stop-color:#efefe7; stop-opacity:1"/>
   <stop offset="100%" style="stop-color:#8f8f8b; stop-opacity:1"/>
  </linearGradient>
  <linearGradient id="rainblue" x1="0%" x2="0%" y1="0%" y2="100%">
   <stop offset="0%" style="stop-color:#00F260; stop-opacity:1"/>
   <stop offset="100%" style="stop-color:#0575E6; stop-opacity:1"/>
  </linearGradient>
  <linearGradient id="sunrise" x1="0%" x2="0%" y1="0%" y2="100%">
   <stop offset="0%" style="stop-color: #FF8501; stop-opacity:1"/>
   <stop offset="100%" style="stop-color: #FFCB01; stop-opacity:1"/>
  </linearGradient>
  <linearGradient id="telinkrin" x1="0%" x2="0%" y1="0%" y2="100%">
   <stop offset="0%" style="stop-color: #b2ced6; stop-opacity:1"/>
   <stop offset="100%" style="stop-color: #6da5b7; stop-opacity:1"/>
  </linearGradient>
  <linearGradient id="60spsycho" x1="0%" x2="0%" y1="0%" y2="100%">
   <stop offset="0%" style="stop-color: #df5940; stop-opacity:1"/>
   <stop offset="25%" style="stop-color: #d8d15f; stop-opacity:1"/>
   <stop offset="50%" style="stop-color: #e9882a; stop-opacity:1"/>
   <stop offset="100%" style="stop-color: #279362; stop-opacity:1"/>
  </linearGradient>
  <linearGradient id="90ssummer" x1="0%" x2="0%" y1="0%" y2="100%">
   <stop offset="0%" style="stop-color: #f618c7; stop-opacity:1"/>
   <stop offset="20%" style="stop-color: #94ffab; stop-opacity:1"/>
   <stop offset="50%" style="stop-color: #fbfd54; stop-opacity:1"/>
   <stop offset="100%" style="stop-color: #0f83ae; stop-opacity:1"/>
  </linearGradient>
 </defs>
 <path fill="currentColor" class="ColorScheme-Text" fill-rule="evenodd" d="M 7.3 7.86 L 7.3 15.989 L 8.7 16 L 8.7 7.86 C 9.317 7.59 9.749 6.974 9.749 6.257 C 9.749 5.291 8.966 4.507 8 4.507 C 7.034 4.507 6.251 5.291 6.251 6.257 C 6.251 6.974 6.683 7.59 7.3 7.86 Z M 11.478 0 L 10.851 1.255 C 12.747 2.201 13.946 4.138 13.948 6.257 C 13.947 8.377 12.749 10.314 10.852 11.262 L 11.476 12.508 C 13.845 11.325 15.344 8.905 15.347 6.257 C 15.346 3.607 13.849 1.185 11.478 0 L 11.478 0 L 11.478 0 Z M 4.524 0.005 C 2.155 1.189 0.656 3.608 0.653 6.257 C 0.654 8.907 2.151 11.329 4.522 12.514 L 5.149 11.259 C 3.253 10.312 2.054 8.376 2.052 6.257 C 2.053 4.137 3.251 2.2 5.148 1.252 L 4.524 0.005 L 4.524 0.005 Z M 10.226 2.502 L 9.6 3.756 C 10.548 4.229 11.148 5.197 11.149 6.257 C 11.149 7.317 10.55 8.285 9.602 8.759 L 10.225 10.007 C 11.647 9.297 12.546 7.846 12.548 6.257 C 12.548 4.667 11.649 3.213 10.226 2.502 L 10.226 2.502 L 10.226 2.502 Z M 5.775 2.507 C 4.353 3.216 3.454 4.668 3.452 6.257 C 3.452 7.847 4.351 9.3 5.774 10.011 L 6.4 8.758 C 5.452 8.284 4.852 7.316 4.851 6.257 C 4.851 5.197 5.45 4.228 6.398 3.754 L 5.775 2.507 L 5.775 2.507 Z"/>
</svg>
