<svg xmlns="http://www.w3.org/2000/svg" width="16" height="16" version="1.1">
 <defs>
   <style id="current-color-scheme" type="text/css">
   .ColorScheme-Text { color: #0391e8; } .ColorScheme-Highlight { color:#5294e2; }
  </style>
  <linearGradient id="arrongin" x1="0%" x2="0%" y1="0%" y2="100%">
   <stop offset="0%" style="stop-color:#dd9b44; stop-opacity:1"/>
   <stop offset="100%" style="stop-color:#ad6c16; stop-opacity:1"/>
  </linearGradient>
  <linearGradient id="aurora" x1="0%" x2="0%" y1="0%" y2="100%">
   <stop offset="0%" style="stop-color:#09D4DF; stop-opacity:1"/>
   <stop offset="100%" style="stop-color:#9269F4; stop-opacity:1"/>
  </linearGradient>
  <linearGradient id="cyberneon" x1="0%" x2="0%" y1="0%" y2="100%">
    <stop offset="0" style="stop-color:#0abdc6; stop-opacity:1"/>
    <stop offset="1" style="stop-color:#ea00d9; stop-opacity:1"/>
  </linearGradient>
  <linearGradient id="fitdance" x1="0%" x2="0%" y1="0%" y2="100%">
   <stop offset="0%" style="stop-color:#1AD6AB; stop-opacity:1"/>
   <stop offset="100%" style="stop-color:#329DB6; stop-opacity:1"/>
  </linearGradient>
  <linearGradient id="oomox" x1="0%" x2="0%" y1="0%" y2="100%">
   <stop offset="0%" style="stop-color:#efefe7; stop-opacity:1"/>
   <stop offset="100%" style="stop-color:#8f8f8b; stop-opacity:1"/>
  </linearGradient>
  <linearGradient id="rainblue" x1="0%" x2="0%" y1="0%" y2="100%">
   <stop offset="0%" style="stop-color:#00F260; stop-opacity:1"/>
   <stop offset="100%" style="stop-color:#0575E6; stop-opacity:1"/>
  </linearGradient>
  <linearGradient id="sunrise" x1="0%" x2="0%" y1="0%" y2="100%">
   <stop offset="0%" style="stop-color: #FF8501; stop-opacity:1"/>
   <stop offset="100%" style="stop-color: #FFCB01; stop-opacity:1"/>
  </linearGradient>
  <linearGradient id="telinkrin" x1="0%" x2="0%" y1="0%" y2="100%">
   <stop offset="0%" style="stop-color: #b2ced6; stop-opacity:1"/>
   <stop offset="100%" style="stop-color: #6da5b7; stop-opacity:1"/>
  </linearGradient>
  <linearGradient id="60spsycho" x1="0%" x2="0%" y1="0%" y2="100%">
   <stop offset="0%" style="stop-color: #df5940; stop-opacity:1"/>
   <stop offset="25%" style="stop-color: #d8d15f; stop-opacity:1"/>
   <stop offset="50%" style="stop-color: #e9882a; stop-opacity:1"/>
   <stop offset="100%" style="stop-color: #279362; stop-opacity:1"/>
  </linearGradient>
  <linearGradient id="90ssummer" x1="0%" x2="0%" y1="0%" y2="100%">
   <stop offset="0%" style="stop-color: #f618c7; stop-opacity:1"/>
   <stop offset="20%" style="stop-color: #94ffab; stop-opacity:1"/>
   <stop offset="50%" style="stop-color: #fbfd54; stop-opacity:1"/>
   <stop offset="100%" style="stop-color: #0f83ae; stop-opacity:1"/>
  </linearGradient>
 </defs>
 <path fill="currentColor" class="ColorScheme-Text" d="M 11.678091 2.066353 C 11.669886 2.086043 11.661684 2.104092 11.650197 2.1205 C 11.610817 2.181211 11.569797 2.24028 11.523854 2.296068 C 11.346645 2.506092 11.162875 2.712835 10.974182 2.914656 C 10.703446 3.20508 10.426147 3.492223 10.143929 3.772802 C 9.861709 4.055023 9.577846 4.335602 9.289063 4.611259 C 8.96254 4.924656 8.634377 5.23477 8.302934 5.541602 C 7.971488 5.848435 7.636761 6.151985 7.302035 6.455536 C 6.949259 6.770574 6.594843 7.08561 6.238785 7.395724 C 5.882729 7.70748 5.525031 8.019234 5.167333 8.329348 C 4.849015 8.605006 4.529055 8.880662 4.209097 9.154678 C 3.889137 9.430337 3.569178 9.704353 3.249219 9.978369 C 2.999815 10.191675 2.750411 10.404982 2.499366 10.618288 C 2.249962 10.831592 1.998917 11.043259 1.747872 11.254923 C 1.618248 11.363218 1.486982 11.471512 1.357357 11.578164 C 1.28188 11.640516 1.20148 11.697943 1.117798 11.748811 C 1.04068 11.794753 0.958639 11.832491 0.874958 11.863667 C 0.791276 11.894843 0.704313 11.917814 0.615709 11.934221 C 0.520541 11.94899 0.425374 11.958835 0.330207 11.958835 C 0.290827 11.958835 0.251448 11.962115 0.212068 11.968679 C 0.179251 11.973602 0.146436 11.985086 0.116901 12.003135 C 0.093929 12.016262 0.072599 12.032671 0.05619 12.05236 C 0.036501 12.073691 0.021733 12.099945 0.011889 12.126196 C 0.002044 12.154092 -0.001238 12.181986 0.000403 12.209879 C 0.000403 12.236133 0.005325 12.260744 0.01353 12.285356 C 0.023374 12.314892 0.038142 12.344425 0.05619 12.372319 C 0.074239 12.400215 0.095571 12.423186 0.118542 12.444515 C 0.144794 12.465846 0.171048 12.483895 0.202224 12.498662 C 0.236681 12.513429 0.274419 12.524916 0.312158 12.531478 C 0.876598 12.547887 1.441039 12.587268 2.002198 12.649617 C 2.573203 12.713609 3.142566 12.800572 3.707006 12.910506 C 4.276369 13.022083 4.844092 13.13694 5.411815 13.256718 C 5.94672 13.369935 6.479985 13.488074 7.011611 13.611135 C 7.544876 13.734197 8.079782 13.855618 8.614688 13.973757 C 9.097088 14.080409 9.581128 14.185421 10.066811 14.288793 C 10.554133 14.392165 11.046378 14.472564 11.541903 14.528351 C 11.953749 14.575936 12.368876 14.600547 12.784002 14.600547 C 13.036687 14.600547 13.289374 14.572654 13.537136 14.518506 C 13.730751 14.475846 13.917806 14.40529 14.093372 14.308482 C 14.262376 14.214957 14.426458 14.111585 14.582335 14.00001 C 14.789079 13.850696 14.987617 13.693176 15.179592 13.525812 C 15.31578 13.407676 15.443763 13.281332 15.563545 13.146784 C 15.648865 13.054899 15.722704 12.954809 15.789976 12.848157 C 15.85561 12.743145 15.911397 12.631568 15.954057 12.515071 C 15.983593 12.43631 16 12.35263 16 12.268949 C 16 12.234491 15.99672 12.198393 15.993438 12.162294 C 15.990156 12.134401 15.983593 12.108147 15.973749 12.081896 C 15.965544 12.060565 15.9557 12.040876 15.942573 12.022827 C 15.926164 11.999855 15.904832 11.980164 15.880221 11.965397 C 15.849045 11.947348 15.811307 11.939143 15.773569 11.940786 C 15.744033 11.942426 15.7145 11.94899 15.688246 11.963757 C 15.639021 11.986728 15.598001 12.024466 15.566825 12.070409 C 15.532369 12.122916 15.502833 12.180343 15.483144 12.241055 C 15.445406 12.347707 15.399463 12.45272 15.348596 12.552809 C 15.304296 12.639773 15.253431 12.723453 15.197641 12.802214 C 15.145136 12.874411 15.084424 12.940042 15.01387 12.997472 C 14.921985 13.072948 14.820255 13.138582 14.713601 13.194369 C 14.605306 13.250156 14.49045 13.296099 14.373953 13.330557 C 14.1869 13.386344 13.994923 13.430647 13.802947 13.46182 C 13.60769 13.492996 13.410792 13.515968 13.213895 13.529095 C 12.913625 13.548786 12.614998 13.558631 12.316368 13.558631 C 11.934058 13.558631 11.551747 13.545504 11.171079 13.52089 C 10.724777 13.492996 10.280115 13.451976 9.837095 13.399471 C 9.390793 13.345324 8.946133 13.286254 8.503113 13.220623 C 8.084705 13.159911 7.666296 13.092637 7.249529 13.018801 C 6.832761 12.944964 6.417635 12.866206 6.002509 12.780883 C 5.661219 12.710329 5.32157 12.63485 4.981921 12.552809 C 4.642272 12.470769 4.302623 12.387088 3.964615 12.301765 C 3.785766 12.257462 3.606917 12.209879 3.429709 12.162294 C 3.405096 12.154092 3.382125 12.144245 3.360795 12.132761 C 3.350949 12.127839 3.342746 12.121274 3.334541 12.113072 C 3.329619 12.10979 3.326337 12.104867 3.324697 12.099945 C 3.324697 12.099945 3.324697 12.099945 3.324697 12.099945 C 3.349309 12.049078 3.377203 12.001495 3.410019 11.955552 C 3.759513 11.591291 4.112288 11.230312 4.471627 10.875895 C 4.944181 10.406622 5.423301 9.94227 5.9057 9.484484 C 6.389741 9.025055 6.875423 8.568908 7.362745 8.114401 C 7.851708 7.658255 8.340672 7.20539 8.832916 6.754166 C 9.325161 6.302941 9.819046 5.853357 10.312933 5.405415 C 10.749388 5.008336 11.185846 4.614542 11.625586 4.220745 C 12.063684 3.826949 12.503421 3.436436 12.946441 3.045921 C 13.2221 2.80308 13.501038 2.56188 13.779976 2.323962 C 13.820996 2.284582 13.862017 2.245203 13.903037 2.209105 C 13.94734 2.171366 13.991643 2.135268 14.039225 2.100811 C 14.078606 2.069635 14.122908 2.043382 14.167209 2.02041 C 14.19018 2.008925 14.214794 2.000721 14.239405 1.995799 C 14.275503 1.990876 14.309961 1.981031 14.344417 1.969546 C 14.377233 1.95806 14.408409 1.941652 14.436302 1.920321 C 14.470761 1.895709 14.498654 1.862892 14.519986 1.825154 C 14.541315 1.787415 14.554441 1.746394 14.559364 1.702093 C 14.561006 1.675839 14.559364 1.647946 14.554441 1.621692 C 14.547879 1.593798 14.538035 1.565905 14.521626 1.542934 C 14.506859 1.518321 14.487167 1.496991 14.464196 1.478942 C 14.442867 1.462534 14.419896 1.447766 14.395282 1.437921 C 14.362466 1.423153 14.32801 1.413309 14.293552 1.408387 C 14.250892 1.401823 14.206589 1.400182 14.162286 1.400182 C 14.111422 1.398541 14.060557 1.400182 14.011332 1.400182 C 13.822639 1.403464 13.633943 1.408387 13.443608 1.411668 C 13.254915 1.41659 13.067862 1.419872 12.87917 1.423153 C 12.633047 1.428076 12.386925 1.432999 12.140802 1.43628 C 11.89468 1.441203 11.646915 1.446125 11.400793 1.451047 C 11.125137 1.45761 10.851121 1.465815 10.575462 1.47402 C 10.301446 1.482223 10.02743 1.487145 9.753414 1.492067 C 9.531903 1.49535 9.310395 1.498631 9.088883 1.496991 C 8.711495 1.506835 8.332467 1.51504 7.95508 1.524885 C 7.580973 1.53637 7.206867 1.547856 6.834402 1.559342 C 6.458655 1.572468 6.084549 1.588876 5.710444 1.610206 C 5.428223 1.624974 5.146002 1.646305 4.863782 1.670917 C 4.796509 1.680762 4.730876 1.697169 4.666884 1.718501 C 4.611096 1.73819 4.55859 1.762802 4.509366 1.792337 C 4.463422 1.820231 4.420762 1.853048 4.381382 1.890786 C 4.342002 1.928525 4.307545 1.969546 4.278011 2.013847 C 4.227146 2.092607 4.177921 2.173006 4.133619 2.255047 C 4.053218 2.402721 3.979382 2.553676 3.907186 2.706272 C 3.905546 2.745652 3.907186 2.786673 3.912108 2.826052 C 3.913749 2.850664 3.918671 2.873636 3.926876 2.894966 C 3.938362 2.932705 3.961333 2.968802 3.989227 2.996697 C 4.023684 3.031154 4.067986 3.052484 4.11557 3.057406 C 4.168076 3.06233 4.222223 3.049203 4.268166 3.021309 C 4.31739 2.990133 4.363332 2.954035 4.405994 2.913015 C 4.491317 2.834255 4.586484 2.766982 4.689856 2.712835 C 4.845733 2.629153 5.009814 2.56188 5.178818 2.507733 C 5.352746 2.451946 5.529953 2.406003 5.708802 2.369905 C 5.930312 2.325602 6.153463 2.291145 6.378256 2.268174 C 6.712982 2.227154 7.047708 2.194338 7.382434 2.168084 C 7.8353 2.131986 8.288164 2.104092 8.742671 2.084402 C 9.195535 2.063072 9.650042 2.048305 10.104549 2.03682 C 10.521315 2.026974 10.938084 2.022052 11.356492 2.022052 C 11.422124 2.023693 11.487756 2.026974 11.551747 2.033537 C 11.582923 2.03682 11.614099 2.043382 11.645275 2.053228 C 11.65676 2.056509 11.666607 2.061431 11.678091 2.066353 Z"/>
</svg>
