<svg xmlns="http://www.w3.org/2000/svg" width="16" height="16" version="1.1">
 <defs>
   <style id="current-color-scheme" type="text/css">
   .ColorScheme-Text { color: #0391e8; } .ColorScheme-Highlight { color: #1AD6AB; }
  </style>
  <linearGradient id="arrongin" x1="0%" x2="0%" y1="0%" y2="100%">
   <stop offset="0%" style="stop-color: #dd9b44; stop-opacity: 1"/>
   <stop offset="100%" style="stop-color: #ad6c16; stop-opacity: 1"/>
  </linearGradient>
  <linearGradient id="aurora" x1="0%" x2="0%" y1="0%" y2="100%">
   <stop offset="0%" style="stop-color: #09D4DF; stop-opacity: 1"/>
   <stop offset="100%" style="stop-color: #9269F4; stop-opacity: 1"/>
  </linearGradient>
  <linearGradient id="cyberneon" x1="0%" x2="0%" y1="0%" y2="100%">
    <stop offset="0" style="stop-color: #0abdc6; stop-opacity: 1"/>
    <stop offset="1" style="stop-color: #ea00d9; stop-opacity: 1"/>
  </linearGradient>
  <linearGradient id="fitdance" x1="0%" x2="0%" y1="0%" y2="100%">
   <stop offset="0%" style="stop-color: #1AD6AB; stop-opacity: 1"/>
   <stop offset="100%" style="stop-color: #329DB6; stop-opacity: 1"/>
  </linearGradient>
  <linearGradient id="oomox" x1="0%" x2="0%" y1="0%" y2="100%">
   <stop offset="0%" style="stop-color: #efefe7; stop-opacity: 1"/>
   <stop offset="100%" style="stop-color: #8f8f8b; stop-opacity: 1"/>
  </linearGradient>
  <linearGradient id="rainblue" x1="0%" x2="0%" y1="0%" y2="100%">
   <stop offset="0%" style="stop-color: #00F260; stop-opacity: 1"/>
   <stop offset="100%" style="stop-color: #0575E6; stop-opacity: 1"/>
  </linearGradient>
  <linearGradient id="sunrise" x1="0%" x2="0%" y1="0%" y2="100%">
   <stop offset="0%" style="stop-color: #FF8501; stop-opacity: 1"/>
   <stop offset="100%" style="stop-color: #FFCB01; stop-opacity: 1"/>
  </linearGradient>
  <linearGradient id="telinkrin" x1="0%" x2="0%" y1="0%" y2="100%">
   <stop offset="0%" style="stop-color: #b2ced6; stop-opacity: 1"/>
   <stop offset="100%" style="stop-color: #6da5b7; stop-opacity: 1"/>
  </linearGradient>
  <linearGradient id="60spsycho" x1="0%" x2="0%" y1="0%" y2="100%">
   <stop offset="0%" style="stop-color: #df5940; stop-opacity: 1"/>
   <stop offset="25%" style="stop-color: #d8d15f; stop-opacity: 1"/>
   <stop offset="50%" style="stop-color: #e9882a; stop-opacity: 1"/>
   <stop offset="100%" style="stop-color: #279362; stop-opacity: 1"/>
  </linearGradient>
  <linearGradient id="90ssummer" x1="0%" x2="0%" y1="0%" y2="100%">
   <stop offset="0%" style="stop-color: #f618c7; stop-opacity: 1"/>
   <stop offset="20%" style="stop-color: #94ffab; stop-opacity: 1"/>
   <stop offset="50%" style="stop-color: #fbfd54; stop-opacity: 1"/>
   <stop offset="100%" style="stop-color: #0f83ae; stop-opacity: 1"/>
  </linearGradient>
 </defs>
  <path fill="currentColor" class="ColorScheme-Text" d="M 7.149 2.375 C 4.502 2.375 4.444 4.142 3.679 5.331 C 4.616 4.889 5.661 4.512 6.789 4.221 C 7.814 3.956 8.848 3.781 9.852 3.702 C 9.215 3.184 8.771 2.375 7.149 2.375 Z M 10.782 4.906 C 9.615 4.928 8.349 5.108 7.101 5.431 C 2.989 6.492 0.058 8.803 0.555 10.591 C 0.841 11.612 2.222 12.537 4.278 12.659 C 4.277 12.652 4.275 12.645 4.274 12.638 C 4.274 12.637 4.274 12.636 4.274 12.635 C 4.272 12.617 4.266 12.601 4.263 12.583 C 4.143 11.492 4.767 10.646 5.484 10.049 C 6.201 9.452 7.121 9.021 8.163 8.789 C 8.668 8.676 9.178 8.619 9.679 8.625 L 9.68 8.625 C 10.431 8.634 11.125 8.774 11.736 9.121 C 12.239 9.406 12.7 9.902 12.896 10.516 C 14.773 9.369 15.743 7.824 15.448 6.745 C 15.119 5.561 13.33 4.856 10.782 4.906 Z M 9.664 9.875 C 9.269 9.87 8.852 9.916 8.434 10.009 C 6.712 10.393 5.4 11.484 5.506 12.446 C 5.612 13.408 7.095 13.875 8.818 13.491 C 10.541 13.106 11.85 12.016 11.744 11.054 C 11.667 10.355 10.848 9.89 9.664 9.875 Z"/>
</svg>
