<svg xmlns="http://www.w3.org/2000/svg" width="24" height="24" version="1.1">
 <defs>
  <style id="current-color-scheme" type="text/css">
   .ColorScheme-Text { color: #0391e8; } .ColorScheme-Highlight { color: #1AD6AB; }
  </style>
  <linearGradient id="arrongin" x1="0%" x2="0%" y1="0%" y2="100%">
   <stop offset="0%" style="stop-color:#dd9b44"/>
   <stop offset="100%" style="stop-color:#ad6c16"/>
  </linearGradient>
  <linearGradient id="aurora" x1="0%" x2="0%" y1="0%" y2="100%">
   <stop offset="0%" style="stop-color:#09D4DF"/>
   <stop offset="100%" style="stop-color:#9269F4"/>
  </linearGradient>
  <linearGradient id="cyberneon" x1="0%" x2="0%" y1="0%" y2="100%">
   <stop offset="0" style="stop-color:#0abdc6"/>
   <stop offset="1" style="stop-color:#ea00d9"/>
  </linearGradient>
  <linearGradient id="fitdance" x1="0%" x2="0%" y1="0%" y2="100%">
   <stop offset="0%" style="stop-color:#1AD6AB"/>
   <stop offset="100%" style="stop-color:#329DB6"/>
  </linearGradient>
  <linearGradient id="oomox" x1="0%" x2="0%" y1="0%" y2="100%">
   <stop offset="0%" style="stop-color:#efefe7"/>
   <stop offset="100%" style="stop-color:#8f8f8b"/>
  </linearGradient>
  <linearGradient id="rainblue" x1="0%" x2="0%" y1="0%" y2="100%">
   <stop offset="0%" style="stop-color:#00F260"/>
   <stop offset="100%" style="stop-color:#0575E6"/>
  </linearGradient>
  <linearGradient id="sunrise" x1="0%" x2="0%" y1="0%" y2="100%">
   <stop offset="0%" style="stop-color:#FF8501"/>
   <stop offset="100%" style="stop-color:#FFCB01"/>
  </linearGradient>
  <linearGradient id="telinkrin" x1="0%" x2="0%" y1="0%" y2="100%">
   <stop offset="0%" style="stop-color:#b2ced6"/>
   <stop offset="100%" style="stop-color:#6da5b7"/>
  </linearGradient>
  <linearGradient id="60spsycho" x1="0%" x2="0%" y1="0%" y2="100%">
   <stop offset="0%" style="stop-color:#df5940"/>
   <stop offset="25%" style="stop-color:#d8d15f"/>
   <stop offset="50%" style="stop-color:#e9882a"/>
   <stop offset="100%" style="stop-color:#279362"/>
  </linearGradient>
  <linearGradient id="90ssummer" x1="0%" x2="0%" y1="0%" y2="100%">
   <stop offset="0%" style="stop-color:#f618c7"/>
   <stop offset="20%" style="stop-color:#94ffab"/>
   <stop offset="50%" style="stop-color:#fbfd54"/>
   <stop offset="100%" style="stop-color:#0f83ae"/>
  </linearGradient>
 </defs>
 <path fill="currentColor" class="ColorScheme-Text" opacity="0.3" d="m 13.818359,9.3105767 c -0.567804,0.231762 -1.10149,0.484375 -1.824218,0.484375 -0.02606,3.7e-4 -0.05212,-2.83e-4 -0.07813,-0.0019 -1.291809,-0.101242 -1.894597,-0.02099 -2.8378858,0.8984343 -0.075805,0.07372 -0.1628279,0.135181 -0.2578125,0.181641 -0.059746,0.02922 -0.1162601,0.05116 -0.1738281,0.07617 -0.065561,0.04068 -0.1358549,0.07308 -0.2089844,0.09766 l 1.5566406,1.747995 4.9140622,-1.544922 c 0.04003,-0.147765 0.07825,-0.316126 0.08399,-0.300781 -0.2267,-0.922366 -0.496956,-1.3025783 -1.173829,-1.6386723 z M 8.1445314,11.216827 c -0.2087725,0.439056 -0.6997417,0.675018 -1.1738281,0.537109 -4e-5,0.262589 -0.072515,0.548361 -0.00977,0.783203 0.1026887,0.390092 -0.039027,0.803687 -0.359375,1.048829 0.1915064,0.669017 0.4381609,1.310166 0.7617187,1.921874 l 6.205078,1.902344 c 0.03813,-0.04568 0.07765,-0.08161 0.115235,-0.128906 0.389406,-0.490041 0.754454,-1.068637 1.054687,-1.724609 -0.0088,0.0042 -0.0247,0.01162 -0.0332,0.01563 -0.09192,0.04338 -0.167699,0.07808 -0.224609,0.103515 -0.02846,0.01272 -0.05156,0.02165 -0.07422,0.03125 -0.01133,0.0048 -0.02051,0.01028 -0.03906,0.01758 -0.0093,0.0037 -0.01904,0.0067 -0.04492,0.01563 -0.01294,0.0045 -0.06611,0.01945 -0.06641,0.01953 -1.5e-4,4e-5 -0.08975,0.02147 -0.08984,0.02148 -9.2e-5,10e-5 -0.257733,0.0053 -0.289063,0.0059 -0.774371,-0.09183 -1.15041,-0.995198 -0.669922,-1.609375 0.0027,-0.0034 0.01097,-0.01603 0.01367,-0.01953 0.243167,-0.313175 0.751662,-1.042657 1.158203,-1.765625 0.112572,-0.200191 0.181438,-0.37224 0.271485,-0.560547 L 9.9941404,13.295 Z"/>
 <path fill="currentColor" class="ColorScheme-Text" d="M 10.396657,3.7953378 C 9.1918974,3.8274925 8.537105,4.9221089 8.0294693,5.9183847 7.8442639,6.0118253 7.6561045,6.0941471 7.4728287,6.1957284 6.4781493,6.8644663 5.6625594,7.7918577 5.0333756,8.8051034 4.4799235,9.7820087 4.1443692,10.867325 4.0197037,11.980885 c -0.074085,1.128995 0.055332,2.279708 0.4804688,3.335937 0.3295182,0.928332 0.9097504,1.947786 1.6523437,2.583262 0.9858749,0.657857 1.7698739,1.133727 2.8457031,1.087891 -2.2398416,-1.791482 -3.4216127,-3.939763 -3.7949218,-6.468027 -0.011789,-0.189405 -0.035038,-0.394238 0.033203,-0.34375 0.2552755,0.40459 0.3146666,0.389425 0.7578125,0.61914 C 5.6122779,11.365556 6.1224476,9.7749237 6.7462662,8.6136972 6.8243137,8.5243468 6.9090674,8.438623 6.99236,8.3519784 l 0.039063,0.00586 c 0.014022,0.22327 0.040433,0.448037 0.066406,0.6640623 -0.00481,0.104082 0.061596,0.281849 0.082031,0.396485 -0.015374,0.04023 -0.098765,0.280852 -0.1308594,0.5820313 -0.01935,0.119285 -0.020024,0.236506 -0.00195,0.351562 0.00325,0.02268 0.00503,0.0441 0.00977,0.06641 0.00971,0.04048 0.020652,0.08136 0.037109,0.121094 0.034751,0.09384 0.081037,0.182539 0.1562429,0.255859 0.027823,-0.125425 0.084584,-0.226611 0.1621094,-0.310547 0.019359,-0.02096 0.048626,-0.03376 0.070312,-0.05273 0.070254,-0.05953 0.1435983,-0.116957 0.2226563,-0.160156 0.015562,-0.0085 0.015822,-0.0058 0.03125,-0.01367 C 7.9328571,10.158014 8.126087,10.09613 8.1271252,10.09613 L 8.1427502,10.0805 C 8.2239922,10.04742 8.3059378,10.01176 8.3810319,9.9750307 9.5082167,8.8763611 10.574187,8.6840479 11.994313,8.7953428 c 0.781587,0 1.226582,-0.2030038 2,-0.5507812 1.186546,0.4960506 1.695811,1.2706931 2,2.5507814 0.114559,0.962125 -1.431114,3.269495 -2,3.998047 -6.8e-5,1.1e-5 -0.0039,0.002 -0.0039,0.002 1.2e-5,0 0.0039,-10e-6 0.0039,0 0.01173,0.0016 1.717869,-0.760302 2.398438,-1.40625 -0.485567,3.754421 -3.186124,6.081862 -4.398438,6.606168 0.936965,0.06306 2.220246,-0.52096 3.103516,-1.060547 -0.403265,0.43212 -0.834566,0.89984 -1.103516,1.060547 1.054554,-0.295286 2.053274,-0.403114 2.71875,-0.888672 -2.49e-4,0 0.539372,-0.493939 1.103516,-1.137418 0.07505,-0.08561 0.203986,-0.203291 0.28125,-0.300781 0.04803,-0.06061 0.09368,-0.122701 0.140625,-0.183594 0.0083,-0.01001 0.01744,-0.02109 0.02539,-0.03125 1.187377,-1.452539 1.765529,-3.257976 1.722657,-4.894531 C 19.994834,10.57514 19.188693,8.8537837 17.83611,7.4301034 16.857937,6.4005143 15.746727,5.7690328 14.746266,5.4281503 13.710946,5.1308501 12.492782,4.980028 11.457204,5.0375253 c -0.103696,0.00127 -0.391212,0.00968 -0.783203,0.042969 -0.04584,-0.086358 0.0112,-0.4068056 0.123046,-0.4863281 -0.245161,0.02295 -0.471026,0.3418588 -0.679687,0.5625 -0.03512,0.00685 -0.07117,0.013798 -0.103516,0.021484 C 10.201774,4.8530157 10.393386,4.4872576 10.61736,4.1957284 9.9234998,4.3252483 9.6207001,4.8707809 9.2814225,5.3734628 9.1835047,5.4056973 9.0884546,5.4448302 8.99236,5.4808847 9.2440284,4.7546971 9.7172811,4.3572467 10.396657,3.7953378 Z M 8.5978287,7.9955375 c 0.1941057,-0.00375 0.3693938,0.029297 0.3710938,0.029297 0.0033,0 0.087553,0.3400574 -0.072266,0.6308593 C 8.7368383,8.9476053 8.3646679,9.0644057 8.1583756,8.9545219 7.947551,8.8446393 7.9482996,8.4769026 8.1115006,8.1849906 8.1902764,8.0390347 8.4037231,7.9992834 8.5978287,7.9955375 Z"/>
 <path style="fill:none" d="M 10.396657,3.7953378 C 9.1918974,3.8274925 8.537105,4.9221089 8.0294693,5.9183847 7.8442639,6.0118253 7.6561045,6.0941471 7.4728287,6.1957284 6.4781493,6.8644663 5.6625594,7.7918577 5.0333756,8.8051034 4.4799235,9.7820087 4.1443692,10.867325 4.0197037,11.980885 c -0.074085,1.128995 0.055332,2.279708 0.4804688,3.335937 0.3295182,0.928332 0.9097504,1.747336 1.6523437,2.382813 0.9858749,0.657857 1.7698739,1.133727 2.8457031,1.087891 -0.3999112,-0.231221 -1.4854217,-0.879999 -1.7988281,-2.59961 0.3327191,0.651643 1.3440906,1.409056 1.7949219,1.607422 0,0 -0.3720883,-0.610712 -0.3671875,-1.048828 0.00346,-0.309635 0.1298692,-0.646218 0.1054687,-0.951172 L 5.6993912,14.99651 C 5.4463092,14.195461 5.295563,13.366936 5.2032975,12.519948 5.1915085,12.330543 5.1682595,12.12571 5.2365005,12.176198 5.491776,12.580788 5.5511671,12.565623 5.994313,12.795338 5.6122779,11.365556 6.1224476,9.7749237 6.7462662,8.6136972 6.8243137,8.5243468 6.9090674,8.438623 6.99236,8.3519784 l 0.039063,0.00586 c 0.014022,0.22327 0.040433,0.448037 0.066406,0.6640623 -0.00481,0.104082 0.061596,0.281849 0.082031,0.396485 -0.015374,0.04023 -0.098765,0.280852 -0.1308594,0.5820313 -0.01935,0.119285 -0.020024,0.236506 -0.00195,0.351562 0.00325,0.02268 0.00503,0.0441 0.00977,0.06641 0.00971,0.04048 0.020652,0.08136 0.037109,0.121094 0.034751,0.09384 0.081037,0.182539 0.1562429,0.255859 0.027823,-0.125425 0.084584,-0.226611 0.1621094,-0.310547 0.019359,-0.02096 0.048626,-0.03376 0.070312,-0.05273 0.070254,-0.05953 0.1435983,-0.116957 0.2226563,-0.160156 0.015562,-0.0085 0.015822,-0.0058 0.03125,-0.01367 C 7.9328571,10.158014 8.126087,10.09613 8.1271252,10.09613 L 8.1427502,10.0805 C 8.2239922,10.04742 8.3059378,10.01176 8.3810319,9.9750307 9.5082167,8.8763611 10.574187,8.6840479 11.994313,8.7953428 c 0.781587,0 1.226582,-0.2030038 2,-0.5507812 1.186546,0.4960506 1.695811,1.2706931 2,2.5507814 0.114559,0.962125 -1.431114,3.269495 -2,3.998047 -6.8e-5,1.1e-5 -0.0039,0.002 -0.0039,0.002 1.2e-5,0 0.0039,-10e-6 0.0039,0 0.01173,0.0016 1.717869,-0.760302 2.398438,-1.40625 -0.485567,3.754421 -3.186124,5.881944 -4.398438,6.40625 0.936965,0.06306 2.220246,-0.52096 3.103516,-1.060547 -0.403265,0.43212 -0.834566,0.89984 -1.103516,1.060547 1.054554,-0.295287 2.053274,-0.403114 2.71875,-0.888672 -2.49e-4,0 0.539372,-0.294021 1.103516,-0.9375 0.07505,-0.08561 0.203986,-0.203291 0.28125,-0.300781 0.04803,-0.06061 0.09368,-0.122701 0.140625,-0.183594 0.0083,-0.01001 0.01744,-0.02109 0.02539,-0.03125 1.187377,-1.452539 1.765529,-3.257976 1.722657,-4.894531 C 19.994834,10.57514 19.188693,8.8537837 17.83611,7.4301034 16.857937,6.4005143 15.746727,5.7690328 14.746266,5.4281503 13.710946,5.1308501 12.492782,4.980028 11.457204,5.0375253 c -0.103696,0.00127 -0.391212,0.00968 -0.783203,0.042969 -0.04584,-0.086358 0.0112,-0.4068056 0.123046,-0.4863281 -0.245161,0.02295 -0.471026,0.3418588 -0.679687,0.5625 -0.03512,0.00685 -0.07117,0.013798 -0.103516,0.021484 C 10.201774,4.8530157 10.393386,4.4872576 10.61736,4.1957284 9.9234998,4.3252483 9.6207001,4.8707809 9.2814225,5.3734628 9.1835047,5.4056973 9.0884546,5.4448302 8.99236,5.4808847 9.2440284,4.7546971 9.7172811,4.3572467 10.396657,3.7953378 Z m -1.7988283,4 c 0.1941057,-0.00375 0.3693938,0.029297 0.3710938,0.029297 0.0033,0 0.087553,0.3400574 -0.072266,0.6308593 C 8.7368383,8.7474056 8.3646679,8.8642056 8.1583756,8.7543222 7.947551,8.6444396 7.9482996,8.2767029 8.1115006,7.9847909 8.1902764,7.838835 8.4037231,7.7990837 8.5978287,7.7953378 Z"/>
</svg>
