<svg xmlns="http://www.w3.org/2000/svg" width="22" height="22" version="1.1">
 <defs>
  <style id="current-color-scheme" type="text/css">
   .ColorScheme-Text { color: #498db8; } .ColorScheme-Highlight { color: #1AD6AB; }
  </style>
  <linearGradient id="arrongin" x1="0%" x2="0%" y1="0%" y2="100%">
   <stop offset="0%" style="stop-color:#dd9b44"/>
   <stop offset="100%" style="stop-color:#ad6c16"/>
  </linearGradient>
  <linearGradient id="aurora" x1="0%" x2="0%" y1="0%" y2="100%">
   <stop offset="0%" style="stop-color:#09D4DF"/>
   <stop offset="100%" style="stop-color:#9269F4"/>
  </linearGradient>
  <linearGradient id="cyberneon" x1="0%" x2="0%" y1="0%" y2="100%">
   <stop offset="0" style="stop-color:#0abdc6"/>
   <stop offset="1" style="stop-color:#ea00d9"/>
  </linearGradient>
  <linearGradient id="fitdance" x1="0%" x2="0%" y1="0%" y2="100%">
   <stop offset="0%" style="stop-color:#1AD6AB"/>
   <stop offset="100%" style="stop-color:#329DB6"/>
  </linearGradient>
  <linearGradient id="oomox" x1="0%" x2="0%" y1="0%" y2="100%">
   <stop offset="0%" style="stop-color:#efefe7"/>
   <stop offset="100%" style="stop-color:#8f8f8b"/>
  </linearGradient>
  <linearGradient id="rainblue" x1="0%" x2="0%" y1="0%" y2="100%">
   <stop offset="0%" style="stop-color:#00F260"/>
   <stop offset="100%" style="stop-color:#0575E6"/>
  </linearGradient>
  <linearGradient id="sunrise" x1="0%" x2="0%" y1="0%" y2="100%">
   <stop offset="0%" style="stop-color:#FF8501"/>
   <stop offset="100%" style="stop-color:#FFCB01"/>
  </linearGradient>
  <linearGradient id="telinkrin" x1="0%" x2="0%" y1="0%" y2="100%">
   <stop offset="0%" style="stop-color:#b2ced6"/>
   <stop offset="100%" style="stop-color:#6da5b7"/>
  </linearGradient>
  <linearGradient id="60spsycho" x1="0%" x2="0%" y1="0%" y2="100%">
   <stop offset="0%" style="stop-color:#df5940"/>
   <stop offset="25%" style="stop-color:#d8d15f"/>
   <stop offset="50%" style="stop-color:#e9882a"/>
   <stop offset="100%" style="stop-color:#279362"/>
  </linearGradient>
  <linearGradient id="90ssummer" x1="0%" x2="0%" y1="0%" y2="100%">
   <stop offset="0%" style="stop-color:#f618c7"/>
   <stop offset="20%" style="stop-color:#94ffab"/>
   <stop offset="50%" style="stop-color:#fbfd54"/>
   <stop offset="100%" style="stop-color:#0f83ae"/>
  </linearGradient>
 </defs>
 <path fill="currentColor" class="ColorScheme-Text" d="M 10.902344 3 C 9.9014146 4.4011732 7.5568423 7.2309686 6.1425781 10.166016 C 7.3602771 8.617246 8.6495261 8.0010595 9.8085938 8 C 12.97247 7.997132 15.450882 12.453385 14.308594 12.886719 C 13.399157 10.944083 12.119658 10.0304 10.998047 10 C 9.5253209 9.9600896 8.0556808 11.362325 8 13.162109 C 7.8711664 17.326426 14.020485 16.830144 14.792969 18.101562 C 14.792969 18.101562 14.794922 18.103516 14.794922 18.103516 C 15.465146 17.728942 16.027229 17.239735 16.408203 16.628906 C 18.980598 12.504949 12.422962 5.50048 10.902344 3 z M 6.1386719 10.173828 C 5.9867099 10.489587 5.8462712 10.80654 5.71875 11.123047 C 5.8454567 10.806797 5.9868151 10.489387 6.1386719 10.173828 z M 5.71875 11.123047 C 5.5918195 11.438088 5.4818789 11.75193 5.3847656 12.064453 C 5.4808677 11.752173 5.5926197 11.437858 5.71875 11.123047 z M 5.3808594 12.074219 C 5.2832528 12.389402 5.204078 12.702454 5.1425781 13.011719 C 5.2033967 12.702111 5.2840928 12.38974 5.3808594 12.074219 z M 5.1425781 13.011719 C 5.0842785 13.30489 5.0481764 13.593974 5.0273438 13.878906 C 5.0481147 13.593967 5.0849964 13.304849 5.1425781 13.011719 z M 5.0214844 13.9375 C 5.014343 14.049538 5.014413 14.159111 5.0136719 14.269531 C 5.0132013 14.159552 5.0160557 14.049139 5.0214844 13.9375 z M 5.03125 14.677734 C 5.0426897 14.838761 5.0586554 14.997819 5.0859375 15.154297 C 5.0591148 14.998701 5.0435128 14.838468 5.03125 14.677734 z M 5.1699219 15.511719 C 5.2091207 15.660432 5.2409719 15.811647 5.296875 15.955078 C 5.2422462 15.812052 5.2081797 15.661526 5.1699219 15.511719 z M 5.3164062 16 C 5.4035839 16.215704 5.50275 16.4269 5.6308594 16.628906 C 5.6445033 16.650418 5.663647 16.668234 5.6777344 16.689453 C 5.6630624 16.669055 5.646273 16.650127 5.6328125 16.628906 C 5.5063088 16.429432 5.4027358 16.217896 5.3164062 16 z M 6.0214844 17.132812 C 6.0717787 17.188765 6.1280206 17.23953 6.1816406 17.292969 C 6.1282193 17.239701 6.0716034 17.188582 6.0214844 17.132812 z M 6.5097656 17.591797 C 6.5679178 17.639134 6.6266155 17.685523 6.6875 17.730469 C 6.6266512 17.685537 6.5678836 17.639127 6.5097656 17.591797 z M 7.09375 18.001953 C 7.1528473 18.037511 7.2105611 18.07377 7.2714844 18.107422 C 7.2105841 18.07379 7.1524678 18.037758 7.09375 18.001953 z M 14.216797 18.386719 C 14.138208 18.420259 14.055249 18.447736 13.974609 18.478516 C 14.05541 18.447705 14.138056 18.420303 14.216797 18.386719 z M 13.537109 18.632812 C 13.443247 18.661605 13.347735 18.685469 13.251953 18.710938 C 13.347632 18.685515 13.443373 18.661684 13.537109 18.632812 z M 8.5761719 18.648438 C 8.6397105 18.667452 8.7051289 18.681759 8.7695312 18.699219 C 8.7053386 18.681819 8.6395059 18.667378 8.5761719 18.648438 z M 12.841797 18.808594 C 12.735182 18.83098 12.627732 18.852798 12.519531 18.871094 C 12.628203 18.852746 12.734728 18.831054 12.841797 18.808594 z M 9.2851562 18.822266 C 9.3720573 18.839776 9.4589755 18.856255 9.546875 18.871094 C 9.4590453 18.856284 9.3719901 18.839748 9.2851562 18.822266 z M 12.28125 18.904297 C 11.914756 18.955727 11.543995 18.988583 11.169922 18.994141 C 11.544316 18.98871 11.914479 18.955705 12.28125 18.904297 z M 9.8925781 18.917969 C 10.279506 18.96743 10.671228 18.999202 11.064453 18.998047 C 10.671622 18.999277 10.279125 18.967269 9.8925781 18.917969 z"/>
 <path fill="currentColor" fill-rule="evenodd" opacity=".3" class="ColorScheme-Text" d="m 9.8085939,8 c -1.1596314,0.00106 -2.4497475,0.6175382 -3.6679688,2.167969 -0.611563,1.269658 -1.0406882,2.558237 -1.1191406,3.759765 -0.006,0.119592 -0.00857,0.237769 -0.00781,0.355469 -5.645e-4,0.133379 0.00829,0.263807 0.017578,0.394531 0.012362,0.162034 0.027453,0.323692 0.054687,0.480469 0.020521,0.117107 0.052145,0.231429 0.082031,0.345703 0.039084,0.152395 0.073324,0.30565 0.1289062,0.451172 0.00457,0.01172 0.00899,0.02348 0.013672,0.03516 0.087102,0.221645 0.193721,0.43598 0.3222656,0.638672 0.015204,0.02397 0.035028,0.04475 0.050781,0.06836 0.10182,0.152492 0.2144256,0.298192 0.3378906,0.435546 0.050119,0.05577 0.1067349,0.106889 0.1601562,0.160157 0.1042285,0.103876 0.2121867,0.204452 0.328125,0.298828 0.058118,0.04733 0.1168856,0.09374 0.1777344,0.138672 0.1236595,0.09129 0.2526801,0.178348 0.3867188,0.259765 0.065356,0.03969 0.1296536,0.07985 0.1972656,0.117188 0.1913301,0.105684 0.3884341,0.204138 0.5957031,0.291016 0.00464,0.0019 0.00902,0.0039 0.013672,0.0059 5.505e-4,2.29e-4 0.0014,-2.29e-4 0.00195,0 0.2230193,0.09281 0.4557997,0.173048 0.6933594,0.244141 0.063334,0.01894 0.1291667,0.03338 0.1933593,0.05078 0.1690399,0.04583 0.3396115,0.08793 0.5136719,0.123047 0.088708,0.01789 0.1778291,0.03372 0.2675781,0.04883 0.1128502,0.019 0.2276209,0.03228 0.3417969,0.04687 0.3865464,0.0493 0.7790444,0.08131 1.1718754,0.08008 0.03334,-9.8e-5 0.06628,-0.0034 0.09961,-0.0039 0.376068,-0.0053 0.748773,-0.03814 1.117187,-0.08984 0.07949,-0.01114 0.159493,-0.0199 0.238281,-0.0332 0.109465,-0.01851 0.218335,-0.03982 0.326172,-0.0625 0.136966,-0.0288 0.272509,-0.06212 0.40625,-0.09766 0.09778,-0.026 0.195266,-0.05048 0.291016,-0.08008 0.147322,-0.04551 0.28991,-0.0983 0.43164,-0.152343 0.08064,-0.03078 0.163599,-0.05826 0.242188,-0.0918 0.20011,-0.08535 0.393329,-0.179925 0.578125,-0.283203 -1.36e-4,-0.0011 -0.0017,-8.14e-4 -0.002,-0.002 C 14.020437,16.830145 7.8711665,17.326426 8.0000001,13.162109 8.0556809,11.362325 9.525321,9.9600896 10.998047,10 c 1.121611,0.0304 2.40111,0.944083 3.310547,2.886719 C 15.450882,12.453385 12.97247,7.997132 9.8085939,8 Z"/>
</svg>
