<svg xmlns="http://www.w3.org/2000/svg" width="22" height="22" version="1.1">
 <defs>
  <style id="current-color-scheme" type="text/css">
   .ColorScheme-Text { color: #498db8; } .ColorScheme-Highlight { color: #1AD6AB; }
  </style>
  <linearGradient id="arrongin" x1="0%" x2="0%" y1="0%" y2="100%">
   <stop offset="0%" style="stop-color:#dd9b44"/>
   <stop offset="100%" style="stop-color:#ad6c16"/>
  </linearGradient>
  <linearGradient id="aurora" x1="0%" x2="0%" y1="0%" y2="100%">
   <stop offset="0%" style="stop-color:#09D4DF"/>
   <stop offset="100%" style="stop-color:#9269F4"/>
  </linearGradient>
  <linearGradient id="cyberneon" x1="0%" x2="0%" y1="0%" y2="100%">
   <stop offset="0" style="stop-color:#0abdc6"/>
   <stop offset="1" style="stop-color:#ea00d9"/>
  </linearGradient>
  <linearGradient id="fitdance" x1="0%" x2="0%" y1="0%" y2="100%">
   <stop offset="0%" style="stop-color:#1AD6AB"/>
   <stop offset="100%" style="stop-color:#329DB6"/>
  </linearGradient>
  <linearGradient id="oomox" x1="0%" x2="0%" y1="0%" y2="100%">
   <stop offset="0%" style="stop-color:#efefe7"/>
   <stop offset="100%" style="stop-color:#8f8f8b"/>
  </linearGradient>
  <linearGradient id="rainblue" x1="0%" x2="0%" y1="0%" y2="100%">
   <stop offset="0%" style="stop-color:#00F260"/>
   <stop offset="100%" style="stop-color:#0575E6"/>
  </linearGradient>
  <linearGradient id="sunrise" x1="0%" x2="0%" y1="0%" y2="100%">
   <stop offset="0%" style="stop-color:#FF8501"/>
   <stop offset="100%" style="stop-color:#FFCB01"/>
  </linearGradient>
  <linearGradient id="telinkrin" x1="0%" x2="0%" y1="0%" y2="100%">
   <stop offset="0%" style="stop-color:#b2ced6"/>
   <stop offset="100%" style="stop-color:#6da5b7"/>
  </linearGradient>
  <linearGradient id="60spsycho" x1="0%" x2="0%" y1="0%" y2="100%">
   <stop offset="0%" style="stop-color:#df5940"/>
   <stop offset="25%" style="stop-color:#d8d15f"/>
   <stop offset="50%" style="stop-color:#e9882a"/>
   <stop offset="100%" style="stop-color:#279362"/>
  </linearGradient>
  <linearGradient id="90ssummer" x1="0%" x2="0%" y1="0%" y2="100%">
   <stop offset="0%" style="stop-color:#f618c7"/>
   <stop offset="20%" style="stop-color:#94ffab"/>
   <stop offset="50%" style="stop-color:#fbfd54"/>
   <stop offset="100%" style="stop-color:#0f83ae"/>
  </linearGradient>
 </defs>
 <path fill="currentColor" class="ColorScheme-Text" d="m11 19a8 8 0 0 0 8 -8 8 8 0 0 0 -8 -8 8 8 0 0 0 -8 8 8 8 0 0 0 8 8zm0-2a6 6 0 0 1 -4.4863 -2.023 1.5 1.5 0 0 1 -0.2637 0.023 1.5 1.5 0 0 1 -1.5 -1.5 1.5 1.5 0 0 1 0.4336 -1.053 6 6 0 0 1 -0.1836 -1.447 6 6 0 0 1 1.1738 -3.5527 1.5 1.5 0 0 1 -0.1738 -0.6973 1.5 1.5 0 0 1 1.5 -1.5 1.5 1.5 0 0 1 0.9395 0.332 6 6 0 0 1 2.5605 -0.582 6 6 0 0 1 5.191 3.002 1.5 1.5 0 0 1 0.059 -0.002 1.5 1.5 0 0 1 1.5 1.5 1.5 1.5 0 0 1 -0.75978 1.3008 6 6 0 0 1 0.0098 0.19921 6 6 0 0 1 -6 6zm0-1a5 5 0 0 0 5 -5 5 5 0 0 0 -0.000003 -0.02148 1.5 1.5 0 0 1 -1.0645 -0.76172l-3.4609 0.55273a1.5 1.5 0 0 1 -1.4746 1.2305 1.5 1.5 0 0 1 -0.79102 -0.22656l-1.543 1.234a1.5 1.5 0 0 1 0.084 0.492 1.5 1.5 0 0 1 -0.3516 0.965 5 5 0 0 0 3.6016 1.535zm-3.959-3.773 1.543-1.235a1.5 1.5 0 0 1 -0.084 -0.492 1.5 1.5 0 0 1 0.3008 -0.898l-0.9336-1.3989a1.5 1.5 0 0 1 -0.3672 0.0469 1.5 1.5 0 0 1 -0.5898 -0.1211 5 5 0 0 0 -0.9102 2.8711 5 5 0 0 0 0.1074 1.008 1.5 1.5 0 0 1 0.1426 -0.008 1.5 1.5 0 0 1 0.791 0.227zm4.2734-2.4434 3.4609-0.55469a1.5 1.5 0 0 1 0.479 -0.8481 5 5 0 0 0 -4.254 -2.3809 5 5 0 0 0 -2.0332 0.4395 1.5 1.5 0 0 1 0.0332 0.3105 1.5 1.5 0 0 1 -0.3008 0.8985l0.93359 1.3984a1.5 1.5 0 0 1 0.36719 -0.04687 1.5 1.5 0 0 1 1.3145 0.7832z"/>
</svg>
