<svg xmlns="http://www.w3.org/2000/svg" width="16" height="16" version="1.1">
 <defs>
   <style id="current-color-scheme" type="text/css">
   .ColorScheme-Text { color: #2b68d1; } .ColorScheme-Highlight { color:#5294e2; }
  </style>
  <linearGradient id="arrongin" x1="0%" x2="0%" y1="0%" y2="100%">
   <stop offset="0%" style="stop-color:#dd9b44; stop-opacity:1"/>
   <stop offset="100%" style="stop-color:#ad6c16; stop-opacity:1"/>
  </linearGradient>
  <linearGradient id="aurora" x1="0%" x2="0%" y1="0%" y2="100%">
   <stop offset="0%" style="stop-color:#09D4DF; stop-opacity:1"/>
   <stop offset="100%" style="stop-color:#9269F4; stop-opacity:1"/>
  </linearGradient>
  <linearGradient id="cyberneon" x1="0%" x2="0%" y1="0%" y2="100%">
    <stop offset="0" style="stop-color:#0abdc6; stop-opacity:1"/>
    <stop offset="1" style="stop-color:#ea00d9; stop-opacity:1"/>
  </linearGradient>
  <linearGradient id="fitdance" x1="0%" x2="0%" y1="0%" y2="100%">
   <stop offset="0%" style="stop-color:#1AD6AB; stop-opacity:1"/>
   <stop offset="100%" style="stop-color:#329DB6; stop-opacity:1"/>
  </linearGradient>
  <linearGradient id="oomox" x1="0%" x2="0%" y1="0%" y2="100%">
   <stop offset="0%" style="stop-color:#efefe7; stop-opacity:1"/>
   <stop offset="100%" style="stop-color:#8f8f8b; stop-opacity:1"/>
  </linearGradient>
  <linearGradient id="rainblue" x1="0%" x2="0%" y1="0%" y2="100%">
   <stop offset="0%" style="stop-color:#00F260; stop-opacity:1"/>
   <stop offset="100%" style="stop-color:#0575E6; stop-opacity:1"/>
  </linearGradient>
  <linearGradient id="sunrise" x1="0%" x2="0%" y1="0%" y2="100%">
   <stop offset="0%" style="stop-color: #FF8501; stop-opacity:1"/>
   <stop offset="100%" style="stop-color: #FFCB01; stop-opacity:1"/>
  </linearGradient>
  <linearGradient id="telinkrin" x1="0%" x2="0%" y1="0%" y2="100%">
   <stop offset="0%" style="stop-color: #b2ced6; stop-opacity:1"/>
   <stop offset="100%" style="stop-color: #6da5b7; stop-opacity:1"/>
  </linearGradient>
  <linearGradient id="60spsycho" x1="0%" x2="0%" y1="0%" y2="100%">
   <stop offset="0%" style="stop-color: #df5940; stop-opacity:1"/>
   <stop offset="25%" style="stop-color: #d8d15f; stop-opacity:1"/>
   <stop offset="50%" style="stop-color: #e9882a; stop-opacity:1"/>
   <stop offset="100%" style="stop-color: #279362; stop-opacity:1"/>
  </linearGradient>
  <linearGradient id="90ssummer" x1="0%" x2="0%" y1="0%" y2="100%">
   <stop offset="0%" style="stop-color: #f618c7; stop-opacity:1"/>
   <stop offset="20%" style="stop-color: #94ffab; stop-opacity:1"/>
   <stop offset="50%" style="stop-color: #fbfd54; stop-opacity:1"/>
   <stop offset="100%" style="stop-color: #0f83ae; stop-opacity:1"/>
  </linearGradient>
 </defs>
 <path fill="currentColor" class="ColorScheme-Text" d="M 6.499 15.992 C 4.706 15.809 3.457 15.295 2.534 14.363 C 2.161 13.987 1.908 13.641 1.697 13.219 C 1.252 12.329 1.112 11.327 1.33 10.585 C 1.547 9.848 2.04 9.036 2.735 8.271 C 3.12 7.847 3.316 7.572 3.494 7.225 C 3.709 6.808 3.732 6.529 3.714 6.141 C 3.697 5.765 3.616 5.604 3.41 5.432 C 3.214 5.271 3.134 5.181 2.529 5.21 C 1.939 5.238 1.649 5.202 1.367 5.066 C 1.149 4.96 1.071 4.841 1.139 4.713 C 1.49 4.439 1.614 4.139 2 4 C 1.434 3.518 0.876 3.013 0.857 2.293 C 0.897 1.907 1.254 2 1.254 2 C 1.813 2.113 2.392 2.227 2.919 2.245 C 3.071 2.225 3.23 2.184 3.274 2.155 C 3.318 2.127 3.437 1.956 3.539 1.775 C 3.936 1.074 4.357 0.62 4.829 0.387 C 5.372 0.117 6.14 -0.027 6.87 0.004 C 7.747 0.041 8.492 0.344 9.1 0.912 C 9.518 1.302 9.795 1.4 10.193 1.297 C 10.472 1.225 10.479 1.226 10.479 1.313 C 10.479 1.429 10.387 1.578 10.245 1.692 L 10.115 1.797 L 10.247 1.875 C 10.427 1.982 10.406 2.069 10.191 2.1 C 10.012 2.126 9.877 2.185 9.877 2.238 C 9.877 2.257 9.903 2.421 9.935 2.602 C 10.012 3.046 9.984 3.907 9.879 4.332 C 9.717 4.991 9.471 5.455 9.051 5.896 C 8.724 6.193 7.801 6.803 7.714 6.857 C 7.755 6.857 8.108 6.836 8.345 6.857 C 9.212 6.934 9.816 7.08 10.686 7.486 C 11.508 7.869 11.858 7.91 12.313 7.678 C 12.603 7.53 13.019 7.214 13.329 6.795 C 13.595 6.438 13.753 6.286 14 6.286 C 14.242 6.286 14.416 6.445 14.598 6.724 C 14.858 7.12 14.999 7.402 15.099 8.091 C 15.171 8.583 15.151 9.739 15.062 10.23 C 14.53 13.163 12.658 15.138 9.8 15.781 C 9.029 15.954 8.718 15.985 7.649 15.997 C 7.095 16.002 6.577 16.001 6.5 15.993 L 6.499 15.992 Z"/>
</svg>
