<svg xmlns="http://www.w3.org/2000/svg" width="16" height="16" version="1.1">
 <defs>
   <style id="current-color-scheme" type="text/css">
   .ColorScheme-Text { color: #2b68d1; } .ColorScheme-Highlight { color:#5294e2; }
  </style>
  <linearGradient id="arrongin" x1="0%" x2="0%" y1="0%" y2="100%">
   <stop offset="0%" style="stop-color:#dd9b44; stop-opacity:1"/>
   <stop offset="100%" style="stop-color:#ad6c16; stop-opacity:1"/>
  </linearGradient>
  <linearGradient id="aurora" x1="0%" x2="0%" y1="0%" y2="100%">
   <stop offset="0%" style="stop-color:#09D4DF; stop-opacity:1"/>
   <stop offset="100%" style="stop-color:#9269F4; stop-opacity:1"/>
  </linearGradient>
  <linearGradient id="cyberneon" x1="0%" x2="0%" y1="0%" y2="100%">
    <stop offset="0" style="stop-color:#0abdc6; stop-opacity:1"/>
    <stop offset="1" style="stop-color:#ea00d9; stop-opacity:1"/>
  </linearGradient>
  <linearGradient id="fitdance" x1="0%" x2="0%" y1="0%" y2="100%">
   <stop offset="0%" style="stop-color:#1AD6AB; stop-opacity:1"/>
   <stop offset="100%" style="stop-color:#329DB6; stop-opacity:1"/>
  </linearGradient>
  <linearGradient id="oomox" x1="0%" x2="0%" y1="0%" y2="100%">
   <stop offset="0%" style="stop-color:#efefe7; stop-opacity:1"/>
   <stop offset="100%" style="stop-color:#8f8f8b; stop-opacity:1"/>
  </linearGradient>
  <linearGradient id="rainblue" x1="0%" x2="0%" y1="0%" y2="100%">
   <stop offset="0%" style="stop-color:#00F260; stop-opacity:1"/>
   <stop offset="100%" style="stop-color:#0575E6; stop-opacity:1"/>
  </linearGradient>
  <linearGradient id="sunrise" x1="0%" x2="0%" y1="0%" y2="100%">
   <stop offset="0%" style="stop-color: #FF8501; stop-opacity:1"/>
   <stop offset="100%" style="stop-color: #FFCB01; stop-opacity:1"/>
  </linearGradient>
  <linearGradient id="telinkrin" x1="0%" x2="0%" y1="0%" y2="100%">
   <stop offset="0%" style="stop-color: #b2ced6; stop-opacity:1"/>
   <stop offset="100%" style="stop-color: #6da5b7; stop-opacity:1"/>
  </linearGradient>
  <linearGradient id="60spsycho" x1="0%" x2="0%" y1="0%" y2="100%">
   <stop offset="0%" style="stop-color: #df5940; stop-opacity:1"/>
   <stop offset="25%" style="stop-color: #d8d15f; stop-opacity:1"/>
   <stop offset="50%" style="stop-color: #e9882a; stop-opacity:1"/>
   <stop offset="100%" style="stop-color: #279362; stop-opacity:1"/>
  </linearGradient>
  <linearGradient id="90ssummer" x1="0%" x2="0%" y1="0%" y2="100%">
   <stop offset="0%" style="stop-color: #f618c7; stop-opacity:1"/>
   <stop offset="20%" style="stop-color: #94ffab; stop-opacity:1"/>
   <stop offset="50%" style="stop-color: #fbfd54; stop-opacity:1"/>
   <stop offset="100%" style="stop-color: #0f83ae; stop-opacity:1"/>
  </linearGradient>
 </defs>
 <path fill="currentColor" class="ColorScheme-Text" fill-rule="evenodd" d="M 7.797 14.266 C 7.463 14.193 7.17 13.978 7.051 13.72 C 6.972 13.547 6.985 13.437 7.092 13.373 C 7.221 13.296 7.313 13.347 7.446 13.568 C 7.578 13.789 7.759 13.897 8 13.897 C 8.253 13.897 8.428 13.788 8.56 13.55 C 8.68 13.335 8.769 13.29 8.907 13.372 C 9.016 13.437 9.029 13.546 8.948 13.723 C 8.775 14.1 8.224 14.36 7.797 14.266 L 7.797 14.266 L 7.797 14.266 L 7.797 14.266 L 7.797 14.266 L 7.797 14.266 Z M 4.726 12.788 C 4.676 12.661 4.789 12.281 4.932 12.1 C 5.379 11.531 6.273 11.604 6.604 12.237 C 6.729 12.476 6.755 12.857 6.646 12.857 C 6.611 12.857 6.582 12.842 6.582 12.824 C 6.582 12.805 6.519 12.728 6.443 12.652 C 6.124 12.334 5.623 12.264 5.229 12.483 C 5.108 12.551 4.967 12.662 4.917 12.732 C 4.812 12.874 4.766 12.888 4.726 12.788 L 4.726 12.788 L 4.726 12.788 L 4.726 12.788 L 4.726 12.788 Z M 13.27 11.579 C 13.042 14.011 10.911 16 8.001 16 C 5.091 16 2.98 14.009 2.731 11.579 C 2.481 9.137 5.011 0.037 8.001 0 C 11.011 -0.037 13.507 9.048 13.27 11.579 L 13.27 11.579 L 13.27 11.579 L 13.27 11.579 L 13.27 11.579 Z M 11.274 12.788 C 11.324 12.661 11.211 12.281 11.068 12.1 C 10.621 11.531 9.727 11.604 9.396 12.237 C 9.271 12.476 9.245 12.857 9.354 12.857 C 9.389 12.857 9.418 12.842 9.418 12.824 C 9.418 12.805 9.481 12.728 9.557 12.652 C 9.876 12.334 10.377 12.264 10.771 12.483 C 10.892 12.551 11.033 12.662 11.083 12.732 C 11.188 12.874 11.234 12.888 11.274 12.788 L 11.274 12.788 Z"/>
</svg>
