<svg xmlns="http://www.w3.org/2000/svg" width="16" height="16" version="1.1">
 <defs>
   <style id="current-color-scheme" type="text/css">
   .ColorScheme-Text { color: #2b68d1; } .ColorScheme-Highlight { color:#5294e2; }
  </style>
  <linearGradient id="arrongin" x1="0%" x2="0%" y1="0%" y2="100%">
   <stop offset="0%" style="stop-color:#dd9b44; stop-opacity:1"/>
   <stop offset="100%" style="stop-color:#ad6c16; stop-opacity:1"/>
  </linearGradient>
  <linearGradient id="aurora" x1="0%" x2="0%" y1="0%" y2="100%">
   <stop offset="0%" style="stop-color:#09D4DF; stop-opacity:1"/>
   <stop offset="100%" style="stop-color:#9269F4; stop-opacity:1"/>
  </linearGradient>
  <linearGradient id="cyberneon" x1="0%" x2="0%" y1="0%" y2="100%">
    <stop offset="0" style="stop-color:#0abdc6; stop-opacity:1"/>
    <stop offset="1" style="stop-color:#ea00d9; stop-opacity:1"/>
  </linearGradient>
  <linearGradient id="fitdance" x1="0%" x2="0%" y1="0%" y2="100%">
   <stop offset="0%" style="stop-color:#1AD6AB; stop-opacity:1"/>
   <stop offset="100%" style="stop-color:#329DB6; stop-opacity:1"/>
  </linearGradient>
  <linearGradient id="oomox" x1="0%" x2="0%" y1="0%" y2="100%">
   <stop offset="0%" style="stop-color:#efefe7; stop-opacity:1"/>
   <stop offset="100%" style="stop-color:#8f8f8b; stop-opacity:1"/>
  </linearGradient>
  <linearGradient id="rainblue" x1="0%" x2="0%" y1="0%" y2="100%">
   <stop offset="0%" style="stop-color:#00F260; stop-opacity:1"/>
   <stop offset="100%" style="stop-color:#0575E6; stop-opacity:1"/>
  </linearGradient>
  <linearGradient id="sunrise" x1="0%" x2="0%" y1="0%" y2="100%">
   <stop offset="0%" style="stop-color: #FF8501; stop-opacity:1"/>
   <stop offset="100%" style="stop-color: #FFCB01; stop-opacity:1"/>
  </linearGradient>
  <linearGradient id="telinkrin" x1="0%" x2="0%" y1="0%" y2="100%">
   <stop offset="0%" style="stop-color: #b2ced6; stop-opacity:1"/>
   <stop offset="100%" style="stop-color: #6da5b7; stop-opacity:1"/>
  </linearGradient>
  <linearGradient id="60spsycho" x1="0%" x2="0%" y1="0%" y2="100%">
   <stop offset="0%" style="stop-color: #df5940; stop-opacity:1"/>
   <stop offset="25%" style="stop-color: #d8d15f; stop-opacity:1"/>
   <stop offset="50%" style="stop-color: #e9882a; stop-opacity:1"/>
   <stop offset="100%" style="stop-color: #279362; stop-opacity:1"/>
  </linearGradient>
  <linearGradient id="90ssummer" x1="0%" x2="0%" y1="0%" y2="100%">
   <stop offset="0%" style="stop-color: #f618c7; stop-opacity:1"/>
   <stop offset="20%" style="stop-color: #94ffab; stop-opacity:1"/>
   <stop offset="50%" style="stop-color: #fbfd54; stop-opacity:1"/>
   <stop offset="100%" style="stop-color: #0f83ae; stop-opacity:1"/>
  </linearGradient>
 </defs>
 <path fill="currentColor" class="ColorScheme-Text" opacity="0.9" d="M 11.07175,0 C 9.85211,0 8.86339,0.989513 8.86339,2.210139 c 0,0.39435 0.10107,0.761027 0.28192,1.081558 L 6.7255,5.713446 C 6.28886,5.535818 5.8163,5.431301 5.31591,5.431301 c -0.64874,0 -1.26462,0.16892 -1.79723,0.458486 L 2.88436,3.526818 C 3.07884,3.307626 3.20152,3.02009 3.20152,2.703894 c 0,-0.685628 -0.56007,-1.234386 -1.24514,-1.234386 -0.68508,0 -1.2334,0.548758 -1.2334,1.234386 0,0.612058 0.43961,1.120528 1.02196,1.222631 L 2.49672,6.712711 C 1.91273,7.375675 1.557,8.239953 1.557,9.19324 c 0,2.077662 1.68291,3.76194 3.75891,3.76194 1.15009,0 2.17667,-0.514077 2.86617,-1.328435 l 1.90296,1.10507 c -0.0501,0.203008 -0.0705,0.416323 -0.0705,0.634827 0,1.454364 1.17804,2.633358 2.63124,2.633358 1.45319,0 2.63124,-1.178994 2.63124,-2.633358 0,-1.454363 -1.17805,-2.633358 -2.63124,-2.633358 -0.80215,0 -1.52605,0.362243 -2.00867,0.928729 L 8.80464,10.603968 C 8.9795,10.169748 9.07481,9.690114 9.07481,9.19324 9.07481,8.057822 8.56562,7.049795 7.77093,6.360029 L 9.99107,4.138134 c 0.31829,0.178 0.69017,0.282145 1.08068,0.282145 1.21965,0 2.20837,-0.989513 2.20837,-2.21014 C 13.28012,0.989513 12.2914,0 11.07175,0 Z"/>
</svg>
