<svg xmlns="http://www.w3.org/2000/svg" width="22" height="22" version="1.1">
 <defs>
   <style id="current-color-scheme" type="text/css">
   .ColorScheme-Text { color: #498db8; } .ColorScheme-Highlight { color: #1AD6AB; }
  </style>
  <linearGradient id="arrongin" x1="0%" x2="0%" y1="0%" y2="100%">
   <stop offset="0%"    stop-color= "#dd9b44" stop-opacity="1"/>
   <stop offset="100%"  stop-color= "#ad6c16" stop-opacity="1"/>
  </linearGradient>
  <linearGradient id="aurora" x1="0%" x2="0%" y1="0%" y2="100%">
   <stop offset="0%"    stop-color= "#09D4DF" stop-opacity="1"/>
   <stop offset="100%"  stop-color= "#9269F4" stop-opacity="1"/>
  </linearGradient> 
  <linearGradient id="cyberblue" x1="0%" x2="0%" y1="0%" y2="100%">
   <stop offset="0%"    stop-color= "#07B3FF" stop-opacity="1"/>
   <stop offset="100%"  stop-color= "#007DE8" stop-opacity="1"/>
  </linearGradient>
  <linearGradient id="cyberneon" x1="0%" x2="0%" y1="0%" y2="100%">
    <stop offset="0%"   stop-color= "#0abdc6" stop-opacity="1"/>
    <stop offset="100%" stop-color= "#ea00d9" stop-opacity="1"/>
  </linearGradient>
  <linearGradient id="fitdance" x1="0%" x2="0%" y1="0%" y2="100%">
   <stop offset="0%"    stop-color= "#1AD6AB" stop-opacity="1"/>
   <stop offset="100%"  stop-color= "#329DB6" stop-opacity="1"/>
  </linearGradient>
  <linearGradient id="oomox" x1="0%" x2="0%" y1="0%" y2="100%">
   <stop offset="0%"    stop-color= "#efefe7" stop-opacity="1"/>
   <stop offset="100%"  stop-color= "#8f8f8b" stop-opacity="1"/>
  </linearGradient>
  <linearGradient id="rainblue" x1="0%" x2="0%" y1="0%" y2="100%">
   <stop offset="0%"    stop-color= "#00F260" stop-opacity="1"/>
   <stop offset="100%"  stop-color= "#0575E6" stop-opacity="1"/>
  </linearGradient>
  <linearGradient id="redcarbon" x1="0%" x2="0%" y1="0%" y2="100%">
   <stop offset="0%"    stop-color= "#FF6D57" stop-opacity="1"/>
   <stop offset="50%"   stop-color= "#FF5160" stop-opacity="1"/>
   <stop offset="100%"  stop-color= "#F50F22" stop-opacity="1"/>
  </linearGradient>
  <linearGradient id="sunrise" x1="0%" x2="0%" y1="0%" y2="100%">
   <stop offset="0%"    stop-color= "#FF8501" stop-opacity="1"/>
   <stop offset="100%"  stop-color= "#FFCB01" stop-opacity="1"/>
  </linearGradient>
  <linearGradient id="telinkrin" x1="0%" x2="0%" y1="0%" y2="100%">
   <stop offset="0%"    stop-color= "#b2ced6" stop-opacity="1"/>
   <stop offset="100%"  stop-color= "#6da5b7" stop-opacity="1"/>
  </linearGradient>
  <linearGradient id="60spsycho" x1="0%" x2="0%" y1="0%" y2="100%">
   <stop offset="0%"    stop-color= "#df5940" stop-opacity="1"/>
   <stop offset="25%"   stop-color= "#d8d15f" stop-opacity="1"/>
   <stop offset="50%"   stop-color= "#e9882a" stop-opacity="1"/>
   <stop offset="100%"  stop-color= "#279362" stop-opacity="1"/>
  </linearGradient>
  <linearGradient id="90ssummer" x1="0%" x2="0%" y1="0%" y2="100%">
   <stop offset="0%"    stop-color= "#f618c7" stop-opacity="1"/>
   <stop offset="20%"   stop-color= "#94ffab" stop-opacity="1"/>
   <stop offset="50%"   stop-color= "#fbfd54" stop-opacity="1"/>
   <stop offset="100%"  stop-color= "#0f83ae" stop-opacity="1"/>
  </linearGradient>
 </defs>
 <path fill="currentColor" class="ColorScheme-Text" d="M 8 2 A 6.0000019 6.0000148 0 0 0 7.1328125 2.0703125 A 6.0000019 6.0000148 0 0 0 6.5742188 2.1796875 A 6 6 0 0 0 6.4746094 2.2011719 C 6.4489601 2.2078788 6.4237524 2.2152276 6.3984375 2.2226562 A 6.0000019 6.0000148 0 0 0 6.0019531 2.3496094 A 6 6 0 0 0 5.8574219 2.3984375 C 5.8237686 2.4112915 5.7907636 2.4252646 5.7578125 2.4394531 A 6.0000019 6.0000148 0 0 0 5.4765625 2.5644531 A 6 6 0 0 0 5.2949219 2.6464844 C 5.2709205 2.6586211 5.2478713 2.6722538 5.2246094 2.6855469 A 6.0000019 6.0000148 0 0 0 4.9355469 2.8496094 A 6 6 0 0 0 4.7578125 2.9511719 A 6 6 0 0 0 4.6816406 3.0058594 A 6.0000019 6.0000148 0 0 0 4.4394531 3.1777344 A 6 6 0 0 0 4.2695312 3.3007812 A 6 6 0 0 0 4.2070312 3.3554688 A 6.0000019 6.0000148 0 0 0 3.9453125 3.5878906 C 3.89408 3.6329269 3.8416512 3.6766439 3.7929688 3.7246094 A 6 6 0 0 0 3.7597656 3.7597656 A 6.0000019 6.0000148 0 0 0 3.4765625 4.0703125 C 3.440745 4.1100346 3.4031281 4.1481436 3.3691406 4.1894531 A 6 6 0 0 0 3.3574219 4.2050781 A 6.0000019 6.0000148 0 0 0 2 8 A 6.0000019 6.0000148 0 0 0 8 14 A 6.0000019 6.0000148 0 0 0 14 8 A 6.0000019 6.0000148 0 0 0 13.558594 5.7578125 A 6.0000019 6.0000148 0 0 0 8 2 z M 8 3 A 5 5 0 0 1 10.646484 3.765625 L 9.0585938 6.3066406 C 9.5780535 6.6315006 9.9288819 7.1879144 9.9824219 7.8339844 L 12.980469 7.5839844 A 5 5 0 0 1 13 8 A 5 5 0 0 1 8 13 L 8 11.5 L 8 10 C 7.446 10 6.9454844 9.7775156 6.5839844 9.4160156 L 4.4667969 11.533203 A 5 5 0 0 1 3 8 A 5 5 0 0 1 4.0996094 4.8789062 L 6.4433594 6.7539062 C 6.8092894 6.2970963 7.36652 6 8 6 L 8 5.5 L 8 3.5 L 8 3 z M 4.5644531 11.625 C 4.7457057 11.796753 4.9370199 11.958397 5.1425781 12.101562 A 5 5 0 0 1 4.5644531 11.625 z M 5.2988281 12.201172 C 5.5125346 12.33848 5.7361406 12.462436 5.9707031 12.566406 A 5 5 0 0 1 5.2988281 12.201172 z M 6.1289062 12.632812 C 6.3937222 12.739353 6.6678118 12.826309 6.953125 12.886719 A 5 5 0 0 1 6.1289062 12.632812 z" transform="translate(3 3)"/>
</svg>
