<svg xmlns="http://www.w3.org/2000/svg" width="16" height="16" version="1.1">
 <defs>
   <style id="current-color-scheme" type="text/css">
   .ColorScheme-Text { color: #1d4195; } .ColorScheme-Highlight { color:#5294e2; }
  </style>
  <linearGradient id="arrongin" x1="0%" x2="0%" y1="0%" y2="100%">
   <stop offset="0%" style="stop-color:#dd9b44; stop-opacity:1"/>
   <stop offset="100%" style="stop-color:#ad6c16; stop-opacity:1"/>
  </linearGradient>
  <linearGradient id="aurora" x1="0%" x2="0%" y1="0%" y2="100%">
   <stop offset="0%" style="stop-color:#09D4DF; stop-opacity:1"/>
   <stop offset="100%" style="stop-color:#9269F4; stop-opacity:1"/>
  </linearGradient>
  <linearGradient id="cyberneon" x1="0%" x2="0%" y1="0%" y2="100%">
    <stop offset="0" style="stop-color:#0abdc6; stop-opacity:1"/>
    <stop offset="1" style="stop-color:#ea00d9; stop-opacity:1"/>
  </linearGradient>
  <linearGradient id="fitdance" x1="0%" x2="0%" y1="0%" y2="100%">
   <stop offset="0%" style="stop-color:#1AD6AB; stop-opacity:1"/>
   <stop offset="100%" style="stop-color:#329DB6; stop-opacity:1"/>
  </linearGradient>
  <linearGradient id="oomox" x1="0%" x2="0%" y1="0%" y2="100%">
   <stop offset="0%" style="stop-color:#efefe7; stop-opacity:1"/>
   <stop offset="100%" style="stop-color:#8f8f8b; stop-opacity:1"/>
  </linearGradient>
  <linearGradient id="rainblue" x1="0%" x2="0%" y1="0%" y2="100%">
   <stop offset="0%" style="stop-color:#00F260; stop-opacity:1"/>
   <stop offset="100%" style="stop-color:#0575E6; stop-opacity:1"/>
  </linearGradient>
  <linearGradient id="sunrise" x1="0%" x2="0%" y1="0%" y2="100%">
   <stop offset="0%" style="stop-color: #FF8501; stop-opacity:1"/>
   <stop offset="100%" style="stop-color: #FFCB01; stop-opacity:1"/>
  </linearGradient>
  <linearGradient id="telinkrin" x1="0%" x2="0%" y1="0%" y2="100%">
   <stop offset="0%" style="stop-color: #b2ced6; stop-opacity:1"/>
   <stop offset="100%" style="stop-color: #6da5b7; stop-opacity:1"/>
  </linearGradient>
  <linearGradient id="60spsycho" x1="0%" x2="0%" y1="0%" y2="100%">
   <stop offset="0%" style="stop-color: #df5940; stop-opacity:1"/>
   <stop offset="25%" style="stop-color: #d8d15f; stop-opacity:1"/>
   <stop offset="50%" style="stop-color: #e9882a; stop-opacity:1"/>
   <stop offset="100%" style="stop-color: #279362; stop-opacity:1"/>
  </linearGradient>
  <linearGradient id="90ssummer" x1="0%" x2="0%" y1="0%" y2="100%">
   <stop offset="0%" style="stop-color: #f618c7; stop-opacity:1"/>
   <stop offset="20%" style="stop-color: #94ffab; stop-opacity:1"/>
   <stop offset="50%" style="stop-color: #fbfd54; stop-opacity:1"/>
   <stop offset="100%" style="stop-color: #0f83ae; stop-opacity:1"/>
  </linearGradient>
 </defs>
 <path fill="currentColor" class="ColorScheme-Text" d="M 9.140625 0 C 9.140625 0 9.1526689 0.3758235 9.0917969 0.54882812 C 9.0629876 0.63070735 8.9786143 0.68468309 8.9472656 0.765625 C 8.8978272 0.89327253 8.8692953 1.0339111 8.8847656 1.1699219 C 8.8935856 1.2474839 8.9418151 1.3161537 8.9707031 1.3886719 C 8.9939581 1.4470489 9.0180086 1.5096958 9.0410156 1.5625 L 9.0878906 1.6796875 L 9.1894531 1.3183594 C 9.2052091 1.2645574 9.2212301 1.2102729 9.2363281 1.1542969 C 9.2363281 1.1542969 9.357777 0.84763024 9.3691406 0.68554688 C 9.3789823 0.54516393 9.3590994 0.3996643 9.3105469 0.26757812 C 9.2739807 0.16810153 9.140625 1.0066022e-14 9.140625 0 z M 8.1933594 1.7304688 C 8.0222926 1.8478784 7.8632426 1.9696549 7.7148438 2.0976562 L 7.7148438 2.0996094 C 7.7148438 2.0996094 7.3069034 2.4747709 7.1386719 2.6933594 C 6.8957452 3.0090026 6.6884037 3.3551586 6.5214844 3.7167969 C 6.3559517 4.0754297 6.2317607 4.456121 6.1464844 4.8417969 C 6.0571263 5.245935 6.0087364 5.6603296 6.0058594 6.0742188 C 6.0016494 6.6806813 6.0515377 7.31058 6.1855469 7.8847656 L 6.1875 7.8925781 C 6.3157297 8.4391309 6.3396899 8.6984806 6.5839844 9.1347656 C 9.3547195 8.6490779 11.191732 10.789673 10.572266 13.101562 C 10.245469 14.321179 9.2383681 14.908603 8.2734375 15.128906 C 6.9135358 15.365364 5.76823 14.631778 5.4921875 13.601562 C 5.4382957 13.261827 5.5225409 12.804686 5.7167969 12.689453 C 5.6046142 12.728536 5.4682727 12.773476 5.3046875 12.927734 C 5.0291969 13.187459 5.0222377 13.280019 4.6621094 13.380859 C 4.8383568 12.884169 3.8701581 12.479483 4.0449219 11.414062 C 4.0489119 11.389392 4.0020894 11.619087 4.0058594 11.59375 C 3.5796082 13.947992 5.9905017 16.597761 8.6660156 15.880859 C 10.478778 15.428388 11.558718 14.096195 11.916016 12.59375 C 12.122343 11.726148 12.058504 10.832913 11.871094 10.082031 C 11.718431 9.4704434 11.406572 8.8249245 10.9375 8.2324219 C 10.787213 8.0425879 10.630507 7.868646 10.470703 7.7070312 L 10.466797 7.703125 L 10.453125 7.6894531 C 10.093428 7.3281093 9.7206057 7.0305362 9.3632812 6.7480469 C 9.3632812 6.7480469 8.6402161 6.1560588 8.3046875 5.8320312 C 8.2840333 5.8120755 8.2645495 5.7915279 8.2460938 5.7695312 C 8.1291924 5.6302066 8.0185078 5.4855396 7.9179688 5.3339844 C 7.8903844 5.2924038 7.8625754 5.2504443 7.8417969 5.2050781 C 7.7355151 4.9730376 7.6437833 4.7318814 7.5898438 4.4824219 C 7.5194942 4.15707 7.4908061 3.8190728 7.5 3.4863281 C 7.5078281 3.2029559 7.5465812 2.9194585 7.6230469 2.6464844 C 7.7614715 2.3223721 7.9869951 2.0231294 8.1933594 1.7304688 z M 8.9941406 2.9296875 C 8.9031098 3.0752983 8.8357131 3.2396622 8.7558594 3.3945312 C 8.6849761 3.5320024 8.6019723 3.6636664 8.5429688 3.8066406 C 8.4138898 4.1194144 8.3386118 4.4528597 8.2363281 4.7753906 C 8.2240461 4.8141196 8.1943397 4.850287 8.1992188 4.890625 C 8.2361238 5.1957733 8.4923163 5.4340742 8.6796875 5.6777344 C 8.7517245 5.7714114 8.9257812 5.9335937 8.9257812 5.9335938 C 8.9550253 5.9659337 8.983698 5.9980299 9.015625 6.0292969 C 9.015625 6.0292969 8.9558815 5.6599745 8.9296875 5.4746094 C 8.9273875 5.4582824 8.9249681 5.4422242 8.9238281 5.4257812 C 8.8782281 4.7680752 8.8475157 4.1042677 8.9023438 3.4472656 C 8.9169268 3.2725012 8.9941406 2.9296875 8.9941406 2.9296875 z M 4.2675781 8.1679688 C 4.2675781 8.1679688 4.3765803 8.8937653 4.2988281 9.2441406 C 4.2620331 9.4099521 4.1122638 9.5346348 4.0703125 9.6992188 C 4.0041525 9.95878 3.9830069 10.241345 4.0449219 10.501953 C 4.0802339 10.650584 4.1928119 10.768957 4.2636719 10.904297 C 4.2802229 10.935907 4.296237 10.96904 4.3125 11 C 4.4001898 10.607112 4.6853976 10.287478 4.7988281 9.9042969 C 4.8426889 9.7561312 4.8788294 9.6015935 4.8710938 9.4472656 C 4.8573062 9.1722265 4.7874043 8.893667 4.6621094 8.6484375 C 4.567773 8.4638011 4.2675781 8.1679688 4.2675781 8.1679688 z M 7.4589844 9.5566406 C 5.9191537 9.5566406 4.6699219 10.805863 4.6699219 12.345703 C 4.6704964 12.48917 4.6824841 12.631702 4.7050781 12.773438 C 4.7365761 12.822328 4.770619 12.872177 4.796875 12.923828 C 4.820281 12.969808 4.8302231 13.021801 4.8457031 13.074219 C 4.8541331 13.068119 4.8763966 13.063391 4.8847656 13.056641 C 4.9446966 13.006671 5.0222981 12.918646 5.1679688 12.78125 C 5.3571266 12.60293 5.5326392 12.521898 5.6484375 12.498047 C 5.9052946 12.445167 5.9744053 12.490931 6.1972656 12.525391 C 6.0157193 12.600651 5.9601019 12.684517 5.8203125 12.863281 C 5.8154125 12.869381 5.7375106 12.96134 5.7050781 13.105469 C 5.6732731 13.246789 5.6707142 13.421894 5.6914062 13.560547 C 5.9435471 14.47185 6.972885 15.147762 8.2382812 14.927734 C 8.5058766 14.865964 8.7723503 14.77259 9.0253906 14.648438 C 9.7882976 14.13018 10.244867 13.267993 10.246094 12.345703 C 10.246094 10.805859 8.9988136 9.5566406 7.4589844 9.5566406 z"/>
</svg>
