<svg xmlns="http://www.w3.org/2000/svg" width="16" height="16" version="1.1">
 <defs>
   <style id="current-color-scheme" type="text/css">
   .ColorScheme-Text { color: #1d4195; } .ColorScheme-Highlight { color:#5294e2; }
  </style>
  <linearGradient id="arrongin" x1="0%" x2="0%" y1="0%" y2="100%">
   <stop offset="0%" style="stop-color:#dd9b44; stop-opacity:1"/>
   <stop offset="100%" style="stop-color:#ad6c16; stop-opacity:1"/>
  </linearGradient>
  <linearGradient id="aurora" x1="0%" x2="0%" y1="0%" y2="100%">
   <stop offset="0%" style="stop-color:#09D4DF; stop-opacity:1"/>
   <stop offset="100%" style="stop-color:#9269F4; stop-opacity:1"/>
  </linearGradient>
  <linearGradient id="cyberneon" x1="0%" x2="0%" y1="0%" y2="100%">
    <stop offset="0" style="stop-color:#0abdc6; stop-opacity:1"/>
    <stop offset="1" style="stop-color:#ea00d9; stop-opacity:1"/>
  </linearGradient>
  <linearGradient id="fitdance" x1="0%" x2="0%" y1="0%" y2="100%">
   <stop offset="0%" style="stop-color:#1AD6AB; stop-opacity:1"/>
   <stop offset="100%" style="stop-color:#329DB6; stop-opacity:1"/>
  </linearGradient>
  <linearGradient id="oomox" x1="0%" x2="0%" y1="0%" y2="100%">
   <stop offset="0%" style="stop-color:#efefe7; stop-opacity:1"/>
   <stop offset="100%" style="stop-color:#8f8f8b; stop-opacity:1"/>
  </linearGradient>
  <linearGradient id="rainblue" x1="0%" x2="0%" y1="0%" y2="100%">
   <stop offset="0%" style="stop-color:#00F260; stop-opacity:1"/>
   <stop offset="100%" style="stop-color:#0575E6; stop-opacity:1"/>
  </linearGradient>
  <linearGradient id="sunrise" x1="0%" x2="0%" y1="0%" y2="100%">
   <stop offset="0%" style="stop-color: #FF8501; stop-opacity:1"/>
   <stop offset="100%" style="stop-color: #FFCB01; stop-opacity:1"/>
  </linearGradient>
  <linearGradient id="telinkrin" x1="0%" x2="0%" y1="0%" y2="100%">
   <stop offset="0%" style="stop-color: #b2ced6; stop-opacity:1"/>
   <stop offset="100%" style="stop-color: #6da5b7; stop-opacity:1"/>
  </linearGradient>
  <linearGradient id="60spsycho" x1="0%" x2="0%" y1="0%" y2="100%">
   <stop offset="0%" style="stop-color: #df5940; stop-opacity:1"/>
   <stop offset="25%" style="stop-color: #d8d15f; stop-opacity:1"/>
   <stop offset="50%" style="stop-color: #e9882a; stop-opacity:1"/>
   <stop offset="100%" style="stop-color: #279362; stop-opacity:1"/>
  </linearGradient>
  <linearGradient id="90ssummer" x1="0%" x2="0%" y1="0%" y2="100%">
   <stop offset="0%" style="stop-color: #f618c7; stop-opacity:1"/>
   <stop offset="20%" style="stop-color: #94ffab; stop-opacity:1"/>
   <stop offset="50%" style="stop-color: #fbfd54; stop-opacity:1"/>
   <stop offset="100%" style="stop-color: #0f83ae; stop-opacity:1"/>
  </linearGradient>
 </defs>
 <path fill="currentColor" class="ColorScheme-Text" d="M 2.654332 0 L 2.312796 0.473782 C 2.312796 0.473782 1.327014 1.765915 1.327014 3.374104 C 1.327014 4.398104 1.66855 5.352948 1.839014 5.763033 C 1.101953 7.127962 0.720379 8.765877 0.720379 10.654332 L 0.720379 11.203943 L 1.289403 11.26036 C 2.571223 11.357422 4.099336 11.737175 4.436019 12.36019 C 4.59981 12.665934 4.73691 13.051754 4.87219 13.421801 C 5.028701 13.848265 5.18764 14.282009 5.402995 14.653877 C 5.916815 15.542597 6.796436 16 8 16 C 9.203564 16 10.083185 15.542597 10.597005 14.653877 C 10.812967 14.282009 10.971299 13.848265 11.12781 13.421801 C 11.26309 13.051754 11.39837 12.665934 11.563981 12.36019 C 11.900664 11.737175 13.428777 11.358028 14.711204 11.26036 L 15.279621 11.203943 L 15.279621 10.653725 C 15.279621 8.76527 14.898047 7.127962 14.160986 5.763033 C 14.332057 5.352948 14.672986 4.398104 14.672986 3.374104 C 14.672986 1.765308 13.687204 0.474389 13.687204 0.474389 L 13.345668 0 L 12.872493 0.322123 L 10.407735 1.952758 C 10.279735 1.881782 10.274882 1.859943 10.066199 1.781687 C 9.59909 1.606976 8.912379 1.440758 8 1.440758 C 7.087621 1.440758 6.400303 1.60637 5.933801 1.782294 C 5.725118 1.859943 5.720265 1.881782 5.592265 1.952152 L 3.12872 0.32273 L 2.654332 0 Z M 3.014066 1.706464 L 5.213118 3.166028 L 5.57346 3.393517 L 5.933801 3.12781 C 5.933801 3.12781 6.030863 3.047128 6.369972 2.919735 C 6.707867 2.791128 7.234427 2.654028 8 2.654028 C 8.765573 2.654028 9.310332 2.791735 9.649441 2.919735 C 9.987943 3.047128 10.085005 3.12781 10.085005 3.12781 L 10.42654 3.394123 L 10.786882 3.166635 L 12.985934 1.706464 C 13.206142 2.121403 13.459716 2.692246 13.459716 3.374711 C 13.459716 3.761137 13.38146 4.145137 13.289251 4.493346 C 13.014445 4.159697 12.729934 3.836967 12.398104 3.545782 L 11.355299 4.247052 C 13.038104 5.593175 13.935924 7.555033 14.047545 10.10472 C 12.897972 10.251526 11.113858 10.661611 10.50237 11.792379 C 10.296114 12.173346 10.139602 12.595564 9.99037 13.005649 C 9.845991 13.401175 9.699185 13.765763 9.535393 14.047848 C 9.454231 14.199904 9.344919 14.335156 9.21327 14.446408 L 9.21327 13.763943 C 8.821378 13.637049 8.411923 13.572764 8 13.57346 C 7.492853 13.57346 7.090047 13.665668 6.78673 13.763336 L 6.78673 14.445801 C 6.655081 14.334549 6.545769 14.199298 6.464607 14.047242 C 6.300815 13.765156 6.154009 13.400569 6.00963 13.005043 C 5.860398 12.594957 5.703886 12.172739 5.49763 11.791773 C 4.886142 10.661005 3.101422 10.250919 1.952455 10.104114 C 2.064076 7.554427 2.961896 5.592569 4.644701 4.246445 L 3.601896 3.545175 C 3.270066 3.83636 2.985555 4.158483 2.710749 4.492739 C 2.619147 4.144531 2.540284 3.760531 2.540284 3.374104 C 2.540284 2.692246 2.793858 2.120796 3.014066 1.705858 L 3.014066 1.706464 Z M 5.270142 8.113744 C 4.853093 8.533259 4.853093 9.210817 5.270142 9.630332 C 5.689657 10.047381 6.367215 10.047381 6.78673 9.630332 L 5.270142 8.113744 Z M 10.729858 8.113744 L 9.21327 9.630332 C 9.632785 10.047381 10.310343 10.047381 10.729858 9.630332 C 11.146907 9.210817 11.146907 8.533259 10.729858 8.113744 Z"/>
</svg>
