<svg xmlns="http://www.w3.org/2000/svg" width="16" height="16" version="1.1">
 <defs>
   <style id="current-color-scheme" type="text/css">
   .ColorScheme-Text { color: #1d4195; } .ColorScheme-Highlight { color:#5294e2; }
  </style>
  <linearGradient id="arrongin" x1="0%" x2="0%" y1="0%" y2="100%">
   <stop offset="0%" style="stop-color:#dd9b44; stop-opacity:1"/>
   <stop offset="100%" style="stop-color:#ad6c16; stop-opacity:1"/>
  </linearGradient>
  <linearGradient id="aurora" x1="0%" x2="0%" y1="0%" y2="100%">
   <stop offset="0%" style="stop-color:#09D4DF; stop-opacity:1"/>
   <stop offset="100%" style="stop-color:#9269F4; stop-opacity:1"/>
  </linearGradient>
  <linearGradient id="cyberneon" x1="0%" x2="0%" y1="0%" y2="100%">
    <stop offset="0" style="stop-color:#0abdc6; stop-opacity:1"/>
    <stop offset="1" style="stop-color:#ea00d9; stop-opacity:1"/>
  </linearGradient>
  <linearGradient id="fitdance" x1="0%" x2="0%" y1="0%" y2="100%">
   <stop offset="0%" style="stop-color:#1AD6AB; stop-opacity:1"/>
   <stop offset="100%" style="stop-color:#329DB6; stop-opacity:1"/>
  </linearGradient>
  <linearGradient id="oomox" x1="0%" x2="0%" y1="0%" y2="100%">
   <stop offset="0%" style="stop-color:#efefe7; stop-opacity:1"/>
   <stop offset="100%" style="stop-color:#8f8f8b; stop-opacity:1"/>
  </linearGradient>
  <linearGradient id="rainblue" x1="0%" x2="0%" y1="0%" y2="100%">
   <stop offset="0%" style="stop-color:#00F260; stop-opacity:1"/>
   <stop offset="100%" style="stop-color:#0575E6; stop-opacity:1"/>
  </linearGradient>
  <linearGradient id="sunrise" x1="0%" x2="0%" y1="0%" y2="100%">
   <stop offset="0%" style="stop-color: #FF8501; stop-opacity:1"/>
   <stop offset="100%" style="stop-color: #FFCB01; stop-opacity:1"/>
  </linearGradient>
  <linearGradient id="telinkrin" x1="0%" x2="0%" y1="0%" y2="100%">
   <stop offset="0%" style="stop-color: #b2ced6; stop-opacity:1"/>
   <stop offset="100%" style="stop-color: #6da5b7; stop-opacity:1"/>
  </linearGradient>
  <linearGradient id="60spsycho" x1="0%" x2="0%" y1="0%" y2="100%">
   <stop offset="0%" style="stop-color: #df5940; stop-opacity:1"/>
   <stop offset="25%" style="stop-color: #d8d15f; stop-opacity:1"/>
   <stop offset="50%" style="stop-color: #e9882a; stop-opacity:1"/>
   <stop offset="100%" style="stop-color: #279362; stop-opacity:1"/>
  </linearGradient>
  <linearGradient id="90ssummer" x1="0%" x2="0%" y1="0%" y2="100%">
   <stop offset="0%" style="stop-color: #f618c7; stop-opacity:1"/>
   <stop offset="20%" style="stop-color: #94ffab; stop-opacity:1"/>
   <stop offset="50%" style="stop-color: #fbfd54; stop-opacity:1"/>
   <stop offset="100%" style="stop-color: #0f83ae; stop-opacity:1"/>
  </linearGradient>
 </defs>
 <path fill="currentColor" class="ColorScheme-Text" d="M 10.462973 13.935307 C 10.737316 13.934426 11.000721 14.042811 11.194996 14.236516 C 11.389274 14.430223 11.498431 14.69331 11.498357 14.967653 C 11.498058 15.241517 11.388838 15.504011 11.194782 15.697255 C 11.000434 15.890905 10.737331 15.999749 10.462973 16 L 2.186938 16 C 1.912641 15.99945 1.649647 15.890652 1.455129 15.697255 C 1.261138 15.503969 1.151929 15.2415 1.151554 14.967653 C 1.151639 14.693343 1.260864 14.430339 1.455129 14.236672 C 1.649787 14.043654 1.912808 13.93534 2.186938 13.935307 L 10.462973 13.935307 L 10.462973 13.935307 Z"/>
 <path fill="currentColor" class="ColorScheme-Text" fill-rule="evenodd" d="M 1.51413 6.495044 L 1.51413 8.171792 C 1.51413 8.390697 1.336407 8.56842 1.117501 8.56842 L 0.396629 8.56842 C 0.177723 8.56842 0 8.390697 0 8.171792 L 0 2.123204 C 0 1.904298 0.177723 1.726575 0.396629 1.726575 L 1.165096 1.726575 C 1.384002 1.726575 1.606946 1.898449 1.662646 2.110149 L 2.387704 4.865891 L 3.133848 2.109426 C 3.191045 1.898125 3.415205 1.726575 3.63411 1.726575 L 4.339117 1.726575 C 4.558023 1.726575 4.735746 1.904298 4.735746 2.123204 L 4.735746 8.171792 C 4.735746 8.390697 4.558023 8.56842 4.339117 8.56842 L 3.618245 8.56842 C 3.39934 8.56842 3.221616 8.390697 3.221616 8.171792 L 3.221616 6.495044 L 2.69135 8.377534 C 2.661674 8.482887 2.548719 8.56842 2.439267 8.56842 L 2.29648 8.56842 C 2.187027 8.56842 2.074072 8.482887 2.044396 8.377534 L 1.51413 6.495044 L 1.51413 6.495044 L 1.51413 6.495044 L 1.51413 6.495044 Z M 8.798216 3.828707 C 8.805156 3.872336 8.809122 3.915965 8.809122 3.960587 C 8.809122 4.008182 8.805156 4.055777 8.797224 4.103372 C 8.790283 4.143035 8.780367 4.181707 8.766485 4.220378 C 8.752603 4.257066 8.736738 4.291771 8.716906 4.325484 C 8.695092 4.362173 8.671293 4.395887 8.64353 4.427617 C 8.622707 4.452406 8.598909 4.47422 8.572136 4.49306 C 8.54239 4.514875 8.510659 4.532723 8.476946 4.546605 C 8.4353 4.563462 8.392662 4.575361 8.349033 4.583294 C 8.284581 4.594201 8.218146 4.60015 8.151711 4.60015 L 7.253347 4.60015 L 7.253347 3.321022 L 8.151711 3.321022 C 8.223104 3.321022 8.293505 3.326972 8.362915 3.339863 C 8.407537 3.347795 8.451166 3.360686 8.491819 3.379526 C 8.52355 3.393407 8.554289 3.410264 8.582053 3.431087 C 8.605851 3.449927 8.627666 3.47075 8.646504 3.494547 C 8.67427 3.529252 8.698066 3.565941 8.719881 3.604612 C 8.739712 3.639317 8.755578 3.675014 8.768469 3.712694 C 8.782351 3.750373 8.792265 3.789044 8.798216 3.828707 L 8.798216 3.828707 L 8.798216 3.828707 L 8.798216 3.828707 L 8.798216 3.828707 Z M 14.109074 6.993804 C 14.078335 7.011652 14.045613 7.026526 14.011899 7.037433 C 13.972236 7.051315 13.931581 7.062223 13.889936 7.068172 C 13.834408 7.077096 13.777888 7.081062 13.721369 7.081062 C 13.668816 7.081062 13.616262 7.077096 13.5647 7.068172 C 13.514131 7.060239 13.464552 7.048341 13.415964 7.032475 C 13.365395 7.015619 13.316807 6.994796 13.269212 6.970006 C 13.215667 6.942243 13.164106 6.910512 13.115518 6.874816 C 13.018345 6.804413 12.931086 6.721122 12.855727 6.627914 C 12.771443 6.523799 12.70005 6.409768 12.643531 6.288797 C 12.6118 6.220378 12.555281 6.167825 12.486862 6.139069 C 12.417453 6.111305 12.340109 6.110313 12.270699 6.136094 L 11.306891 6.49306 C 11.233516 6.519833 11.175012 6.574369 11.141299 6.643779 C 11.107586 6.714181 11.10362 6.794498 11.128409 6.867875 C 11.175012 7.00372 11.231532 7.136591 11.296976 7.263512 C 11.360437 7.385474 11.43183 7.501488 11.513138 7.611553 C 11.593455 7.719635 11.681705 7.821767 11.776897 7.915966 C 11.875063 8.012149 11.98116 8.101389 12.093208 8.181706 C 12.205255 8.263016 12.323252 8.3354 12.447199 8.39787 C 12.566188 8.459347 12.690135 8.509916 12.818047 8.551564 C 12.945959 8.592217 13.077838 8.622955 13.211701 8.643779 C 13.35052 8.664603 13.491323 8.67551 13.632128 8.67551 C 13.794746 8.67551 13.956371 8.662619 14.117006 8.636839 C 14.263759 8.613041 14.408527 8.576353 14.548339 8.527765 C 14.683193 8.48017 14.813089 8.421667 14.937035 8.351266 C 15.060981 8.280864 15.17997 8.198563 15.290034 8.107339 C 15.403073 8.013139 15.506198 7.907042 15.596431 7.791027 C 15.683688 7.67898 15.757065 7.557016 15.815568 7.428112 C 15.877046 7.29425 15.922657 7.153447 15.951414 7.008678 C 15.984135 6.849035 16 6.685425 16 6.521816 C 16 6.371097 15.983143 6.22137 15.950421 6.074617 C 15.919683 5.933814 15.872088 5.797969 15.809618 5.669064 C 15.747149 5.54016 15.669806 5.419189 15.579575 5.308132 C 15.485374 5.192118 15.379277 5.087011 15.263263 4.994795 C 15.157164 4.910512 15.049083 4.830195 14.939019 4.752852 C 14.853743 4.693358 14.765494 4.635847 14.67526 4.583294 C 14.58701 4.53074 14.496777 4.482153 14.404562 4.435549 C 14.27764 4.371097 14.149727 4.309619 14.019831 4.250125 C 14 4.242193 13.980169 4.233269 13.961329 4.224344 C 13.914725 4.203521 13.86713 4.181707 13.820526 4.159892 C 13.771938 4.137086 13.723352 4.11428 13.674765 4.092465 C 13.651959 4.081558 13.629152 4.071642 13.606346 4.061727 C 13.589489 4.054786 13.571642 4.046853 13.554784 4.03892 C 13.518096 4.021072 13.480416 4.003223 13.443728 3.984384 C 13.408032 3.966536 13.372335 3.947696 13.336639 3.928856 C 13.321765 3.920924 13.306891 3.911999 13.293009 3.904066 C 13.276153 3.89316 13.259296 3.882252 13.242439 3.871345 C 13.215667 3.853497 13.188895 3.835648 13.162122 3.8178 C 13.143282 3.804909 13.124442 3.790036 13.106595 3.775162 C 13.10362 3.773179 13.101636 3.770204 13.099653 3.768222 C 13.086764 3.752356 13.074864 3.737483 13.062965 3.721618 C 13.048091 3.703769 13.034209 3.685921 13.020327 3.668073 C 13.017352 3.664106 13.014378 3.659149 13.012396 3.655182 C 13.011403 3.652208 13.010412 3.650224 13.00942 3.64725 C 13.006445 3.638326 13.004463 3.62841 13.00347 3.618494 C 13.002479 3.607587 13.001488 3.596679 13.001488 3.585772 C 13.001488 3.553051 13.004463 3.52132 13.011403 3.48959 C 13.01537 3.467775 13.02231 3.446953 13.032227 3.427121 C 13.04016 3.409272 13.050074 3.392416 13.062965 3.377542 C 13.077838 3.358702 13.094695 3.341845 13.112544 3.326972 C 13.134359 3.310115 13.156173 3.295241 13.17997 3.283343 C 13.205752 3.268469 13.233516 3.257562 13.26128 3.247646 C 13.294002 3.236739 13.327715 3.228806 13.361428 3.223849 C 13.407041 3.216908 13.452652 3.213933 13.498265 3.213933 C 13.578582 3.213933 13.657908 3.22484 13.735251 3.245663 C 13.79772 3.26252 13.856223 3.289292 13.910759 3.323006 C 13.968271 3.360686 14.019831 3.405306 14.063461 3.457859 C 14.12593 3.532227 14.179474 3.612545 14.222113 3.699803 C 14.253842 3.764255 14.308379 3.814826 14.374814 3.842589 C 14.441249 3.870353 14.515617 3.872336 14.584036 3.84953 L 15.53892 3.528261 C 15.611304 3.504463 15.67179 3.45191 15.707487 3.384483 C 15.743183 3.316065 15.751116 3.236739 15.729301 3.163363 C 15.696579 3.053298 15.655924 2.945217 15.606346 2.842093 C 15.55776 2.740953 15.500249 2.643779 15.434804 2.551563 C 15.368369 2.458355 15.294992 2.370106 15.213684 2.288797 C 15.127417 2.20253 15.035201 2.123204 14.936044 2.051811 C 14.840852 1.981409 14.738721 1.91894 14.632623 1.865395 C 14.528508 1.81185 14.418444 1.76723 14.306395 1.730541 C 14.190382 1.693854 14.071393 1.666089 13.950422 1.648241 C 13.821517 1.629401 13.691621 1.619486 13.560735 1.619486 C 13.395141 1.619486 13.229549 1.632376 13.06594 1.659148 C 12.922162 1.681955 12.781359 1.718643 12.644522 1.768222 C 12.518592 1.813834 12.396629 1.871344 12.281606 1.939763 C 12.168567 2.00719 12.06247 2.085524 11.965295 2.172782 C 11.863163 2.264998 11.769955 2.36713 11.687656 2.477195 C 11.610312 2.580318 11.54586 2.691375 11.493307 2.80838 C 11.440754 2.924394 11.402083 3.045366 11.376302 3.169312 C 11.349529 3.3002 11.335648 3.434062 11.335648 3.567924 C 11.335648 3.711702 11.350521 3.854488 11.380268 3.995291 C 11.408032 4.126179 11.449678 4.252108 11.507189 4.37308 C 11.563709 4.494052 11.636094 4.608083 11.721369 4.712197 C 11.811602 4.822262 11.914725 4.921419 12.027764 5.008678 C 12.128905 5.087011 12.234011 5.161379 12.340109 5.232773 C 12.421418 5.286317 12.50471 5.336888 12.589985 5.3825 C 12.671295 5.426129 12.753595 5.468767 12.836887 5.508429 C 12.965792 5.569907 13.095687 5.629401 13.226574 5.686913 C 13.418939 5.772188 13.607339 5.866387 13.791769 5.96951 C 13.902827 6.03198 14.008924 6.103372 14.110065 6.180715 C 14.154685 6.21542 14.19534 6.254092 14.232028 6.295737 C 14.255826 6.32251 14.276649 6.352257 14.293506 6.384979 C 14.306395 6.409768 14.317303 6.437532 14.324244 6.465296 C 14.331185 6.49306 14.334159 6.520825 14.334159 6.548589 C 14.334159 6.60015 14.329203 6.65072 14.320277 6.701291 C 14.313337 6.735004 14.303421 6.768718 14.289539 6.800448 C 14.278632 6.82722 14.263759 6.852009 14.246902 6.875807 C 14.230045 6.898613 14.210213 6.919436 14.188398 6.938276 C 14.163609 6.959099 14.136837 6.977938 14.109074 6.993804 L 14.109074 6.993804 L 14.109074 6.993804 Z M 7.253347 8.171792 L 7.253347 6.194597 L 8.098165 6.194597 C 8.297472 6.194597 8.496777 6.17774 8.693108 6.143035 C 8.856718 6.115271 9.017353 6.068667 9.171046 6.006199 C 9.307884 5.949679 9.438771 5.879278 9.559742 5.794994 C 9.67774 5.712694 9.78483 5.618494 9.881012 5.511405 C 9.980169 5.40134 10.06941 5.283343 10.147744 5.158405 C 10.22112 5.040408 10.28359 4.91547 10.33416 4.785574 C 10.383738 4.65667 10.420426 4.523799 10.445215 4.388946 C 10.470997 4.247151 10.483888 4.104364 10.483888 3.960587 C 10.483888 3.806893 10.470997 3.654191 10.445215 3.503472 C 10.421418 3.36366 10.383738 3.226823 10.33416 3.093953 C 10.286565 2.96604 10.226079 2.842093 10.154685 2.725088 C 10.081309 2.605108 9.997026 2.492069 9.903818 2.387954 C 9.805652 2.277889 9.692613 2.181707 9.569659 2.100398 C 9.436787 2.014131 9.294993 1.942738 9.146257 1.889193 C 8.99653 1.834657 8.840853 1.794994 8.683193 1.771196 C 8.489837 1.741449 8.294497 1.726575 8.098165 1.726575 L 5.993059 1.726575 C 5.774154 1.726575 5.59643 1.904298 5.59643 2.123204 L 5.59643 8.171792 C 5.59643 8.390697 5.774154 8.56842 5.993059 8.56842 L 6.856718 8.56842 C 7.075623 8.56842 7.253347 8.390697 7.253347 8.171792 L 7.253347 8.171792 L 7.253347 8.171792 L 7.253347 8.171792 L 7.253347 8.171792 Z"/>
</svg>
