<svg xmlns="http://www.w3.org/2000/svg" width="16" height="16" version="1.1">
 <defs>
   <style id="current-color-scheme" type="text/css">
   .ColorScheme-Text { color: #1d4195; } .ColorScheme-Highlight { color:#5294e2; }
  </style>
  <linearGradient id="arrongin" x1="0%" x2="0%" y1="0%" y2="100%">
   <stop offset="0%" style="stop-color:#dd9b44; stop-opacity:1"/>
   <stop offset="100%" style="stop-color:#ad6c16; stop-opacity:1"/>
  </linearGradient>
  <linearGradient id="aurora" x1="0%" x2="0%" y1="0%" y2="100%">
   <stop offset="0%" style="stop-color:#09D4DF; stop-opacity:1"/>
   <stop offset="100%" style="stop-color:#9269F4; stop-opacity:1"/>
  </linearGradient>
  <linearGradient id="cyberneon" x1="0%" x2="0%" y1="0%" y2="100%">
    <stop offset="0" style="stop-color:#0abdc6; stop-opacity:1"/>
    <stop offset="1" style="stop-color:#ea00d9; stop-opacity:1"/>
  </linearGradient>
  <linearGradient id="fitdance" x1="0%" x2="0%" y1="0%" y2="100%">
   <stop offset="0%" style="stop-color:#1AD6AB; stop-opacity:1"/>
   <stop offset="100%" style="stop-color:#329DB6; stop-opacity:1"/>
  </linearGradient>
  <linearGradient id="oomox" x1="0%" x2="0%" y1="0%" y2="100%">
   <stop offset="0%" style="stop-color:#efefe7; stop-opacity:1"/>
   <stop offset="100%" style="stop-color:#8f8f8b; stop-opacity:1"/>
  </linearGradient>
  <linearGradient id="rainblue" x1="0%" x2="0%" y1="0%" y2="100%">
   <stop offset="0%" style="stop-color:#00F260; stop-opacity:1"/>
   <stop offset="100%" style="stop-color:#0575E6; stop-opacity:1"/>
  </linearGradient>
  <linearGradient id="sunrise" x1="0%" x2="0%" y1="0%" y2="100%">
   <stop offset="0%" style="stop-color: #FF8501; stop-opacity:1"/>
   <stop offset="100%" style="stop-color: #FFCB01; stop-opacity:1"/>
  </linearGradient>
  <linearGradient id="telinkrin" x1="0%" x2="0%" y1="0%" y2="100%">
   <stop offset="0%" style="stop-color: #b2ced6; stop-opacity:1"/>
   <stop offset="100%" style="stop-color: #6da5b7; stop-opacity:1"/>
  </linearGradient>
  <linearGradient id="60spsycho" x1="0%" x2="0%" y1="0%" y2="100%">
   <stop offset="0%" style="stop-color: #df5940; stop-opacity:1"/>
   <stop offset="25%" style="stop-color: #d8d15f; stop-opacity:1"/>
   <stop offset="50%" style="stop-color: #e9882a; stop-opacity:1"/>
   <stop offset="100%" style="stop-color: #279362; stop-opacity:1"/>
  </linearGradient>
  <linearGradient id="90ssummer" x1="0%" x2="0%" y1="0%" y2="100%">
   <stop offset="0%" style="stop-color: #f618c7; stop-opacity:1"/>
   <stop offset="20%" style="stop-color: #94ffab; stop-opacity:1"/>
   <stop offset="50%" style="stop-color: #fbfd54; stop-opacity:1"/>
   <stop offset="100%" style="stop-color: #0f83ae; stop-opacity:1"/>
  </linearGradient>
 </defs>
 <path fill="currentColor" class="ColorScheme-Text" fill-rule="evenodd" d="M 8 1.714 C 3.568 1.714 0 5.643 0 8 C 0 10.357 3.568 14.286 8 14.286 C 12.432 14.286 16 10.357 16 8 C 16 5.643 12.432 1.714 8 1.714 Z M 7.945 6.378 C 8.798 6.378 9.49 7.069 9.49 7.922 C 9.49 8.776 8.798 9.467 7.945 9.467 C 7.092 9.467 6.4 8.776 6.4 7.922 C 6.4 7.069 7.092 6.378 7.945 6.378 L 7.945 6.378 L 7.945 6.378 Z M 7.514 4.06 C 7.325 4.06 7.172 4.272 7.172 4.535 L 7.172 4.933 C 6.893 5.006 6.626 5.117 6.378 5.263 L 6.095 4.981 C 5.91 4.795 5.652 4.753 5.518 4.887 L 4.909 5.496 C 4.776 5.63 4.817 5.887 5.003 6.073 L 5.286 6.356 C 5.14 6.604 5.03 6.871 4.958 7.15 L 4.557 7.15 C 4.294 7.15 4.083 7.302 4.083 7.492 L 4.083 8.353 C 4.083 8.542 4.294 8.695 4.557 8.695 L 4.955 8.695 C 5.028 8.974 5.139 9.241 5.286 9.489 L 5.003 9.772 C 4.817 9.958 4.776 10.215 4.909 10.349 L 5.518 10.958 C 5.652 11.091 5.909 11.05 6.095 10.864 L 6.378 10.581 C 6.626 10.727 6.894 10.837 7.173 10.909 L 7.173 11.31 C 7.173 11.573 7.325 11.784 7.514 11.784 L 8.376 11.784 C 8.565 11.784 8.717 11.573 8.717 11.31 L 8.717 10.911 C 8.996 10.839 9.263 10.728 9.511 10.581 L 9.794 10.864 C 9.98 11.05 10.237 11.091 10.371 10.957 L 10.98 10.349 C 11.114 10.215 11.072 9.957 10.887 9.772 L 10.604 9.489 C 10.75 9.241 10.86 8.973 10.932 8.694 L 11.332 8.694 C 11.595 8.694 11.807 8.542 11.807 8.353 L 11.807 7.491 C 11.807 7.302 11.595 7.15 11.332 7.15 L 10.934 7.15 C 10.861 6.871 10.75 6.604 10.604 6.355 L 10.887 6.073 C 11.072 5.887 11.114 5.63 10.98 5.496 L 10.371 4.887 C 10.237 4.753 9.98 4.794 9.794 4.98 L 9.512 5.263 C 9.263 5.117 8.996 5.007 8.717 4.935 L 8.717 4.535 C 8.717 4.272 8.565 4.06 8.375 4.06 L 7.514 4.06 L 7.514 4.06 L 7.514 4.06 L 7.514 4.06 Z"/>
</svg>
