<svg xmlns="http://www.w3.org/2000/svg" width="16" height="16" version="1.1">
 <defs>
   <style id="current-color-scheme" type="text/css">
   .ColorScheme-Text { color: #1d4195; } .ColorScheme-Highlight { color:#5294e2; }
  </style>
  <linearGradient id="arrongin" x1="0%" x2="0%" y1="0%" y2="100%">
   <stop offset="0%" style="stop-color:#dd9b44; stop-opacity:1"/>
   <stop offset="100%" style="stop-color:#ad6c16; stop-opacity:1"/>
  </linearGradient>
  <linearGradient id="aurora" x1="0%" x2="0%" y1="0%" y2="100%">
   <stop offset="0%" style="stop-color:#09D4DF; stop-opacity:1"/>
   <stop offset="100%" style="stop-color:#9269F4; stop-opacity:1"/>
  </linearGradient>
  <linearGradient id="cyberneon" x1="0%" x2="0%" y1="0%" y2="100%">
    <stop offset="0" style="stop-color:#0abdc6; stop-opacity:1"/>
    <stop offset="1" style="stop-color:#ea00d9; stop-opacity:1"/>
  </linearGradient>
  <linearGradient id="fitdance" x1="0%" x2="0%" y1="0%" y2="100%">
   <stop offset="0%" style="stop-color:#1AD6AB; stop-opacity:1"/>
   <stop offset="100%" style="stop-color:#329DB6; stop-opacity:1"/>
  </linearGradient>
  <linearGradient id="oomox" x1="0%" x2="0%" y1="0%" y2="100%">
   <stop offset="0%" style="stop-color:#efefe7; stop-opacity:1"/>
   <stop offset="100%" style="stop-color:#8f8f8b; stop-opacity:1"/>
  </linearGradient>
  <linearGradient id="rainblue" x1="0%" x2="0%" y1="0%" y2="100%">
   <stop offset="0%" style="stop-color:#00F260; stop-opacity:1"/>
   <stop offset="100%" style="stop-color:#0575E6; stop-opacity:1"/>
  </linearGradient>
  <linearGradient id="sunrise" x1="0%" x2="0%" y1="0%" y2="100%">
   <stop offset="0%" style="stop-color: #FF8501; stop-opacity:1"/>
   <stop offset="100%" style="stop-color: #FFCB01; stop-opacity:1"/>
  </linearGradient>
  <linearGradient id="telinkrin" x1="0%" x2="0%" y1="0%" y2="100%">
   <stop offset="0%" style="stop-color: #b2ced6; stop-opacity:1"/>
   <stop offset="100%" style="stop-color: #6da5b7; stop-opacity:1"/>
  </linearGradient>
  <linearGradient id="60spsycho" x1="0%" x2="0%" y1="0%" y2="100%">
   <stop offset="0%" style="stop-color: #df5940; stop-opacity:1"/>
   <stop offset="25%" style="stop-color: #d8d15f; stop-opacity:1"/>
   <stop offset="50%" style="stop-color: #e9882a; stop-opacity:1"/>
   <stop offset="100%" style="stop-color: #279362; stop-opacity:1"/>
  </linearGradient>
  <linearGradient id="90ssummer" x1="0%" x2="0%" y1="0%" y2="100%">
   <stop offset="0%" style="stop-color: #f618c7; stop-opacity:1"/>
   <stop offset="20%" style="stop-color: #94ffab; stop-opacity:1"/>
   <stop offset="50%" style="stop-color: #fbfd54; stop-opacity:1"/>
   <stop offset="100%" style="stop-color: #0f83ae; stop-opacity:1"/>
  </linearGradient>
 </defs>
 <path fill="currentColor" class="ColorScheme-Text" d="M 6.454 11.766 C 6.268 11.71 6.084 11.647 5.904 11.574 C 5.664 11.48 5.441 11.346 5.244 11.18 C 5.126 11.08 5.035 10.957 4.969 10.82 C 4.901 10.657 4.864 10.486 4.858 10.311 L 4.855 10.214 C 4.858 10.08 4.866 9.946 4.886 9.814 C 4.912 9.637 4.946 9.46 4.986 9.286 C 5.098 8.837 5.218 8.389 5.355 7.946 C 5.489 7.489 5.618 7.029 5.738 6.569 C 5.769 6.463 5.804 6.357 5.846 6.254 C 5.901 6.109 5.952 5.963 5.998 5.814 C 6.064 5.609 6.101 5.391 6.106 5.177 C 6.115 4.866 6.035 4.557 5.869 4.294 C 5.681 4.009 5.404 3.791 5.081 3.68 C 4.632 3.514 4.158 3.429 3.681 3.426 C 3.301 3.429 2.921 3.483 2.555 3.583 C 2.278 3.663 2.006 3.754 1.738 3.863 C 1.638 3.9 1.538 3.937 1.435 3.974 L 2.192 6.129 C 2.321 6.086 2.446 6.037 2.572 5.989 C 2.769 5.911 2.972 5.843 3.175 5.783 C 3.318 5.746 3.464 5.72 3.612 5.714 L 3.532 5.971 C 3.418 6.411 3.295 6.851 3.164 7.289 C 3.018 7.774 2.884 8.263 2.764 8.757 C 2.706 8.994 2.661 9.237 2.626 9.48 C 2.589 9.723 2.572 9.969 2.569 10.211 C 2.569 10.223 2.569 10.231 2.569 10.243 L 2.572 10.357 C 2.572 10.36 2.572 10.363 2.572 10.366 C 2.584 10.843 2.689 11.314 2.881 11.754 C 3.086 12.203 3.386 12.6 3.761 12.923 C 4.149 13.249 4.586 13.511 5.061 13.697 C 5.336 13.807 5.616 13.903 5.9 13.983 L 5.396 16 L 7.75 16 L 8.183 14.27 C 8.841 14.231 9.49 14.087 10.104 13.843 C 10.755 13.583 11.361 13.226 11.906 12.783 C 12.398 12.389 12.838 11.931 13.209 11.423 C 13.378 11.191 13.532 10.949 13.666 10.697 C 13.789 10.471 13.889 10.234 13.969 9.991 C 14.224 9.34 14.389 8.663 14.469 7.971 C 14.541 7.297 14.572 6.62 14.564 5.943 C 14.564 5.726 14.561 5.511 14.561 5.294 C 14.558 5.051 14.558 4.811 14.558 4.571 L 12.272 4.571 L 12.272 4.571 C 12.272 4.817 12.272 5.066 12.275 5.311 C 12.275 5.529 12.278 5.746 12.278 5.963 C 12.286 6.549 12.261 7.134 12.198 7.72 C 12.138 8.234 12.009 8.74 11.818 9.22 C 11.775 9.357 11.721 9.491 11.652 9.617 C 11.566 9.774 11.472 9.926 11.366 10.069 C 11.109 10.42 10.809 10.734 10.469 11.006 C 10.104 11.303 9.692 11.546 9.255 11.72 C 9.1 11.782 8.942 11.834 8.782 11.875 L 11.75 0 L 9.396 0 L 6.454 11.766 Z"/>
</svg>
