<svg xmlns="http://www.w3.org/2000/svg" width="16" height="16" version="1.1">
 <defs>
   <style id="current-color-scheme" type="text/css">
   .ColorScheme-Text { color: #1d4195; } .ColorScheme-Highlight { color:#5294e2; }
  </style>
  <linearGradient id="arrongin" x1="0%" x2="0%" y1="0%" y2="100%">
   <stop offset="0%" style="stop-color:#dd9b44; stop-opacity:1"/>
   <stop offset="100%" style="stop-color:#ad6c16; stop-opacity:1"/>
  </linearGradient>
  <linearGradient id="aurora" x1="0%" x2="0%" y1="0%" y2="100%">
   <stop offset="0%" style="stop-color:#09D4DF; stop-opacity:1"/>
   <stop offset="100%" style="stop-color:#9269F4; stop-opacity:1"/>
  </linearGradient>
  <linearGradient id="cyberneon" x1="0%" x2="0%" y1="0%" y2="100%">
    <stop offset="0" style="stop-color:#0abdc6; stop-opacity:1"/>
    <stop offset="1" style="stop-color:#ea00d9; stop-opacity:1"/>
  </linearGradient>
  <linearGradient id="fitdance" x1="0%" x2="0%" y1="0%" y2="100%">
   <stop offset="0%" style="stop-color:#1AD6AB; stop-opacity:1"/>
   <stop offset="100%" style="stop-color:#329DB6; stop-opacity:1"/>
  </linearGradient>
  <linearGradient id="oomox" x1="0%" x2="0%" y1="0%" y2="100%">
   <stop offset="0%" style="stop-color:#efefe7; stop-opacity:1"/>
   <stop offset="100%" style="stop-color:#8f8f8b; stop-opacity:1"/>
  </linearGradient>
  <linearGradient id="rainblue" x1="0%" x2="0%" y1="0%" y2="100%">
   <stop offset="0%" style="stop-color:#00F260; stop-opacity:1"/>
   <stop offset="100%" style="stop-color:#0575E6; stop-opacity:1"/>
  </linearGradient>
  <linearGradient id="sunrise" x1="0%" x2="0%" y1="0%" y2="100%">
   <stop offset="0%" style="stop-color: #FF8501; stop-opacity:1"/>
   <stop offset="100%" style="stop-color: #FFCB01; stop-opacity:1"/>
  </linearGradient>
  <linearGradient id="telinkrin" x1="0%" x2="0%" y1="0%" y2="100%">
   <stop offset="0%" style="stop-color: #b2ced6; stop-opacity:1"/>
   <stop offset="100%" style="stop-color: #6da5b7; stop-opacity:1"/>
  </linearGradient>
  <linearGradient id="60spsycho" x1="0%" x2="0%" y1="0%" y2="100%">
   <stop offset="0%" style="stop-color: #df5940; stop-opacity:1"/>
   <stop offset="25%" style="stop-color: #d8d15f; stop-opacity:1"/>
   <stop offset="50%" style="stop-color: #e9882a; stop-opacity:1"/>
   <stop offset="100%" style="stop-color: #279362; stop-opacity:1"/>
  </linearGradient>
  <linearGradient id="90ssummer" x1="0%" x2="0%" y1="0%" y2="100%">
   <stop offset="0%" style="stop-color: #f618c7; stop-opacity:1"/>
   <stop offset="20%" style="stop-color: #94ffab; stop-opacity:1"/>
   <stop offset="50%" style="stop-color: #fbfd54; stop-opacity:1"/>
   <stop offset="100%" style="stop-color: #0f83ae; stop-opacity:1"/>
  </linearGradient>
 </defs>
 <path fill="currentColor" class="ColorScheme-Text" fill-rule="evenodd" d="M 1.468 11.38 L 0 11.38 L 0 4.62 L 2.993 4.62 L 2.993 4.62 Q 4.2 4.62 4.775 5.248 L 4.775 5.248 L 4.775 5.248 Q 5.349 5.876 5.349 6.793 L 5.349 6.793 L 5.349 6.793 Q 5.349 7.189 5.214 7.561 L 5.214 7.561 L 5.214 7.561 Q 5.079 7.932 4.809 8.251 L 4.809 8.251 L 4.809 8.251 Q 4.538 8.57 4.065 8.763 L 4.065 8.763 L 4.065 8.763 Q 3.592 8.956 2.993 8.956 L 2.993 8.956 L 1.468 8.956 L 1.468 11.38 Z M 1.468 7.575 L 3.051 7.575 L 3.051 7.575 Q 3.438 7.575 3.631 7.343 L 3.631 7.343 L 3.631 7.343 Q 3.824 7.112 3.824 6.793 L 3.824 6.793 L 3.824 6.793 Q 3.824 6.484 3.64 6.247 L 3.64 6.247 L 3.64 6.247 Q 3.457 6.011 3.051 6.011 L 3.051 6.011 L 1.468 6.011 L 1.468 7.575 Z M 7.314 11.254 L 7.314 11.254 L 7.314 11.254 Q 7.059 11.495 6.692 11.495 L 6.692 11.495 L 6.692 11.495 Q 6.325 11.495 6.078 11.254 L 6.078 11.254 L 6.078 11.254 Q 5.832 11.013 5.832 10.655 L 5.832 10.655 L 5.832 10.655 Q 5.832 10.298 6.078 10.047 L 6.078 10.047 L 6.078 10.047 Q 6.325 9.796 6.692 9.796 L 6.692 9.796 L 6.692 9.796 Q 7.059 9.796 7.314 10.047 L 7.314 10.047 L 7.314 10.047 Q 7.57 10.298 7.57 10.655 L 7.57 10.655 L 7.57 10.655 Q 7.57 11.013 7.314 11.254 Z M 10.969 11.495 L 10.969 11.495 L 10.969 11.495 Q 9.984 11.495 9.275 10.969 L 9.275 10.969 L 9.275 10.969 Q 8.565 10.443 8.256 9.516 L 8.256 9.516 L 9.569 9.024 L 9.569 9.024 Q 9.801 9.516 10.177 9.81 L 10.177 9.81 L 10.177 9.81 Q 10.554 10.105 11.008 10.105 L 11.008 10.105 L 11.008 10.105 Q 11.481 10.105 11.751 9.926 L 11.751 9.926 L 11.751 9.926 Q 12.022 9.748 12.022 9.41 L 12.022 9.41 L 12.022 9.41 Q 12.022 9.188 11.824 9.014 L 11.824 9.014 L 11.824 9.014 Q 11.626 8.84 11.409 8.758 L 11.409 8.758 L 11.409 8.758 Q 11.191 8.676 10.737 8.531 L 10.737 8.531 L 10.737 8.531 Q 10.438 8.435 10.288 8.381 L 10.288 8.381 L 10.288 8.381 Q 10.139 8.328 9.859 8.212 L 9.859 8.212 L 9.859 8.212 Q 9.579 8.097 9.434 8 L 9.434 8 L 9.434 8 Q 9.289 7.903 9.086 7.739 L 9.086 7.739 L 9.086 7.739 Q 8.884 7.575 8.782 7.396 L 8.782 7.396 L 8.782 7.396 Q 8.681 7.218 8.604 6.962 L 8.604 6.962 L 8.604 6.962 Q 8.526 6.706 8.526 6.416 L 8.526 6.416 L 8.526 6.416 Q 8.526 5.605 9.164 5.055 L 9.164 5.055 L 9.164 5.055 Q 9.801 4.505 10.892 4.505 L 10.892 4.505 L 10.892 4.505 Q 11.8 4.505 12.418 4.978 L 12.418 4.978 L 12.418 4.978 Q 13.036 5.451 13.238 6.194 L 13.238 6.194 L 11.925 6.619 L 11.925 6.619 Q 11.607 5.895 10.815 5.895 L 10.815 5.895 L 10.815 5.895 Q 9.994 5.895 9.994 6.445 L 9.994 6.445 L 9.994 6.445 Q 9.994 6.571 10.071 6.667 L 10.071 6.667 L 10.071 6.667 Q 10.148 6.764 10.351 6.861 L 10.351 6.861 L 10.351 6.861 Q 10.554 6.957 10.684 7.005 L 10.684 7.005 L 10.684 7.005 Q 10.815 7.054 11.143 7.17 L 11.143 7.17 L 11.143 7.17 Q 11.491 7.285 11.679 7.353 L 11.679 7.353 L 11.679 7.353 Q 11.867 7.421 12.196 7.561 L 12.196 7.561 L 12.196 7.561 Q 12.524 7.701 12.712 7.86 L 12.712 7.86 L 12.712 7.86 Q 12.9 8.019 13.103 8.241 L 13.103 8.241 L 13.103 8.241 Q 13.306 8.463 13.398 8.763 L 13.398 8.763 L 13.398 8.763 Q 13.489 9.062 13.489 9.419 L 13.489 9.419 L 13.489 9.419 Q 13.489 10.375 12.775 10.935 L 12.775 10.935 L 12.775 10.935 Q 12.06 11.495 10.969 11.495 Z M 15.744 11.254 L 15.744 11.254 L 15.744 11.254 Q 15.488 11.495 15.121 11.495 L 15.121 11.495 L 15.121 11.495 Q 14.754 11.495 14.508 11.254 L 14.508 11.254 L 14.508 11.254 Q 14.262 11.013 14.262 10.655 L 14.262 10.655 L 14.262 10.655 Q 14.262 10.298 14.508 10.047 L 14.508 10.047 L 14.508 10.047 Q 14.754 9.796 15.121 9.796 L 15.121 9.796 L 15.121 9.796 Q 15.488 9.796 15.744 10.047 L 15.744 10.047 L 15.744 10.047 Q 16 10.298 16 10.655 L 16 10.655 L 16 10.655 Q 16 11.013 15.744 11.254 Z"/>
</svg>
