<svg xmlns="http://www.w3.org/2000/svg" width="16" height="16" version="1.1">
 <defs>
   <style id="current-color-scheme" type="text/css">
   .ColorScheme-Text { color: #2b68d1; } .ColorScheme-Highlight { color:#5294e2; }
  </style>
  <linearGradient id="arrongin" x1="0%" x2="0%" y1="0%" y2="100%">
   <stop offset="0%" style="stop-color:#dd9b44; stop-opacity:1"/>
   <stop offset="100%" style="stop-color:#ad6c16; stop-opacity:1"/>
  </linearGradient>
  <linearGradient id="aurora" x1="0%" x2="0%" y1="0%" y2="100%">
   <stop offset="0%" style="stop-color:#09D4DF; stop-opacity:1"/>
   <stop offset="100%" style="stop-color:#9269F4; stop-opacity:1"/>
  </linearGradient>
  <linearGradient id="cyberneon" x1="0%" x2="0%" y1="0%" y2="100%">
    <stop offset="0" style="stop-color:#0abdc6; stop-opacity:1"/>
    <stop offset="1" style="stop-color:#ea00d9; stop-opacity:1"/>
  </linearGradient>
  <linearGradient id="fitdance" x1="0%" x2="0%" y1="0%" y2="100%">
   <stop offset="0%" style="stop-color:#1AD6AB; stop-opacity:1"/>
   <stop offset="100%" style="stop-color:#329DB6; stop-opacity:1"/>
  </linearGradient>
  <linearGradient id="oomox" x1="0%" x2="0%" y1="0%" y2="100%">
   <stop offset="0%" style="stop-color:#efefe7; stop-opacity:1"/>
   <stop offset="100%" style="stop-color:#8f8f8b; stop-opacity:1"/>
  </linearGradient>
  <linearGradient id="rainblue" x1="0%" x2="0%" y1="0%" y2="100%">
   <stop offset="0%" style="stop-color:#00F260; stop-opacity:1"/>
   <stop offset="100%" style="stop-color:#0575E6; stop-opacity:1"/>
  </linearGradient>
  <linearGradient id="sunrise" x1="0%" x2="0%" y1="0%" y2="100%">
   <stop offset="0%" style="stop-color: #FF8501; stop-opacity:1"/>
   <stop offset="100%" style="stop-color: #FFCB01; stop-opacity:1"/>
  </linearGradient>
  <linearGradient id="telinkrin" x1="0%" x2="0%" y1="0%" y2="100%">
   <stop offset="0%" style="stop-color: #b2ced6; stop-opacity:1"/>
   <stop offset="100%" style="stop-color: #6da5b7; stop-opacity:1"/>
  </linearGradient>
  <linearGradient id="60spsycho" x1="0%" x2="0%" y1="0%" y2="100%">
   <stop offset="0%" style="stop-color: #df5940; stop-opacity:1"/>
   <stop offset="25%" style="stop-color: #d8d15f; stop-opacity:1"/>
   <stop offset="50%" style="stop-color: #e9882a; stop-opacity:1"/>
   <stop offset="100%" style="stop-color: #279362; stop-opacity:1"/>
  </linearGradient>
  <linearGradient id="90ssummer" x1="0%" x2="0%" y1="0%" y2="100%">
   <stop offset="0%" style="stop-color: #f618c7; stop-opacity:1"/>
   <stop offset="20%" style="stop-color: #94ffab; stop-opacity:1"/>
   <stop offset="50%" style="stop-color: #fbfd54; stop-opacity:1"/>
   <stop offset="100%" style="stop-color: #0f83ae; stop-opacity:1"/>
  </linearGradient>
 </defs>
 <path fill="currentColor" class="ColorScheme-Text" d="M 12.555868,15.8347 C 12.14037,15.689607 11.540793,15.15552 9.2953686,12.930327 7.7821126,11.430705 6.4415951,10.038401 6.3164428,9.8363279 5.9433171,9.2338611 6.087163,8.9653791 7.5652251,7.5055226 9.4844616,5.6099247 9.0724486,5.4847604 12.629846,9.0440758 c 3.075651,3.0773082 3.313113,3.3955822 3.317682,4.4467372 0.003,0.699454 -0.409647,1.591488 -0.906079,1.958516 -0.769009,0.568553 -1.594499,0.696542 -2.485581,0.385371 z m 1.90643,-3.365234 c 0.04788,-0.24699 -4.6844914,-5.0376069 -4.9763524,-5.0376069 -0.102782,0 -0.219795,0.085794 -0.260033,0.1906442 -0.05472,0.1425997 0.552262,0.8160656 2.4083684,2.6721737 1.440506,1.440505 2.545887,2.460095 2.634946,2.430436 0.08439,-0.02809 0.171263,-0.143138 0.193071,-0.255647 z M 3.1410159,4.971104 C 0.43398118,2.2583504 0.00626598,1.7135045 2.1580312e-5,0.96995734 -0.00326762,0.57059704 0.36994578,0.12219384 0.77283348,0.04161494 1.5829001,-0.12039706 1.8224771,0.05739304 4.834929,3.0558491 6.4065405,4.6201693 7.6751257,5.9519736 7.6540061,6.0154179 7.5330359,6.3788294 7.1470078,6.1488059 6.0602555,5.0657547 L 4.9123533,3.9217568 4.4099629,4.4336549 3.9075724,4.9455541 5.0798932,6.1218797 c 0.8188386,0.8216371 1.1514984,1.2305887 1.103262,1.3562885 -0.037985,0.098988 -0.1346949,0.1799629 -0.2149161,0.1799629 -0.080216,0 -1.3524721,-1.2091616 -2.8272232,-2.6870271 z M 3.8476595,2.853411 C 3.6996294,2.6958413 3.5306652,2.5669174 3.4721846,2.5669174 c -0.058478,0 -0.2998676,0.2163783 -0.5364125,0.4808374 L 2.5056878,3.528592 2.8028981,3.8425972 3.1001085,4.1566033 3.6084573,3.6482534 4.1168052,3.1399046 Z M 2.241103,2.1904935 2.7215706,1.7009329 2.1563678,1.1722509 C 1.674757,0.72176064 1.5229911,0.64357284 1.1302141,0.64357284 c -0.54140422,0 -0.64404562,0.1590917 -0.46082032,0.71426866 0.1232905,0.3735761 0.84826882,1.3222167 1.01047442,1.3222167 0.044423,0 0.296977,-0.2203043 0.5612348,-0.4895647 z"/>
</svg>
