<svg xmlns="http://www.w3.org/2000/svg" width="16" height="16" version="1.1">
 <defs>
   <style id="current-color-scheme" type="text/css">
   .ColorScheme-Text { color: #2b68d1; } .ColorScheme-Highlight { color:#5294e2; }
  </style>
  <linearGradient id="arrongin" x1="0%" x2="0%" y1="0%" y2="100%">
   <stop offset="0%" style="stop-color:#dd9b44; stop-opacity:1"/>
   <stop offset="100%" style="stop-color:#ad6c16; stop-opacity:1"/>
  </linearGradient>
  <linearGradient id="aurora" x1="0%" x2="0%" y1="0%" y2="100%">
   <stop offset="0%" style="stop-color:#09D4DF; stop-opacity:1"/>
   <stop offset="100%" style="stop-color:#9269F4; stop-opacity:1"/>
  </linearGradient>
  <linearGradient id="cyberneon" x1="0%" x2="0%" y1="0%" y2="100%">
    <stop offset="0" style="stop-color:#0abdc6; stop-opacity:1"/>
    <stop offset="1" style="stop-color:#ea00d9; stop-opacity:1"/>
  </linearGradient>
  <linearGradient id="fitdance" x1="0%" x2="0%" y1="0%" y2="100%">
   <stop offset="0%" style="stop-color:#1AD6AB; stop-opacity:1"/>
   <stop offset="100%" style="stop-color:#329DB6; stop-opacity:1"/>
  </linearGradient>
  <linearGradient id="oomox" x1="0%" x2="0%" y1="0%" y2="100%">
   <stop offset="0%" style="stop-color:#efefe7; stop-opacity:1"/>
   <stop offset="100%" style="stop-color:#8f8f8b; stop-opacity:1"/>
  </linearGradient>
  <linearGradient id="rainblue" x1="0%" x2="0%" y1="0%" y2="100%">
   <stop offset="0%" style="stop-color:#00F260; stop-opacity:1"/>
   <stop offset="100%" style="stop-color:#0575E6; stop-opacity:1"/>
  </linearGradient>
  <linearGradient id="sunrise" x1="0%" x2="0%" y1="0%" y2="100%">
   <stop offset="0%" style="stop-color: #FF8501; stop-opacity:1"/>
   <stop offset="100%" style="stop-color: #FFCB01; stop-opacity:1"/>
  </linearGradient>
  <linearGradient id="telinkrin" x1="0%" x2="0%" y1="0%" y2="100%">
   <stop offset="0%" style="stop-color: #b2ced6; stop-opacity:1"/>
   <stop offset="100%" style="stop-color: #6da5b7; stop-opacity:1"/>
  </linearGradient>
  <linearGradient id="60spsycho" x1="0%" x2="0%" y1="0%" y2="100%">
   <stop offset="0%" style="stop-color: #df5940; stop-opacity:1"/>
   <stop offset="25%" style="stop-color: #d8d15f; stop-opacity:1"/>
   <stop offset="50%" style="stop-color: #e9882a; stop-opacity:1"/>
   <stop offset="100%" style="stop-color: #279362; stop-opacity:1"/>
  </linearGradient>
  <linearGradient id="90ssummer" x1="0%" x2="0%" y1="0%" y2="100%">
   <stop offset="0%" style="stop-color: #f618c7; stop-opacity:1"/>
   <stop offset="20%" style="stop-color: #94ffab; stop-opacity:1"/>
   <stop offset="50%" style="stop-color: #fbfd54; stop-opacity:1"/>
   <stop offset="100%" style="stop-color: #0f83ae; stop-opacity:1"/>
  </linearGradient>
 </defs>
 <path fill="currentColor" class="ColorScheme-Text" fill-rule="evenodd" d="M 3.15 9.919 C 3.083 9.747 3.04 9.568 3.04 9.407 C 3.04 9.301 3.053 9.22 3.066 9.143 C 3.501 9.254 3.994 9.34 4.511 9.409 L 4.511 9.472 C 4.511 10.28 5.068 11.16 6.095 11.199 C 6.13 11.201 6.166 11.202 6.201 11.202 L 6.201 11.202 C 6.589 11.202 6.947 11.09 7.211 10.887 C 7.439 10.711 7.711 10.377 7.711 9.792 L 7.711 9.63 C 7.808 9.631 7.904 9.631 8 9.631 C 8.117 9.631 8.234 9.63 8.351 9.629 L 8.351 9.629 L 8.351 9.792 C 8.351 10.766 9.11 11.202 9.862 11.202 L 9.862 11.202 L 9.862 11.202 C 9.896 11.202 9.93 11.201 9.964 11.199 C 10.995 11.16 11.551 10.28 11.551 9.472 L 11.551 9.401 C 12.068 9.33 12.56 9.243 12.993 9.129 C 13.01 9.196 13.023 9.272 13.023 9.375 C 13.023 9.546 12.98 9.737 12.912 9.919 L 12.913 9.919 C 12.774 10.294 12.521 10.629 12.254 10.657 L 12.062 10.677 L 11.99 10.856 C 11.081 13.114 9.911 15.425 8.036 15.391 C 6.074 15.361 4.835 12.807 4.073 10.889 L 4.002 10.71 L 3.811 10.689 C 3.576 10.663 3.299 10.309 3.15 9.919 L 3.15 9.919 L 3.15 9.919 L 3.15 9.919 Z M 2.495 9.977 C 2.434 9.776 2.4 9.579 2.4 9.407 C 2.4 9.239 2.421 9.1 2.459 8.993 C 0.974 8.599 0 8.006 0 7.231 C 0 6.422 1.01 5.782 3 5.33 C 3.587 2.919 4.331 0.031 5.984 0.031 C 6.46 0.031 6.812 0.219 7.122 0.384 C 7.411 0.538 7.66 0.671 8 0.671 C 8.34 0.671 8.59 0.538 8.878 0.384 C 9.188 0.219 9.54 0.031 10.016 0.031 C 11.41 0.031 12.126 2.052 12.693 4.159 L 12.704 4.159 C 12.704 4.169 12.701 4.177 12.7 4.187 C 12.792 4.529 12.881 4.873 12.968 5.217 L 12.997 5.329 L 12.997 5.329 C 14.99 5.782 16 6.421 16 7.231 C 16 7.995 15.053 8.583 13.603 8.976 C 13.642 9.078 13.663 9.212 13.663 9.375 C 13.663 9.566 13.626 9.78 13.561 9.995 C 13.561 9.995 13.561 9.995 13.561 9.995 L 13.561 9.995 C 13.56 10 13.558 10.005 13.556 10.01 C 14.186 10.36 15.083 11.015 15.939 12.195 C 15.989 12.264 16.01 12.351 15.996 12.435 L 15.996 12.435 L 15.996 12.435 C 15.981 12.52 15.934 12.595 15.865 12.645 L 13.007 14.657 L 13.657 15.471 C 13.758 15.558 13.793 15.699 13.746 15.824 C 13.699 15.949 13.58 16.031 13.446 16.031 L 2.56 16.031 C 2.437 16.031 2.326 15.96 2.272 15.849 C 2.219 15.738 2.234 15.607 2.311 15.511 L 2.994 14.657 L 0.136 12.644 C 0.066 12.595 0.019 12.52 0.005 12.435 C -0.01 12.351 0.011 12.264 0.061 12.195 C 0.899 11.039 1.865 10.333 2.495 9.977 L 2.495 9.977 L 2.495 9.977 Z M 3.575 5.675 C 3.634 5.435 3.697 5.175 3.765 4.903 C 4.562 5.508 6.328 5.791 8 5.791 C 9.663 5.791 11.417 5.514 12.233 4.924 L 12.349 5.375 L 12.435 5.713 C 12.302 6.105 10.645 6.751 8 6.751 C 5.358 6.751 3.702 6.106 3.566 5.714 L 3.575 5.675 L 3.575 5.675 L 3.575 5.675 Z"/>
</svg>
