<svg xmlns="http://www.w3.org/2000/svg" width="16" height="16" version="1.1">
 <defs>
   <style id="current-color-scheme" type="text/css">
   .ColorScheme-Text { color: #2b68d1; } .ColorScheme-Highlight { color:#5294e2; }
  </style>
  <linearGradient id="arrongin" x1="0%" x2="0%" y1="0%" y2="100%">
   <stop offset="0%" style="stop-color:#dd9b44; stop-opacity:1"/>
   <stop offset="100%" style="stop-color:#ad6c16; stop-opacity:1"/>
  </linearGradient>
  <linearGradient id="aurora" x1="0%" x2="0%" y1="0%" y2="100%">
   <stop offset="0%" style="stop-color:#09D4DF; stop-opacity:1"/>
   <stop offset="100%" style="stop-color:#9269F4; stop-opacity:1"/>
  </linearGradient>
  <linearGradient id="cyberneon" x1="0%" x2="0%" y1="0%" y2="100%">
    <stop offset="0" style="stop-color:#0abdc6; stop-opacity:1"/>
    <stop offset="1" style="stop-color:#ea00d9; stop-opacity:1"/>
  </linearGradient>
  <linearGradient id="fitdance" x1="0%" x2="0%" y1="0%" y2="100%">
   <stop offset="0%" style="stop-color:#1AD6AB; stop-opacity:1"/>
   <stop offset="100%" style="stop-color:#329DB6; stop-opacity:1"/>
  </linearGradient>
  <linearGradient id="oomox" x1="0%" x2="0%" y1="0%" y2="100%">
   <stop offset="0%" style="stop-color:#efefe7; stop-opacity:1"/>
   <stop offset="100%" style="stop-color:#8f8f8b; stop-opacity:1"/>
  </linearGradient>
  <linearGradient id="rainblue" x1="0%" x2="0%" y1="0%" y2="100%">
   <stop offset="0%" style="stop-color:#00F260; stop-opacity:1"/>
   <stop offset="100%" style="stop-color:#0575E6; stop-opacity:1"/>
  </linearGradient>
  <linearGradient id="sunrise" x1="0%" x2="0%" y1="0%" y2="100%">
   <stop offset="0%" style="stop-color: #FF8501; stop-opacity:1"/>
   <stop offset="100%" style="stop-color: #FFCB01; stop-opacity:1"/>
  </linearGradient>
  <linearGradient id="telinkrin" x1="0%" x2="0%" y1="0%" y2="100%">
   <stop offset="0%" style="stop-color: #b2ced6; stop-opacity:1"/>
   <stop offset="100%" style="stop-color: #6da5b7; stop-opacity:1"/>
  </linearGradient>
  <linearGradient id="60spsycho" x1="0%" x2="0%" y1="0%" y2="100%">
   <stop offset="0%" style="stop-color: #df5940; stop-opacity:1"/>
   <stop offset="25%" style="stop-color: #d8d15f; stop-opacity:1"/>
   <stop offset="50%" style="stop-color: #e9882a; stop-opacity:1"/>
   <stop offset="100%" style="stop-color: #279362; stop-opacity:1"/>
  </linearGradient>
  <linearGradient id="90ssummer" x1="0%" x2="0%" y1="0%" y2="100%">
   <stop offset="0%" style="stop-color: #f618c7; stop-opacity:1"/>
   <stop offset="20%" style="stop-color: #94ffab; stop-opacity:1"/>
   <stop offset="50%" style="stop-color: #fbfd54; stop-opacity:1"/>
   <stop offset="100%" style="stop-color: #0f83ae; stop-opacity:1"/>
  </linearGradient>
 </defs>
 <path fill="currentColor" class="ColorScheme-Text" d="M 11.217 0.831 C 10.955 1.035 10.183 2.463 9.411 4.166 C 9.099 4.86 8.656 5.768 8.433 6.185 C 7.769 7.421 6.149 9.67 5.399 10.387 L 4.699 11.063 L 5.221 11.619 C 5.541 11.961 5.964 12.672 6.315 13.467 C 6.98 14.981 7.096 15.2 7.224 15.2 C 7.284 15.2 7.625 15.012 8.005 14.775 C 8.854 14.238 9.647 13.516 10.726 12.287 C 12.411 10.371 13.676 9.965 15.233 10.845 C 15.654 11.084 16 11.234 16 11.178 C 16 11.119 15.786 10.542 15.529 9.893 C 15.271 9.243 14.569 7.409 13.974 5.817 C 13.548 5.118 12.159 0.343 11.217 0.836 M 7.859 4.754 C 7.851 4.754 7.842 4.754 7.832 4.759 C 6.407 5.383 5.892 5.667 5.472 6.063 C 5.195 6.328 4.969 6.609 4.969 6.692 C 4.969 6.947 6.092 7.63 6.277 7.486 C 6.366 7.416 6.717 6.914 7.056 6.368 C 7.655 5.395 7.965 4.769 7.859 4.754 M 3.869 7.51 C 3.626 7.51 0.182 8.811 0.018 8.966 C -0.03 9.011 0.021 9.093 0.131 9.154 C 0.242 9.217 0.872 9.638 1.54 10.09 C 2.206 10.543 2.785 10.911 2.826 10.913 C 2.867 10.913 3.173 10.754 3.499 10.557 C 4.187 10.144 5.513 8.866 5.507 8.622 C 5.502 8.404 4.18 7.508 3.867 7.508"/>
</svg>
