<svg xmlns="http://www.w3.org/2000/svg" width="16" height="16" version="1.1">
 <defs>
   <style id="current-color-scheme" type="text/css">
   .ColorScheme-Text { color: #2b68d1; } .ColorScheme-Highlight { color:#5294e2; }
  </style>
  <linearGradient id="arrongin" x1="0%" x2="0%" y1="0%" y2="100%">
   <stop offset="0%" style="stop-color:#dd9b44; stop-opacity:1"/>
   <stop offset="100%" style="stop-color:#ad6c16; stop-opacity:1"/>
  </linearGradient>
  <linearGradient id="aurora" x1="0%" x2="0%" y1="0%" y2="100%">
   <stop offset="0%" style="stop-color:#09D4DF; stop-opacity:1"/>
   <stop offset="100%" style="stop-color:#9269F4; stop-opacity:1"/>
  </linearGradient>
  <linearGradient id="cyberneon" x1="0%" x2="0%" y1="0%" y2="100%">
    <stop offset="0" style="stop-color:#0abdc6; stop-opacity:1"/>
    <stop offset="1" style="stop-color:#ea00d9; stop-opacity:1"/>
  </linearGradient>
  <linearGradient id="fitdance" x1="0%" x2="0%" y1="0%" y2="100%">
   <stop offset="0%" style="stop-color:#1AD6AB; stop-opacity:1"/>
   <stop offset="100%" style="stop-color:#329DB6; stop-opacity:1"/>
  </linearGradient>
  <linearGradient id="oomox" x1="0%" x2="0%" y1="0%" y2="100%">
   <stop offset="0%" style="stop-color:#efefe7; stop-opacity:1"/>
   <stop offset="100%" style="stop-color:#8f8f8b; stop-opacity:1"/>
  </linearGradient>
  <linearGradient id="rainblue" x1="0%" x2="0%" y1="0%" y2="100%">
   <stop offset="0%" style="stop-color:#00F260; stop-opacity:1"/>
   <stop offset="100%" style="stop-color:#0575E6; stop-opacity:1"/>
  </linearGradient>
  <linearGradient id="sunrise" x1="0%" x2="0%" y1="0%" y2="100%">
   <stop offset="0%" style="stop-color: #FF8501; stop-opacity:1"/>
   <stop offset="100%" style="stop-color: #FFCB01; stop-opacity:1"/>
  </linearGradient>
  <linearGradient id="telinkrin" x1="0%" x2="0%" y1="0%" y2="100%">
   <stop offset="0%" style="stop-color: #b2ced6; stop-opacity:1"/>
   <stop offset="100%" style="stop-color: #6da5b7; stop-opacity:1"/>
  </linearGradient>
  <linearGradient id="60spsycho" x1="0%" x2="0%" y1="0%" y2="100%">
   <stop offset="0%" style="stop-color: #df5940; stop-opacity:1"/>
   <stop offset="25%" style="stop-color: #d8d15f; stop-opacity:1"/>
   <stop offset="50%" style="stop-color: #e9882a; stop-opacity:1"/>
   <stop offset="100%" style="stop-color: #279362; stop-opacity:1"/>
  </linearGradient>
  <linearGradient id="90ssummer" x1="0%" x2="0%" y1="0%" y2="100%">
   <stop offset="0%" style="stop-color: #f618c7; stop-opacity:1"/>
   <stop offset="20%" style="stop-color: #94ffab; stop-opacity:1"/>
   <stop offset="50%" style="stop-color: #fbfd54; stop-opacity:1"/>
   <stop offset="100%" style="stop-color: #0f83ae; stop-opacity:1"/>
  </linearGradient>
 </defs>
 <path fill="currentColor" class="ColorScheme-Text" fill-rule="evenodd" d="M 11.989 5.572 C 11.053 4.88 9.893 4.48 8.64 4.48 L 8.64 4.48 C 8.23 4.48 7.829 4.523 7.45 4.623 L 7.45 4.623 C 6.979 3.908 6.226 3.399 5.348 3.253 C 5.84 1.912 7.129 0.96 8.64 0.96 L 8.64 0.96 C 10.584 0.96 12.16 2.536 12.16 4.48 C 12.16 4.861 12.099 5.228 11.989 5.572 Z M 12.75 6.229 C 13.776 7.255 14.4 8.675 14.4 10.24 C 14.4 13.421 11.821 16 8.64 16 C 5.459 16 2.88 13.421 2.88 10.24 C 2.88 9.83 2.923 9.429 3.023 9.05 C 2.162 8.483 1.6 7.507 1.6 6.4 C 1.6 4.791 2.787 3.46 4.335 3.239 C 4.872 1.368 6.596 0 8.64 0 L 8.64 0 C 11.114 0 13.12 2.006 13.12 4.48 C 13.12 5.103 12.993 5.697 12.75 6.229 Z M 5.294 5.579 C 5.646 5.309 6.039 5.094 6.457 4.928 L 6.457 4.928 C 6.13 4.531 5.662 4.264 5.13 4.187 C 5.124 4.284 5.12 4.382 5.12 4.48 C 5.12 4.864 5.181 5.233 5.294 5.579 Z M 4.532 6.235 C 4.01 6.744 3.603 7.366 3.328 8.057 C 2.85 7.663 2.56 7.065 2.56 6.4 C 2.56 5.385 3.235 4.528 4.167 4.266 C 4.162 4.336 4.16 4.408 4.16 4.48 C 4.16 5.105 4.288 5.701 4.532 6.235 Z M 12.263 7.096 C 12.997 7.936 13.44 9.036 13.44 10.24 C 13.44 12.891 11.291 15.04 8.64 15.04 C 5.989 15.04 3.84 12.891 3.84 10.24 C 3.84 9.978 3.861 9.721 3.913 9.474 L 3.913 9.474 C 4.194 9.556 4.492 9.6 4.8 9.6 C 5.682 9.6 6.481 9.243 7.053 8.659 C 7.542 8.857 8.079 8.96 8.64 8.96 C 10.135 8.96 11.459 8.228 12.263 7.096 Z M 11.555 6.434 C 10.75 5.809 9.738 5.44 8.64 5.44 L 8.64 5.44 C 8.378 5.44 8.121 5.461 7.874 5.513 C 7.956 5.794 8 6.092 8 6.4 C 8 6.926 7.873 7.422 7.647 7.859 C 7.962 7.95 8.295 8 8.64 8 C 9.858 8 10.932 7.381 11.555 6.434 Z M 5.02 7.101 C 4.653 7.517 4.363 8.002 4.165 8.533 L 4.165 8.533 C 4.361 8.607 4.577 8.64 4.8 8.64 C 5.307 8.64 5.774 8.472 6.145 8.185 C 5.701 7.902 5.319 7.533 5.02 7.101 Z M 5.725 6.435 C 6.088 6.154 6.495 5.928 6.933 5.765 C 7.007 5.961 7.04 6.177 7.04 6.4 C 7.04 6.781 6.945 7.14 6.76 7.445 C 6.342 7.191 5.989 6.846 5.725 6.435 Z"/>
</svg>
